acq0069.csv

#Digilent WaveForms Oscilloscope Acquisition
#Device Name: Discovery2
#Serial Number: SN:210321AA28BE
#Date Time: 2023-05-24 14:52:43.539
#Sample rate: 17809.4Hz
#Samples: 8192
#Trigger: Source: Channel 1 Type: Edge Condition: Rising Level: 800 mV Hyst.: Auto HoldOff: 100 ns
#Channel 1: Range: 1 V/div Offset: 0 V Attenuation: 1 X Sample Mode: Average
#Channel 2: Range: 1 V/div Offset: 0 V Attenuation: 1 X Sample Mode: Average

Time (s),Channel 1 (V),Channel 2 (V)
-0.19771928027960525,-0.07307413818991755,-1.3169426110237734
-0.19766313027960525,-0.08416881274766895,-1.3169426110237734
-0.19760698027960524,-0.09156526245283655,-1.3169426110237734
-0.19755083027960524,-0.09896171215800414,-1.3169426110237734
-0.19749468027960526,-0.10635816186317175,-1.3169426110237734
-0.19743853027960526,-0.11375461156833934,-1.3169426110237734
-0.19738238027960525,-0.12115106127350694,-1.3169426110237734
-0.19732623027960525,-0.12854751097867453,-1.3169426110237734
-0.19727008027960524,-0.13224573583125834,-1.3169426110237734
-0.19721393027960524,-0.1359439606838455,-1.3132352600427375
-0.19715778027960526,-0.14334041038900974,-1.3169426110237734
-0.19710163027960526,-0.14703863524159355,-1.3169426110237734
-0.19704548027960525,-0.15073686009417733,-1.3169426110237734
-0.19698933027960525,-0.15443508494676114,-1.3169426110237734
-0.19693318027960524,-0.15443508494676114,-1.3169426110237734
-0.19687703027960526,-0.15813330979934326,-1.3169426110237734
-0.19682088027960526,-0.16183153465192873,-1.3169426110237734
-0.19676473027960525,-0.16183153465192873,-1.3169426110237734
-0.19670858027960525,-0.16552975950451254,-1.3169426110237734
-0.19665243027960524,-0.16552975950451254,-1.3169426110237734
-0.19659628027960524,-0.16552975950451254,-1.3169426110237734
-0.19654013027960526,-0.16922798435709635,-1.3169426110237734
-0.19648398027960526,-0.16922798435709635,-1.3132352600427357
-0.19642783027960525,-0.16922798435709635,-1.3169426110237734
-0.19637168027960525,-0.16552975950451254,-1.3169426110237734
-0.19631553027960524,-0.16922798435709635,-1.3169426110237734
-0.19625938027960524,-0.16922798435709635,-1.3169426110237734
-0.19620323027960526,-0.16922798435709635,-1.3169426110237734
-0.19614708027960526,-0.16922798435709635,-1.3169426110237734
-0.19609093027960525,-0.16922798435709635,-1.3169426110237734
-0.19603478027960525,-0.16922798435709635,-1.3169426110237734
-0.19597863027960524,-0.16922798435709635,-1.3169426110237734
-0.19592248027960524,-0.16922798435709635,-1.3169426110237734
-0.19586633027960526,-0.16922798435709635,-1.3169426110237734
-0.19581018027960526,-0.16922798435709635,-1.3169426110237734
-0.19575403027960525,-0.16922798435709635,-1.3169426110237734
-0.19569788027960525,-0.16922798435709635,-1.3169426110237734
-0.19564173027960524,-0.16922798435709635,-1.3169426110237734
-0.19558558027960526,-0.16552975950451423,-1.3169426110237734
-0.19552943027960526,-0.16552975950451254,-1.3169426110237734
-0.19547328027960525,-0.16922798435709635,-1.3169426110237734
-0.19541713027960525,-0.16552975950451254,-1.3169426110237734
-0.19536098027960525,-0.16552975950451254,-1.3169426110237734
-0.19530483027960524,-0.16552975950451254,-1.3169426110237734
-0.19524868027960526,-0.16552975950451254,-1.3169426110237734
-0.19519253027960526,-0.16552975950451254,-1.3169426110237734
-0.19513638027960525,-0.16183153465192873,-1.3169426110237734
-0.19508023027960525,-0.16183153465192873,-1.3169426110237734
-0.19502408027960524,-0.16183153465192873,-1.3169426110237734
-0.19496793027960524,-0.15813330979934495,-1.3169426110237734
-0.19491178027960526,-0.15813330979934495,-1.3169426110237734
-0.19485563027960526,-0.15443508494676114,-1.3169426110237734
-0.19479948027960525,-0.15813330979934495,-1.3169426110237734
-0.19474333027960525,-0.15813330979934495,-1.3169426110237734
-0.19468718027960524,-0.15443508494676114,-1.3169426110237734
-0.19463103027960524,-0.15443508494676114,-1.3169426110237734
-0.19457488027960526,-0.15443508494676114,-1.3169426110237734
-0.19451873027960526,-0.15073686009417733,-1.3169426110237734
-0.19446258027960525,-0.15073686009417733,-1.3169426110237734
-0.19440643027960525,-0.15073686009417733,-1.3169426110237734
-0.19435028027960524,-0.15073686009417733,-1.3169426110237734
-0.19429413027960526,-0.14703863524159524,-1.3169426110237734
-0.19423798027960526,-0.14703863524159355,-1.3169426110237734
-0.19418183027960526,-0.14334041038900974,-1.3169426110237734
-0.19412568027960525,-0.14334041038900974,-1.3169426110237734
-0.19406953027960525,-0.13964218553642593,-1.3169426110237734
-0.19401338027960524,-0.13964218553642593,-1.3169426110237734
-0.19395723027960526,-0.13594396068384215,-1.3169426110237734
-0.19390108027960526,-0.13594396068384215,-1.3169426110237734
-0.19384493027960525,-0.13594396068384215,-1.3169426110237734
-0.19378878027960525,-0.13594396068384215,-1.3169426110237734
-0.19373263027960524,-0.13224573583125834,-1.3169426110237734
-0.19367648027960524,-0.13224573583125834,-1.3169426110237734
-0.19362033027960526,-0.13224573583125834,-1.3169426110237734
-0.19356418027960526,-0.13224573583125834,-1.3169426110237734
-0.19350803027960525,-0.12854751097867453,-1.3169426110237734
-0.19345188027960525,-0.12854751097867453,-1.3169426110237734
-0.19339573027960524,-0.12484928612609074,-1.3169426110237734
-0.19333958027960524,-0.12484928612609074,-1.3169426110237734
-0.19328343027960526,-0.12115106127350694,-1.3169426110237734
-0.19322728027960526,-0.12115106127350694,-1.3169426110237734
-0.19317113027960525,-0.11745283642092315,-1.3169426110237734
-0.19311498027960525,-0.11375461156833934,-1.3169426110237734
-0.19305883027960524,-0.11745283642092315,-1.3169426110237734
-0.19300268027960524,-0.11375461156833934,-1.3169426110237734
-0.19294653027960526,-0.11375461156833934,-1.3169426110237734
-0.19289038027960526,-0.11375461156833934,-1.3169426110237734
-0.19283423027960525,-0.11005638671575554,-1.3169426110237734
-0.19277808027960525,-0.11005638671575554,-1.3169426110237734
-0.19272193027960524,-0.11005638671575554,-1.3169426110237734
-0.19266578027960526,-0.11005638671575554,-1.3169426110237734
-0.19260963027960526,-0.10635816186317175,-1.3169426110237734
-0.19255348027960525,-0.10635816186317175,-1.3169426110237734
-0.19249733027960525,-0.10635816186317175,-1.3169426110237734
-0.19244118027960525,-0.10635816186317175,-1.3169426110237734
-0.19238503027960524,-0.10265993701058794,-1.3169426110237734
-0.19232888027960526,-0.10265993701058794,-1.3169426110237734
-0.19227273027960526,-0.10265993701058794,-1.3169426110237734
-0.19221658027960525,-0.09896171215800414,-1.3169426110237734
-0.19216043027960525,-0.09896171215800414,-1.3169426110237734
-0.19210428027960524,-0.09896171215800414,-1.3169426110237734
-0.19204813027960524,-0.09896171215800414,-1.3169426110237734
-0.19199198027960526,-0.09896171215800414,-1.3169426110237734
-0.19193583027960526,-0.09896171215800414,-1.3169426110237734
-0.19187968027960525,-0.09526348730542035,-1.3169426110237734
-0.19182353027960525,-0.09526348730542035,-1.3169426110237734
-0.19176738027960524,-0.09526348730542035,-1.3169426110237734
-0.19171123027960524,-0.09526348730542035,-1.3169426110237734
-0.19165508027960526,-0.09526348730542035,-1.3169426110237734
-0.19159893027960526,-0.09156526245283655,-1.3169426110237734
-0.19154278027960525,-0.09156526245283655,-1.3169426110237734
-0.19148663027960525,-0.09156526245283655,-1.3169426110237734
-0.19143048027960524,-0.09156526245283655,-1.3169426110237734
-0.19137433027960526,-0.09156526245283655,-1.3169426110237734
-0.19131818027960526,-0.09156526245283655,-1.3169426110237734
-0.19126203027960526,-0.08786703760025275,-1.3169426110237734
-0.19120588027960525,-0.09156526245283655,-1.3169426110237734
-0.19114973027960525,-0.08786703760025275,-1.3169426110237734
-0.19109358027960524,-0.08786703760025275,-1.3169426110237734
-0.19103743027960526,-0.08786703760025275,-1.3169426110237734
-0.19098128027960526,-0.08786703760025275,-1.3169426110237734
-0.19092513027960525,-0.08416881274766895,-1.3169426110237734
-0.19086898027960525,-0.08416881274766895,-1.3169426110237734
-0.19081283027960524,-0.08416881274766895,-1.3169426110237734
-0.19075668027960524,-0.08416881274766895,-1.3169426110237734
-0.19070053027960526,-0.08416881274766895,-1.3169426110237734
-0.19064438027960526,-0.08047058789508515,-1.3169426110237734
-0.19058823027960525,-0.08047058789508515,-1.3169426110237734
-0.19053208027960525,-0.08047058789508515,-1.3169426110237734
-0.19047593027960524,-0.08047058789508515,-1.3169426110237734
-0.19041978027960524,-0.08047058789508348,-1.3169426110237734
-0.19036363027960526,-0.07677236304250135,-1.3169426110237734
-0.19030748027960526,-0.07677236304250135,-1.3169426110237734
-0.19025133027960525,-0.07677236304250135,-1.3169426110237734
-0.19019518027960525,-0.07677236304250135,-1.3169426110237734
-0.19013903027960524,-0.07677236304250135,-1.3169426110237734
-0.19008288027960527,-0.07677236304250135,-1.3169426110237734
-0.19002673027960526,-0.07677236304250135,-1.3169426110237734
-0.18997058027960526,-0.07677236304250135,-1.3169426110237734
-0.18991443027960525,-0.07677236304250135,-1.3169426110237734
-0.18985828027960525,-0.07677236304250135,-1.3169426110237734
-0.18980213027960524,-0.07677236304250135,-1.3169426110237734
-0.18974598027960526,-0.07307413818991755,-1.3169426110237734
-0.18968983027960526,-0.07307413818991755,-1.3169426110237734
-0.18963368027960525,-0.07307413818991755,-1.3169426110237734
-0.18957753027960525,-0.07307413818991755,-1.3169426110237734
-0.18952138027960524,-0.07307413818991755,-1.3169426110237734
-0.18946523027960524,-0.07307413818991755,-1.3169426110237734
-0.18940908027960526,-0.07307413818991755,-1.3169426110237734
-0.18935293027960526,-0.07307413818991755,-1.3169426110237734
-0.18929678027960525,-0.07307413818991755,-1.3169426110237734
-0.18924063027960525,-0.07307413818991755,-1.3169426110237734
-0.18918448027960524,-0.07307413818991755,-1.3169426110237734
-0.18912833027960524,-0.07307413818991755,-1.3169426110237734
-0.18907218027960526,-0.07307413818991755,-1.3169426110237734
-0.18901603027960526,-0.07307413818991755,-1.3169426110237734
-0.18895988027960525,-0.07307413818991755,-1.3169426110237734
-0.18890373027960525,-0.07307413818991755,-1.3169426110237734
-0.18884758027960524,-0.07307413818991755,-1.3169426110237734
-0.18879143027960524,-0.07307413818991755,-1.3169426110237734
-0.18873528027960526,-0.07307413818991755,-1.3169426110237734
-0.18867913027960526,-0.07307413818991755,-1.320649962004811
-0.18862298027960525,-0.07307413818991755,-1.3169426110237734
-0.18856683027960525,-0.07307413818991755,-1.3169426110237734
-0.18851068027960524,-0.07307413818991755,-1.3169426110237734
-0.18845453027960526,-0.07307413818991755,-1.3169426110237734
-0.18839838027960526,-0.07307413818991755,-1.320649962004811
-0.18834223027960525,-0.07307413818991755,-1.3169426110237734
-0.18828608027960525,-0.07307413818991755,-1.320649962004811
-0.18822993027960525,-0.07677236304250135,-1.3169426110237734
-0.18817378027960524,-0.07307413818991755,-1.3169426110237734
-0.18811763027960526,-0.07677236304250135,-1.3169426110237734
-0.18806148027960526,-0.07677236304250135,-1.3169426110237734
-0.18800533027960525,-0.07677236304250135,-1.3169426110237734
-0.18794918027960525,-0.07677236304250135,-1.3169426110237734
-0.18789303027960524,-0.07677236304250135,-1.3169426110237734
-0.18783688027960524,-0.07677236304250135,-1.3169426110237734
-0.18778073027960526,-0.07677236304250135,-1.3169426110237734
-0.18772458027960526,-0.07677236304250135,-1.3169426110237734
-0.18766843027960525,-0.07677236304250135,-1.3169426110237734
-0.18761228027960525,-0.07677236304250135,-1.3169426110237734
-0.18755613027960524,-0.07677236304250135,-1.3169426110237734
-0.18749998027960524,-0.07307413818991755,-1.3169426110237734
-0.18744383027960526,-0.07307413818991755,-1.3169426110237734
-0.18738768027960526,-0.07677236304250135,-1.320649962004811
-0.18733153027960525,-0.07677236304250135,-1.3169426110237734
-0.18727538027960525,-0.07677236304250135,-1.3169426110237734
-0.18721923027960524,-0.07677236304250135,-1.3169426110237734
-0.18716308027960527,-0.07677236304250135,-1.3169426110237734
-0.18710693027960526,-0.07307413818991755,-1.3169426110237734
-0.18705078027960526,-0.07307413818991755,-1.3169426110237734
-0.18699463027960525,-0.07307413818991755,-1.3169426110237734
-0.18693848027960525,-0.07307413818991755,-1.3169426110237734
-0.18688233027960524,-0.07307413818991755,-1.3169426110237734
-0.18682618027960526,-0.07307413818991755,-1.3169426110237734
-0.18677003027960526,-0.07307413818991755,-1.320649962004811
-0.18671388027960525,-0.07307413818991755,-1.320649962004811
-0.18665773027960525,-0.07307413818991755,-1.320649962004811
-0.18660158027960524,-0.07677236304250135,-1.320649962004811
-0.18654543027960524,-0.07677236304250135,-1.3169426110237734
-0.18648928027960526,-0.07677236304250135,-1.3169426110237734
-0.18643313027960526,-0.07677236304250135,-1.3169426110237734
-0.18637698027960525,-0.07307413818991755,-1.320649962004811
-0.18632083027960525,-0.07677236304250135,-1.3169426110237734
-0.18626468027960524,-0.07677236304250135,-1.3169426110237734
-0.18620853027960524,-0.07677236304249967,-1.3169426110237734
-0.18615238027960526,-0.07307413818991755,-1.3169426110237734
-0.18609623027960526,-0.07677236304250135,-1.3169426110237734
-0.18604008027960525,-0.07307413818991755,-1.320649962004811
-0.18598393027960525,-0.07307413818991755,-1.3169426110237734
-0.18592778027960524,-0.07307413818991755,-1.3169426110237734
-0.18587163027960527,-0.07307413818991755,-1.3169426110237734
-0.18581548027960526,-0.07307413818991755,-1.3169426110237734
-0.18575933027960526,-0.07307413818991755,-1.3169426110237734
-0.18570318027960525,-0.07307413818991755,-1.3169426110237734
-0.18564703027960525,-0.07307413818991755,-1.3169426110237734
-0.18559088027960524,-0.07307413818991755,-1.3169426110237734
-0.18553473027960526,-0.07677236304250135,-1.3169426110237734
-0.18547858027960526,-0.07677236304250135,-1.3169426110237734
-0.18542243027960525,-0.07677236304250135,-1.3169426110237734
-0.18536628027960525,-0.07307413818991755,-1.3169426110237734
-0.18531013027960525,-0.07677236304250135,-1.3169426110237734
-0.18525398027960524,-0.07307413818991755,-1.3169426110237734
-0.18519783027960526,-0.07677236304250135,-1.320649962004811
-0.18514168027960526,-0.07677236304250135,-1.320649962004811
-0.18508553027960525,-0.07677236304250135,-1.3169426110237734
-0.18502938027960525,-0.07677236304250135,-1.3169426110237734
-0.18497323027960524,-0.07677236304250135,-1.320649962004811
-0.18491708027960524,-0.07677236304250135,-1.3169426110237734
-0.18486093027960526,-0.07677236304250135,-1.320649962004811
-0.18480478027960526,-0.07677236304250135,-1.3169426110237734
-0.18474863027960525,-0.07677236304250135,-1.320649962004811
-0.18469248027960525,-0.08047058789508515,-1.3169426110237734
-0.18463633027960524,-0.08047058789508515,-1.3169426110237734
-0.18458018027960524,-0.07677236304250135,-1.3169426110237734
-0.18452403027960526,-0.07677236304250135,-1.3169426110237734
-0.18446788027960526,-0.07677236304250135,-1.3169426110237734
-0.18441173027960525,-0.07307413818991755,-1.3169426110237734
-0.18435558027960525,-0.07307413818991755,-1.3169426110237734
-0.18429943027960524,-0.07307413818991755,-1.3169426110237734
-0.18424328027960526,-0.07677236304249967,-1.3169426110237734
-0.18418713027960526,-0.07677236304250135,-1.320649962004811
-0.18413098027960526,-0.07677236304250135,-1.3169426110237734
-0.18407483027960525,-0.07677236304250135,-1.320649962004811
-0.18401868027960525,-0.07307413818991755,-1.320649962004811
-0.18396253027960524,-0.07307413818991755,-1.320649962004811
-0.18390638027960526,-0.07307413818991755,-1.320649962004811
-0.18385023027960526,-0.07677236304250135,-1.320649962004811
-0.18379408027960525,-0.07307413818991755,-1.3169426110237734
-0.18373793027960525,-0.07307413818991755,-1.3169426110237734
-0.18368178027960524,-0.07307413818991755,-1.320649962004811
-0.18362563027960524,-0.07307413818991755,-1.320649962004811
-0.18356948027960526,-0.07307413818991755,-1.320649962004811
-0.18351333027960526,-0.07307413818991755,-1.320649962004811
-0.18345718027960525,-0.07307413818991755,-1.320649962004811
-0.18340103027960525,-0.07307413818991755,-1.3169426110237734
-0.18334488027960524,-0.06937591333733376,-1.3169426110237734
-0.18328873027960524,-0.06937591333733376,-1.3169426110237752
-0.18323258027960526,-0.06937591333733376,-1.320649962004811
-0.18317643027960526,-0.06937591333733376,-1.3169426110237734
-0.18312028027960525,-0.06937591333733376,-1.3169426110237734
-0.18306413027960525,-0.06937591333733376,-1.320649962004811
-0.18300798027960524,-0.06937591333733376,-1.320649962004811
-0.18295183027960527,-0.06937591333733376,-1.320649962004811
-0.18289568027960526,-0.06937591333733376,-1.320649962004811
-0.18283953027960526,-0.06937591333733376,-1.320649962004811
-0.18278338027960525,-0.06567768848474995,-1.3169426110237734
-0.18272723027960525,-0.06567768848474995,-1.320649962004811
-0.18267108027960524,-0.06567768848474995,-1.320649962004811
-0.18261493027960526,-0.06567768848474995,-1.320649962004811
-0.18255878027960526,-0.06937591333733376,-1.320649962004811
-0.18250263027960525,-0.06937591333733376,-1.320649962004811
-0.18244648027960525,-0.06937591333733376,-1.3169426110237734
-0.18239033027960525,-0.06937591333733376,-1.3169426110237734
-0.18233418027960524,-0.06567768848474995,-1.3169426110237734
-0.18227803027960526,-0.06937591333733376,-1.320649962004811
-0.18222188027960526,-0.06567768848474995,-1.320649962004811
-0.18216573027960525,-0.06937591333733376,-1.320649962004811
-0.18210958027960525,-0.06937591333733376,-1.3169426110237734
-0.18205343027960524,-0.06937591333733376,-1.3169426110237734
-0.18199728027960524,-0.06567768848474995,-1.3169426110237752
-0.18194113027960526,-0.06567768848474995,-1.320649962004811
-0.18188498027960526,-0.06197946363216615,-1.320649962004811
-0.18182883027960525,-0.06567768848474995,-1.3169426110237734
-0.18177268027960525,-0.06197946363216615,-1.3169426110237734
-0.18171653027960524,-0.06197946363216615,-1.3169426110237734
-0.18166038027960527,-0.06197946363216615,-1.3206499620048093
-0.18160423027960526,-0.06197946363216615,-1.3169426110237734
-0.18154808027960526,-0.06197946363216615,-1.3169426110237734
-0.18149193027960525,-0.06197946363216615,-1.3169426110237734
-0.18143578027960525,-0.06197946363216615,-1.320649962004811
-0.18137963027960524,-0.05828123877958235,-1.320649962004811
-0.18132348027960526,-0.05828123877958235,-1.320649962004811
-0.18126733027960526,-0.05828123877958235,-1.320649962004811
-0.18121118027960526,-0.05828123877958235,-1.3169426110237734
-0.18115503027960525,-0.054583013926998554,-1.320649962004811
-0.18109888027960525,-0.054583013926998554,-1.320649962004811
-0.18104273027960524,-0.05088478907441475,-1.320649962004811
-0.18098658027960526,-0.05088478907441475,-1.320649962004811
-0.18093043027960526,-0.05088478907441475,-1.320649962004811
-0.18087428027960525,-0.05088478907441475,-1.320649962004811
-0.18081813027960525,-0.05088478907441475,-1.320649962004811
-0.18076198027960524,-0.05088478907441475,-1.3169426110237734
-0.18070583027960524,-0.05088478907441475,-1.320649962004811
-0.18064968027960526,-0.04718656422183096,-1.320649962004811
-0.18059353027960526,-0.04718656422183096,-1.3169426110237734
-0.18053738027960525,-0.04718656422183096,-1.320649962004811
-0.18048123027960525,-0.043488339369247155,-1.3169426110237734
-0.18042508027960524,-0.04718656422183096,-1.320649962004811
-0.18036893027960524,-0.04718656422182928,-1.3169426110237752
-0.18031278027960526,-0.043488339369247155,-1.320649962004811
-0.18025663027960526,-0.043488339369247155,-1.320649962004811
-0.18020048027960525,-0.043488339369247155,-1.320649962004811
-0.18014433027960525,-0.03979011451666335,-1.320649962004811
-0.18008818027960524,-0.03979011451666335,-1.320649962004811
