acq0050.csv

#Digilent WaveForms Oscilloscope Acquisition
#Device Name: Discovery2
#Serial Number: SN:210321AA28BE
#Date Time: 2023-05-24 14:52:34.037
#Sample rate: 17809.4Hz
#Samples: 8192
#Trigger: Source: Channel 1 Type: Edge Condition: Rising Level: 800 mV Hyst.: Auto HoldOff: 100 ns
#Channel 1: Range: 1 V/div Offset: 0 V Attenuation: 1 X Sample Mode: Average
#Channel 2: Range: 1 V/div Offset: 0 V Attenuation: 1 X Sample Mode: Average

Time (s),Channel 1 (V),Channel 2 (V)
-0.19771100176779194,-0.08416881274766895,-1.3169426110237734
-0.19765485176779196,-0.0915652624528332,-1.3169426110237734
-0.19759870176779193,-0.10265993701058794,-1.3169426110237734
-0.19754255176779195,-0.1137546115683343,-1.3169426110237734
-0.19748640176779197,-0.12115106127350359,-1.3169426110237734
-0.19743025176779194,-0.12854751097867453,-1.3169426110237734
-0.19737410176779197,-0.1359439606838388,-1.3169426110237734
-0.19731795176779193,-0.13964218553642593,-1.3132352600427357
-0.19726180176779196,-0.1470386352415902,-1.3132352600427357
-0.19720565176779192,-0.15073686009417903,-1.3132352600427375
-0.19714950176779195,-0.15443508494676114,-1.3169426110237734
-0.19709335176779197,-0.15813330979934326,-1.3132352600427375
-0.19703720176779194,-0.16183153465192873,-1.3169426110237734
-0.19698105176779196,-0.16552975950451085,-1.3169426110237734
-0.19692490176779193,-0.16922798435709635,-1.3132352600427357
-0.19686875176779195,-0.17292620920967844,-1.3132352600427357
-0.19681260176779197,-0.17662443406226225,-1.3132352600427357
-0.19675645176779194,-0.17662443406226394,-1.3169426110237734
-0.19670030176779196,-0.18032265891484606,-1.3132352600427375
-0.19664415176779193,-0.18402088376743153,-1.3169426110237734
-0.19658800176779195,-0.18402088376743153,-1.3132352600427375
-0.19653185176779198,-0.18402088376743153,-1.3132352600427357
-0.19647570176779194,-0.18402088376743153,-1.3132352600427357
-0.19641955176779197,-0.18771910862001365,-1.3169426110237716
-0.19636340176779193,-0.18771910862001534,-1.3169426110237734
-0.19630725176779196,-0.18771910862001534,-1.3169426110237734
-0.19625110176779192,-0.19141733347259912,-1.3169426110237734
-0.19619495176779195,-0.19141733347259912,-1.3169426110237734
-0.19613880176779197,-0.19141733347259912,-1.3132352600427375
-0.19608265176779194,-0.19141733347259912,-1.3169426110237734
-0.19602650176779196,-0.19141733347259912,-1.3169426110237734
-0.19597035176779193,-0.19511555832518293,-1.3132352600427357
-0.19591420176779195,-0.19511555832518293,-1.3132352600427357
-0.19585805176779197,-0.19511555832518293,-1.3132352600427357
-0.19580190176779194,-0.19511555832518293,-1.3169426110237734
-0.19574575176779196,-0.19511555832518293,-1.3169426110237734
-0.19568960176779193,-0.19511555832518293,-1.3132352600427357
-0.19563345176779195,-0.19141733347260081,-1.3169426110237716
-0.19557730176779198,-0.19511555832517957,-1.313235260042739
-0.19552115176779195,-0.19511555832518293,-1.3132352600427357
-0.19546500176779197,-0.19511555832518293,-1.3132352600427357
-0.19540885176779194,-0.19141733347259912,-1.3169426110237734
-0.19535270176779196,-0.19141733347259912,-1.3132352600427375
-0.19529655176779193,-0.19141733347259912,-1.3132352600427357
-0.19524040176779195,-0.19141733347259912,-1.3169426110237734
-0.19518425176779197,-0.19141733347259912,-1.3132352600427375
-0.19512810176779194,-0.19141733347259912,-1.3169426110237734
-0.19507195176779196,-0.18771910862001703,-1.3169426110237734
-0.19501580176779193,-0.18771910862001534,-1.3169426110237734
-0.19495965176779195,-0.18771910862001534,-1.3169426110237734
-0.19490350176779198,-0.18771910862001534,-1.313235260042739
-0.19484735176779194,-0.18402088376743153,-1.3132352600427357
-0.19479120176779197,-0.18402088376743153,-1.3132352600427357
-0.19473505176779193,-0.18402088376743153,-1.3169426110237734
-0.19467890176779196,-0.18032265891484944,-1.3169426110237734
-0.19462275176779192,-0.18032265891484775,-1.3132352600427375
-0.19456660176779195,-0.18032265891484775,-1.3169426110237734
-0.19451045176779197,-0.17662443406226563,-1.3132352600427375
-0.19445430176779194,-0.17292620920968013,-1.3132352600427357
-0.19439815176779196,-0.17292620920968013,-1.3132352600427357
-0.19434200176779193,-0.17292620920968013,-1.3132352600427357
-0.19428585176779195,-0.17292620920968013,-1.3132352600427357
-0.19422970176779197,-0.16922798435709804,-1.3132352600427357
-0.19417355176779194,-0.16922798435709635,-1.3169426110237734
-0.19411740176779196,-0.16922798435709635,-1.3132352600427375
-0.19406125176779193,-0.16922798435709635,-1.3132352600427357
-0.19400510176779195,-0.16552975950451423,-1.3169426110237716
-0.19394895176779198,-0.16552975950451254,-1.3169426110237734
-0.19389280176779194,-0.16183153465192873,-1.3169426110237734
-0.19383665176779197,-0.16183153465192873,-1.3132352600427375
-0.19378050176779194,-0.16183153465192873,-1.3169426110237734
-0.19372435176779196,-0.16183153465192873,-1.3169426110237734
-0.19366820176779193,-0.15813330979934495,-1.3169426110237734
-0.19361205176779195,-0.15813330979934495,-1.3169426110237734
-0.19355590176779197,-0.15813330979934495,-1.3169426110237734
-0.19349975176779194,-0.15443508494676114,-1.3169426110237734
-0.19344360176779196,-0.15443508494676114,-1.3169426110237734
-0.19338745176779193,-0.15073686009417733,-1.3169426110237734
-0.19333130176779195,-0.14703863524159524,-1.3169426110237734
-0.19327515176779198,-0.14703863524159355,-1.3169426110237734
-0.19321900176779194,-0.14334041038900974,-1.3169426110237734
-0.19316285176779197,-0.14334041038900974,-1.3169426110237734
-0.19310670176779193,-0.14334041038900974,-1.3169426110237734
-0.19305055176779196,-0.14334041038900974,-1.3169426110237734
-0.19299440176779192,-0.14334041038900805,-1.3169426110237734
-0.19293825176779195,-0.13964218553642593,-1.3169426110237734
-0.19288210176779197,-0.13964218553642593,-1.3169426110237734
-0.19282595176779194,-0.13594396068384215,-1.3169426110237734
-0.19276980176779196,-0.13594396068384215,-1.3169426110237734
-0.19271365176779193,-0.13224573583125834,-1.3132352600427357
-0.19265750176779195,-0.13224573583125834,-1.3169426110237716
-0.19260135176779197,-0.13224573583125834,-1.3169426110237734
-0.19254520176779194,-0.13224573583125834,-1.3169426110237734
-0.19248905176779196,-0.13224573583125834,-1.3169426110237734
-0.19243290176779193,-0.13224573583125834,-1.3169426110237734
-0.19237675176779195,-0.12854751097867623,-1.3169426110237734
-0.19232060176779198,-0.12854751097867453,-1.3169426110237734
-0.19226445176779194,-0.12484928612609074,-1.3169426110237734
-0.19220830176779197,-0.12484928612609074,-1.3169426110237734
-0.19215215176779193,-0.12115106127350694,-1.3169426110237734
-0.19209600176779196,-0.12115106127350694,-1.3169426110237734
-0.19203985176779192,-0.12115106127350694,-1.3169426110237734
-0.19198370176779195,-0.11745283642092315,-1.3169426110237734
-0.19192755176779197,-0.11745283642092315,-1.3169426110237734
-0.19187140176779194,-0.11745283642092315,-1.3169426110237734
-0.19181525176779196,-0.11745283642092315,-1.3169426110237734
-0.19175910176779193,-0.11375461156833934,-1.3169426110237734
-0.19170295176779195,-0.11375461156833934,-1.3169426110237734
-0.19164680176779197,-0.11375461156833934,-1.3169426110237734
-0.19159065176779194,-0.11375461156833934,-1.3169426110237734
-0.19153450176779196,-0.11375461156833934,-1.3169426110237734
-0.19147835176779193,-0.11005638671575554,-1.3169426110237734
-0.19142220176779196,-0.11005638671575554,-1.3169426110237734
-0.19136605176779198,-0.11005638671575554,-1.3169426110237734
-0.19130990176779195,-0.10635816186317175,-1.3169426110237734
-0.19125375176779197,-0.10635816186317175,-1.3169426110237734
-0.19119760176779194,-0.10635816186317175,-1.3169426110237734
-0.19114145176779196,-0.10265993701058962,-1.3169426110237734
-0.19108530176779193,-0.09896171215800414,-1.3169426110237734
-0.19102915176779195,-0.09896171215800414,-1.3169426110237734
-0.19097300176779197,-0.09896171215800414,-1.3169426110237734
-0.19091685176779194,-0.09526348730542035,-1.3169426110237734
-0.19086070176779196,-0.09526348730542035,-1.3169426110237734
-0.19080455176779193,-0.09526348730542035,-1.3169426110237734
-0.19074840176779195,-0.09156526245283823,-1.3169426110237734
-0.19069225176779198,-0.09156526245283655,-1.313235260042739
-0.19063610176779194,-0.08786703760025275,-1.3169426110237734
-0.19057995176779197,-0.08786703760025275,-1.3169426110237734
-0.19052380176779193,-0.08786703760025275,-1.3169426110237734
-0.19046765176779196,-0.08416881274767063,-1.3169426110237734
-0.19041150176779192,-0.08416881274766895,-1.3169426110237734
-0.19035535176779195,-0.08416881274766895,-1.3169426110237734
-0.19029920176779197,-0.08416881274766895,-1.3169426110237734
-0.19024305176779194,-0.08047058789508515,-1.3169426110237734
-0.19018690176779196,-0.08047058789508515,-1.3169426110237734
-0.19013075176779193,-0.07677236304250135,-1.3169426110237734
-0.19007460176779195,-0.07677236304250135,-1.3169426110237734
-0.19001845176779197,-0.07677236304250135,-1.3169426110237734
-0.18996230176779194,-0.07307413818991755,-1.3169426110237734
-0.18990615176779196,-0.07307413818991755,-1.3169426110237734
-0.18985000176779193,-0.07307413818991755,-1.3169426110237734
-0.18979385176779195,-0.07307413818991755,-1.3169426110237734
-0.18973770176779198,-0.07307413818991755,-1.3169426110237734
-0.18968155176779194,-0.07307413818991755,-1.3169426110237734
-0.18962540176779197,-0.06937591333733543,-1.3169426110237734
-0.18956925176779194,-0.06937591333733376,-1.3169426110237734
-0.18951310176779196,-0.06567768848475163,-1.3169426110237734
-0.18945695176779193,-0.06567768848474995,-1.3169426110237734
-0.18940080176779195,-0.06567768848474995,-1.3169426110237734
-0.18934465176779197,-0.06567768848474995,-1.3169426110237734
-0.18928850176779194,-0.06567768848474995,-1.3169426110237734
-0.18923235176779196,-0.06567768848474995,-1.3169426110237734
-0.18917620176779193,-0.06567768848474995,-1.3169426110237734
-0.18912005176779195,-0.06567768848474995,-1.3169426110237734
-0.18906390176779198,-0.06197946363216783,-1.3169426110237734
-0.18900775176779194,-0.06197946363216615,-1.3169426110237734
-0.18895160176779197,-0.06197946363216615,-1.3169426110237734
-0.18889545176779193,-0.06197946363216615,-1.3169426110237734
-0.18883930176779196,-0.06197946363216615,-1.3169426110237734
-0.18878315176779192,-0.06197946363216615,-1.3169426110237734
-0.18872700176779195,-0.06197946363216615,-1.3169426110237734
-0.18867085176779197,-0.05828123877958403,-1.3169426110237734
-0.18861470176779194,-0.05828123877958235,-1.3169426110237734
-0.18855855176779196,-0.05828123877958235,-1.3169426110237734
-0.18850240176779193,-0.05828123877958235,-1.3169426110237734
-0.18844625176779195,-0.05828123877958235,-1.3169426110237734
-0.18839010176779197,-0.05828123877958235,-1.3169426110237734
-0.18833395176779194,-0.05828123877958235,-1.3169426110237734
-0.18827780176779196,-0.05458301392700023,-1.3169426110237734
-0.18822165176779193,-0.054583013926998554,-1.3169426110237734
-0.18816550176779195,-0.054583013926998554,-1.3169426110237734
-0.18810935176779198,-0.054583013926998554,-1.3169426110237734
-0.18805320176779194,-0.054583013926998554,-1.3169426110237734
-0.18799705176779197,-0.054583013926998554,-1.3169426110237734
-0.18794090176779193,-0.054583013926998554,-1.3169426110237734
-0.18788475176779196,-0.054583013926998554,-1.3169426110237734
-0.18782860176779193,-0.054583013926998554,-1.3169426110237734
-0.18777245176779195,-0.05088478907441475,-1.3169426110237734
-0.18771630176779197,-0.05088478907441475,-1.3169426110237734
-0.18766015176779194,-0.05088478907441475,-1.3169426110237734
-0.18760400176779196,-0.05088478907441475,-1.3169426110237734
-0.18754785176779193,-0.05088478907441475,-1.3169426110237734
-0.18749170176779195,-0.047186564221832636,-1.3169426110237734
-0.18743555176779197,-0.04718656422183096,-1.3169426110237734
-0.18737940176779194,-0.04718656422183096,-1.3169426110237734
-0.18732325176779197,-0.04718656422183096,-1.3169426110237734
-0.18726710176779193,-0.05088478907441475,-1.3169426110237734
-0.18721095176779196,-0.047186564221832636,-1.3169426110237734
-0.18715480176779198,-0.04718656422183096,-1.3169426110237734
-0.18709865176779195,-0.04718656422183096,-1.3169426110237734
-0.18704250176779197,-0.04718656422183096,-1.3169426110237734
-0.18698635176779194,-0.05088478907441475,-1.3169426110237734
-0.18693020176779196,-0.047186564221832636,-1.3169426110237734
-0.18687405176779193,-0.04718656422183096,-1.3169426110237734
-0.18681790176779195,-0.04718656422183096,-1.3169426110237734
-0.18676175176779197,-0.04718656422183096,-1.3169426110237734
-0.18670560176779194,-0.04718656422183096,-1.3169426110237734
-0.18664945176779196,-0.04718656422183096,-1.3169426110237734
-0.18659330176779193,-0.04718656422183096,-1.3169426110237734
-0.18653715176779195,-0.04718656422183096,-1.3169426110237734
-0.18648100176779198,-0.04348833936925052,-1.3169426110237734
-0.18642485176779194,-0.043488339369247155,-1.3169426110237734
-0.18636870176779197,-0.043488339369247155,-1.3169426110237734
-0.18631255176779193,-0.04718656422183096,-1.3169426110237734
-0.18625640176779196,-0.043488339369248834,-1.3169426110237734
-0.18620025176779192,-0.043488339369248834,-1.3169426110237734
-0.18614410176779195,-0.04718656422183096,-1.3169426110237734
-0.18608795176779197,-0.04718656422183096,-1.3169426110237734
-0.18603180176779194,-0.04718656422183096,-1.3169426110237734
-0.18597565176779196,-0.04718656422183096,-1.3169426110237734
-0.18591950176779193,-0.04718656422183096,-1.3169426110237734
-0.18586335176779195,-0.04718656422183096,-1.3169426110237734
-0.18580720176779197,-0.04718656422183096,-1.3169426110237734
-0.18575105176779194,-0.04718656422183096,-1.3169426110237734
-0.18569490176779196,-0.04718656422183096,-1.3169426110237734
-0.18563875176779193,-0.04718656422183096,-1.3169426110237734
-0.18558260176779195,-0.04718656422183096,-1.3169426110237734
-0.18552645176779198,-0.04718656422183096,-1.3169426110237734
-0.18547030176779195,-0.04718656422183096,-1.3169426110237734
-0.18541415176779197,-0.04718656422183096,-1.3169426110237734
-0.18535800176779194,-0.04718656422183096,-1.3169426110237734
-0.18530185176779196,-0.04718656422183096,-1.3169426110237734
-0.18524570176779193,-0.05088478907441475,-1.3169426110237734
-0.18518955176779195,-0.04718656422183096,-1.3169426110237734
-0.18513340176779197,-0.05088478907441307,-1.3169426110237734
-0.18507725176779194,-0.05088478907441475,-1.3169426110237734
-0.18502110176779196,-0.05088478907441475,-1.3169426110237734
-0.18496495176779193,-0.05088478907441475,-1.3169426110237734
-0.18490880176779195,-0.05088478907441475,-1.3169426110237734
-0.18485265176779198,-0.05088478907441475,-1.3169426110237734
-0.18479650176779194,-0.05088478907441475,-1.3169426110237734
-0.18474035176779197,-0.05088478907441475,-1.3169426110237734
-0.18468420176779193,-0.05088478907441475,-1.3169426110237734
-0.18462805176779196,-0.05088478907441475,-1.3169426110237734
-0.18457190176779192,-0.05088478907441475,-1.3169426110237734
-0.18451575176779195,-0.05088478907441475,-1.3169426110237734
-0.18445960176779197,-0.05088478907441475,-1.3169426110237734
-0.18440345176779194,-0.05088478907441475,-1.3169426110237734
-0.18434730176779196,-0.05088478907441475,-1.3169426110237734
-0.18429115176779193,-0.05088478907441475,-1.3169426110237734
-0.18423500176779195,-0.05088478907441475,-1.3169426110237734
-0.18417885176779197,-0.05088478907441475,-1.3169426110237734
-0.18412270176779194,-0.05088478907441475,-1.3169426110237734
-0.18406655176779196,-0.05088478907441475,-1.3169426110237734
-0.18401040176779193,-0.05088478907441475,-1.3169426110237734
-0.18395425176779195,-0.05088478907441475,-1.3169426110237734
-0.18389810176779198,-0.05088478907441475,-1.3169426110237734
-0.18384195176779194,-0.05088478907441475,-1.3169426110237734
-0.18378580176779197,-0.05088478907441475,-1.3169426110237734
-0.18372965176779193,-0.05088478907441475,-1.3169426110237734
-0.18367350176779196,-0.05088478907441475,-1.3169426110237734
-0.18361735176779193,-0.05088478907441475,-1.3169426110237734
-0.18356120176779195,-0.054583013926998554,-1.3169426110237734
-0.18350505176779197,-0.054583013926998554,-1.3206499620048093
-0.18344890176779194,-0.054583013926998554,-1.320649962004811
-0.18339275176779196,-0.054583013926998554,-1.3169426110237752
-0.18333660176779193,-0.05088478907441475,-1.3169426110237734
-0.18328045176779195,-0.054583013926996875,-1.3169426110237734
-0.18322430176779197,-0.054583013926998554,-1.3169426110237734
-0.18316815176779194,-0.054583013926998554,-1.3169426110237734
-0.18311200176779197,-0.054583013926998554,-1.3169426110237734
-0.18305585176779193,-0.054583013926998554,-1.3169426110237734
-0.18299970176779196,-0.054583013926998554,-1.3169426110237734
-0.18294355176779198,-0.054583013926998554,-1.3169426110237734
-0.18288740176779195,-0.054583013926998554,-1.3169426110237734
-0.18283125176779197,-0.054583013926998554,-1.3169426110237734
-0.18277510176779194,-0.054583013926998554,-1.3169426110237734
-0.18271895176779196,-0.054583013926998554,-1.3169426110237734
-0.18266280176779193,-0.054583013926998554,-1.3169426110237734
-0.18260665176779195,-0.054583013926998554,-1.3169426110237734
-0.18255050176779197,-0.05828123877958067,-1.3169426110237734
-0.18249435176779194,-0.05828123877958235,-1.3169426110237734
-0.18243820176779196,-0.05828123877958235,-1.3169426110237734
-0.18238205176779193,-0.05828123877958235,-1.3169426110237734
-0.18232590176779195,-0.05828123877958235,-1.3169426110237734
-0.18226975176779198,-0.05828123877958235,-1.3169426110237734
-0.18221360176779194,-0.05828123877958235,-1.3169426110237734
-0.18215745176779197,-0.05828123877958235,-1.3169426110237734
-0.18210130176779193,-0.054583013926998554,-1.3169426110237734
-0.18204515176779196,-0.05828123877958067,-1.3169426110237734
-0.18198900176779192,-0.05828123877958235,-1.3169426110237734
-0.18193285176779195,-0.05828123877958235,-1.3169426110237734
-0.18187670176779197,-0.05828123877958235,-1.3169426110237734
-0.18182055176779194,-0.06197946363216615,-1.3169426110237734
-0.18176440176779196,-0.06197946363216615,-1.3169426110237734
-0.18170825176779193,-0.06197946363216615,-1.3169426110237734
-0.18165210176779195,-0.06197946363216615,-1.3169426110237734
-0.18159595176779197,-0.06197946363216615,-1.3169426110237734
-0.18153980176779194,-0.06197946363216615,-1.3169426110237734
-0.18148365176779196,-0.06197946363216615,-1.3169426110237734
-0.18142750176779193,-0.06197946363216615,-1.320649962004811
-0.18137135176779196,-0.06197946363216615,-1.3169426110237752
-0.18131520176779198,-0.06197946363216615,-1.3169426110237734
-0.18125905176779195,-0.06197946363216615,-1.3169426110237734
-0.18120290176779197,-0.06197946363216615,-1.3169426110237734
-0.18114675176779194,-0.06197946363216615,-1.3169426110237734
-0.18109060176779196,-0.05828123877958403,-1.3169426110237734
-0.18103445176779193,-0.05828123877958235,-1.3169426110237734
-0.18097830176779195,-0.05828123877958235,-1.320649962004811
-0.18092215176779197,-0.06197946363216447,-1.320649962004811
-0.18086600176779194,-0.06197946363216615,-1.3169426110237734
-0.18080985176779196,-0.06197946363216615,-1.3169426110237734
-0.18075370176779193,-0.05828123877958235,-1.3169426110237734
-0.18069755176779195,-0.05828123877958235,-1.3169426110237734
-0.18064140176779198,-0.05828123877958235,-1.3169426110237734
-0.18058525176779194,-0.05828123877958235,-1.320649962004811
-0.18052910176779197,-0.05828123877958235,-1.3169426110237752
-0.18047295176779193,-0.05828123877958235,-1.320649962004811
-0.18041680176779196,-0.05828123877958235,-1.3169426110237752
-0.18036065176779192,-0.05828123877958067,-1.3169426110237734
-0.18030450176779195,-0.054583013926998554,-1.3169426110237734
-0.18024835176779197,-0.05828123877958067,-1.3169426110237734
-0.18019220176779194,-0.05828123877958235,-1.3169426110237734
-0.18013605176779196,-0.05828123877958235,-1.3169426110237734
