acq0062.csv

#Digilent WaveForms Oscilloscope Acquisition
#Device Name: Discovery2
#Serial Number: SN:210321AA28BE
#Date Time: 2023-05-24 14:52:40.039
#Sample rate: 17809.4Hz
#Samples: 8192
#Trigger: Source: Channel 1 Type: Edge Condition: Rising Level: 800 mV Hyst.: Auto HoldOff: 100 ns
#Channel 1: Range: 1 V/div Offset: 0 V Attenuation: 1 X Sample Mode: Average
#Channel 2: Range: 1 V/div Offset: 0 V Attenuation: 1 X Sample Mode: Average

Time (s),Channel 1 (V),Channel 2 (V)
-0.19771969533790648,-0.08047058789508515,-1.3169426110237734
-0.19766354533790648,-0.08786703760025275,-1.3169426110237734
-0.19760739533790647,-0.09896171215800414,-1.3169426110237734
-0.19755124533790647,-0.10635816186317175,-1.3169426110237734
-0.1974950953379065,-0.11375461156833934,-1.3169426110237734
-0.19743894533790649,-0.12115106127350694,-1.3169426110237734
-0.19738279533790648,-0.12854751097867453,-1.3132352600427357
-0.19732664533790648,-0.13594396068384215,-1.3169426110237734
-0.19727049533790647,-0.13964218553642593,-1.3169426110237734
-0.19721434533790647,-0.1433404103890131,-1.3169426110237734
-0.1971581953379065,-0.15073686009417733,-1.3169426110237734
-0.19710204533790648,-0.15443508494676114,-1.3169426110237734
-0.19704589533790648,-0.15813330979934495,-1.3169426110237734
-0.19698974533790647,-0.16183153465192873,-1.3169426110237734
-0.19693359533790647,-0.16183153465192873,-1.3169426110237734
-0.1968774453379065,-0.16552975950451085,-1.3169426110237734
-0.1968212953379065,-0.16922798435709635,-1.3132352600427357
-0.19676514533790648,-0.16922798435709635,-1.3132352600427357
-0.19670899533790648,-0.17292620920968013,-1.3132352600427357
-0.19665284533790647,-0.17662443406226394,-1.3169426110237734
-0.19659669533790647,-0.17662443406226394,-1.3169426110237734
-0.1965405453379065,-0.18032265891484775,-1.3169426110237734
-0.1964843953379065,-0.18032265891484775,-1.3169426110237734
-0.19642824533790648,-0.18032265891484775,-1.3169426110237734
-0.19637209533790648,-0.18032265891484775,-1.3169426110237734
-0.19631594533790647,-0.18032265891484775,-1.3169426110237734
-0.19625979533790647,-0.18402088376743153,-1.3169426110237734
-0.1962036453379065,-0.18032265891484775,-1.3169426110237734
-0.19614749533790649,-0.18032265891484775,-1.3169426110237734
-0.19609134533790648,-0.18032265891484775,-1.3169426110237734
-0.19603519533790648,-0.18032265891484775,-1.3169426110237734
-0.19597904533790647,-0.18402088376743153,-1.3169426110237734
-0.19592289533790647,-0.18402088376743153,-1.3169426110237734
-0.1958667453379065,-0.18402088376743153,-1.3169426110237734
-0.19581059533790648,-0.18032265891484775,-1.3169426110237734
-0.19575444533790648,-0.18032265891484775,-1.3169426110237734
-0.19569829533790647,-0.18032265891484775,-1.3169426110237734
-0.19564214533790647,-0.17662443406226394,-1.3169426110237734
-0.1955859953379065,-0.17662443406226394,-1.3169426110237734
-0.1955298453379065,-0.17662443406226394,-1.3169426110237734
-0.19547369533790648,-0.17662443406226394,-1.3169426110237734
-0.19541754533790648,-0.17662443406226394,-1.3169426110237734
-0.19536139533790647,-0.17292620920968013,-1.3169426110237734
-0.19530524533790647,-0.17292620920968013,-1.3169426110237734
-0.1952490953379065,-0.17292620920968013,-1.3169426110237734
-0.1951929453379065,-0.16922798435709635,-1.3169426110237734
-0.19513679533790648,-0.16922798435709635,-1.3169426110237734
-0.19508064533790648,-0.16922798435709635,-1.3169426110237734
-0.19502449533790647,-0.16922798435709635,-1.3169426110237734
-0.19496834533790647,-0.16922798435709635,-1.3169426110237734
-0.1949121953379065,-0.16552975950451254,-1.3132352600427357
-0.19485604533790649,-0.16183153465192873,-1.3169426110237734
-0.19479989533790648,-0.16183153465192873,-1.3169426110237734
-0.19474374533790648,-0.16183153465192873,-1.3169426110237734
-0.19468759533790647,-0.16183153465192873,-1.3169426110237734
-0.19463144533790647,-0.16183153465192704,-1.3169426110237734
-0.1945752953379065,-0.15813330979934495,-1.3169426110237734
-0.19451914533790648,-0.15813330979934495,-1.3169426110237734
-0.19446299533790648,-0.15813330979934495,-1.3169426110237734
-0.19440684533790648,-0.15443508494676114,-1.3169426110237734
-0.19435069533790647,-0.15443508494676114,-1.3169426110237734
-0.1942945453379065,-0.15443508494676114,-1.3169426110237734
-0.1942383953379065,-0.15073686009417733,-1.3169426110237734
-0.19418224533790648,-0.15073686009417733,-1.3169426110237734
-0.19412609533790648,-0.15073686009417733,-1.3169426110237734
-0.19406994533790647,-0.15073686009417733,-1.3169426110237734
-0.19401379533790647,-0.14703863524159355,-1.3169426110237734
-0.1939576453379065,-0.14703863524159355,-1.3169426110237734
-0.1939014953379065,-0.14703863524159355,-1.3169426110237734
-0.19384534533790648,-0.14334041038900974,-1.3169426110237734
-0.19378919533790648,-0.14334041038900974,-1.3169426110237734
-0.19373304533790647,-0.14334041038900974,-1.3169426110237734
-0.19367689533790647,-0.13964218553642593,-1.3169426110237734
-0.1936207453379065,-0.13964218553642593,-1.3169426110237734
-0.1935645953379065,-0.13594396068384215,-1.3169426110237734
-0.19350844533790648,-0.13594396068384215,-1.3169426110237734
-0.19345229533790648,-0.13224573583125834,-1.3169426110237734
-0.19339614533790647,-0.13224573583125834,-1.3169426110237734
-0.19333999533790647,-0.13224573583125834,-1.3169426110237734
-0.1932838453379065,-0.13224573583125834,-1.3169426110237734
-0.19322769533790649,-0.13224573583125834,-1.3169426110237734
-0.19317154533790648,-0.12854751097867453,-1.3169426110237734
-0.19311539533790648,-0.12854751097867453,-1.3169426110237734
-0.19305924533790647,-0.12854751097867453,-1.3169426110237734
-0.19300309533790647,-0.12484928612608906,-1.3169426110237734
-0.1929469453379065,-0.12115106127350694,-1.3169426110237734
-0.19289079533790648,-0.12484928612609074,-1.3169426110237734
-0.19283464533790648,-0.12115106127350694,-1.3169426110237734
-0.19277849533790647,-0.11745283642092315,-1.3169426110237734
-0.19272234533790647,-0.11745283642092315,-1.3169426110237734
-0.1926661953379065,-0.11745283642092315,-1.3169426110237734
-0.1926100453379065,-0.11375461156833934,-1.3169426110237734
-0.19255389533790648,-0.11375461156833934,-1.3169426110237734
-0.19249774533790648,-0.11375461156833934,-1.3169426110237734
-0.19244159533790647,-0.11375461156833934,-1.320649962004811
-0.19238544533790647,-0.11005638671575554,-1.3169426110237734
-0.1923292953379065,-0.11005638671575554,-1.3169426110237734
-0.1922731453379065,-0.10635816186317175,-1.3169426110237734
-0.19221699533790648,-0.10635816186317175,-1.3169426110237734
-0.19216084533790648,-0.10635816186317175,-1.3169426110237734
-0.19210469533790647,-0.10265993701058794,-1.3169426110237734
-0.19204854533790647,-0.10265993701058794,-1.3169426110237734
-0.1919923953379065,-0.10265993701058794,-1.3169426110237734
-0.19193624533790649,-0.09896171215800414,-1.3169426110237734
-0.19188009533790648,-0.09896171215800414,-1.3169426110237734
-0.19182394533790648,-0.09526348730542035,-1.3169426110237734
-0.19176779533790647,-0.09526348730542035,-1.3169426110237734
-0.19171164533790647,-0.09526348730542035,-1.3169426110237734
-0.1916554953379065,-0.09526348730542035,-1.3169426110237734
-0.19159934533790648,-0.09526348730542035,-1.3169426110237734
-0.19154319533790648,-0.09156526245283655,-1.3169426110237734
-0.19148704533790648,-0.09156526245283655,-1.3169426110237734
-0.19143089533790647,-0.09156526245283655,-1.320649962004811
-0.1913747453379065,-0.09156526245283655,-1.3169426110237752
-0.1913185953379065,-0.09156526245283655,-1.3169426110237734
-0.19126244533790648,-0.08786703760025275,-1.3169426110237734
-0.19120629533790648,-0.08786703760025275,-1.320649962004811
-0.19115014533790647,-0.08786703760025275,-1.3169426110237734
-0.19109399533790647,-0.08786703760025275,-1.3169426110237734
-0.1910378453379065,-0.08786703760025275,-1.3169426110237734
-0.1909816953379065,-0.08416881274766895,-1.3169426110237734
-0.19092554533790648,-0.08416881274766895,-1.3169426110237734
-0.19086939533790648,-0.08416881274766895,-1.3169426110237734
-0.19081324533790647,-0.08047058789508515,-1.3169426110237734
-0.19075709533790647,-0.08416881274766895,-1.3169426110237734
-0.1907009453379065,-0.08416881274766895,-1.3169426110237734
-0.1906447953379065,-0.08416881274766895,-1.3169426110237734
-0.19058864533790648,-0.08047058789508515,-1.3169426110237734
-0.19053249533790648,-0.08047058789508515,-1.3169426110237734
-0.19047634533790647,-0.08047058789508515,-1.3169426110237734
-0.19042019533790647,-0.08047058789508515,-1.3169426110237734
-0.1903640453379065,-0.08047058789508515,-1.3169426110237734
-0.19030789533790649,-0.08047058789508515,-1.3169426110237734
-0.19025174533790648,-0.08047058789508515,-1.3169426110237734
-0.19019559533790648,-0.08047058789508515,-1.3169426110237734
-0.19013944533790647,-0.07677236304250135,-1.3169426110237734
-0.1900832953379065,-0.07677236304250135,-1.3169426110237734
-0.1900271453379065,-0.07677236304250135,-1.3169426110237734
-0.18997099533790648,-0.07307413818991755,-1.3169426110237734
-0.18991484533790648,-0.07307413818991755,-1.3169426110237734
-0.18985869533790647,-0.07307413818991755,-1.3169426110237734
-0.18980254533790647,-0.07307413818991755,-1.3169426110237734
-0.1897463953379065,-0.07307413818991755,-1.3169426110237734
-0.1896902453379065,-0.06937591333733376,-1.3169426110237734
-0.18963409533790648,-0.06937591333733376,-1.3169426110237734
-0.18957794533790648,-0.06937591333733376,-1.3169426110237734
-0.18952179533790647,-0.06937591333733376,-1.3169426110237734
-0.18946564533790647,-0.06937591333733376,-1.3169426110237734
-0.1894094953379065,-0.06567768848474995,-1.3169426110237734
-0.1893533453379065,-0.06567768848474995,-1.320649962004811
-0.18929719533790648,-0.06567768848474995,-1.3169426110237734
-0.18924104533790648,-0.06567768848474995,-1.3169426110237734
-0.18918489533790647,-0.06567768848474995,-1.3169426110237734
-0.18912874533790647,-0.06567768848474995,-1.3169426110237734
-0.1890725953379065,-0.06567768848474995,-1.3169426110237734
-0.18901644533790649,-0.06567768848474995,-1.3169426110237734
-0.18896029533790648,-0.06567768848474995,-1.3169426110237734
-0.18890414533790648,-0.06567768848474995,-1.3169426110237734
-0.18884799533790647,-0.06567768848474995,-1.3169426110237734
-0.18879184533790647,-0.06197946363216783,-1.3169426110237734
-0.1887356953379065,-0.06567768848474995,-1.3169426110237734
-0.18867954533790648,-0.06567768848474995,-1.320649962004811
-0.18862339533790648,-0.06567768848474995,-1.3169426110237734
-0.18856724533790648,-0.06567768848474995,-1.3169426110237734
-0.18851109533790647,-0.06197946363216615,-1.3169426110237734
-0.1884549453379065,-0.06197946363216615,-1.3169426110237734
-0.1883987953379065,-0.06197946363216615,-1.320649962004811
-0.18834264533790648,-0.06197946363216615,-1.3169426110237734
-0.18828649533790648,-0.06197946363216615,-1.3169426110237734
-0.18823034533790647,-0.06197946363216615,-1.3169426110237734
-0.18817419533790647,-0.06197946363216615,-1.3169426110237734
-0.1881180453379065,-0.06197946363216615,-1.3169426110237734
-0.1880618953379065,-0.06567768848474995,-1.3169426110237734
-0.18800574533790648,-0.06567768848474995,-1.3169426110237734
-0.18794959533790648,-0.06567768848474995,-1.3169426110237734
-0.18789344533790647,-0.06197946363216615,-1.3169426110237734
-0.18783729533790647,-0.06197946363216615,-1.3169426110237734
-0.1877811453379065,-0.06197946363216615,-1.3169426110237734
-0.1877249953379065,-0.06197946363216615,-1.3169426110237734
-0.18766884533790648,-0.06197946363216615,-1.3169426110237734
-0.18761269533790648,-0.06197946363216615,-1.320649962004811
-0.18755654533790647,-0.06197946363216615,-1.320649962004811
-0.18750039533790647,-0.06197946363216615,-1.3169426110237734
-0.1874442453379065,-0.06197946363216615,-1.3169426110237734
-0.18738809533790649,-0.06197946363216615,-1.3169426110237734
-0.18733194533790648,-0.06197946363216615,-1.3169426110237734
-0.18727579533790648,-0.06197946363216615,-1.3169426110237734
-0.18721964533790647,-0.06197946363216615,-1.3169426110237734
-0.1871634953379065,-0.06197946363216615,-1.3169426110237734
-0.1871073453379065,-0.06197946363216615,-1.3169426110237734
-0.18705119533790648,-0.06197946363216615,-1.3169426110237734
-0.18699504533790648,-0.06197946363216615,-1.3169426110237734
-0.18693889533790647,-0.06197946363216615,-1.3169426110237734
-0.18688274533790647,-0.06567768848474995,-1.3169426110237734
-0.1868265953379065,-0.06567768848474995,-1.3169426110237734
-0.1867704453379065,-0.06567768848474995,-1.3169426110237734
-0.18671429533790648,-0.06567768848474995,-1.3169426110237734
-0.18665814533790648,-0.06567768848474995,-1.320649962004811
-0.18660199533790647,-0.06567768848474995,-1.320649962004811
-0.18654584533790647,-0.06567768848474995,-1.3169426110237734
-0.1864896953379065,-0.06567768848474995,-1.3169426110237734
-0.1864335453379065,-0.06567768848474995,-1.3169426110237734
-0.18637739533790648,-0.06567768848474995,-1.3169426110237734
-0.18632124533790648,-0.06197946363216615,-1.3169426110237734
-0.18626509533790647,-0.06567768848474995,-1.3169426110237734
-0.18620894533790647,-0.06567768848474995,-1.3169426110237734
-0.1861527953379065,-0.06567768848474995,-1.3169426110237734
-0.18609664533790649,-0.06567768848474995,-1.3169426110237734
-0.18604049533790648,-0.06567768848474995,-1.3169426110237734
-0.18598434533790648,-0.06567768848474995,-1.3169426110237734
-0.18592819533790647,-0.06567768848474995,-1.3169426110237734
-0.1858720453379065,-0.06197946363216783,-1.3169426110237734
-0.1858158953379065,-0.06197946363216615,-1.3169426110237734
-0.18575974533790648,-0.06567768848474995,-1.3169426110237734
-0.18570359533790648,-0.06197946363216615,-1.3169426110237734
-0.18564744533790647,-0.06197946363216615,-1.3169426110237734
-0.18559129533790647,-0.06197946363216615,-1.3169426110237734
-0.1855351453379065,-0.06567768848474995,-1.3169426110237734
-0.1854789953379065,-0.06567768848474995,-1.3169426110237734
-0.18542284533790648,-0.06567768848474995,-1.3169426110237734
-0.18536669533790648,-0.06567768848474995,-1.3169426110237734
-0.18531054533790647,-0.06567768848474995,-1.320649962004811
-0.18525439533790647,-0.06567768848474995,-1.3169426110237734
-0.1851982453379065,-0.06567768848474995,-1.3169426110237734
-0.1851420953379065,-0.06567768848474995,-1.3169426110237734
-0.18508594533790648,-0.06567768848474995,-1.3169426110237734
-0.18502979533790648,-0.06567768848474995,-1.3169426110237734
-0.18497364533790647,-0.06197946363216615,-1.3169426110237734
-0.18491749533790647,-0.06567768848474995,-1.3169426110237734
-0.1848613453379065,-0.06567768848474995,-1.3169426110237734
-0.18480519533790649,-0.06567768848474995,-1.3169426110237734
-0.18474904533790648,-0.06567768848474995,-1.3169426110237734
-0.18469289533790648,-0.06567768848474995,-1.3169426110237734
-0.18463674533790647,-0.06567768848474995,-1.3169426110237734
-0.18458059533790647,-0.06567768848474995,-1.320649962004811
-0.1845244453379065,-0.06567768848474995,-1.320649962004811
-0.18446829533790648,-0.06567768848474995,-1.3169426110237734
-0.18441214533790648,-0.06567768848474995,-1.320649962004811
-0.18435599533790648,-0.06567768848474995,-1.320649962004811
-0.18429984533790647,-0.06937591333733376,-1.3169426110237734
-0.1842436953379065,-0.06567768848475163,-1.3206499620048093
-0.1841875453379065,-0.06567768848474995,-1.320649962004811
-0.18413139533790648,-0.06567768848474995,-1.320649962004811
-0.18407524533790648,-0.06937591333733376,-1.320649962004811
-0.18401909533790647,-0.06937591333733376,-1.3169426110237734
-0.18396294533790647,-0.06937591333733376,-1.3169426110237734
-0.1839067953379065,-0.06937591333733376,-1.3169426110237734
-0.1838506453379065,-0.06937591333733376,-1.3169426110237734
-0.18379449533790648,-0.06937591333733376,-1.3169426110237734
-0.18373834533790648,-0.06937591333733376,-1.3169426110237734
-0.18368219533790647,-0.06937591333733376,-1.3169426110237734
-0.18362604533790647,-0.06937591333733376,-1.3169426110237734
-0.1835698953379065,-0.06937591333733376,-1.3169426110237734
-0.1835137453379065,-0.07307413818991755,-1.320649962004811
-0.18345759533790648,-0.07307413818991755,-1.3169426110237734
-0.18340144533790648,-0.07307413818991755,-1.3169426110237734
-0.18334529533790647,-0.07307413818991755,-1.3169426110237734
-0.18328914533790647,-0.07307413818991755,-1.320649962004811
-0.1832329953379065,-0.07307413818991755,-1.320649962004811
-0.18317684533790649,-0.06937591333733376,-1.320649962004811
-0.18312069533790648,-0.07307413818991755,-1.320649962004811
-0.18306454533790648,-0.06937591333733376,-1.320649962004811
-0.18300839533790647,-0.06937591333733376,-1.3169426110237734
-0.1829522453379065,-0.06937591333733376,-1.3169426110237734
-0.1828960953379065,-0.06937591333733376,-1.320649962004811
-0.18283994533790648,-0.06937591333733376,-1.3169426110237734
-0.18278379533790648,-0.06937591333733376,-1.320649962004811
-0.18272764533790647,-0.07307413818991755,-1.320649962004811
-0.18267149533790647,-0.06937591333733376,-1.3169426110237734
-0.1826153453379065,-0.06937591333733376,-1.320649962004811
-0.1825591953379065,-0.06937591333733376,-1.320649962004811
-0.18250304533790648,-0.06937591333733376,-1.3169426110237734
-0.18244689533790648,-0.06937591333733376,-1.320649962004811
-0.18239074533790647,-0.06937591333733376,-1.3169426110237734
-0.18233459533790647,-0.06567768848474995,-1.3169426110237734
-0.1822784453379065,-0.05828123877958235,-1.3169426110237734
-0.1822222953379065,-0.06937591333733376,-1.3169426110237734
-0.18216614533790648,-0.06567768848474995,-1.3169426110237734
-0.18210999533790648,-0.06567768848474995,-1.3169426110237734
-0.18205384533790647,-0.06197946363216615,-1.3169426110237734
-0.18199769533790647,-0.06197946363216615,-1.320649962004811
-0.1819415453379065,-0.06197946363216615,-1.320649962004811
-0.18188539533790649,-0.06567768848474995,-1.3169426110237734
-0.18182924533790648,-0.06567768848474995,-1.3169426110237734
-0.18177309533790648,-0.06197946363216615,-1.320649962004811
-0.18171694533790647,-0.06197946363216615,-1.3169426110237734
-0.1816607953379065,-0.06197946363216615,-1.3169426110237734
-0.1816046453379065,-0.06197946363216615,-1.3169426110237734
-0.18154849533790648,-0.06197946363216615,-1.3169426110237734
-0.18149234533790648,-0.06197946363216615,-1.3169426110237734
-0.18143619533790648,-0.06197946363216615,-1.3169426110237734
-0.18138004533790647,-0.06197946363216615,-1.3169426110237734
-0.1813238953379065,-0.06197946363216615,-1.320649962004811
-0.1812677453379065,-0.06197946363216615,-1.320649962004811
-0.18121159533790648,-0.06197946363216615,-1.320649962004811
-0.18115544533790648,-0.06197946363216615,-1.320649962004811
-0.18109929533790647,-0.06197946363216615,-1.320649962004811
-0.18104314533790647,-0.06197946363216615,-1.3169426110237734
-0.1809869953379065,-0.06197946363216615,-1.3169426110237734
-0.1809308453379065,-0.06197946363216615,-1.3169426110237734
-0.18087469533790648,-0.06197946363216615,-1.3169426110237734
-0.18081854533790648,-0.05828123877958235,-1.320649962004811
-0.18076239533790647,-0.06197946363216615,-1.320649962004811
-0.18070624533790647,-0.06197946363216615,-1.320649962004811
-0.1806500953379065,-0.05828123877958235,-1.320649962004811
-0.1805939453379065,-0.05828123877958235,-1.3169426110237734
-0.18053779533790648,-0.05828123877958235,-1.3169426110237734
-0.18048164533790648,-0.054583013926998554,-1.320649962004811
-0.18042549533790647,-0.054583013926998554,-1.320649962004811
-0.18036934533790647,-0.05828123877958067,-1.3206499620048093
-0.1803131953379065,-0.054583013926998554,-1.3169426110237734
-0.18025704533790649,-0.05828123877958235,-1.320649962004811
-0.18020089533790648,-0.054583013926998554,-1.320649962004811
-0.18014474533790648,-0.054583013926998554,-1.320649962004811
-0.18008859533790647,-0.05088478907441475,-1.320649962004811
-0.1800324453379065,-0.054583013926996875,-1.320649962004811
-0.1799762953379065,-0.05088478907441475,-1.320649962004811
