acq0017.csv

#Digilent WaveForms Oscilloscope Acquisition
#Device Name: Discovery2
#Serial Number: SN:210321AA28BE
#Date Time: 2023-05-24 14:52:17.531
#Sample rate: 17809.4Hz
#Samples: 8192
#Trigger: Source: Channel 1 Type: Edge Condition: Rising Level: 800 mV Hyst.: Auto HoldOff: 100 ns
#Channel 1: Range: 1 V/div Offset: 0 V Attenuation: 1 X Sample Mode: Average
#Channel 2: Range: 1 V/div Offset: 0 V Attenuation: 1 X Sample Mode: Average

Time (s),Channel 1 (V),Channel 2 (V)
-0.1977499346071787,-0.024997215106328158,-1.3132352600427357
-0.19769378460717868,-0.0360918896640846,-1.3169426110237734
-0.1976376346071787,-0.04718656422183096,-1.3169426110237734
-0.19758148460717867,-0.05458301392700864,-1.3169426110237734
-0.1975253346071787,-0.0656776884847533,-1.3169426110237734
-0.19746918460717872,-0.07307413818991755,-1.3169426110237734
-0.19741303460717868,-0.08047058789508851,-1.3169426110237734
-0.1973568846071787,-0.08786703760025275,-1.3169426110237734
-0.19730073460717867,-0.09526348730542371,-1.3169426110237734
-0.1972445846071787,-0.1026599370105913,-1.3169426110237734
-0.19718843460717872,-0.11005638671575554,-1.3169426110237734
-0.1971322846071787,-0.11375461156834102,-1.3169426110237734
-0.1970761346071787,-0.11745283642092315,-1.3169426110237734
-0.19701998460717868,-0.12115106127350862,-1.3169426110237734
-0.1969638346071787,-0.12484928612609074,-1.3169426110237734
-0.19690768460717872,-0.12854751097867284,-1.3169426110237734
-0.1968515346071787,-0.13224573583126004,-1.3169426110237734
-0.1967953846071787,-0.13594396068384215,-1.3169426110237734
-0.19673923460717868,-0.13964218553642763,-1.3169426110237734
-0.1966830846071787,-0.14334041038900974,-1.3169426110237734
-0.19662693460717867,-0.1470386352415969,-1.3169426110237734
-0.1965707846071787,-0.15073686009417733,-1.3169426110237734
-0.19651463460717872,-0.15073686009417733,-1.3169426110237734
-0.19645848460717868,-0.15073686009417903,-1.3169426110237734
-0.1964023346071787,-0.15443508494676114,-1.3169426110237734
-0.19634618460717868,-0.15443508494676114,-1.3169426110237734
-0.1962900346071787,-0.15443508494676114,-1.3169426110237734
-0.19623388460717872,-0.15813330979934495,-1.3169426110237734
-0.1961777346071787,-0.15813330979934495,-1.3169426110237734
-0.1961215846071787,-0.15813330979934495,-1.3169426110237734
-0.19606543460717868,-0.16183153465193043,-1.3169426110237734
-0.1960092846071787,-0.16552975950451254,-1.3169426110237734
-0.19595313460717867,-0.16552975950451254,-1.3132352600427357
-0.1958969846071787,-0.16552975950451254,-1.3132352600427375
-0.19584083460717872,-0.16552975950451254,-1.3169426110237734
-0.19578468460717868,-0.16552975950451254,-1.3169426110237716
-0.1957285346071787,-0.16552975950451254,-1.3132352600427357
-0.19567238460717867,-0.16552975950451254,-1.3169426110237734
-0.1956162346071787,-0.16552975950451254,-1.3169426110237734
-0.19556008460717872,-0.16552975950451254,-1.3169426110237734
-0.1955039346071787,-0.16922798435709635,-1.3169426110237734
-0.1954477846071787,-0.16922798435709635,-1.3169426110237734
-0.19539163460717868,-0.16922798435709466,-1.3169426110237734
-0.1953354846071787,-0.16552975950451254,-1.3169426110237734
-0.19527933460717872,-0.16552975950451254,-1.3169426110237734
-0.1952231846071787,-0.16922798435709466,-1.3169426110237734
-0.1951670346071787,-0.16552975950451254,-1.3169426110237734
-0.19511088460717868,-0.16922798435709466,-1.3169426110237734
-0.1950547346071787,-0.16552975950451254,-1.3169426110237734
-0.19499858460717867,-0.16552975950451254,-1.3169426110237734
-0.1949424346071787,-0.16552975950451254,-1.3169426110237734
-0.19488628460717872,-0.16552975950451254,-1.3169426110237734
-0.19483013460717868,-0.16552975950451254,-1.3169426110237734
-0.1947739846071787,-0.16552975950451254,-1.3169426110237734
-0.19471783460717867,-0.16552975950451254,-1.3169426110237734
-0.1946616846071787,-0.16552975950451254,-1.3169426110237734
-0.19460553460717872,-0.16552975950451254,-1.3169426110237734
-0.1945493846071787,-0.16552975950451085,-1.3169426110237734
-0.1944932346071787,-0.16183153465192873,-1.3169426110237734
-0.19443708460717868,-0.16552975950451254,-1.3169426110237734
-0.1943809346071787,-0.16552975950451254,-1.3169426110237734
-0.19432478460717872,-0.16183153465193043,-1.3132352600427375
-0.1942686346071787,-0.16183153465192873,-1.3169426110237716
-0.19421248460717871,-0.16183153465192873,-1.3132352600427357
-0.19415633460717868,-0.16183153465192873,-1.3169426110237734
-0.1941001846071787,-0.16183153465192873,-1.3169426110237734
-0.19404403460717867,-0.16183153465192704,-1.3169426110237734
-0.1939878846071787,-0.15813330979934495,-1.3169426110237734
-0.19393173460717872,-0.15813330979934495,-1.3169426110237734
-0.19387558460717869,-0.15813330979934495,-1.3169426110237734
-0.1938194346071787,-0.15813330979934495,-1.3169426110237734
-0.19376328460717868,-0.15813330979934495,-1.3169426110237734
-0.1937071346071787,-0.15813330979934495,-1.3169426110237734
-0.19365098460717872,-0.15813330979934495,-1.3169426110237734
-0.1935948346071787,-0.15813330979934495,-1.3169426110237734
-0.1935386846071787,-0.15813330979934495,-1.3169426110237734
-0.19348253460717868,-0.15813330979934495,-1.3169426110237734
-0.1934263846071787,-0.15813330979934495,-1.3169426110237734
-0.19337023460717867,-0.15813330979934495,-1.3169426110237734
-0.1933140846071787,-0.15813330979934326,-1.3169426110237734
-0.19325793460717872,-0.15443508494676114,-1.3169426110237734
-0.19320178460717868,-0.15813330979934495,-1.3169426110237734
-0.1931456346071787,-0.15813330979934495,-1.3169426110237734
-0.19308948460717867,-0.15813330979934495,-1.3169426110237734
-0.1930333346071787,-0.15813330979934495,-1.3169426110237734
-0.19297718460717872,-0.15813330979934495,-1.3169426110237734
-0.1929210346071787,-0.15813330979934495,-1.3169426110237734
-0.1928648846071787,-0.15813330979934495,-1.3169426110237734
-0.19280873460717868,-0.15813330979934495,-1.3169426110237734
-0.1927525846071787,-0.15813330979934495,-1.3169426110237734
-0.19269643460717872,-0.15813330979934495,-1.3169426110237734
-0.1926402846071787,-0.15443508494676114,-1.3169426110237734
-0.19258413460717871,-0.15443508494676114,-1.3169426110237734
-0.19252798460717868,-0.15443508494676114,-1.3169426110237734
-0.1924718346071787,-0.15443508494676114,-1.3169426110237734
-0.19241568460717867,-0.15443508494676114,-1.3169426110237734
-0.1923595346071787,-0.15443508494675945,-1.3169426110237734
-0.19230338460717872,-0.15073686009417733,-1.3169426110237734
-0.19224723460717869,-0.15073686009417733,-1.3169426110237734
-0.1921910846071787,-0.15073686009417733,-1.3169426110237734
-0.19213493460717868,-0.15073686009417733,-1.3169426110237734
-0.1920787846071787,-0.15073686009417733,-1.3169426110237734
-0.19202263460717872,-0.15073686009417733,-1.3169426110237734
-0.1919664846071787,-0.15073686009417564,-1.3169426110237734
-0.1919103346071787,-0.14703863524159355,-1.3169426110237734
-0.19185418460717868,-0.14703863524159355,-1.3169426110237734
-0.1917980346071787,-0.14703863524159355,-1.3169426110237734
-0.19174188460717867,-0.14703863524159355,-1.3169426110237734
-0.1916857346071787,-0.14703863524159186,-1.3169426110237734
-0.19162958460717872,-0.14334041038900974,-1.3169426110237734
-0.19157343460717868,-0.14334041038900974,-1.3169426110237734
-0.1915172846071787,-0.14334041038900974,-1.3169426110237734
-0.19146113460717867,-0.13964218553642593,-1.3169426110237734
-0.1914049846071787,-0.13964218553642593,-1.3169426110237734
-0.19134883460717872,-0.13964218553642593,-1.3169426110237734
-0.1912926846071787,-0.13964218553642593,-1.3169426110237734
-0.1912365346071787,-0.13964218553642593,-1.3169426110237734
-0.19118038460717868,-0.13964218553642593,-1.3169426110237734
-0.1911242346071787,-0.13964218553642593,-1.3169426110237734
-0.19106808460717872,-0.13964218553642593,-1.3169426110237734
-0.1910119346071787,-0.13964218553642424,-1.3169426110237734
-0.1909557846071787,-0.13594396068384215,-1.3169426110237734
-0.19089963460717868,-0.13594396068384215,-1.3169426110237734
-0.1908434846071787,-0.13594396068384215,-1.3169426110237734
-0.19078733460717867,-0.13224573583125834,-1.3169426110237734
-0.1907311846071787,-0.13224573583125834,-1.3169426110237734
-0.19067503460717872,-0.13224573583125834,-1.3169426110237734
-0.19061888460717868,-0.13224573583125834,-1.3169426110237734
-0.1905627346071787,-0.13224573583125834,-1.3169426110237734
-0.19050658460717868,-0.13224573583125834,-1.3169426110237734
-0.1904504346071787,-0.13224573583125834,-1.3169426110237734
-0.19039428460717872,-0.13224573583125834,-1.3169426110237734
-0.1903381346071787,-0.12854751097867453,-1.3169426110237734
-0.1902819846071787,-0.12854751097867453,-1.3169426110237734
-0.19022583460717868,-0.12854751097867453,-1.3169426110237734
-0.1901696846071787,-0.12854751097867453,-1.3169426110237734
-0.19011353460717872,-0.12854751097867453,-1.3206499620048093
-0.1900573846071787,-0.12854751097867453,-1.320649962004811
-0.19000123460717872,-0.12854751097867453,-1.320649962004811
-0.18994508460717868,-0.12854751097867284,-1.3206499620048093
-0.1898889346071787,-0.12484928612609074,-1.3169426110237734
-0.18983278460717867,-0.12484928612609074,-1.3169426110237734
-0.1897766346071787,-0.12484928612608906,-1.3169426110237734
-0.18972048460717872,-0.12115106127350694,-1.3169426110237734
-0.1896643346071787,-0.12484928612608906,-1.3169426110237734
-0.1896081846071787,-0.12115106127350694,-1.3169426110237734
-0.18955203460717868,-0.11745283642092315,-1.3169426110237734
-0.1894958846071787,-0.11745283642092315,-1.3169426110237734
-0.18943973460717872,-0.11745283642092315,-1.3169426110237734
-0.1893835846071787,-0.11745283642092315,-1.3169426110237734
-0.1893274346071787,-0.11745283642092315,-1.3169426110237734
-0.18927128460717868,-0.11375461156833934,-1.3169426110237734
-0.1892151346071787,-0.11375461156833934,-1.3169426110237734
-0.18915898460717867,-0.11375461156833598,-1.3169426110237734
-0.1891028346071787,-0.11005638671575554,-1.3169426110237734
-0.18904668460717872,-0.11005638671575554,-1.3169426110237734
-0.18899053460717868,-0.11005638671575387,-1.3169426110237734
-0.1889343846071787,-0.10635816186317175,-1.3169426110237734
-0.18887823460717867,-0.10635816186317175,-1.3169426110237734
-0.1888220846071787,-0.10635816186317175,-1.3169426110237734
-0.18876593460717872,-0.10635816186317175,-1.3169426110237734
-0.1887097846071787,-0.10635816186317175,-1.3169426110237734
-0.1886536346071787,-0.10635816186317175,-1.3169426110237734
-0.18859748460717868,-0.10265993701058794,-1.3169426110237734
-0.1885413346071787,-0.10265993701058794,-1.3169426110237734
-0.18848518460717872,-0.09896171215800582,-1.3169426110237734
-0.1884290346071787,-0.09896171215800414,-1.3169426110237734
-0.18837288460717871,-0.09896171215800414,-1.3169426110237734
-0.18831673460717868,-0.09896171215800414,-1.3169426110237734
-0.1882605846071787,-0.09896171215800414,-1.3169426110237734
-0.18820443460717867,-0.09896171215800079,-1.3169426110237734
-0.1881482846071787,-0.09526348730541867,-1.3169426110237734
-0.18809213460717872,-0.09156526245283655,-1.3169426110237734
-0.18803598460717869,-0.09156526245283655,-1.3169426110237734
-0.1879798346071787,-0.09156526245283655,-1.3169426110237734
-0.18792368460717868,-0.08786703760025275,-1.3169426110237734
-0.1878675346071787,-0.08786703760025275,-1.3169426110237734
-0.18781138460717872,-0.08786703760025275,-1.3169426110237734
-0.1877552346071787,-0.08786703760025107,-1.3169426110237734
-0.1876990846071787,-0.08416881274766895,-1.3169426110237734
-0.18764293460717868,-0.08416881274766895,-1.3169426110237734
-0.1875867846071787,-0.08416881274766895,-1.3169426110237734
-0.18753063460717867,-0.08047058789508515,-1.3169426110237734
-0.1874744846071787,-0.08047058789508515,-1.3169426110237734
-0.18741833460717872,-0.08047058789508515,-1.3169426110237734
-0.18736218460717868,-0.07677236304250135,-1.3169426110237734
-0.1873060346071787,-0.07677236304250135,-1.3169426110237734
-0.18724988460717867,-0.07677236304250135,-1.3169426110237734
-0.1871937346071787,-0.07677236304250135,-1.3169426110237734
-0.18713758460717872,-0.07677236304250135,-1.3169426110237734
-0.1870814346071787,-0.07307413818991755,-1.3169426110237734
-0.1870252846071787,-0.07307413818991755,-1.3169426110237734
-0.18696913460717868,-0.07307413818991755,-1.3169426110237734
-0.1869129846071787,-0.07307413818991755,-1.3169426110237734
-0.18685683460717872,-0.06937591333733376,-1.3169426110237734
-0.1868006846071787,-0.06937591333733376,-1.3169426110237734
-0.1867445346071787,-0.06937591333733376,-1.3169426110237734
-0.18668838460717868,-0.07307413818991587,-1.3169426110237734
-0.1866322346071787,-0.06937591333733376,-1.3169426110237734
-0.18657608460717867,-0.0693759133373304,-1.3169426110237734
-0.1865199346071787,-0.06567768848475163,-1.3169426110237734
-0.18646378460717872,-0.06937591333733376,-1.3169426110237734
-0.18640763460717868,-0.06567768848474995,-1.3169426110237734
-0.1863514846071787,-0.06567768848474995,-1.3169426110237734
-0.18629533460717868,-0.06197946363216615,-1.3169426110237734
-0.1862391846071787,-0.06197946363216615,-1.3169426110237734
-0.18618303460717872,-0.06197946363216615,-1.3169426110237734
-0.1861268846071787,-0.05828123877958403,-1.3169426110237752
-0.1860707346071787,-0.06197946363216615,-1.320649962004811
-0.18601458460717868,-0.05828123877958235,-1.3169426110237734
-0.1859584346071787,-0.05828123877958235,-1.3169426110237734
-0.18590228460717872,-0.05828123877958235,-1.3169426110237734
-0.1858461346071787,-0.05828123877958067,-1.3169426110237734
-0.18578998460717872,-0.054583013926998554,-1.3169426110237734
-0.18573383460717868,-0.054583013926998554,-1.3169426110237734
-0.1856776846071787,-0.054583013926998554,-1.3169426110237734
-0.18562153460717867,-0.054583013926996875,-1.3169426110237734
-0.1855653846071787,-0.05088478907441475,-1.3169426110237734
-0.18550923460717872,-0.05088478907441475,-1.3169426110237734
-0.1854530846071787,-0.05088478907441307,-1.3169426110237734
-0.1853969346071787,-0.04718656422183096,-1.3169426110237734
-0.18534078460717868,-0.04718656422183096,-1.3169426110237734
-0.1852846346071787,-0.04718656422183096,-1.3169426110237734
-0.18522848460717872,-0.043488339369247155,-1.3169426110237734
-0.1851723346071787,-0.043488339369247155,-1.3169426110237734
-0.1851161846071787,-0.043488339369247155,-1.3169426110237734
-0.18506003460717868,-0.043488339369245475,-1.3169426110237734
-0.1850038846071787,-0.03979011451666335,-1.3169426110237734
-0.18494773460717867,-0.03979011451665999,-1.3169426110237734
-0.1848915846071787,-0.03609188966407956,-1.3169426110237734
-0.18483543460717872,-0.03609188966407956,-1.3169426110237734
-0.18477928460717868,-0.03609188966407956,-1.3169426110237752
-0.1847231346071787,-0.03609188966407956,-1.320649962004811
-0.18466698460717867,-0.03609188966407956,-1.3169426110237734
-0.1846108346071787,-0.03609188966407788,-1.3169426110237734
-0.18455468460717872,-0.032393664811495755,-1.3169426110237734
-0.1844985346071787,-0.032393664811495755,-1.3169426110237734
-0.1844423846071787,-0.032393664811495755,-1.3169426110237734
-0.18438623460717868,-0.028695439958911956,-1.3169426110237734
-0.1843300846071787,-0.028695439958911956,-1.3169426110237734
-0.18427393460717872,-0.028695439958911956,-1.3169426110237734
-0.1842177846071787,-0.028695439958911956,-1.3169426110237734
-0.18416163460717871,-0.028695439958911956,-1.3169426110237734
-0.18410548460717868,-0.028695439958911956,-1.3169426110237734
-0.1840493346071787,-0.028695439958911956,-1.3169426110237734
-0.18399318460717867,-0.024997215106328158,-1.3169426110237734
-0.1839370346071787,-0.024997215106328158,-1.3169426110237734
-0.18388088460717872,-0.024997215106328158,-1.3169426110237734
-0.18382473460717869,-0.028695439958910274,-1.3169426110237734
-0.1837685846071787,-0.024997215106328158,-1.3169426110237734
-0.18371243460717868,-0.024997215106328158,-1.3169426110237734
-0.1836562846071787,-0.024997215106328158,-1.3169426110237734
-0.18360013460717872,-0.024997215106328158,-1.3169426110237734
-0.1835439846071787,-0.024997215106326475,-1.3169426110237752
-0.1834878346071787,-0.021298990253744356,-1.320649962004811
-0.18343168460717868,-0.024997215106328158,-1.3169426110237734
-0.1833755346071787,-0.024997215106328158,-1.3169426110237734
-0.18331938460717867,-0.021298990253744356,-1.320649962004811
-0.1832632346071787,-0.021298990253744356,-1.3206499620048093
-0.18320708460717872,-0.021298990253744356,-1.3169426110237734
-0.18315093460717868,-0.02129899025374604,-1.3169426110237734
-0.1830947846071787,-0.024997215106328158,-1.3169426110237734
-0.18303863460717867,-0.024997215106326475,-1.3169426110237734
-0.1829824846071787,-0.021298990253744356,-1.3169426110237734
-0.18292633460717872,-0.021298990253744356,-1.3169426110237734
-0.1828701846071787,-0.021298990253744356,-1.3169426110237734
-0.1828140346071787,-0.021298990253744356,-1.3169426110237734
-0.18275788460717868,-0.021298990253744356,-1.3169426110237734
-0.1827017346071787,-0.021298990253744356,-1.3169426110237734
-0.18264558460717872,-0.021298990253744356,-1.3169426110237734
-0.1825894346071787,-0.017600765401160557,-1.320649962004811
-0.18253328460717871,-0.017600765401160557,-1.320649962004811
-0.18247713460717868,-0.021298990253742673,-1.320649962004811
-0.1824209846071787,-0.017600765401160557,-1.320649962004811
-0.18236483460717867,-0.017600765401160557,-1.3169426110237767
-0.1823086846071787,-0.017600765401160557,-1.320649962004811
-0.18225253460717872,-0.017600765401160557,-1.320649962004811
-0.18219638460717869,-0.017600765401158874,-1.3169426110237752
-0.1821402346071787,-0.013902540548576758,-1.320649962004811
-0.18208408460717868,-0.013902540548576758,-1.3169426110237752
-0.1820279346071787,-0.013902540548576758,-1.3206499620048093
-0.18197178460717872,-0.013902540548576758,-1.3169426110237734
-0.1819156346071787,-0.013902540548576758,-1.3169426110237752
-0.1818594846071787,-0.013902540548576758,-1.320649962004811
-0.18180333460717868,-0.013902540548576758,-1.320649962004811
-0.1817471846071787,-0.013902540548576758,-1.320649962004811
-0.18169103460717873,-0.013902540548576758,-1.3169426110237752
-0.1816348846071787,-0.010204315695994639,-1.3206499620048093
-0.18157873460717872,-0.013902540548576758,-1.3169426110237734
-0.18152258460717868,-0.013902540548576758,-1.320649962004811
-0.1814664346071787,-0.013902540548576758,-1.320649962004811
-0.18141028460717867,-0.013902540548576758,-1.3206499620048093
-0.1813541346071787,-0.013902540548576758,-1.3169426110237752
-0.18129798460717872,-0.013902540548576758,-1.320649962004811
-0.1812418346071787,-0.013902540548576758,-1.320649962004811
-0.1811856846071787,-0.013902540548576758,-1.320649962004811
-0.18112953460717868,-0.010204315695994639,-1.3169426110237734
-0.1810733846071787,-0.013902540548576758,-1.3169426110237734
-0.18101723460717872,-0.013902540548576758,-1.3169426110237734
-0.1809610846071787,-0.013902540548576758,-1.3169426110237752
-0.1809049346071787,-0.013902540548576758,-1.320649962004811
-0.18084878460717868,-0.013902540548576758,-1.3169426110237734
-0.1807926346071787,-0.013902540548576758,-1.3169426110237734
-0.18073648460717867,-0.013902540548576758,-1.3169426110237734
-0.1806803346071787,-0.013902540548576758,-1.3169426110237752
-0.18062418460717872,-0.013902540548576758,-1.320649962004811
-0.18056803460717868,-0.013902540548576758,-1.3206499620048093
-0.1805118846071787,-0.013902540548576758,-1.3169426110237734
-0.18045573460717867,-0.017600765401160557,-1.3169426110237752
-0.1803995846071787,-0.017600765401160557,-1.3206499620048093
-0.18034343460717872,-0.017600765401160557,-1.3169426110237734
-0.1802872846071787,-0.01390254054857844,-1.320649962004811
-0.1802311346071787,-0.017600765401160557,-1.320649962004811
-0.18017498460717868,-0.013902540548576758,-1.3206499620048093
-0.1801188346071787,-0.013902540548576758,-1.3169426110237734
-0.18006268460717872,-0.017600765401158874,-1.3169426110237734
