acq0029.csv

#Digilent WaveForms Oscilloscope Acquisition
#Device Name: Discovery2
#Serial Number: SN:210321AA28BE
#Date Time: 2023-05-24 14:52:23.538
#Sample rate: 17809.4Hz
#Samples: 8192
#Trigger: Source: Channel 1 Type: Edge Condition: Rising Level: 800 mV Hyst.: Auto HoldOff: 100 ns
#Channel 1: Range: 1 V/div Offset: 0 V Attenuation: 1 X Sample Mode: Average
#Channel 2: Range: 1 V/div Offset: 0 V Attenuation: 1 X Sample Mode: Average

Time (s),Channel 1 (V),Channel 2 (V)
-0.19771482635851825,-0.05828123877958235,-1.3132352600427357
-0.19765867635851825,-0.06937591333733376,-1.3132352600427357
-0.19760252635851824,-0.07677236304250135,-1.3169426110237734
-0.19754637635851824,-0.08416881274766895,-1.3132352600427357
-0.19749022635851826,-0.09896171215800414,-1.3169426110237734
-0.19743407635851826,-0.10265993701058794,-1.3169426110237734
-0.19737792635851825,-0.11005638671575554,-1.3169426110237734
-0.19732177635851825,-0.11375461156833934,-1.3169426110237734
-0.19726562635851824,-0.11745283642092315,-1.3169426110237734
-0.19720947635851824,-0.1285475109786779,-1.3169426110237716
-0.19715332635851826,-0.13594396068384215,-1.3132352600427357
-0.19709717635851826,-0.14334041038900974,-1.3169426110237734
-0.19704102635851825,-0.13964218553642593,-1.3169426110237734
-0.19698487635851825,-0.14703863524159355,-1.3169426110237734
-0.19692872635851824,-0.14703863524159355,-1.3169426110237734
-0.19687257635851826,-0.15443508494675778,-1.3169426110237734
-0.19681642635851826,-0.15813330979934495,-1.3169426110237734
-0.19676027635851825,-0.15813330979934495,-1.3169426110237734
-0.19670412635851825,-0.16183153465192873,-1.3169426110237734
-0.19664797635851824,-0.16552975950451254,-1.3132352600427357
-0.19659182635851824,-0.16552975950451254,-1.3169426110237734
-0.19653567635851826,-0.16922798435709635,-1.3169426110237734
-0.19647952635851826,-0.16922798435709635,-1.3169426110237734
-0.19642337635851825,-0.17292620920968013,-1.3132352600427357
-0.19636722635851825,-0.17292620920968013,-1.3132352600427357
-0.19631107635851824,-0.17662443406226394,-1.3169426110237734
-0.19625492635851824,-0.17662443406226394,-1.3169426110237734
-0.19619877635851826,-0.18032265891484775,-1.3169426110237734
-0.19614262635851826,-0.18032265891484775,-1.3169426110237734
-0.19608647635851825,-0.18032265891484775,-1.3132352600427357
-0.19603032635851825,-0.18032265891484775,-1.3169426110237734
-0.19597417635851824,-0.18032265891484775,-1.3132352600427357
-0.19591802635851824,-0.18402088376743153,-1.3132352600427375
-0.19586187635851826,-0.18402088376743153,-1.3169426110237734
-0.19580572635851826,-0.18771910862001534,-1.3169426110237734
-0.19574957635851825,-0.18771910862001534,-1.3169426110237734
-0.19569342635851825,-0.18771910862001534,-1.3169426110237734
-0.19563727635851824,-0.18771910862001534,-1.3169426110237734
-0.19558112635851826,-0.18771910862001534,-1.3132352600427375
-0.19552497635851826,-0.18771910862001534,-1.3169426110237734
-0.19546882635851826,-0.18771910862001534,-1.3169426110237734
-0.19541267635851825,-0.18771910862001534,-1.3169426110237734
-0.19535652635851825,-0.18771910862001534,-1.3169426110237734
-0.19530037635851824,-0.19141733347259912,-1.3169426110237734
-0.19524422635851826,-0.19141733347259912,-1.3169426110237734
-0.19518807635851826,-0.19141733347259912,-1.3132352600427357
-0.19513192635851825,-0.19141733347259912,-1.3169426110237734
-0.19507577635851825,-0.19141733347259912,-1.3169426110237734
-0.19501962635851824,-0.19141733347259912,-1.3169426110237734
-0.19496347635851824,-0.18771910862001534,-1.3132352600427357
-0.19490732635851826,-0.19141733347259912,-1.3132352600427357
-0.19485117635851826,-0.19141733347259912,-1.3169426110237734
-0.19479502635851825,-0.19141733347259912,-1.3132352600427357
-0.19473887635851825,-0.18771910862001534,-1.3169426110237734
-0.19468272635851824,-0.18771910862001534,-1.3169426110237734
-0.19462657635851824,-0.18771910862001534,-1.3132352600427375
-0.19457042635851826,-0.18771910862001534,-1.3169426110237734
-0.19451427635851826,-0.18771910862001534,-1.3132352600427357
-0.19445812635851825,-0.18771910862001534,-1.3169426110237734
-0.19440197635851825,-0.18402088376743153,-1.3169426110237734
-0.19434582635851824,-0.18402088376743153,-1.3169426110237734
-0.19428967635851827,-0.18402088376743153,-1.3132352600427375
-0.19423352635851826,-0.18771910862001534,-1.3169426110237734
-0.19417737635851826,-0.18402088376743153,-1.3169426110237734
-0.19412122635851825,-0.18402088376743153,-1.3169426110237734
-0.19406507635851825,-0.18402088376743153,-1.3169426110237734
-0.19400892635851824,-0.18402088376743153,-1.3169426110237734
-0.19395277635851826,-0.18032265891484775,-1.3169426110237734
-0.19389662635851826,-0.18032265891484775,-1.3132352600427357
-0.19384047635851825,-0.18032265891484775,-1.3132352600427357
-0.19378432635851825,-0.17662443406226394,-1.3132352600427357
-0.19372817635851824,-0.17662443406226394,-1.3132352600427357
-0.19367202635851824,-0.17662443406226394,-1.3132352600427357
-0.19361587635851826,-0.17292620920968013,-1.3169426110237734
-0.19355972635851826,-0.17292620920968013,-1.3169426110237734
-0.19350357635851825,-0.17292620920968013,-1.3132352600427357
-0.19344742635851825,-0.16922798435709635,-1.3169426110237734
-0.19339127635851824,-0.16922798435709635,-1.3169426110237734
-0.19333512635851824,-0.16922798435709635,-1.3169426110237734
-0.19327897635851826,-0.16922798435709635,-1.3169426110237734
-0.19322282635851826,-0.16922798435709635,-1.3132352600427357
-0.19316667635851825,-0.16552975950451254,-1.3169426110237734
-0.19311052635851825,-0.16552975950451254,-1.3132352600427357
-0.19305437635851824,-0.16552975950451254,-1.3132352600427357
-0.19299822635851824,-0.16552975950451085,-1.3169426110237734
-0.19294207635851826,-0.16183153465192873,-1.3169426110237734
-0.19288592635851826,-0.16183153465192873,-1.3169426110237734
-0.19282977635851825,-0.16183153465192873,-1.3169426110237734
-0.19277362635851825,-0.16183153465192873,-1.3169426110237734
-0.19271747635851824,-0.16183153465192873,-1.3169426110237734
-0.19266132635851826,-0.15813330979934664,-1.3169426110237734
-0.19260517635851826,-0.15813330979934495,-1.3132352600427357
-0.19254902635851825,-0.15813330979934495,-1.3132352600427357
-0.19249287635851825,-0.15813330979934495,-1.3169426110237734
-0.19243672635851825,-0.15813330979934495,-1.3169426110237734
-0.19238057635851824,-0.15813330979934495,-1.3169426110237734
-0.19232442635851826,-0.15443508494676114,-1.3169426110237734
-0.19226827635851826,-0.15443508494676114,-1.3169426110237734
-0.19221212635851825,-0.15073686009417733,-1.3169426110237734
-0.19215597635851825,-0.15443508494676114,-1.3169426110237734
-0.19209982635851824,-0.15073686009417733,-1.3132352600427357
-0.19204367635851824,-0.15073686009417733,-1.3169426110237734
-0.19198752635851826,-0.15073686009417733,-1.3132352600427357
-0.19193137635851826,-0.14703863524159355,-1.3169426110237734
-0.19187522635851825,-0.14703863524159355,-1.3169426110237734
-0.19181907635851825,-0.14334041038900974,-1.3169426110237734
-0.19176292635851824,-0.14334041038900974,-1.3169426110237734
-0.19170677635851824,-0.14334041038900974,-1.3169426110237734
-0.19165062635851826,-0.14334041038900974,-1.3169426110237734
-0.19159447635851826,-0.13964218553642593,-1.3169426110237734
-0.19153832635851825,-0.13964218553642593,-1.3132352600427357
-0.19148217635851825,-0.13594396068384215,-1.3169426110237734
-0.19142602635851824,-0.13594396068384215,-1.3169426110237734
-0.19136987635851826,-0.13594396068384215,-1.3169426110237734
-0.19131372635851826,-0.13224573583125834,-1.3169426110237734
-0.19125757635851826,-0.13224573583125834,-1.3169426110237734
-0.19120142635851825,-0.13224573583125834,-1.3169426110237734
-0.19114527635851825,-0.12854751097867453,-1.3169426110237734
-0.19108912635851824,-0.12854751097867453,-1.3169426110237734
-0.19103297635851826,-0.12484928612609074,-1.3169426110237734
-0.19097682635851826,-0.12484928612609074,-1.3169426110237734
-0.19092067635851825,-0.12484928612609074,-1.3169426110237734
-0.19086452635851825,-0.12484928612609074,-1.3169426110237734
-0.19080837635851824,-0.12484928612609074,-1.3169426110237734
-0.19075222635851824,-0.12115106127350694,-1.3169426110237734
-0.19069607635851826,-0.12115106127350694,-1.3169426110237734
-0.19063992635851826,-0.12115106127350694,-1.3169426110237734
-0.19058377635851825,-0.12115106127350694,-1.3169426110237734
-0.19052762635851825,-0.11745283642092315,-1.3169426110237734
-0.19047147635851824,-0.11745283642092315,-1.3169426110237734
-0.19041532635851824,-0.11375461156833934,-1.3169426110237734
-0.19035917635851826,-0.11375461156833934,-1.3169426110237734
-0.19030302635851826,-0.11375461156833934,-1.3169426110237734
-0.19024687635851825,-0.11375461156833934,-1.3169426110237734
-0.19019072635851825,-0.11005638671575554,-1.3169426110237734
-0.19013457635851824,-0.11005638671575554,-1.3169426110237734
-0.19007842635851827,-0.10635816186317343,-1.3132352600427375
-0.19002227635851826,-0.10635816186317175,-1.3169426110237734
-0.18996612635851826,-0.10635816186317175,-1.3169426110237734
-0.18990997635851825,-0.10265993701058794,-1.3169426110237734
-0.18985382635851825,-0.10265993701058794,-1.3169426110237734
-0.18979767635851824,-0.10265993701058794,-1.3169426110237734
-0.18974152635851826,-0.10265993701058794,-1.3169426110237734
-0.18968537635851826,-0.09896171215800414,-1.3169426110237734
-0.18962922635851825,-0.09526348730542035,-1.3169426110237734
-0.18957307635851825,-0.09526348730542035,-1.3169426110237734
-0.18951692635851825,-0.09526348730542035,-1.3169426110237734
-0.18946077635851824,-0.09526348730542035,-1.3132352600427357
-0.18940462635851826,-0.09526348730542035,-1.3169426110237734
-0.18934847635851826,-0.09526348730542035,-1.3169426110237734
-0.18929232635851825,-0.09156526245283655,-1.3169426110237734
-0.18923617635851825,-0.09156526245283655,-1.3169426110237734
-0.18918002635851824,-0.09156526245283655,-1.3169426110237734
-0.18912387635851824,-0.08786703760025275,-1.3169426110237734
-0.18906772635851826,-0.08786703760025275,-1.3132352600427357
-0.18901157635851826,-0.08786703760025275,-1.3132352600427357
-0.18895542635851825,-0.08416881274766895,-1.3169426110237734
-0.18889927635851825,-0.08416881274766895,-1.3169426110237734
-0.18884312635851824,-0.08416881274766895,-1.3169426110237734
-0.18878697635851824,-0.08416881274766895,-1.3169426110237734
-0.18873082635851826,-0.08416881274766895,-1.3169426110237734
-0.18867467635851826,-0.08047058789508515,-1.3169426110237734
-0.18861852635851825,-0.08416881274766895,-1.3169426110237734
-0.18856237635851825,-0.08047058789508515,-1.3169426110237734
-0.18850622635851824,-0.08047058789508515,-1.3169426110237734
-0.18845007635851826,-0.07677236304250303,-1.3169426110237734
-0.18839392635851826,-0.07677236304250135,-1.3169426110237734
-0.18833777635851826,-0.07677236304250135,-1.3169426110237734
-0.18828162635851825,-0.07677236304250135,-1.3169426110237734
-0.18822547635851825,-0.07307413818991755,-1.3169426110237734
-0.18816932635851824,-0.07307413818991755,-1.3169426110237734
-0.18811317635851826,-0.07307413818991755,-1.3169426110237734
-0.18805702635851826,-0.07307413818991755,-1.3169426110237734
-0.18800087635851825,-0.07307413818991755,-1.3169426110237734
-0.18794472635851825,-0.07307413818991755,-1.3169426110237734
-0.18788857635851824,-0.06937591333733376,-1.3169426110237734
-0.18783242635851824,-0.06937591333733376,-1.3169426110237734
-0.18777627635851826,-0.06567768848474995,-1.3169426110237734
-0.18772012635851826,-0.06567768848474995,-1.3169426110237734
-0.18766397635851825,-0.06567768848474995,-1.3169426110237734
-0.18760782635851825,-0.06567768848474995,-1.3169426110237734
-0.18755167635851824,-0.06567768848474995,-1.3169426110237734
-0.18749552635851824,-0.06567768848474827,-1.3169426110237734
-0.18743937635851826,-0.06197946363216615,-1.3169426110237734
-0.18738322635851826,-0.06197946363216615,-1.3169426110237734
-0.18732707635851825,-0.05828123877958235,-1.3169426110237734
-0.18727092635851825,-0.05828123877958235,-1.3169426110237734
-0.18721477635851824,-0.05828123877958235,-1.3169426110237734
-0.18715862635851827,-0.05458301392700023,-1.3169426110237734
-0.18710247635851826,-0.054583013926998554,-1.3169426110237734
-0.18704632635851826,-0.054583013926998554,-1.3169426110237734
-0.18699017635851825,-0.054583013926998554,-1.3169426110237734
-0.18693402635851825,-0.05088478907441475,-1.3169426110237734
-0.18687787635851824,-0.05088478907441475,-1.3169426110237734
-0.18682172635851826,-0.05088478907441475,-1.3169426110237734
-0.18676557635851826,-0.05088478907441475,-1.3169426110237734
-0.18670942635851825,-0.04718656422183096,-1.3169426110237734
-0.18665327635851825,-0.04718656422183096,-1.3169426110237734
-0.18659712635851824,-0.04718656422183096,-1.3169426110237734
-0.18654097635851824,-0.04718656422183096,-1.3169426110237734
-0.18648482635851826,-0.043488339369247155,-1.3169426110237734
-0.18642867635851826,-0.043488339369247155,-1.3169426110237734
-0.18637252635851825,-0.043488339369247155,-1.3169426110237734
-0.18631637635851825,-0.03979011451666335,-1.3169426110237734
-0.18626022635851824,-0.03979011451666335,-1.3169426110237734
-0.18620407635851824,-0.043488339369247155,-1.3169426110237734
-0.18614792635851826,-0.043488339369247155,-1.3169426110237734
-0.18609177635851826,-0.03979011451666335,-1.3169426110237734
-0.18603562635851825,-0.03979011451666335,-1.3169426110237734
-0.18597947635851825,-0.03979011451666335,-1.3169426110237734
-0.18592332635851824,-0.03979011451666335,-1.3169426110237734
-0.18586717635851827,-0.036091889664081236,-1.3169426110237734
-0.18581102635851826,-0.03609188966407956,-1.3169426110237734
-0.18575487635851826,-0.03609188966407956,-1.3169426110237734
-0.18569872635851825,-0.03609188966407956,-1.3169426110237734
-0.18564257635851825,-0.032393664811495755,-1.3169426110237734
-0.18558642635851824,-0.03609188966407956,-1.3169426110237734
-0.18553027635851826,-0.032393664811495755,-1.3169426110237734
-0.18547412635851826,-0.032393664811495755,-1.3169426110237734
-0.18541797635851825,-0.032393664811495755,-1.3169426110237734
-0.18536182635851825,-0.03609188966407956,-1.3169426110237734
-0.18530567635851825,-0.03609188966407956,-1.3169426110237734
-0.18524952635851824,-0.03609188966407956,-1.320649962004811
-0.18519337635851826,-0.03609188966407956,-1.3169426110237734
-0.18513722635851826,-0.032393664811495755,-1.3169426110237734
-0.18508107635851825,-0.032393664811495755,-1.3169426110237734
-0.18502492635851825,-0.032393664811495755,-1.3169426110237734
-0.18496877635851824,-0.028695439958911956,-1.3169426110237734
-0.18491262635851824,-0.032393664811495755,-1.3169426110237734
-0.18485647635851826,-0.032393664811495755,-1.3169426110237734
-0.18480032635851826,-0.032393664811495755,-1.3169426110237734
-0.18474417635851825,-0.028695439958911956,-1.3169426110237734
-0.18468802635851825,-0.028695439958911956,-1.3169426110237734
-0.18463187635851824,-0.032393664811495755,-1.3169426110237734
-0.18457572635851824,-0.028695439958911956,-1.3169426110237734
-0.18451957635851826,-0.028695439958911956,-1.3169426110237734
-0.18446342635851826,-0.028695439958911956,-1.3169426110237734
-0.18440727635851825,-0.028695439958911956,-1.3169426110237734
-0.18435112635851825,-0.028695439958911956,-1.3169426110237734
-0.18429497635851824,-0.024997215106328158,-1.3169426110237734
-0.18423882635851827,-0.028695439958910274,-1.3169426110237734
-0.18418267635851826,-0.028695439958911956,-1.3169426110237734
-0.18412652635851826,-0.024997215106328158,-1.3169426110237734
-0.18407037635851825,-0.024997215106328158,-1.3169426110237734
-0.18401422635851825,-0.028695439958911956,-1.3169426110237734
-0.18395807635851824,-0.024997215106328158,-1.3169426110237734
-0.18390192635851826,-0.024997215106328158,-1.3169426110237734
-0.18384577635851826,-0.024997215106328158,-1.3169426110237734
-0.18378962635851825,-0.024997215106328158,-1.3169426110237734
-0.18373347635851825,-0.024997215106328158,-1.3169426110237734
-0.18367732635851824,-0.024997215106328158,-1.3169426110237734
-0.18362117635851824,-0.024997215106328158,-1.3169426110237734
-0.18356502635851826,-0.024997215106328158,-1.3169426110237734
-0.18350887635851826,-0.021298990253744356,-1.3169426110237734
-0.18345272635851825,-0.024997215106328158,-1.3169426110237734
-0.18339657635851825,-0.028695439958911956,-1.3169426110237734
-0.18334042635851824,-0.024997215106328158,-1.320649962004811
-0.18328427635851824,-0.024997215106328158,-1.3169426110237752
-0.18322812635851826,-0.024997215106328158,-1.320649962004811
-0.18317197635851826,-0.024997215106328158,-1.3169426110237734
-0.18311582635851825,-0.024997215106328158,-1.3169426110237734
-0.18305967635851825,-0.024997215106328158,-1.3169426110237734
-0.18300352635851824,-0.024997215106328158,-1.3169426110237734
-0.18294737635851827,-0.024997215106328158,-1.3169426110237734
-0.18289122635851826,-0.024997215106328158,-1.3169426110237734
-0.18283507635851826,-0.028695439958911956,-1.3169426110237734
-0.18277892635851825,-0.028695439958911956,-1.320649962004811
-0.18272277635851825,-0.024997215106328158,-1.3169426110237734
-0.18266662635851824,-0.028695439958911956,-1.3169426110237734
-0.18261047635851826,-0.028695439958911956,-1.3169426110237734
-0.18255432635851826,-0.028695439958911956,-1.3169426110237734
-0.18249817635851825,-0.024997215106328158,-1.3169426110237734
-0.18244202635851825,-0.024997215106328158,-1.3169426110237734
-0.18238587635851825,-0.024997215106328158,-1.3169426110237734
-0.18232972635851824,-0.024997215106328158,-1.3169426110237734
-0.18227357635851826,-0.024997215106328158,-1.3169426110237734
-0.18221742635851826,-0.024997215106328158,-1.3169426110237734
-0.18216127635851825,-0.028695439958911956,-1.3169426110237734
-0.18210512635851825,-0.028695439958911956,-1.320649962004811
-0.18204897635851824,-0.028695439958911956,-1.3169426110237734
-0.18199282635851824,-0.028695439958911956,-1.3206499620048093
-0.18193667635851826,-0.028695439958911956,-1.3169426110237734
-0.18188052635851826,-0.032393664811495755,-1.3169426110237734
-0.18182437635851825,-0.028695439958911956,-1.3169426110237734
-0.18176822635851825,-0.028695439958911956,-1.3169426110237734
-0.18171207635851824,-0.032393664811495755,-1.3169426110237734
-0.18165592635851827,-0.032393664811495755,-1.3169426110237734
-0.18159977635851826,-0.032393664811495755,-1.3169426110237734
-0.18154362635851826,-0.032393664811495755,-1.320649962004811
-0.18148747635851825,-0.032393664811495755,-1.320649962004811
-0.18143132635851825,-0.032393664811495755,-1.3169426110237734
-0.18137517635851824,-0.032393664811495755,-1.3169426110237734
-0.18131902635851826,-0.03609188966407956,-1.3169426110237734
-0.18126287635851826,-0.03609188966407956,-1.3169426110237734
-0.18120672635851826,-0.032393664811495755,-1.3169426110237734
-0.18115057635851825,-0.03609188966407956,-1.3169426110237734
-0.18109442635851825,-0.03609188966407956,-1.3169426110237734
-0.18103827635851824,-0.03609188966407956,-1.3169426110237734
-0.18098212635851826,-0.03609188966407956,-1.3169426110237734
-0.18092597635851826,-0.03609188966407956,-1.3169426110237734
-0.18086982635851825,-0.03609188966407956,-1.3169426110237734
-0.18081367635851825,-0.03609188966407956,-1.3169426110237734
-0.18075752635851824,-0.03609188966407956,-1.3169426110237734
-0.18070137635851824,-0.03609188966407956,-1.3169426110237734
-0.18064522635851826,-0.03609188966407956,-1.320649962004811
-0.18058907635851826,-0.03609188966407956,-1.320649962004811
-0.18053292635851825,-0.03609188966407956,-1.3169426110237734
-0.18047677635851825,-0.03609188966407956,-1.3169426110237734
-0.18042062635851824,-0.03609188966407956,-1.3169426110237734
-0.18036447635851824,-0.03609188966407956,-1.3169426110237734
-0.18030832635851826,-0.03609188966407956,-1.3169426110237734
-0.18025217635851826,-0.03979011451666335,-1.320649962004811
-0.18019602635851825,-0.03979011451666335,-1.3169426110237734
