acq0070.csv

#Digilent WaveForms Oscilloscope Acquisition
#Device Name: Discovery2
#Serial Number: SN:210321AA28BE
#Date Time: 2023-05-24 14:52:44.036
#Sample rate: 17809.4Hz
#Samples: 8192
#Trigger: Source: Channel 1 Type: Edge Condition: Rising Level: 800 mV Hyst.: Auto HoldOff: 100 ns
#Channel 1: Range: 1 V/div Offset: 0 V Attenuation: 1 X Sample Mode: Average
#Channel 2: Range: 1 V/div Offset: 0 V Attenuation: 1 X Sample Mode: Average

Time (s),Channel 1 (V),Channel 2 (V)
-0.1977148314612617,-0.07677236304250135,-1.3169426110237734
-0.1976586814612617,-0.08416881274766895,-1.3169426110237734
-0.1976025314612617,-0.09156526245283655,-1.3169426110237734
-0.1975463814612617,-0.10265993701058794,-1.3169426110237734
-0.1974902314612617,-0.11005638671575554,-1.3132352600427357
-0.1974340814612617,-0.11745283642092315,-1.3169426110237734
-0.1973779314612617,-0.12484928612609074,-1.3169426110237734
-0.1973217814612617,-0.12854751097867453,-1.3169426110237734
-0.1972656314612617,-0.13594396068384215,-1.3169426110237734
-0.1972094814612617,-0.13964218553642763,-1.3169426110237734
-0.1971533314612617,-0.14334041038900974,-1.3169426110237734
-0.1970971814612617,-0.14703863524159355,-1.3169426110237734
-0.1970410314612617,-0.15073686009417733,-1.3169426110237734
-0.1969848814612617,-0.15443508494676114,-1.3169426110237734
-0.1969287314612617,-0.15443508494676114,-1.3169426110237734
-0.19687258146126171,-0.15813330979934326,-1.3132352600427375
-0.1968164314612617,-0.16183153465192873,-1.3132352600427357
-0.1967602814612617,-0.16183153465192873,-1.3169426110237734
-0.1967041314612617,-0.16183153465192873,-1.3169426110237734
-0.1966479814612617,-0.16552975950451254,-1.3132352600427357
-0.1965918314612617,-0.16552975950451254,-1.3132352600427357
-0.1965356814612617,-0.16552975950451254,-1.3132352600427357
-0.1964795314612617,-0.16922798435709635,-1.3132352600427357
-0.1964233814612617,-0.16552975950451254,-1.3132352600427357
-0.1963672314612617,-0.16922798435709635,-1.3132352600427357
-0.1963110814612617,-0.16922798435709635,-1.3169426110237734
-0.1962549314612617,-0.16922798435709635,-1.3169426110237734
-0.1961987814612617,-0.16922798435709635,-1.3169426110237734
-0.1961426314612617,-0.16922798435709635,-1.3169426110237734
-0.1960864814612617,-0.17292620920968013,-1.3169426110237734
-0.1960303314612617,-0.17292620920968013,-1.3169426110237734
-0.1959741814612617,-0.17292620920968013,-1.3169426110237734
-0.1959180314612617,-0.16922798435709635,-1.3169426110237734
-0.1958618814612617,-0.16922798435709635,-1.3169426110237734
-0.1958057314612617,-0.16922798435709635,-1.3132352600427357
-0.1957495814612617,-0.16922798435709635,-1.3132352600427357
-0.1956934314612617,-0.16922798435709635,-1.3169426110237734
-0.1956372814612617,-0.16922798435709635,-1.3169426110237734
-0.19558113146126171,-0.16922798435709635,-1.3169426110237734
-0.1955249814612617,-0.16922798435709635,-1.3169426110237734
-0.1954688314612617,-0.16922798435709635,-1.3169426110237734
-0.1954126814612617,-0.16552975950451254,-1.3132352600427357
-0.1953565314612617,-0.16552975950451254,-1.3132352600427357
-0.1953003814612617,-0.16552975950451254,-1.3169426110237734
-0.1952442314612617,-0.16183153465192873,-1.3169426110237734
-0.1951880814612617,-0.16183153465192873,-1.3169426110237734
-0.1951319314612617,-0.16183153465192873,-1.3169426110237734
-0.1950757814612617,-0.16183153465192873,-1.3169426110237734
-0.1950196314612617,-0.15813330979934495,-1.3169426110237734
-0.1949634814612617,-0.15813330979934495,-1.3169426110237734
-0.1949073314612617,-0.15813330979934495,-1.3169426110237734
-0.1948511814612617,-0.15443508494676114,-1.3169426110237734
-0.1947950314612617,-0.15443508494676114,-1.3169426110237734
-0.1947388814612617,-0.15443508494676114,-1.3169426110237734
-0.1946827314612617,-0.15443508494676114,-1.3169426110237734
-0.1946265814612617,-0.15443508494675945,-1.3132352600427375
-0.1945704314612617,-0.15073686009417733,-1.3169426110237734
-0.1945142814612617,-0.15073686009417733,-1.3169426110237734
-0.1944581314612617,-0.15073686009417733,-1.3169426110237734
-0.1944019814612617,-0.14703863524159355,-1.3169426110237734
-0.1943458314612617,-0.14703863524159355,-1.3132352600427357
-0.19428968146126172,-0.14703863524159355,-1.3169426110237716
-0.1942335314612617,-0.14334041038900974,-1.3169426110237734
-0.1941773814612617,-0.14334041038900974,-1.3169426110237734
-0.1941212314612617,-0.13964218553642593,-1.3169426110237734
-0.1940650814612617,-0.13964218553642593,-1.3169426110237734
-0.1940089314612617,-0.13964218553642593,-1.3169426110237734
-0.19395278146126171,-0.13594396068384215,-1.3169426110237734
-0.1938966314612617,-0.13594396068384215,-1.3169426110237734
-0.1938404814612617,-0.13224573583125834,-1.3169426110237734
-0.1937843314612617,-0.13224573583125834,-1.3169426110237734
-0.1937281814612617,-0.13224573583125834,-1.3169426110237734
-0.1936720314612617,-0.12854751097867453,-1.3169426110237734
-0.1936158814612617,-0.12854751097867453,-1.3169426110237734
-0.1935597314612617,-0.12484928612609074,-1.3169426110237734
-0.1935035814612617,-0.12484928612609074,-1.3169426110237734
-0.1934474314612617,-0.12484928612609074,-1.3169426110237734
-0.1933912814612617,-0.12115106127350694,-1.3169426110237734
-0.1933351314612617,-0.12115106127350694,-1.3169426110237734
-0.1932789814612617,-0.12115106127350694,-1.3169426110237734
-0.1932228314612617,-0.11745283642092315,-1.3169426110237734
-0.1931666814612617,-0.11745283642092315,-1.3169426110237734
-0.1931105314612617,-0.11745283642092315,-1.3169426110237734
-0.1930543814612617,-0.11375461156833934,-1.3169426110237734
-0.1929982314612617,-0.11375461156833766,-1.3169426110237734
-0.1929420814612617,-0.11005638671575554,-1.3169426110237734
-0.1928859314612617,-0.11375461156833934,-1.3169426110237734
-0.1928297814612617,-0.11005638671575554,-1.3169426110237734
-0.1927736314612617,-0.11005638671575554,-1.3169426110237734
-0.1927174814612617,-0.11005638671575554,-1.3169426110237734
-0.19266133146126171,-0.11005638671575554,-1.3169426110237734
-0.1926051814612617,-0.10635816186317175,-1.3169426110237734
-0.1925490314612617,-0.10635816186317175,-1.3169426110237734
-0.1924928814612617,-0.10635816186317175,-1.3169426110237734
-0.1924367314612617,-0.10635816186317175,-1.3169426110237734
-0.1923805814612617,-0.10265993701058794,-1.3169426110237734
-0.1923244314612617,-0.10265993701058794,-1.3169426110237734
-0.1922682814612617,-0.10265993701058794,-1.3169426110237734
-0.1922121314612617,-0.10265993701058794,-1.3169426110237734
-0.1921559814612617,-0.09896171215800414,-1.3169426110237734
-0.1920998314612617,-0.09896171215800414,-1.3169426110237734
-0.1920436814612617,-0.10265993701058794,-1.3169426110237734
-0.1919875314612617,-0.10265993701058794,-1.3169426110237734
-0.1919313814612617,-0.09896171215800414,-1.3169426110237734
-0.1918752314612617,-0.09896171215800414,-1.3169426110237734
-0.1918190814612617,-0.09896171215800414,-1.3169426110237734
-0.1917629314612617,-0.09896171215800414,-1.3169426110237734
-0.1917067814612617,-0.09526348730542035,-1.3169426110237734
-0.1916506314612617,-0.09526348730542035,-1.3169426110237734
-0.1915944814612617,-0.09526348730542035,-1.3169426110237734
-0.1915383314612617,-0.09526348730542035,-1.3169426110237734
-0.1914821814612617,-0.09526348730542035,-1.3169426110237734
-0.1914260314612617,-0.09526348730542035,-1.3169426110237734
-0.19136988146126171,-0.09526348730542035,-1.3169426110237734
-0.1913137314612617,-0.09526348730542035,-1.3169426110237734
-0.1912575814612617,-0.09156526245283655,-1.3169426110237734
-0.1912014314612617,-0.09156526245283655,-1.3169426110237734
-0.1911452814612617,-0.09156526245283655,-1.3169426110237734
-0.1910891314612617,-0.08786703760025275,-1.3169426110237734
-0.1910329814612617,-0.09156526245283655,-1.3169426110237734
-0.1909768314612617,-0.08786703760025275,-1.3169426110237734
-0.1909206814612617,-0.08786703760025275,-1.3169426110237734
-0.1908645314612617,-0.08416881274766895,-1.3169426110237734
-0.1908083814612617,-0.08786703760025275,-1.3169426110237734
-0.1907522314612617,-0.08416881274766895,-1.3169426110237734
-0.1906960814612617,-0.08416881274766895,-1.3169426110237734
-0.1906399314612617,-0.08416881274766895,-1.3169426110237734
-0.1905837814612617,-0.08047058789508515,-1.3169426110237734
-0.1905276314612617,-0.08047058789508515,-1.3169426110237734
-0.1904714814612617,-0.08047058789508515,-1.3169426110237734
-0.1904153314612617,-0.08047058789508515,-1.3169426110237734
-0.1903591814612617,-0.08047058789508515,-1.3169426110237734
-0.1903030314612617,-0.08047058789508515,-1.3169426110237734
-0.1902468814612617,-0.08047058789508515,-1.3169426110237734
-0.1901907314612617,-0.08047058789508515,-1.3169426110237734
-0.1901345814612617,-0.07677236304250135,-1.3169426110237734
-0.19007843146126172,-0.07677236304250135,-1.3169426110237734
-0.1900222814612617,-0.07677236304250135,-1.3169426110237734
-0.1899661314612617,-0.07677236304250135,-1.3169426110237734
-0.1899099814612617,-0.07677236304250135,-1.3169426110237734
-0.1898538314612617,-0.08047058789508515,-1.3169426110237734
-0.1897976814612617,-0.07677236304250135,-1.3169426110237734
-0.18974153146126171,-0.08047058789508515,-1.3169426110237734
-0.1896853814612617,-0.07677236304250135,-1.3169426110237734
-0.1896292314612617,-0.07677236304250135,-1.3169426110237734
-0.1895730814612617,-0.07677236304250135,-1.3169426110237734
-0.1895169314612617,-0.07677236304250135,-1.3169426110237734
-0.1894607814612617,-0.07677236304250135,-1.3169426110237734
-0.1894046314612617,-0.07677236304250135,-1.3169426110237734
-0.1893484814612617,-0.07677236304250135,-1.3169426110237734
-0.1892923314612617,-0.07677236304250135,-1.3169426110237734
-0.1892361814612617,-0.07677236304250135,-1.3169426110237734
-0.1891800314612617,-0.07677236304250135,-1.3169426110237734
-0.1891238814612617,-0.07307413818991755,-1.3169426110237734
-0.1890677314612617,-0.07307413818991755,-1.3169426110237734
-0.1890115814612617,-0.07307413818991755,-1.3169426110237734
-0.1889554314612617,-0.07307413818991755,-1.3132352600427357
-0.1888992814612617,-0.07307413818991755,-1.3169426110237734
-0.1888431314612617,-0.07677236304250135,-1.3169426110237734
-0.1887869814612617,-0.07677236304250135,-1.3169426110237734
-0.1887308314612617,-0.07677236304250135,-1.3169426110237734
-0.1886746814612617,-0.07677236304250135,-1.3169426110237734
-0.1886185314612617,-0.07677236304250135,-1.3169426110237734
-0.1885623814612617,-0.07677236304250135,-1.3169426110237734
-0.1885062314612617,-0.07677236304250135,-1.3169426110237734
-0.18845008146126171,-0.07677236304250135,-1.3169426110237734
-0.1883939314612617,-0.07677236304250135,-1.3169426110237734
-0.1883377814612617,-0.07677236304250135,-1.3169426110237734
-0.1882816314612617,-0.07677236304250135,-1.3169426110237734
-0.1882254814612617,-0.07677236304250135,-1.3169426110237734
-0.1881693314612617,-0.07677236304250135,-1.3169426110237734
-0.1881131814612617,-0.07677236304250135,-1.3169426110237734
-0.1880570314612617,-0.07677236304250135,-1.3169426110237734
-0.1880008814612617,-0.07677236304250135,-1.3169426110237734
-0.1879447314612617,-0.07677236304250135,-1.3169426110237734
-0.1878885814612617,-0.07677236304250135,-1.3169426110237734
-0.1878324314612617,-0.07677236304250135,-1.3169426110237734
-0.1877762814612617,-0.07677236304250135,-1.3169426110237734
-0.1877201314612617,-0.07677236304250135,-1.320649962004811
-0.1876639814612617,-0.07677236304250135,-1.3169426110237734
-0.1876078314612617,-0.07677236304250135,-1.3169426110237734
-0.1875516814612617,-0.08047058789508515,-1.3169426110237734
-0.1874955314612617,-0.07677236304250135,-1.3169426110237734
-0.1874393814612617,-0.07677236304250135,-1.3169426110237734
-0.1873832314612617,-0.07677236304250135,-1.3169426110237734
-0.1873270814612617,-0.07677236304250135,-1.3169426110237734
-0.1872709314612617,-0.07677236304250135,-1.3169426110237734
-0.1872147814612617,-0.07677236304250135,-1.3169426110237734
-0.18715863146126172,-0.07677236304250135,-1.3169426110237734
-0.1871024814612617,-0.07677236304250135,-1.3169426110237734
-0.1870463314612617,-0.07307413818991755,-1.3169426110237734
-0.1869901814612617,-0.07307413818991755,-1.3169426110237734
-0.1869340314612617,-0.07307413818991755,-1.3169426110237734
-0.1868778814612617,-0.07677236304250135,-1.3169426110237734
-0.18682173146126171,-0.07677236304250135,-1.3169426110237734
-0.1867655814612617,-0.07677236304250135,-1.3169426110237734
-0.1867094314612617,-0.07677236304250135,-1.3169426110237734
-0.1866532814612617,-0.07677236304250135,-1.320649962004811
-0.1865971314612617,-0.07677236304250135,-1.3169426110237734
-0.1865409814612617,-0.07677236304250135,-1.3169426110237734
-0.1864848314612617,-0.07677236304250135,-1.3169426110237734
-0.1864286814612617,-0.07677236304250135,-1.3169426110237734
-0.1863725314612617,-0.07677236304250135,-1.3169426110237734
-0.1863163814612617,-0.07677236304250135,-1.3169426110237734
-0.1862602314612617,-0.07677236304250135,-1.3169426110237734
-0.1862040814612617,-0.07677236304250135,-1.3169426110237734
-0.1861479314612617,-0.07677236304250135,-1.3169426110237734
-0.1860917814612617,-0.07677236304250135,-1.3169426110237734
-0.1860356314612617,-0.07677236304250135,-1.3169426110237734
-0.1859794814612617,-0.07677236304250135,-1.3169426110237734
-0.1859233314612617,-0.07677236304250135,-1.3169426110237734
-0.18586718146126172,-0.07677236304250135,-1.3169426110237734
-0.1858110314612617,-0.07677236304250135,-1.3169426110237734
-0.1857548814612617,-0.07677236304250135,-1.3169426110237734
-0.1856987314612617,-0.07677236304250135,-1.3169426110237734
-0.1856425814612617,-0.07677236304250135,-1.3169426110237734
-0.1855864314612617,-0.07677236304250135,-1.3169426110237734
-0.18553028146126171,-0.07677236304250135,-1.3169426110237734
-0.1854741314612617,-0.07677236304250135,-1.3169426110237734
-0.1854179814612617,-0.07677236304250135,-1.3169426110237734
-0.1853618314612617,-0.07677236304250135,-1.3169426110237734
-0.1853056814612617,-0.07677236304250135,-1.3169426110237734
-0.1852495314612617,-0.07677236304250135,-1.3169426110237734
-0.1851933814612617,-0.07677236304250135,-1.3169426110237734
-0.1851372314612617,-0.08047058789508515,-1.3169426110237734
-0.1850810814612617,-0.07677236304250135,-1.3169426110237734
-0.1850249314612617,-0.07677236304250135,-1.3169426110237734
-0.1849687814612617,-0.08047058789508515,-1.3169426110237734
-0.1849126314612617,-0.08047058789508515,-1.3169426110237734
-0.1848564814612617,-0.08047058789508515,-1.3169426110237734
-0.1848003314612617,-0.08047058789508515,-1.3169426110237734
-0.1847441814612617,-0.08047058789508515,-1.3169426110237734
-0.1846880314612617,-0.08047058789508515,-1.3169426110237734
-0.1846318814612617,-0.08047058789508515,-1.3169426110237734
-0.1845757314612617,-0.08047058789508515,-1.3169426110237734
-0.1845195814612617,-0.08047058789508515,-1.3169426110237734
-0.1844634314612617,-0.07677236304250135,-1.3169426110237734
-0.1844072814612617,-0.07677236304250135,-1.3169426110237734
-0.1843511314612617,-0.07677236304250135,-1.3169426110237734
-0.1842949814612617,-0.07677236304250135,-1.3169426110237734
-0.18423883146126172,-0.07677236304250135,-1.3169426110237734
-0.1841826814612617,-0.07677236304250135,-1.3169426110237734
-0.1841265314612617,-0.07677236304250135,-1.3169426110237734
-0.1840703814612617,-0.07677236304250135,-1.3169426110237734
-0.1840142314612617,-0.07677236304250135,-1.3169426110237734
-0.1839580814612617,-0.07677236304250135,-1.3169426110237734
-0.18390193146126171,-0.07677236304250135,-1.3169426110237734
-0.1838457814612617,-0.07677236304250135,-1.3169426110237734
-0.1837896314612617,-0.07307413818991755,-1.3169426110237734
-0.1837334814612617,-0.07307413818991755,-1.3169426110237734
-0.1836773314612617,-0.07307413818991755,-1.320649962004811
-0.1836211814612617,-0.07307413818991755,-1.320649962004811
-0.1835650314612617,-0.07307413818991755,-1.3169426110237734
-0.1835088814612617,-0.07307413818991755,-1.3169426110237734
-0.1834527314612617,-0.07307413818991755,-1.3169426110237734
-0.1833965814612617,-0.06937591333733376,-1.3169426110237734
-0.1833404314612617,-0.07307413818991755,-1.3169426110237734
-0.1832842814612617,-0.06937591333733543,-1.3169426110237734
-0.1832281314612617,-0.07307413818991755,-1.3169426110237734
-0.1831719814612617,-0.06937591333733376,-1.3169426110237734
-0.1831158314612617,-0.06937591333733376,-1.3169426110237734
-0.1830596814612617,-0.06937591333733376,-1.3169426110237734
-0.1830035314612617,-0.06937591333733376,-1.3169426110237734
-0.18294738146126172,-0.06937591333733376,-1.3169426110237734
-0.1828912314612617,-0.06937591333733376,-1.3169426110237734
-0.1828350814612617,-0.06937591333733376,-1.3169426110237734
-0.1827789314612617,-0.06937591333733376,-1.3169426110237734
-0.1827227814612617,-0.07307413818991755,-1.3169426110237734
-0.1826666314612617,-0.06937591333733376,-1.3169426110237734
-0.18261048146126171,-0.06937591333733376,-1.320649962004811
-0.1825543314612617,-0.06937591333733376,-1.320649962004811
-0.1824981814612617,-0.06937591333733376,-1.3169426110237734
-0.1824420314612617,-0.06937591333733376,-1.3169426110237734
-0.1823858814612617,-0.06937591333733376,-1.3169426110237734
-0.1823297314612617,-0.06937591333733376,-1.3169426110237734
-0.1822735814612617,-0.06937591333733376,-1.3169426110237734
-0.1822174314612617,-0.06937591333733376,-1.3169426110237734
-0.1821612814612617,-0.06567768848474995,-1.3169426110237734
-0.1821051314612617,-0.06567768848474995,-1.3169426110237734
-0.1820489814612617,-0.06567768848474995,-1.3169426110237734
-0.1819928314612617,-0.06567768848474995,-1.3169426110237734
-0.1819366814612617,-0.06567768848474995,-1.3169426110237734
-0.1818805314612617,-0.06567768848474995,-1.3169426110237734
-0.1818243814612617,-0.06567768848474995,-1.3169426110237734
-0.1817682314612617,-0.06567768848474995,-1.3169426110237734
-0.1817120814612617,-0.06197946363216615,-1.3169426110237734
-0.18165593146126172,-0.06197946363216615,-1.3169426110237734
-0.1815997814612617,-0.06197946363216615,-1.3169426110237734
-0.1815436314612617,-0.06197946363216615,-1.3169426110237734
-0.1814874814612617,-0.05828123877958235,-1.3169426110237734
-0.1814313314612617,-0.05828123877958235,-1.3169426110237734
-0.1813751814612617,-0.05828123877958235,-1.3169426110237734
-0.18131903146126171,-0.05828123877958235,-1.3169426110237734
-0.1812628814612617,-0.05828123877958235,-1.3169426110237734
-0.1812067314612617,-0.05828123877958235,-1.3169426110237734
-0.1811505814612617,-0.054583013926998554,-1.3169426110237734
-0.1810944314612617,-0.05088478907441475,-1.3169426110237734
-0.1810382814612617,-0.054583013926998554,-1.3169426110237734
-0.1809821314612617,-0.05088478907441475,-1.320649962004811
-0.1809259814612617,-0.05088478907441475,-1.320649962004811
-0.1808698314612617,-0.05088478907441475,-1.3169426110237734
-0.1808136814612617,-0.05088478907441475,-1.3169426110237734
-0.1807575314612617,-0.05088478907441475,-1.3169426110237734
-0.1807013814612617,-0.05088478907441475,-1.320649962004811
-0.1806452314612617,-0.05088478907441475,-1.320649962004811
-0.1805890814612617,-0.04718656422183096,-1.3169426110237734
-0.1805329314612617,-0.04718656422183096,-1.3169426110237734
-0.1804767814612617,-0.04718656422183096,-1.3169426110237734
-0.1804206314612617,-0.043488339369247155,-1.3169426110237734
-0.1803644814612617,-0.043488339369247155,-1.3169426110237734
-0.1803083314612617,-0.043488339369247155,-1.3169426110237734
-0.1802521814612617,-0.043488339369247155,-1.3169426110237734
-0.1801960314612617,-0.043488339369247155,-1.3169426110237734
-0.1801398814612617,-0.03979011451666335,-1.3169426110237734
-0.1800837314612617,-0.03979011451666335,-1.3169426110237734
-0.18002758146126172,-0.03979011451666335,-1.3169426110237734
-0.1799714314612617,-0.03979011451666335,-1.320649962004811
-0.1799152814612617,-0.03609188966407956,-1.320649962004811
-0.1798591314612617,-0.03609188966407956,-1.3169426110237734
