acq0063.csv

#Digilent WaveForms Oscilloscope Acquisition
#Device Name: Discovery2
#Serial Number: SN:210321AA28BE
#Date Time: 2023-05-24 14:52:40.532
#Sample rate: 17809.4Hz
#Samples: 8192
#Trigger: Source: Channel 1 Type: Edge Condition: Rising Level: 800 mV Hyst.: Auto HoldOff: 100 ns
#Channel 1: Range: 1 V/div Offset: 0 V Attenuation: 1 X Sample Mode: Average
#Channel 2: Range: 1 V/div Offset: 0 V Attenuation: 1 X Sample Mode: Average

Time (s),Channel 1 (V),Channel 2 (V)
-0.19771615300791343,-0.08047058789508515,-1.3169426110237734
-0.19766000300791342,-0.09156526245283655,-1.3169426110237734
-0.19760385300791342,-0.09896171215800414,-1.3169426110237734
-0.1975477030079134,-0.10635816186317175,-1.3169426110237734
-0.19749155300791343,-0.11745283642092315,-1.3169426110237734
-0.19743540300791343,-0.12115106127350694,-1.3169426110237734
-0.19737925300791342,-0.13224573583125834,-1.3169426110237734
-0.19732310300791342,-0.13594396068384215,-1.3169426110237734
-0.19726695300791341,-0.13964218553642593,-1.3169426110237734
-0.1972108030079134,-0.14703863524159524,-1.3169426110237734
-0.19715465300791343,-0.15073686009417733,-1.3169426110237734
-0.19709850300791343,-0.15443508494676114,-1.3169426110237734
-0.19704235300791342,-0.15813330979934495,-1.3169426110237734
-0.19698620300791342,-0.16183153465192873,-1.3169426110237734
-0.1969300530079134,-0.16183153465192873,-1.3169426110237734
-0.19687390300791344,-0.16552975950451085,-1.3169426110237734
-0.19681775300791343,-0.16922798435709635,-1.3169426110237734
-0.19676160300791343,-0.17292620920968013,-1.3169426110237734
-0.19670545300791342,-0.17292620920968013,-1.3169426110237734
-0.19664930300791342,-0.17292620920968013,-1.3169426110237734
-0.1965931530079134,-0.17662443406226394,-1.3169426110237734
-0.19653700300791344,-0.17662443406226394,-1.3132352600427357
-0.19648085300791343,-0.17662443406226394,-1.3169426110237734
-0.19642470300791343,-0.18032265891484775,-1.3169426110237734
-0.19636855300791342,-0.18032265891484775,-1.3169426110237734
-0.19631240300791342,-0.18402088376743153,-1.3169426110237734
-0.1962562530079134,-0.18402088376743153,-1.3169426110237734
-0.19620010300791343,-0.18402088376743153,-1.3169426110237734
-0.19614395300791343,-0.18402088376743153,-1.3169426110237734
-0.19608780300791342,-0.18402088376743153,-1.3169426110237734
-0.19603165300791342,-0.18032265891484775,-1.3132352600427357
-0.19597550300791342,-0.18402088376743153,-1.3169426110237734
-0.1959193530079134,-0.18402088376742984,-1.3169426110237734
-0.19586320300791343,-0.18032265891484775,-1.3169426110237734
-0.19580705300791343,-0.18032265891484775,-1.3169426110237734
-0.19575090300791342,-0.18402088376743153,-1.3169426110237734
-0.19569475300791342,-0.18032265891484775,-1.3169426110237734
-0.19563860300791341,-0.18032265891484775,-1.3169426110237734
-0.19558245300791344,-0.17662443406226563,-1.3169426110237734
-0.19552630300791343,-0.17662443406226394,-1.3169426110237734
-0.19547015300791343,-0.17662443406226394,-1.3169426110237734
-0.19541400300791342,-0.17292620920968013,-1.3169426110237734
-0.19535785300791342,-0.17292620920968013,-1.3169426110237734
-0.1953017030079134,-0.17292620920968013,-1.3169426110237734
-0.19524555300791344,-0.17292620920968013,-1.3169426110237734
-0.19518940300791343,-0.17292620920968013,-1.3169426110237734
-0.19513325300791343,-0.17292620920968013,-1.3169426110237734
-0.19507710300791342,-0.17292620920968013,-1.3169426110237734
-0.19502095300791342,-0.16922798435709635,-1.3169426110237734
-0.1949648030079134,-0.16922798435709635,-1.3169426110237734
-0.19490865300791343,-0.16922798435709635,-1.3169426110237734
-0.19485250300791343,-0.16922798435709635,-1.3169426110237734
-0.19479635300791343,-0.16552975950451254,-1.3169426110237734
-0.19474020300791342,-0.16183153465192873,-1.3169426110237734
-0.19468405300791342,-0.16183153465192873,-1.3169426110237734
-0.1946279030079134,-0.16183153465192704,-1.3169426110237734
-0.19457175300791343,-0.15813330979934495,-1.3169426110237734
-0.19451560300791343,-0.15813330979934495,-1.3169426110237734
-0.19445945300791342,-0.15813330979934495,-1.3169426110237734
-0.19440330300791342,-0.15813330979934495,-1.3169426110237734
-0.19434715300791341,-0.15813330979934495,-1.3169426110237734
-0.19429100300791344,-0.15813330979934495,-1.3169426110237734
-0.19423485300791343,-0.15443508494676114,-1.3169426110237734
-0.19417870300791343,-0.15443508494676114,-1.3169426110237734
-0.19412255300791342,-0.15073686009417733,-1.3169426110237734
-0.19406640300791342,-0.15073686009417733,-1.3132352600427357
-0.1940102530079134,-0.14703863524159355,-1.3169426110237734
-0.19395410300791344,-0.14703863524159355,-1.3169426110237734
-0.19389795300791343,-0.14334041038900974,-1.3169426110237734
-0.19384180300791343,-0.14334041038900974,-1.3169426110237734
-0.19378565300791342,-0.14334041038900974,-1.3169426110237734
-0.19372950300791342,-0.14334041038900974,-1.3169426110237734
-0.1936733530079134,-0.14334041038900974,-1.3169426110237734
-0.19361720300791344,-0.13964218553642593,-1.3169426110237734
-0.19356105300791343,-0.13964218553642593,-1.3169426110237734
-0.19350490300791343,-0.13594396068384215,-1.3169426110237734
-0.19344875300791342,-0.13594396068384215,-1.3169426110237734
-0.19339260300791342,-0.13224573583125834,-1.3169426110237734
-0.1933364530079134,-0.13224573583125834,-1.3169426110237734
-0.19328030300791343,-0.12854751097867453,-1.3169426110237734
-0.19322415300791343,-0.12854751097867453,-1.3169426110237734
-0.19316800300791342,-0.12854751097867453,-1.3169426110237734
-0.19311185300791342,-0.12854751097867453,-1.3169426110237734
-0.19305570300791342,-0.12484928612609074,-1.3169426110237734
-0.1929995530079134,-0.12484928612609074,-1.3169426110237734
-0.19294340300791343,-0.12484928612609074,-1.3169426110237734
-0.19288725300791343,-0.12115106127350694,-1.3169426110237734
-0.19283110300791342,-0.11745283642092315,-1.3169426110237734
-0.19277495300791342,-0.11745283642092315,-1.3169426110237734
-0.19271880300791341,-0.11745283642092315,-1.3169426110237734
-0.19266265300791344,-0.11745283642092315,-1.3169426110237734
-0.19260650300791343,-0.11375461156833934,-1.3169426110237734
-0.19255035300791343,-0.11375461156833934,-1.3169426110237734
-0.19249420300791342,-0.11005638671575554,-1.3169426110237734
-0.19243805300791342,-0.11005638671575554,-1.3169426110237734
-0.1923819030079134,-0.11005638671575554,-1.3169426110237734
-0.19232575300791344,-0.10635816186317175,-1.3169426110237734
-0.19226960300791343,-0.10635816186317175,-1.3169426110237734
-0.19221345300791343,-0.10635816186317175,-1.320649962004811
-0.19215730300791342,-0.10265993701058794,-1.3169426110237734
-0.19210115300791342,-0.10265993701058794,-1.3169426110237734
-0.1920450030079134,-0.10265993701058794,-1.3169426110237734
-0.19198885300791343,-0.10265993701058794,-1.3169426110237734
-0.19193270300791343,-0.09896171215800414,-1.320649962004811
-0.19187655300791343,-0.09896171215800414,-1.3169426110237734
-0.19182040300791342,-0.09526348730542035,-1.3169426110237734
-0.19176425300791342,-0.09526348730542035,-1.3169426110237734
-0.1917081030079134,-0.09156526245283823,-1.3169426110237734
-0.19165195300791343,-0.09526348730542035,-1.3169426110237734
-0.19159580300791343,-0.09156526245283655,-1.3169426110237734
-0.19153965300791342,-0.09156526245283655,-1.3169426110237734
-0.19148350300791342,-0.08786703760025275,-1.3169426110237734
-0.19142735300791341,-0.08786703760025275,-1.3169426110237734
-0.19137120300791344,-0.08786703760025275,-1.3169426110237734
-0.19131505300791343,-0.08786703760025275,-1.3169426110237734
-0.19125890300791343,-0.09156526245283655,-1.3169426110237734
-0.19120275300791342,-0.08786703760025275,-1.3169426110237734
-0.19114660300791342,-0.08786703760025275,-1.3169426110237734
-0.1910904530079134,-0.08786703760025275,-1.3169426110237734
-0.19103430300791344,-0.08416881274766895,-1.3169426110237734
-0.19097815300791343,-0.08416881274766895,-1.3169426110237734
-0.19092200300791343,-0.08416881274766895,-1.3169426110237734
-0.19086585300791342,-0.08416881274766895,-1.3169426110237734
-0.19080970300791342,-0.08416881274766895,-1.3169426110237734
-0.1907535530079134,-0.08416881274766895,-1.3169426110237734
-0.19069740300791344,-0.08416881274766895,-1.3169426110237734
-0.19064125300791343,-0.08047058789508515,-1.3169426110237734
-0.19058510300791343,-0.08047058789508515,-1.3169426110237734
-0.19052895300791342,-0.08047058789508515,-1.3169426110237734
-0.19047280300791342,-0.07677236304250135,-1.3169426110237734
-0.1904166530079134,-0.08047058789508515,-1.3169426110237734
-0.19036050300791343,-0.08047058789508515,-1.3169426110237734
-0.19030435300791343,-0.07677236304250135,-1.3169426110237734
-0.19024820300791342,-0.07677236304250135,-1.3169426110237734
-0.19019205300791342,-0.07677236304250135,-1.3169426110237734
-0.19013590300791341,-0.07677236304250135,-1.3169426110237734
-0.19007975300791344,-0.07677236304250135,-1.3206499620048093
-0.19002360300791343,-0.07677236304250135,-1.320649962004811
-0.18996745300791343,-0.07307413818991755,-1.3169426110237734
-0.18991130300791342,-0.07307413818991755,-1.320649962004811
-0.18985515300791342,-0.07307413818991755,-1.3169426110237734
-0.1897990030079134,-0.07307413818991755,-1.3169426110237734
-0.18974285300791344,-0.06937591333733376,-1.3169426110237734
-0.18968670300791343,-0.06937591333733376,-1.3169426110237734
-0.18963055300791343,-0.06937591333733376,-1.3169426110237734
-0.18957440300791342,-0.06937591333733376,-1.3169426110237734
-0.18951825300791342,-0.06937591333733376,-1.3169426110237734
-0.1894621030079134,-0.06937591333733376,-1.3169426110237734
-0.18940595300791344,-0.06567768848474995,-1.3169426110237734
-0.18934980300791343,-0.06567768848474995,-1.3169426110237734
-0.18929365300791343,-0.06567768848474995,-1.3169426110237734
-0.18923750300791342,-0.06567768848474995,-1.3169426110237734
-0.18918135300791342,-0.06937591333733376,-1.3169426110237734
-0.1891252030079134,-0.06567768848474995,-1.3169426110237734
-0.18906905300791343,-0.06567768848474995,-1.3169426110237734
-0.18901290300791343,-0.06197946363216615,-1.3169426110237734
-0.18895675300791342,-0.06567768848474995,-1.3169426110237734
-0.18890060300791342,-0.06567768848474995,-1.3169426110237734
-0.18884445300791342,-0.06567768848474995,-1.3169426110237734
-0.1887883030079134,-0.06567768848474995,-1.3169426110237734
-0.18873215300791343,-0.06567768848474995,-1.3169426110237734
-0.18867600300791343,-0.06567768848474995,-1.320649962004811
-0.18861985300791342,-0.06567768848474995,-1.3169426110237734
-0.18856370300791342,-0.06197946363216615,-1.3169426110237734
-0.18850755300791341,-0.06197946363216615,-1.3169426110237734
-0.18845140300791344,-0.06567768848474827,-1.3169426110237734
-0.18839525300791343,-0.06567768848474995,-1.3169426110237734
-0.18833910300791343,-0.06567768848474995,-1.3169426110237734
-0.18828295300791342,-0.06567768848474995,-1.3169426110237734
-0.18822680300791342,-0.06567768848474995,-1.320649962004811
-0.1881706530079134,-0.06567768848474995,-1.320649962004811
-0.18811450300791344,-0.06567768848474995,-1.3169426110237734
-0.18805835300791343,-0.06567768848474995,-1.320649962004811
-0.18800220300791343,-0.06567768848474995,-1.320649962004811
-0.18794605300791342,-0.06197946363216615,-1.3169426110237734
-0.18788990300791342,-0.06197946363216615,-1.320649962004811
-0.1878337530079134,-0.06197946363216615,-1.3169426110237734
-0.18777760300791344,-0.06197946363216615,-1.3169426110237734
-0.18772145300791343,-0.06567768848474995,-1.320649962004811
-0.18766530300791343,-0.06197946363216615,-1.3169426110237734
-0.18760915300791342,-0.06197946363216615,-1.3169426110237734
-0.18755300300791342,-0.06197946363216615,-1.3169426110237734
-0.1874968530079134,-0.06197946363216615,-1.3206499620048093
-0.18744070300791343,-0.06197946363216615,-1.3169426110237734
-0.18738455300791343,-0.06197946363216615,-1.320649962004811
-0.18732840300791342,-0.06197946363216615,-1.3169426110237734
-0.18727225300791342,-0.06197946363216615,-1.3169426110237734
-0.18721610300791341,-0.06567768848474995,-1.3169426110237734
-0.18715995300791344,-0.06567768848474995,-1.3169426110237734
-0.18710380300791343,-0.06567768848474995,-1.320649962004811
-0.18704765300791343,-0.06567768848474995,-1.320649962004811
-0.18699150300791342,-0.06567768848474995,-1.320649962004811
-0.18693535300791342,-0.06567768848474995,-1.320649962004811
-0.1868792030079134,-0.06567768848474995,-1.320649962004811
-0.18682305300791344,-0.06567768848474995,-1.320649962004811
-0.18676690300791343,-0.06567768848474995,-1.320649962004811
-0.18671075300791343,-0.06567768848474995,-1.3169426110237734
-0.18665460300791342,-0.06567768848474995,-1.3169426110237734
-0.18659845300791342,-0.06567768848474995,-1.320649962004811
-0.1865423030079134,-0.06567768848474995,-1.320649962004811
-0.18648615300791344,-0.06567768848474995,-1.3169426110237734
-0.18643000300791343,-0.06567768848474995,-1.3169426110237734
-0.18637385300791343,-0.06567768848474995,-1.3169426110237734
-0.18631770300791342,-0.06567768848474995,-1.3169426110237734
-0.18626155300791342,-0.06567768848474995,-1.3169426110237734
-0.1862054030079134,-0.06567768848475163,-1.320649962004811
-0.18614925300791343,-0.06937591333733376,-1.320649962004811
-0.18609310300791343,-0.06567768848474995,-1.3169426110237734
-0.18603695300791342,-0.06567768848474995,-1.320649962004811
-0.18598080300791342,-0.06567768848474995,-1.3169426110237734
-0.18592465300791342,-0.06567768848474995,-1.3169426110237734
-0.18586850300791344,-0.06567768848474995,-1.3206499620048093
-0.18581235300791343,-0.06567768848474995,-1.3169426110237734
-0.18575620300791343,-0.06567768848474995,-1.3169426110237734
-0.18570005300791342,-0.06567768848474995,-1.320649962004811
-0.18564390300791342,-0.06567768848474995,-1.320649962004811
-0.18558775300791341,-0.06567768848474995,-1.320649962004811
-0.18553160300791344,-0.06567768848474995,-1.320649962004811
-0.18547545300791343,-0.06567768848474995,-1.320649962004811
-0.18541930300791343,-0.06567768848474995,-1.3169426110237734
-0.18536315300791342,-0.06567768848474995,-1.3169426110237734
-0.18530700300791342,-0.06567768848474995,-1.3169426110237734
-0.1852508530079134,-0.06567768848474995,-1.3169426110237734
-0.18519470300791344,-0.06567768848474995,-1.320649962004811
-0.18513855300791343,-0.06567768848474995,-1.3169426110237734
-0.18508240300791343,-0.06567768848474995,-1.3169426110237734
-0.18502625300791342,-0.06567768848474995,-1.3169426110237734
-0.18497010300791342,-0.06567768848474995,-1.320649962004811
-0.1849139530079134,-0.06567768848474995,-1.320649962004811
-0.18485780300791343,-0.06567768848474995,-1.3169426110237734
-0.18480165300791343,-0.06937591333733376,-1.320649962004811
-0.18474550300791343,-0.06567768848474995,-1.3169426110237734
-0.18468935300791342,-0.06567768848474995,-1.3169426110237734
-0.18463320300791342,-0.06567768848474995,-1.320649962004811
-0.1845770530079134,-0.06567768848475163,-1.3169426110237734
-0.18452090300791343,-0.06937591333733376,-1.3169426110237734
-0.18446475300791343,-0.06937591333733376,-1.3169426110237734
-0.18440860300791342,-0.06937591333733376,-1.3169426110237734
-0.18435245300791342,-0.06567768848474995,-1.3169426110237734
-0.18429630300791341,-0.06937591333733376,-1.320649962004811
-0.18424015300791344,-0.06937591333733376,-1.320649962004811
-0.18418400300791343,-0.06937591333733376,-1.3169426110237734
-0.18412785300791343,-0.06937591333733376,-1.320649962004811
-0.18407170300791342,-0.06937591333733376,-1.320649962004811
-0.18401555300791342,-0.06937591333733376,-1.3169426110237734
-0.1839594030079134,-0.06937591333733376,-1.320649962004811
-0.18390325300791344,-0.06937591333733376,-1.320649962004811
-0.18384710300791343,-0.06937591333733376,-1.320649962004811
-0.18379095300791343,-0.07307413818991755,-1.3169426110237734
-0.18373480300791342,-0.07307413818991755,-1.3169426110237734
-0.18367865300791342,-0.07307413818991755,-1.3169426110237734
-0.1836225030079134,-0.06937591333733376,-1.3169426110237734
-0.18356635300791344,-0.07307413818991755,-1.3169426110237734
-0.18351020300791343,-0.06937591333733376,-1.320649962004811
-0.18345405300791343,-0.06937591333733376,-1.320649962004811
-0.18339790300791342,-0.06937591333733376,-1.320649962004811
-0.18334175300791342,-0.06937591333733376,-1.3169426110237734
-0.1832856030079134,-0.06937591333733376,-1.3206499620048093
-0.18322945300791343,-0.06937591333733376,-1.3169426110237734
-0.18317330300791343,-0.06937591333733376,-1.3169426110237734
-0.18311715300791342,-0.06937591333733376,-1.320649962004811
-0.18306100300791342,-0.06937591333733376,-1.3169426110237734
-0.18300485300791342,-0.06937591333733376,-1.3169426110237734
-0.18294870300791344,-0.06937591333733376,-1.3169426110237734
-0.18289255300791343,-0.06937591333733376,-1.3169426110237734
-0.18283640300791343,-0.06937591333733376,-1.3169426110237734
-0.18278025300791342,-0.06937591333733376,-1.3169426110237734
-0.18272410300791342,-0.06937591333733376,-1.3169426110237734
-0.18266795300791341,-0.06937591333733376,-1.3169426110237734
-0.18261180300791344,-0.06937591333733376,-1.320649962004811
-0.18255565300791343,-0.06937591333733376,-1.3169426110237734
-0.18249950300791343,-0.06567768848474995,-1.320649962004811
-0.18244335300791342,-0.06567768848474995,-1.3169426110237734
-0.18238720300791342,-0.06567768848474995,-1.3169426110237734
-0.1823310530079134,-0.06567768848474995,-1.3169426110237734
-0.18227490300791344,-0.06567768848474995,-1.3169426110237734
-0.18221875300791343,-0.06567768848474995,-1.320649962004811
-0.18216260300791343,-0.06567768848474995,-1.320649962004811
-0.18210645300791342,-0.06567768848474995,-1.320649962004811
-0.18205030300791342,-0.06567768848474995,-1.320649962004811
-0.1819941530079134,-0.06567768848474995,-1.3169426110237734
-0.18193800300791343,-0.06567768848474995,-1.3169426110237734
-0.18188185300791343,-0.06197946363216615,-1.320649962004811
-0.18182570300791343,-0.06197946363216615,-1.3169426110237734
-0.18176955300791342,-0.06197946363216615,-1.3169426110237734
-0.18171340300791342,-0.06197946363216615,-1.3169426110237734
-0.18165725300791344,-0.06197946363216615,-1.3169426110237734
-0.18160110300791343,-0.06197946363216615,-1.3169426110237734
-0.18154495300791343,-0.06197946363216615,-1.320649962004811
-0.18148880300791342,-0.06197946363216615,-1.3169426110237734
-0.18143265300791342,-0.06197946363216615,-1.320649962004811
-0.18137650300791341,-0.06567768848474995,-1.3169426110237734
-0.18132035300791344,-0.06197946363216615,-1.3169426110237734
-0.18126420300791343,-0.06197946363216615,-1.320649962004811
-0.18120805300791343,-0.06197946363216615,-1.3169426110237734
-0.18115190300791342,-0.06197946363216615,-1.320649962004811
-0.18109575300791342,-0.06197946363216615,-1.320649962004811
-0.1810396030079134,-0.06197946363216615,-1.320649962004811
-0.18098345300791344,-0.06197946363216615,-1.3169426110237734
-0.18092730300791343,-0.05828123877958235,-1.3169426110237734
-0.18087115300791343,-0.05828123877958235,-1.3169426110237734
-0.18081500300791342,-0.05828123877958235,-1.320649962004811
-0.18075885300791342,-0.05828123877958235,-1.320649962004811
-0.1807027030079134,-0.05828123877958235,-1.320649962004811
-0.18064655300791344,-0.05828123877958235,-1.320649962004811
-0.18059040300791343,-0.054583013926998554,-1.320649962004811
-0.18053425300791343,-0.054583013926998554,-1.3169426110237734
-0.18047810300791342,-0.054583013926998554,-1.3169426110237734
-0.18042195300791342,-0.054583013926998554,-1.320649962004811
-0.1803658030079134,-0.054583013926998554,-1.3206499620048093
-0.18030965300791343,-0.054583013926998554,-1.3169426110237734
-0.18025350300791343,-0.054583013926998554,-1.3169426110237734
-0.18019735300791342,-0.05088478907441475,-1.3169426110237734
-0.18014120300791342,-0.05088478907441475,-1.3169426110237734
-0.18008505300791341,-0.05088478907441475,-1.320649962004811
-0.18002890300791344,-0.05088478907441475,-1.3169426110237752
