acq0043.csv

#Digilent WaveForms Oscilloscope Acquisition
#Device Name: Discovery2
#Serial Number: SN:210321AA28BE
#Date Time: 2023-05-24 14:52:30.535
#Sample rate: 17809.4Hz
#Samples: 8192
#Trigger: Source: Channel 1 Type: Edge Condition: Rising Level: 800 mV Hyst.: Auto HoldOff: 100 ns
#Channel 1: Range: 1 V/div Offset: 0 V Attenuation: 1 X Sample Mode: Average
#Channel 2: Range: 1 V/div Offset: 0 V Attenuation: 1 X Sample Mode: Average

Time (s),Channel 1 (V),Channel 2 (V)
-0.19771242589536514,-0.07307413818991755,-1.3169426110237734
-0.19765627589536514,-0.08416881274766895,-1.3169426110237734
-0.19760012589536513,-0.09526348730542035,-1.3169426110237734
-0.19754397589536513,-0.10635816186317175,-1.3169426110237734
-0.19748782589536515,-0.11375461156833934,-1.3169426110237734
-0.19743167589536514,-0.12115106127350694,-1.3169426110237734
-0.19737552589536514,-0.12854751097867453,-1.3169426110237734
-0.19731937589536513,-0.13594396068384215,-1.3169426110237734
-0.19726322589536513,-0.13964218553642593,-1.3169426110237734
-0.19720707589536512,-0.14703863524159524,-1.3169426110237716
-0.19715092589536515,-0.15073686009417733,-1.3132352600427357
-0.19709477589536514,-0.15443508494676114,-1.3169426110237734
-0.19703862589536514,-0.16183153465192873,-1.3132352600427357
-0.19698247589536513,-0.16552975950451254,-1.3169426110237734
-0.19692632589536513,-0.16552975950451254,-1.3169426110237734
-0.19687017589536515,-0.16922798435709466,-1.3169426110237734
-0.19681402589536515,-0.17662443406226394,-1.3132352600427357
-0.19675787589536514,-0.17662443406226394,-1.3132352600427357
-0.19670172589536514,-0.18032265891484775,-1.3169426110237734
-0.19664557589536513,-0.18032265891484775,-1.3169426110237734
-0.19658942589536513,-0.18402088376743153,-1.3132352600427357
-0.19653327589536515,-0.18771910862001534,-1.3169426110237734
-0.19647712589536515,-0.18771910862001534,-1.3169426110237734
-0.19642097589536514,-0.19141733347259912,-1.3169426110237734
-0.19636482589536514,-0.19141733347259912,-1.3169426110237734
-0.19630867589536513,-0.19141733347259912,-1.3169426110237734
-0.19625252589536513,-0.19141733347259912,-1.3169426110237734
-0.19619637589536515,-0.19141733347259912,-1.3169426110237734
-0.19614022589536514,-0.19511555832518293,-1.3169426110237734
-0.19608407589536514,-0.19511555832518293,-1.3169426110237734
-0.19602792589536513,-0.19511555832518293,-1.3169426110237734
-0.19597177589536513,-0.19511555832518293,-1.3169426110237734
-0.19591562589536513,-0.19141733347260081,-1.3169426110237734
-0.19585947589536515,-0.19511555832518293,-1.3169426110237734
-0.19580332589536514,-0.19511555832518293,-1.3169426110237734
-0.19574717589536514,-0.19511555832518293,-1.3169426110237734
-0.19569102589536513,-0.19511555832518293,-1.3169426110237734
-0.19563487589536513,-0.19511555832518293,-1.3169426110237734
-0.19557872589536515,-0.19511555832518293,-1.3169426110237734
-0.19552257589536515,-0.19511555832518293,-1.3169426110237734
-0.19546642589536514,-0.19511555832518293,-1.3169426110237734
-0.19541027589536514,-0.19511555832518293,-1.3132352600427357
-0.19535412589536513,-0.19141733347259912,-1.3169426110237734
-0.19529797589536513,-0.19141733347259912,-1.3169426110237734
-0.19524182589536515,-0.19141733347259912,-1.3132352600427357
-0.19518567589536515,-0.19141733347259912,-1.3169426110237734
-0.19512952589536514,-0.19141733347259912,-1.3169426110237734
-0.19507337589536514,-0.19141733347259912,-1.3169426110237734
-0.19501722589536513,-0.19141733347259912,-1.3169426110237734
-0.19496107589536513,-0.19141733347259912,-1.3169426110237734
-0.19490492589536515,-0.19141733347259912,-1.3169426110237734
-0.19484877589536514,-0.19141733347259912,-1.3169426110237734
-0.19479262589536514,-0.19141733347259912,-1.3132352600427357
-0.19473647589536514,-0.19141733347259912,-1.3169426110237734
-0.19468032589536513,-0.18771910862001534,-1.3169426110237734
-0.19462417589536513,-0.18771910862001534,-1.3169426110237734
-0.19456802589536515,-0.18771910862001534,-1.3169426110237734
-0.19451187589536514,-0.18771910862001534,-1.3169426110237734
-0.19445572589536514,-0.18771910862001534,-1.3169426110237734
-0.19439957589536513,-0.18402088376743153,-1.3169426110237734
-0.19434342589536513,-0.18402088376743153,-1.3132352600427357
-0.19428727589536515,-0.18032265891484944,-1.3169426110237716
-0.19423112589536515,-0.18032265891484775,-1.3169426110237734
-0.19417497589536514,-0.18032265891484775,-1.3169426110237734
-0.19411882589536514,-0.18032265891484775,-1.3169426110237734
-0.19406267589536513,-0.17662443406226394,-1.3169426110237734
-0.19400652589536513,-0.17662443406226394,-1.3132352600427357
-0.19395037589536515,-0.17292620920968013,-1.3169426110237734
-0.19389422589536515,-0.17292620920968013,-1.3132352600427357
-0.19383807589536514,-0.16922798435709635,-1.3169426110237734
-0.19378192589536514,-0.16922798435709635,-1.3169426110237734
-0.19372577589536513,-0.16922798435709635,-1.3169426110237734
-0.19366962589536513,-0.16922798435709635,-1.3169426110237734
-0.19361347589536515,-0.16552975950451254,-1.3169426110237734
-0.19355732589536515,-0.16552975950451254,-1.3132352600427357
-0.19350117589536514,-0.16183153465192873,-1.3169426110237734
-0.19344502589536514,-0.16183153465192873,-1.3169426110237734
-0.19338887589536513,-0.15813330979934495,-1.3132352600427357
-0.19333272589536513,-0.16183153465192873,-1.3132352600427357
-0.19327657589536515,-0.16183153465192873,-1.3169426110237734
-0.19322042589536514,-0.15813330979934495,-1.3169426110237734
-0.19316427589536514,-0.15813330979934495,-1.3132352600427357
-0.19310812589536513,-0.15813330979934495,-1.3132352600427357
-0.19305197589536513,-0.15443508494676114,-1.3169426110237734
-0.19299582589536513,-0.15443508494676114,-1.3169426110237734
-0.19293967589536515,-0.15443508494676114,-1.3169426110237734
-0.19288352589536514,-0.15073686009417733,-1.3169426110237734
-0.19282737589536514,-0.15073686009417733,-1.3169426110237734
-0.19277122589536513,-0.14703863524159355,-1.3169426110237734
-0.19271507589536513,-0.14703863524159355,-1.3169426110237734
-0.19265892589536515,-0.14703863524159355,-1.3169426110237734
-0.19260277589536515,-0.14334041038900974,-1.3169426110237734
-0.19254662589536514,-0.13964218553642593,-1.3169426110237734
-0.19249047589536514,-0.13964218553642593,-1.3169426110237734
-0.19243432589536513,-0.13594396068384215,-1.3132352600427357
-0.19237817589536513,-0.13594396068384215,-1.3169426110237734
-0.19232202589536515,-0.13594396068384215,-1.3169426110237734
-0.19226587589536515,-0.13224573583125834,-1.3169426110237734
-0.19220972589536514,-0.12854751097867453,-1.3169426110237734
-0.19215357589536514,-0.12854751097867453,-1.3169426110237734
-0.19209742589536513,-0.12854751097867453,-1.3169426110237734
-0.19204127589536513,-0.12854751097867453,-1.3169426110237734
-0.19198512589536515,-0.12484928612609074,-1.3169426110237734
-0.19192897589536514,-0.12484928612609074,-1.3169426110237734
-0.19187282589536514,-0.12484928612609074,-1.3169426110237734
-0.19181667589536514,-0.12115106127350694,-1.3132352600427357
-0.19176052589536513,-0.12115106127350694,-1.3169426110237734
-0.19170437589536513,-0.12115106127350694,-1.3169426110237734
-0.19164822589536515,-0.12115106127350694,-1.3169426110237734
-0.19159207589536514,-0.11745283642092315,-1.3169426110237734
-0.19153592589536514,-0.11745283642092315,-1.3169426110237734
-0.19147977589536513,-0.11745283642092315,-1.3169426110237734
-0.19142362589536513,-0.11375461156833934,-1.3169426110237734
-0.19136747589536515,-0.11375461156833934,-1.3169426110237734
-0.19131132589536515,-0.11375461156833934,-1.3169426110237734
-0.19125517589536514,-0.11375461156833934,-1.3169426110237734
-0.19119902589536514,-0.11005638671575554,-1.3169426110237734
-0.19114287589536513,-0.11005638671575554,-1.3169426110237734
-0.19108672589536513,-0.11005638671575554,-1.3169426110237734
-0.19103057589536515,-0.11005638671575554,-1.3169426110237734
-0.19097442589536515,-0.10635816186317175,-1.3169426110237734
-0.19091827589536514,-0.10635816186317175,-1.3169426110237734
-0.19086212589536514,-0.10265993701058794,-1.3169426110237734
-0.19080597589536513,-0.10265993701058794,-1.3169426110237734
-0.19074982589536513,-0.10265993701058794,-1.3132352600427357
-0.19069367589536515,-0.10265993701058794,-1.3169426110237734
-0.19063752589536515,-0.09896171215800414,-1.3169426110237734
-0.19058137589536514,-0.09896171215800414,-1.3169426110237734
-0.19052522589536514,-0.09156526245283655,-1.3132352600427357
-0.19046907589536513,-0.09526348730542035,-1.3169426110237734
-0.19041292589536513,-0.09156526245283655,-1.3132352600427375
-0.19035677589536515,-0.09156526245283655,-1.3169426110237734
-0.19030062589536514,-0.09156526245283655,-1.3169426110237734
-0.19024447589536514,-0.09156526245283655,-1.3169426110237734
-0.19018832589536513,-0.09156526245283655,-1.3169426110237734
-0.19013217589536513,-0.08786703760025275,-1.3169426110237734
-0.19007602589536515,-0.08786703760025275,-1.3169426110237734
-0.19001987589536515,-0.08786703760025275,-1.3169426110237734
-0.18996372589536514,-0.08416881274766895,-1.3169426110237734
-0.18990757589536514,-0.08416881274766895,-1.3169426110237734
-0.18985142589536513,-0.08047058789508515,-1.3169426110237734
-0.18979527589536513,-0.08047058789508515,-1.3169426110237734
-0.18973912589536515,-0.08047058789508515,-1.3169426110237734
-0.18968297589536515,-0.08047058789508515,-1.3169426110237734
-0.18962682589536514,-0.07677236304250135,-1.3169426110237734
-0.18957067589536514,-0.07677236304250135,-1.3169426110237734
-0.18951452589536513,-0.07677236304250135,-1.3169426110237734
-0.18945837589536513,-0.07307413818991755,-1.3169426110237734
-0.18940222589536515,-0.07307413818991755,-1.3169426110237734
-0.18934607589536515,-0.07307413818991755,-1.3169426110237734
-0.18928992589536514,-0.07307413818991755,-1.3169426110237734
-0.18923377589536514,-0.06937591333733376,-1.3169426110237734
-0.18917762589536513,-0.06937591333733376,-1.3169426110237734
-0.18912147589536513,-0.06937591333733376,-1.3169426110237734
-0.18906532589536515,-0.06567768848474995,-1.3169426110237734
-0.18900917589536514,-0.06197946363216615,-1.3169426110237734
-0.18895302589536514,-0.06567768848474995,-1.3169426110237734
-0.18889687589536514,-0.06197946363216615,-1.3169426110237734
-0.18884072589536513,-0.06197946363216615,-1.3169426110237734
-0.18878457589536513,-0.06197946363216615,-1.3169426110237734
-0.18872842589536515,-0.06197946363216615,-1.3169426110237734
-0.18867227589536514,-0.06197946363216615,-1.3169426110237734
-0.18861612589536514,-0.06197946363216615,-1.3169426110237734
-0.18855997589536513,-0.06197946363216615,-1.3169426110237734
-0.18850382589536513,-0.06197946363216615,-1.3169426110237734
-0.18844767589536515,-0.05828123877958403,-1.3169426110237734
-0.18839152589536515,-0.05828123877958235,-1.3169426110237734
-0.18833537589536514,-0.05828123877958235,-1.3169426110237734
-0.18827922589536514,-0.05828123877958235,-1.3169426110237734
-0.18822307589536513,-0.054583013926998554,-1.3169426110237734
-0.18816692589536513,-0.05088478907441475,-1.3169426110237734
-0.18811077589536515,-0.05088478907441475,-1.3169426110237734
-0.18805462589536515,-0.05088478907441475,-1.3169426110237734
-0.18799847589536514,-0.05088478907441475,-1.3169426110237734
-0.18794232589536514,-0.05088478907441475,-1.3169426110237734
-0.18788617589536513,-0.05088478907441475,-1.3169426110237734
-0.18783002589536513,-0.043488339369247155,-1.3132352600427357
-0.18777387589536515,-0.05088478907441475,-1.3169426110237734
-0.18771772589536515,-0.03979011451666335,-1.309527909061698
-0.18766157589536514,-0.05088478907441475,-1.3169426110237734
-0.18760542589536514,-0.05088478907441475,-1.3169426110237734
-0.18754927589536513,-0.05088478907441475,-1.3169426110237734
-0.18749312589536513,-0.05088478907441307,-1.3169426110237734
-0.18743697589536515,-0.04718656422183096,-1.3169426110237734
-0.18738082589536514,-0.04718656422183096,-1.3169426110237734
-0.18732467589536514,-0.04718656422183096,-1.3169426110237734
-0.18726852589536513,-0.04718656422183096,-1.3169426110237734
-0.18721237589536513,-0.04718656422183096,-1.3169426110237734
-0.18715622589536515,-0.04718656422183096,-1.3169426110237734
-0.18710007589536515,-0.04718656422183096,-1.3169426110237734
-0.18704392589536514,-0.04718656422183096,-1.3169426110237734
-0.18698777589536514,-0.04718656422183096,-1.3169426110237734
-0.18693162589536513,-0.04718656422183096,-1.3169426110237734
-0.18687547589536513,-0.04718656422183096,-1.3169426110237734
-0.18681932589536515,-0.043488339369247155,-1.3169426110237734
-0.18676317589536515,-0.043488339369247155,-1.3169426110237734
-0.18670702589536514,-0.043488339369247155,-1.3169426110237734
-0.18665087589536514,-0.043488339369247155,-1.3169426110237734
-0.18659472589536513,-0.043488339369247155,-1.3169426110237734
-0.18653857589536513,-0.043488339369247155,-1.3169426110237734
-0.18648242589536515,-0.03979011451666335,-1.3169426110237734
-0.18642627589536515,-0.03979011451666335,-1.3169426110237734
-0.18637012589536514,-0.03979011451666335,-1.3169426110237734
-0.18631397589536514,-0.03979011451666335,-1.3169426110237734
-0.18625782589536513,-0.03979011451666335,-1.3169426110237734
-0.18620167589536513,-0.03979011451666335,-1.3169426110237734
-0.18614552589536515,-0.03979011451666335,-1.3169426110237734
-0.18608937589536514,-0.03979011451666335,-1.3169426110237734
-0.18603322589536514,-0.03609188966407956,-1.3169426110237734
-0.18597707589536513,-0.03609188966407956,-1.3169426110237734
-0.18592092589536513,-0.03609188966407956,-1.3169426110237734
-0.18586477589536515,-0.03609188966407956,-1.3169426110237734
-0.18580862589536515,-0.03979011451666335,-1.3169426110237734
-0.18575247589536514,-0.03609188966407956,-1.3169426110237734
-0.18569632589536514,-0.03609188966407956,-1.3169426110237734
-0.18564017589536513,-0.03979011451666335,-1.3169426110237734
-0.18558402589536513,-0.03979011451666335,-1.3169426110237734
-0.18552787589536515,-0.03609188966407956,-1.3169426110237734
-0.18547172589536515,-0.03609188966407956,-1.3169426110237734
-0.18541557589536514,-0.03609188966407956,-1.3169426110237734
-0.18535942589536514,-0.03609188966407956,-1.3169426110237734
-0.18530327589536513,-0.03609188966407956,-1.3169426110237734
-0.18524712589536513,-0.03979011451666335,-1.3169426110237734
-0.18519097589536515,-0.03979011451666335,-1.3169426110237734
-0.18513482589536515,-0.03979011451666335,-1.3169426110237734
-0.18507867589536514,-0.03979011451666335,-1.320649962004811
-0.18502252589536514,-0.03979011451666335,-1.320649962004811
-0.18496637589536513,-0.03979011451666335,-1.3169426110237734
-0.18491022589536513,-0.03979011451666335,-1.3169426110237734
-0.18485407589536515,-0.03979011451666335,-1.3169426110237734
-0.18479792589536514,-0.03609188966407956,-1.3169426110237734
-0.18474177589536514,-0.03979011451666335,-1.3169426110237734
-0.18468562589536514,-0.03979011451666335,-1.3169426110237734
-0.18462947589536513,-0.03979011451666335,-1.3169426110237734
-0.18457332589536513,-0.03979011451666335,-1.3169426110237734
-0.18451717589536515,-0.03979011451666335,-1.3169426110237734
-0.18446102589536514,-0.03979011451666335,-1.3169426110237734
-0.18440487589536514,-0.03979011451666335,-1.3169426110237734
-0.18434872589536513,-0.03979011451666335,-1.3169426110237734
-0.18429257589536513,-0.03979011451666335,-1.3169426110237734
-0.18423642589536515,-0.043488339369245475,-1.3169426110237734
-0.18418027589536515,-0.043488339369247155,-1.3169426110237734
-0.18412412589536514,-0.03979011451666335,-1.3169426110237734
-0.18406797589536514,-0.03979011451666335,-1.3169426110237734
-0.18401182589536513,-0.043488339369247155,-1.3169426110237734
-0.18395567589536513,-0.043488339369247155,-1.3169426110237734
-0.18389952589536515,-0.04718656422183096,-1.3169426110237734
-0.18384337589536515,-0.043488339369247155,-1.3169426110237734
-0.18378722589536514,-0.04718656422183096,-1.3169426110237734
-0.18373107589536514,-0.043488339369247155,-1.320649962004811
-0.18367492589536513,-0.043488339369247155,-1.3169426110237734
-0.18361877589536513,-0.04718656422183096,-1.3169426110237734
-0.18356262589536515,-0.043488339369247155,-1.3169426110237734
-0.18350647589536515,-0.043488339369247155,-1.3169426110237734
-0.18345032589536514,-0.043488339369247155,-1.3169426110237734
-0.18339417589536514,-0.043488339369247155,-1.3169426110237734
-0.18333802589536513,-0.04718656422183096,-1.3169426110237734
-0.18328187589536513,-0.04718656422182928,-1.3169426110237734
-0.18322572589536515,-0.043488339369247155,-1.3169426110237734
-0.18316957589536514,-0.043488339369247155,-1.3169426110237734
-0.18311342589536514,-0.04718656422183096,-1.3169426110237734
-0.18305727589536513,-0.04718656422183096,-1.3169426110237734
-0.18300112589536513,-0.043488339369247155,-1.3169426110237734
-0.18294497589536515,-0.043488339369247155,-1.3169426110237734
-0.18288882589536515,-0.043488339369247155,-1.3169426110237734
-0.18283267589536514,-0.04718656422183096,-1.3169426110237734
-0.18277652589536514,-0.043488339369247155,-1.3169426110237734
-0.18272037589536513,-0.04718656422183096,-1.3169426110237734
-0.18266422589536513,-0.04718656422183096,-1.3169426110237734
-0.18260807589536515,-0.04718656422183096,-1.3169426110237734
-0.18255192589536515,-0.04718656422183096,-1.3169426110237734
-0.18249577589536514,-0.04718656422183096,-1.3169426110237734
-0.18243962589536514,-0.05088478907441475,-1.3169426110237734
-0.18238347589536513,-0.04718656422183096,-1.3169426110237734
-0.18232732589536513,-0.04718656422183096,-1.3169426110237734
-0.18227117589536515,-0.04718656422183096,-1.3169426110237734
-0.18221502589536515,-0.05088478907441475,-1.3169426110237734
-0.18215887589536514,-0.04718656422183096,-1.3169426110237734
-0.18210272589536514,-0.04718656422183096,-1.3169426110237734
-0.18204657589536513,-0.04718656422183096,-1.3169426110237734
-0.18199042589536513,-0.04718656422183096,-1.3169426110237734
-0.18193427589536515,-0.04718656422183096,-1.3169426110237734
-0.18187812589536514,-0.04718656422183096,-1.3169426110237734
-0.18182197589536514,-0.05088478907441475,-1.3169426110237734
-0.18176582589536514,-0.04718656422183096,-1.3169426110237734
-0.18170967589536513,-0.04718656422183096,-1.3169426110237734
-0.18165352589536515,-0.05088478907441307,-1.3169426110237734
-0.18159737589536515,-0.04718656422183096,-1.3169426110237734
-0.18154122589536514,-0.05088478907441475,-1.3169426110237734
-0.18148507589536514,-0.05088478907441475,-1.3169426110237734
-0.18142892589536513,-0.05088478907441475,-1.3169426110237734
-0.18137277589536513,-0.05088478907441475,-1.3169426110237734
-0.18131662589536515,-0.05088478907441475,-1.3169426110237734
-0.18126047589536515,-0.05088478907441475,-1.3169426110237734
-0.18120432589536514,-0.05088478907441475,-1.3169426110237734
-0.18114817589536514,-0.05088478907441475,-1.3169426110237734
-0.18109202589536513,-0.05088478907441475,-1.3169426110237734
-0.18103587589536513,-0.054583013926998554,-1.3169426110237734
-0.18097972589536515,-0.054583013926998554,-1.3169426110237734
-0.18092357589536515,-0.054583013926998554,-1.3169426110237734
-0.18086742589536514,-0.054583013926998554,-1.3169426110237734
-0.18081127589536514,-0.054583013926998554,-1.3169426110237734
-0.18075512589536513,-0.054583013926998554,-1.3169426110237734
-0.18069897589536513,-0.05828123877958235,-1.3169426110237734
-0.18064282589536515,-0.05828123877958235,-1.3169426110237734
-0.18058667589536515,-0.054583013926998554,-1.3169426110237734
-0.18053052589536514,-0.05828123877958235,-1.3169426110237734
-0.18047437589536514,-0.05828123877958235,-1.3169426110237734
-0.18041822589536513,-0.05828123877958235,-1.3169426110237734
-0.18036207589536513,-0.05458301392700023,-1.3169426110237734
-0.18030592589536515,-0.05828123877958235,-1.3169426110237734
-0.18024977589536514,-0.05828123877958235,-1.3169426110237734
-0.18019362589536514,-0.054583013926998554,-1.3169426110237734
-0.18013747589536513,-0.05828123877958235,-1.3169426110237734
