acq0089.csv

#Digilent WaveForms Oscilloscope Acquisition
#Device Name: Discovery2
#Serial Number: SN:210321AA28BE
#Date Time: 2023-05-24 14:52:53.541
#Sample rate: 17809.4Hz
#Samples: 8192
#Trigger: Source: Channel 1 Type: Edge Condition: Rising Level: 800 mV Hyst.: Auto HoldOff: 100 ns
#Channel 1: Range: 1 V/div Offset: 0 V Attenuation: 1 X Sample Mode: Average
#Channel 2: Range: 1 V/div Offset: 0 V Attenuation: 1 X Sample Mode: Average

Time (s),Channel 1 (V),Channel 2 (V)
-0.19772036144806338,-0.05828123877958235,-1.3169426110237734
-0.19766421144806334,-0.065677688484755,-1.3169426110237734
-0.19760806144806337,-0.07677236304250135,-1.3169426110237734
-0.19755191144806333,-0.08416881274767231,-1.3169426110237734
-0.19749576144806336,-0.0878670376002561,-1.3169426110237734
-0.19743961144806338,-0.09526348730542035,-1.3169426110237734
-0.19738346144806335,-0.10265993701058962,-1.3132352600427375
-0.19732731144806337,-0.10635816186317175,-1.3169426110237734
-0.19727116144806334,-0.1100563867157589,-1.3169426110237716
-0.19721501144806336,-0.11745283642092483,-1.3132352600427375
-0.19715886144806338,-0.12115106127350694,-1.3169426110237734
-0.19710271144806335,-0.12484928612609242,-1.3169426110237734
-0.19704656144806337,-0.12854751097867453,-1.3169426110237734
-0.19699041144806334,-0.12854751097867623,-1.3169426110237734
-0.19693426144806336,-0.13224573583125834,-1.3169426110237734
-0.1968781114480634,-0.13594396068384046,-1.3169426110237734
-0.19682196144806335,-0.13594396068384385,-1.3169426110237734
-0.19676581144806338,-0.13964218553642593,-1.3169426110237734
-0.19670966144806334,-0.13964218553642593,-1.3169426110237734
-0.19665351144806337,-0.13964218553642593,-1.3169426110237734
-0.19659736144806333,-0.1396421855364293,-1.3169426110237734
-0.19654121144806336,-0.14334041038900974,-1.3169426110237716
-0.19648506144806338,-0.14334041038900974,-1.3132352600427357
-0.19642891144806335,-0.14334041038900974,-1.3169426110237734
-0.19637276144806337,-0.14334041038900974,-1.3169426110237734
-0.19631661144806334,-0.14703863524159355,-1.3169426110237734
-0.19626046144806336,-0.14703863524159355,-1.3169426110237734
-0.19620431144806338,-0.14703863524159355,-1.3169426110237734
-0.19614816144806335,-0.14703863524159355,-1.3169426110237734
-0.19609201144806337,-0.14703863524159355,-1.3169426110237734
-0.19603586144806334,-0.14703863524159355,-1.3169426110237734
-0.19597971144806337,-0.14703863524159355,-1.3169426110237734
-0.19592356144806333,-0.1433404103890131,-1.3169426110237734
-0.19586741144806336,-0.14703863524159186,-1.3169426110237734
-0.19581126144806338,-0.14334041038900974,-1.3169426110237734
-0.19575511144806335,-0.14334041038900974,-1.3169426110237716
-0.19569896144806337,-0.14334041038900974,-1.3132352600427357
-0.19564281144806334,-0.14334041038900805,-1.3169426110237734
-0.19558666144806336,-0.13964218553642763,-1.3169426110237734
-0.19553051144806338,-0.14334041038900974,-1.3169426110237734
-0.19547436144806335,-0.14334041038900974,-1.3169426110237734
-0.19541821144806337,-0.14334041038900974,-1.3169426110237734
-0.19536206144806334,-0.14334041038900974,-1.3169426110237734
-0.19530591144806336,-0.14334041038900974,-1.3169426110237734
-0.19524976144806339,-0.13964218553642593,-1.3169426110237734
-0.19519361144806335,-0.13964218553642593,-1.3169426110237734
-0.19513746144806338,-0.13964218553642593,-1.3169426110237734
-0.19508131144806334,-0.13594396068384215,-1.3169426110237734
-0.19502516144806337,-0.13594396068384215,-1.3169426110237734
-0.19496901144806333,-0.13594396068384215,-1.3169426110237734
-0.19491286144806336,-0.13594396068384046,-1.3169426110237734
-0.19485671144806338,-0.13224573583125834,-1.3169426110237734
-0.19480056144806335,-0.13224573583125834,-1.3169426110237734
-0.19474441144806337,-0.13224573583125834,-1.3169426110237734
-0.19468826144806334,-0.13224573583125665,-1.3169426110237734
-0.19463211144806336,-0.12854751097867453,-1.3169426110237734
-0.19457596144806338,-0.12854751097867453,-1.3169426110237734
-0.19451981144806335,-0.12484928612609074,-1.3169426110237734
-0.19446366144806337,-0.12484928612609074,-1.3169426110237734
-0.19440751144806334,-0.12115106127350694,-1.3169426110237734
-0.19435136144806336,-0.12115106127350694,-1.3169426110237734
-0.1942952114480634,-0.11745283642092483,-1.3169426110237734
-0.19423906144806335,-0.11745283642092147,-1.3169426110237734
-0.19418291144806338,-0.11375461156833934,-1.3169426110237734
-0.19412676144806335,-0.11005638671575554,-1.3169426110237716
-0.19407061144806337,-0.11005638671575554,-1.3132352600427357
-0.19401446144806334,-0.11005638671575387,-1.3169426110237734
-0.19395831144806336,-0.10635816186317175,-1.3169426110237734
-0.19390216144806338,-0.10635816186317175,-1.3169426110237734
-0.19384601144806335,-0.10635816186317175,-1.3169426110237734
-0.19378986144806337,-0.10635816186317175,-1.3169426110237734
-0.19373371144806334,-0.10265993701058794,-1.3169426110237734
-0.19367756144806336,-0.10265993701058794,-1.3169426110237734
-0.19362141144806339,-0.10265993701058794,-1.3169426110237734
-0.19356526144806335,-0.10265993701058794,-1.3169426110237734
-0.19350911144806338,-0.10265993701058794,-1.3169426110237734
-0.19345296144806334,-0.09896171215800582,-1.3169426110237734
-0.19339681144806337,-0.10265993701058794,-1.3169426110237734
-0.19334066144806333,-0.09896171215800414,-1.3169426110237734
-0.19328451144806336,-0.09896171215800247,-1.3169426110237734
-0.19322836144806338,-0.09526348730542035,-1.3169426110237734
-0.19317221144806335,-0.09526348730542035,-1.3169426110237734
-0.19311606144806337,-0.09526348730542035,-1.3169426110237734
-0.19305991144806334,-0.09526348730542035,-1.3169426110237734
-0.19300376144806336,-0.09526348730542035,-1.3169426110237734
-0.19294761144806338,-0.09526348730542035,-1.3169426110237734
-0.19289146144806335,-0.09526348730542035,-1.3169426110237734
-0.19283531144806337,-0.09526348730542035,-1.3169426110237734
-0.19277916144806334,-0.09526348730542035,-1.3169426110237734
-0.19272301144806336,-0.09526348730542035,-1.3169426110237734
-0.1926668614480634,-0.09526348730542035,-1.3169426110237734
-0.19261071144806335,-0.09526348730542035,-1.3169426110237734
-0.19255456144806338,-0.09526348730542035,-1.3169426110237734
-0.19249841144806334,-0.09526348730541867,-1.3169426110237734
-0.19244226144806337,-0.09156526245283655,-1.3169426110237734
-0.19238611144806333,-0.09156526245283655,-1.3169426110237734
-0.19232996144806336,-0.09156526245283655,-1.3169426110237734
-0.19227381144806338,-0.09156526245283655,-1.3169426110237734
-0.19221766144806335,-0.09156526245283655,-1.3169426110237734
-0.19216151144806337,-0.09156526245283655,-1.3169426110237734
-0.19210536144806334,-0.09156526245283488,-1.3169426110237734
-0.19204921144806336,-0.08786703760025275,-1.3169426110237734
-0.19199306144806338,-0.09156526245283655,-1.3169426110237734
-0.19193691144806335,-0.08786703760025275,-1.3169426110237734
-0.19188076144806337,-0.08786703760025275,-1.3169426110237734
-0.19182461144806334,-0.09156526245283655,-1.3169426110237734
-0.19176846144806337,-0.09156526245283655,-1.3169426110237734
-0.19171231144806333,-0.09156526245283655,-1.3169426110237734
-0.19165616144806336,-0.09156526245283488,-1.3169426110237734
-0.19160001144806338,-0.08786703760025275,-1.3169426110237734
-0.19154386144806335,-0.08786703760025275,-1.3169426110237734
-0.19148771144806337,-0.08786703760025275,-1.3169426110237734
-0.19143156144806334,-0.08786703760025275,-1.3169426110237734
-0.19137541144806336,-0.08786703760025275,-1.3169426110237734
-0.19131926144806338,-0.08786703760025275,-1.3169426110237734
-0.19126311144806335,-0.08786703760025275,-1.3169426110237734
-0.19120696144806337,-0.08786703760025275,-1.3169426110237734
-0.19115081144806334,-0.08416881274766895,-1.3169426110237734
-0.19109466144806336,-0.08416881274766895,-1.3169426110237734
-0.1910385114480634,-0.08416881274766895,-1.3169426110237734
-0.19098236144806335,-0.08416881274766895,-1.3169426110237734
-0.19092621144806338,-0.08416881274766895,-1.3169426110237734
-0.19087006144806334,-0.08416881274766895,-1.3169426110237734
-0.19081391144806337,-0.08416881274766895,-1.3169426110237734
-0.19075776144806333,-0.08786703760025275,-1.3169426110237734
-0.19070161144806336,-0.08786703760025275,-1.3169426110237752
-0.19064546144806338,-0.08786703760025275,-1.320649962004811
-0.19058931144806335,-0.08416881274767063,-1.3169426110237734
-0.19053316144806337,-0.08786703760025275,-1.3169426110237734
-0.19047701144806334,-0.08416881274766895,-1.3169426110237734
-0.19042086144806336,-0.08416881274766895,-1.3169426110237734
-0.19036471144806338,-0.08416881274766895,-1.3169426110237734
-0.19030856144806335,-0.08416881274766895,-1.3169426110237734
-0.19025241144806337,-0.08416881274766895,-1.3169426110237734
-0.19019626144806334,-0.08416881274767063,-1.3169426110237734
-0.19014011144806336,-0.08786703760025275,-1.3169426110237734
-0.1900839614480634,-0.08786703760025275,-1.3169426110237734
-0.19002781144806336,-0.08786703760025275,-1.3169426110237734
-0.18997166144806338,-0.08786703760025275,-1.3169426110237734
-0.18991551144806335,-0.08786703760025275,-1.3169426110237734
-0.18985936144806337,-0.08786703760025275,-1.3169426110237734
-0.18980321144806334,-0.08786703760025275,-1.3169426110237734
-0.18974706144806336,-0.08786703760025275,-1.3169426110237734
-0.18969091144806338,-0.08786703760025275,-1.3169426110237734
-0.18963476144806335,-0.08786703760025275,-1.3169426110237734
-0.18957861144806337,-0.08786703760025275,-1.3169426110237734
-0.18952246144806334,-0.08786703760025275,-1.3169426110237734
-0.18946631144806336,-0.08786703760025275,-1.3169426110237734
-0.18941016144806339,-0.08786703760025275,-1.3169426110237734
-0.18935401144806335,-0.08786703760025442,-1.3169426110237734
-0.18929786144806338,-0.09156526245283655,-1.3169426110237734
-0.18924171144806334,-0.09156526245283655,-1.3169426110237734
-0.18918556144806337,-0.09156526245283655,-1.3169426110237734
-0.18912941144806333,-0.09156526245283655,-1.3169426110237734
-0.18907326144806336,-0.09156526245283655,-1.3169426110237752
-0.18901711144806338,-0.09156526245283655,-1.320649962004811
-0.18896096144806335,-0.09526348730542035,-1.3169426110237734
-0.18890481144806337,-0.09526348730542035,-1.3169426110237734
-0.18884866144806334,-0.09526348730542035,-1.3169426110237734
-0.18879251144806336,-0.09526348730542035,-1.3169426110237752
-0.18873636144806338,-0.09526348730542035,-1.320649962004811
-0.18868021144806335,-0.09526348730542035,-1.3169426110237734
-0.18862406144806337,-0.09526348730542035,-1.3169426110237734
-0.18856791144806334,-0.09896171215800414,-1.3169426110237734
-0.18851176144806336,-0.09896171215800414,-1.3169426110237734
-0.1884556114480634,-0.09896171215800414,-1.3169426110237734
-0.18839946144806335,-0.09896171215800414,-1.3169426110237734
-0.18834331144806338,-0.09896171215800414,-1.3169426110237734
-0.18828716144806334,-0.09896171215800582,-1.3169426110237734
-0.18823101144806337,-0.10265993701058794,-1.3169426110237734
-0.18817486144806334,-0.09896171215800414,-1.3169426110237734
-0.18811871144806336,-0.09896171215800414,-1.3169426110237734
-0.18806256144806338,-0.09896171215800414,-1.3169426110237734
-0.18800641144806335,-0.09896171215800414,-1.3169426110237734
-0.18795026144806337,-0.09896171215800414,-1.3169426110237734
-0.18789411144806334,-0.09896171215800414,-1.3169426110237734
-0.18783796144806336,-0.09896171215800414,-1.3169426110237734
-0.18778181144806338,-0.10265993701058794,-1.3169426110237734
-0.18772566144806335,-0.10265993701058794,-1.3169426110237734
-0.18766951144806338,-0.10265993701058794,-1.3169426110237734
-0.18761336144806334,-0.10265993701058794,-1.3169426110237734
-0.18755721144806337,-0.10265993701058794,-1.3169426110237734
-0.18750106144806333,-0.10265993701058794,-1.3169426110237734
-0.18744491144806336,-0.10265993701058794,-1.3169426110237734
-0.18738876144806338,-0.10265993701058794,-1.3169426110237734
-0.18733261144806335,-0.09896171215800414,-1.3169426110237734
-0.18727646144806337,-0.09896171215800414,-1.3169426110237734
-0.18722031144806334,-0.09896171215800414,-1.3169426110237734
-0.18716416144806336,-0.09896171215800414,-1.3169426110237734
-0.18710801144806338,-0.09896171215800414,-1.3169426110237734
-0.18705186144806335,-0.09896171215800414,-1.3169426110237734
-0.18699571144806337,-0.09896171215800414,-1.3169426110237734
-0.18693956144806334,-0.09526348730542203,-1.3169426110237734
-0.18688341144806336,-0.09896171215800414,-1.3169426110237734
-0.1868272614480634,-0.09896171215800414,-1.3169426110237734
-0.18677111144806335,-0.09896171215800414,-1.3169426110237734
-0.18671496144806338,-0.09896171215800414,-1.3169426110237734
-0.18665881144806334,-0.09896171215800414,-1.3169426110237734
-0.18660266144806337,-0.09896171215800414,-1.3169426110237734
-0.18654651144806333,-0.09896171215800414,-1.3169426110237734
-0.18649036144806336,-0.09896171215800414,-1.3169426110237734
-0.18643421144806338,-0.09896171215800414,-1.3169426110237734
-0.18637806144806335,-0.09896171215800414,-1.3169426110237734
-0.18632191144806337,-0.09896171215800414,-1.3169426110237734
-0.18626576144806334,-0.09896171215800414,-1.3169426110237734
-0.18620961144806336,-0.09896171215800582,-1.3169426110237734
-0.18615346144806338,-0.10265993701058794,-1.3169426110237734
-0.18609731144806335,-0.10265993701058794,-1.3169426110237734
-0.18604116144806337,-0.10265993701058794,-1.3169426110237734
-0.18598501144806334,-0.10265993701058962,-1.320649962004811
-0.18592886144806337,-0.10635816186317175,-1.320649962004811
-0.1858727114480634,-0.10635816186317175,-1.3169426110237752
-0.18581656144806336,-0.10635816186317175,-1.3169426110237734
-0.18576041144806338,-0.10635816186317175,-1.3169426110237734
-0.18570426144806335,-0.10635816186317007,-1.3169426110237752
-0.18564811144806337,-0.10265993701058794,-1.320649962004811
-0.18559196144806334,-0.10265993701058794,-1.3169426110237752
-0.18553581144806336,-0.10265993701058794,-1.320649962004811
-0.18547966144806338,-0.10265993701058794,-1.320649962004811
-0.18542351144806335,-0.10635816186317175,-1.3206499620048093
-0.18536736144806337,-0.10635816186317175,-1.3169426110237734
-0.18531121144806334,-0.10265993701058794,-1.3206499620048093
-0.18525506144806336,-0.10265993701058794,-1.3169426110237734
-0.18519891144806339,-0.10265993701058794,-1.3169426110237734
-0.18514276144806335,-0.10265993701058794,-1.3169426110237734
-0.18508661144806338,-0.10265993701058794,-1.3169426110237734
-0.18503046144806334,-0.09896171215800414,-1.3169426110237734
-0.18497431144806337,-0.09896171215800414,-1.3169426110237734
-0.18491816144806333,-0.09896171215800414,-1.3169426110237734
-0.18486201144806336,-0.09896171215800414,-1.3169426110237734
-0.18480586144806338,-0.09896171215800414,-1.3169426110237734
-0.18474971144806335,-0.09896171215800247,-1.3169426110237734
-0.18469356144806337,-0.09526348730542035,-1.3169426110237734
-0.18463741144806334,-0.09526348730541867,-1.3169426110237734
-0.18458126144806336,-0.09156526245283655,-1.3169426110237734
-0.18452511144806338,-0.09156526245283655,-1.3169426110237734
-0.18446896144806335,-0.09156526245283655,-1.3169426110237734
-0.18441281144806337,-0.09156526245283655,-1.3169426110237734
-0.18435666144806334,-0.08786703760025275,-1.3169426110237734
-0.18430051144806336,-0.08786703760025275,-1.3169426110237734
-0.1842443614480634,-0.08786703760025275,-1.3169426110237734
-0.18418821144806335,-0.08786703760025275,-1.3169426110237734
-0.18413206144806338,-0.08786703760025275,-1.3169426110237734
-0.18407591144806335,-0.08786703760025275,-1.3169426110237734
-0.18401976144806337,-0.08786703760025275,-1.3169426110237734
-0.18396361144806334,-0.08416881274766895,-1.3169426110237734
-0.18390746144806336,-0.08416881274766895,-1.3169426110237734
-0.18385131144806338,-0.08416881274766895,-1.3169426110237734
-0.18379516144806335,-0.08416881274766895,-1.3206499620048093
-0.18373901144806337,-0.08416881274766895,-1.3169426110237734
-0.18368286144806334,-0.08416881274766727,-1.3169426110237734
-0.18362671144806336,-0.08047058789508515,-1.3169426110237734
-0.18357056144806339,-0.08047058789508515,-1.3169426110237734
-0.18351441144806335,-0.08047058789508348,-1.3169426110237734
-0.18345826144806338,-0.07677236304250135,-1.3169426110237734
-0.18340211144806334,-0.07677236304249967,-1.3169426110237734
-0.18334596144806337,-0.07307413818991755,-1.3169426110237734
-0.18328981144806333,-0.07307413818991755,-1.3169426110237734
-0.18323366144806336,-0.07307413818991755,-1.3169426110237734
-0.18317751144806338,-0.07307413818991755,-1.3169426110237734
-0.18312136144806335,-0.06937591333733881,-1.3169426110237734
-0.18306521144806337,-0.08047058789508515,-1.3169426110237734
-0.18300906144806334,-0.07677236304249967,-1.3169426110237734
-0.18295291144806336,-0.07307413818991587,-1.3169426110237734
-0.18289676144806338,-0.06937591333733376,-1.3169426110237734
-0.18284061144806335,-0.06937591333733376,-1.3169426110237734
-0.18278446144806337,-0.06937591333733376,-1.3169426110237734
-0.18272831144806334,-0.06567768848474995,-1.3169426110237734
-0.18267216144806336,-0.06567768848474995,-1.3169426110237734
-0.1826160114480634,-0.06937591333733376,-1.3169426110237734
-0.18255986144806335,-0.06567768848474995,-1.3169426110237752
-0.18250371144806338,-0.06567768848474995,-1.320649962004811
-0.18244756144806334,-0.06567768848474995,-1.3169426110237734
-0.18239141144806337,-0.06567768848474995,-1.3169426110237734
-0.18233526144806333,-0.06197946363216615,-1.3169426110237734
-0.18227911144806336,-0.06197946363216615,-1.3169426110237734
-0.18222296144806338,-0.06197946363216615,-1.3169426110237734
-0.18216681144806335,-0.06197946363216615,-1.3169426110237734
-0.18211066144806337,-0.06197946363216615,-1.3169426110237734
-0.18205451144806334,-0.05828123877958235,-1.3169426110237734
-0.18199836144806336,-0.05828123877958235,-1.3169426110237734
-0.18194221144806338,-0.05828123877958235,-1.3169426110237734
-0.18188606144806335,-0.054583013926998554,-1.320649962004811
-0.18182991144806337,-0.054583013926998554,-1.320649962004811
-0.18177376144806334,-0.054583013926996875,-1.3206499620048093
-0.18171761144806337,-0.05088478907441475,-1.3169426110237734
-0.1816614614480634,-0.05088478907441475,-1.3169426110237734
-0.18160531144806336,-0.04718656422183096,-1.3169426110237734
-0.18154916144806338,-0.04718656422183096,-1.3169426110237734
-0.18149301144806335,-0.04718656422183096,-1.3169426110237752
-0.18143686144806337,-0.04718656422183096,-1.320649962004811
-0.18138071144806334,-0.043488339369247155,-1.3169426110237734
-0.18132456144806336,-0.043488339369245475,-1.3169426110237734
-0.18126841144806338,-0.03979011451666335,-1.3169426110237734
-0.18121226144806335,-0.03979011451666335,-1.3169426110237734
-0.18115611144806337,-0.03979011451666335,-1.3169426110237734
-0.18109996144806334,-0.03979011451666335,-1.3169426110237734
-0.18104381144806336,-0.03979011451666335,-1.3169426110237734
-0.18098766144806339,-0.03609188966407956,-1.3169426110237734
-0.18093151144806335,-0.03609188966407788,-1.3169426110237734
-0.18087536144806338,-0.032393664811495755,-1.3169426110237734
-0.18081921144806334,-0.032393664811495755,-1.3206499620048093
-0.18076306144806337,-0.032393664811495755,-1.3169426110237734
-0.18070691144806333,-0.028695439958911956,-1.3169426110237734
-0.18065076144806336,-0.028695439958911956,-1.3169426110237752
-0.18059461144806338,-0.028695439958911956,-1.320649962004811
-0.18053846144806335,-0.024997215106328158,-1.3169426110237734
-0.18048231144806337,-0.024997215106328158,-1.3169426110237734
-0.18042616144806334,-0.024997215106326475,-1.3206499620048093
-0.18037001144806336,-0.021298990253744356,-1.3169426110237734
-0.18031386144806338,-0.021298990253744356,-1.3169426110237734
-0.18025771144806335,-0.021298990253742673,-1.320649962004811
-0.18020156144806337,-0.017600765401160557,-1.320649962004811
-0.18014541144806334,-0.017600765401160557,-1.320649962004811
-0.18008926144806336,-0.017600765401160557,-1.320649962004811
