acq0034.csv

#Digilent WaveForms Oscilloscope Acquisition
#Device Name: Discovery2
#Serial Number: SN:210321AA28BE
#Date Time: 2023-05-24 14:52:26.031
#Sample rate: 17809.4Hz
#Samples: 8192
#Trigger: Source: Channel 1 Type: Edge Condition: Rising Level: 800 mV Hyst.: Auto HoldOff: 100 ns
#Channel 1: Range: 1 V/div Offset: 0 V Attenuation: 1 X Sample Mode: Average
#Channel 2: Range: 1 V/div Offset: 0 V Attenuation: 1 X Sample Mode: Average

Time (s),Channel 1 (V),Channel 2 (V)
-0.1977210038426459,-0.05828123877958235,-1.3169426110237734
-0.1976648538426459,-0.06937591333733376,-1.3169426110237734
-0.1976087038426459,-0.08047058789508515,-1.3169426110237734
-0.1975525538426459,-0.08786703760025275,-1.3169426110237734
-0.1974964038426459,-0.09526348730542035,-1.3169426110237734
-0.1974402538426459,-0.10635816186317175,-1.3169426110237734
-0.1973841038426459,-0.11375461156833934,-1.3169426110237734
-0.1973279538426459,-0.11745283642092315,-1.3169426110237734
-0.1972718038426459,-0.12484928612609074,-1.3169426110237734
-0.1972156538426459,-0.13224573583126004,-1.3169426110237734
-0.1971595038426459,-0.13594396068384215,-1.3169426110237734
-0.1971033538426459,-0.13964218553642593,-1.3169426110237734
-0.1970472038426459,-0.14334041038900974,-1.3169426110237734
-0.1969910538426459,-0.14703863524159355,-1.3132352600427357
-0.1969349038426459,-0.15073686009417733,-1.3169426110237734
-0.19687875384264591,-0.15443508494675945,-1.3169426110237734
-0.1968226038426459,-0.15813330979934495,-1.3169426110237734
-0.1967664538426459,-0.16183153465192873,-1.3169426110237734
-0.1967103038426459,-0.16552975950451254,-1.3169426110237734
-0.1966541538426459,-0.16922798435709635,-1.3169426110237734
-0.1965980038426459,-0.17292620920968013,-1.3169426110237734
-0.1965418538426459,-0.17292620920968013,-1.3169426110237734
-0.1964857038426459,-0.17662443406226394,-1.3169426110237734
-0.1964295538426459,-0.17662443406226394,-1.3169426110237734
-0.1963734038426459,-0.18032265891484775,-1.3169426110237734
-0.1963172538426459,-0.18032265891484775,-1.3169426110237734
-0.1962611038426459,-0.18402088376743153,-1.3169426110237734
-0.1962049538426459,-0.18402088376743153,-1.3169426110237734
-0.1961488038426459,-0.18402088376743153,-1.3169426110237734
-0.1960926538426459,-0.18771910862001534,-1.3169426110237734
-0.1960365038426459,-0.18771910862001534,-1.3169426110237734
-0.1959803538426459,-0.18771910862001534,-1.3169426110237734
-0.1959242038426459,-0.19141733347259912,-1.3169426110237734
-0.1958680538426459,-0.19141733347259912,-1.3169426110237734
-0.1958119038426459,-0.19141733347259912,-1.3169426110237734
-0.1957557538426459,-0.19141733347259912,-1.3169426110237734
-0.1956996038426459,-0.19141733347259912,-1.3169426110237734
-0.1956434538426459,-0.19141733347259912,-1.3169426110237734
-0.19558730384264592,-0.19141733347259912,-1.3169426110237734
-0.1955311538426459,-0.19141733347259912,-1.3169426110237734
-0.1954750038426459,-0.19141733347259912,-1.3169426110237734
-0.1954188538426459,-0.19141733347259912,-1.3169426110237734
-0.1953627038426459,-0.19141733347259912,-1.3132352600427357
-0.1953065538426459,-0.19141733347259912,-1.3169426110237734
-0.19525040384264591,-0.19141733347259912,-1.3169426110237734
-0.1951942538426459,-0.19141733347259912,-1.3169426110237734
-0.1951381038426459,-0.19511555832518293,-1.3169426110237734
-0.1950819538426459,-0.19141733347259912,-1.3169426110237734
-0.1950258038426459,-0.19141733347259912,-1.3169426110237734
-0.1949696538426459,-0.19141733347259912,-1.3169426110237734
-0.1949135038426459,-0.19141733347259912,-1.3169426110237734
-0.1948573538426459,-0.19141733347259912,-1.3169426110237734
-0.1948012038426459,-0.18771910862001534,-1.3169426110237734
-0.1947450538426459,-0.19141733347259912,-1.3169426110237734
-0.1946889038426459,-0.18771910862001534,-1.3169426110237734
-0.1946327538426459,-0.18771910862001534,-1.3169426110237734
-0.1945766038426459,-0.18771910862001534,-1.3169426110237734
-0.1945204538426459,-0.18402088376743153,-1.3169426110237734
-0.1944643038426459,-0.18402088376743153,-1.3169426110237734
-0.1944081538426459,-0.18402088376743153,-1.3169426110237734
-0.1943520038426459,-0.18032265891484775,-1.3169426110237734
-0.19429585384264592,-0.18032265891484775,-1.3169426110237734
-0.1942397038426459,-0.18032265891484775,-1.3169426110237734
-0.1941835538426459,-0.18032265891484775,-1.3169426110237734
-0.1941274038426459,-0.18032265891484775,-1.3169426110237734
-0.1940712538426459,-0.17662443406226394,-1.3169426110237734
-0.1940151038426459,-0.17662443406226394,-1.3169426110237734
-0.19395895384264591,-0.17662443406226394,-1.3169426110237734
-0.1939028038426459,-0.17662443406226394,-1.3169426110237734
-0.1938466538426459,-0.17662443406226394,-1.3169426110237734
-0.1937905038426459,-0.17292620920968013,-1.3169426110237734
-0.1937343538426459,-0.17292620920968013,-1.3169426110237734
-0.1936782038426459,-0.17292620920968013,-1.3169426110237734
-0.1936220538426459,-0.17292620920968013,-1.3169426110237734
-0.1935659038426459,-0.17292620920968013,-1.3169426110237734
-0.1935097538426459,-0.16922798435709635,-1.3169426110237734
-0.1934536038426459,-0.16922798435709635,-1.3169426110237734
-0.1933974538426459,-0.16922798435709635,-1.3169426110237734
-0.1933413038426459,-0.16922798435709635,-1.3169426110237734
-0.1932851538426459,-0.16922798435709635,-1.3169426110237734
-0.1932290038426459,-0.16552975950451254,-1.3169426110237734
-0.1931728538426459,-0.16552975950451254,-1.3169426110237734
-0.1931167038426459,-0.16552975950451254,-1.3169426110237734
-0.1930605538426459,-0.16552975950451254,-1.3169426110237734
-0.1930044038426459,-0.16552975950451085,-1.3169426110237734
-0.1929482538426459,-0.16183153465192873,-1.3169426110237734
-0.1928921038426459,-0.16183153465192873,-1.3169426110237734
-0.1928359538426459,-0.16183153465192873,-1.3169426110237734
-0.1927798038426459,-0.15813330979934495,-1.3169426110237734
-0.1927236538426459,-0.15813330979934495,-1.3169426110237734
-0.19266750384264592,-0.15813330979934495,-1.3169426110237734
-0.1926113538426459,-0.15813330979934495,-1.3169426110237734
-0.1925552038426459,-0.15443508494676114,-1.3169426110237734
-0.1924990538426459,-0.15443508494676114,-1.3169426110237734
-0.1924429038426459,-0.15443508494676114,-1.3169426110237734
-0.1923867538426459,-0.15073686009417733,-1.3169426110237734
-0.19233060384264591,-0.15073686009417733,-1.3169426110237734
-0.1922744538426459,-0.14703863524159355,-1.3169426110237734
-0.1922183038426459,-0.14703863524159355,-1.3132352600427357
-0.1921621538426459,-0.14703863524159355,-1.3169426110237734
-0.1921060038426459,-0.14703863524159355,-1.3169426110237734
-0.1920498538426459,-0.14703863524159355,-1.3169426110237734
-0.1919937038426459,-0.14334041038900974,-1.3169426110237734
-0.1919375538426459,-0.14334041038900974,-1.3169426110237734
-0.1918814038426459,-0.13964218553642593,-1.3169426110237734
-0.1918252538426459,-0.14334041038900974,-1.3169426110237734
-0.1917691038426459,-0.13964218553642593,-1.3169426110237734
-0.1917129538426459,-0.13964218553642424,-1.3169426110237734
-0.1916568038426459,-0.13594396068384215,-1.3169426110237734
-0.1916006538426459,-0.13594396068384215,-1.3169426110237734
-0.1915445038426459,-0.13224573583125834,-1.3169426110237734
-0.1914883538426459,-0.13224573583125834,-1.3169426110237734
-0.1914322038426459,-0.13224573583125834,-1.3169426110237734
-0.19137605384264592,-0.13224573583125834,-1.3169426110237734
-0.1913199038426459,-0.12854751097867453,-1.3169426110237734
-0.1912637538426459,-0.12854751097867453,-1.3169426110237734
-0.1912076038426459,-0.12854751097867453,-1.3169426110237734
-0.1911514538426459,-0.12484928612609074,-1.3169426110237734
-0.1910953038426459,-0.12115106127350694,-1.3169426110237734
-0.19103915384264591,-0.12115106127350694,-1.3169426110237734
-0.1909830038426459,-0.12115106127350694,-1.3169426110237734
-0.1909268538426459,-0.11745283642092315,-1.3169426110237734
-0.1908707038426459,-0.11745283642092315,-1.3169426110237734
-0.1908145538426459,-0.11745283642092315,-1.3169426110237734
-0.1907584038426459,-0.11745283642092315,-1.3169426110237734
-0.1907022538426459,-0.11375461156833934,-1.3169426110237734
-0.1906461038426459,-0.11375461156833934,-1.3169426110237734
-0.1905899538426459,-0.11005638671575554,-1.3169426110237734
-0.1905338038426459,-0.11005638671575554,-1.3169426110237734
-0.1904776538426459,-0.10635816186317175,-1.3169426110237734
-0.1904215038426459,-0.11005638671575387,-1.3169426110237734
-0.1903653538426459,-0.10635816186317175,-1.3169426110237734
-0.1903092038426459,-0.10265993701058794,-1.3169426110237734
-0.1902530538426459,-0.10265993701058794,-1.3169426110237734
-0.1901969038426459,-0.10265993701058794,-1.3169426110237734
-0.1901407538426459,-0.09896171215800414,-1.3169426110237734
-0.19008460384264592,-0.09896171215800414,-1.3169426110237734
-0.1900284538426459,-0.09896171215800414,-1.3169426110237734
-0.1899723038426459,-0.09896171215800414,-1.3169426110237734
-0.1899161538426459,-0.09526348730542035,-1.3169426110237734
-0.1898600038426459,-0.09896171215800414,-1.3169426110237734
-0.1898038538426459,-0.09526348730542035,-1.3169426110237734
-0.18974770384264592,-0.09526348730542035,-1.3169426110237734
-0.1896915538426459,-0.09156526245283655,-1.3169426110237734
-0.1896354038426459,-0.09156526245283655,-1.3169426110237734
-0.1895792538426459,-0.09156526245283655,-1.3169426110237734
-0.1895231038426459,-0.09156526245283655,-1.3169426110237734
-0.1894669538426459,-0.08786703760025275,-1.3169426110237734
-0.18941080384264591,-0.08786703760025275,-1.3169426110237734
-0.1893546538426459,-0.08786703760025275,-1.3169426110237734
-0.1892985038426459,-0.08786703760025275,-1.3169426110237734
-0.1892423538426459,-0.08786703760025275,-1.3169426110237734
-0.1891862038426459,-0.08786703760025275,-1.3169426110237734
-0.1891300538426459,-0.08416881274766895,-1.3169426110237734
-0.1890739038426459,-0.08416881274766895,-1.3169426110237734
-0.1890177538426459,-0.08047058789508515,-1.3169426110237734
-0.1889616038426459,-0.08047058789508515,-1.3169426110237734
-0.1889054538426459,-0.08047058789508515,-1.3169426110237734
-0.1888493038426459,-0.08047058789508515,-1.3169426110237734
-0.1887931538426459,-0.08047058789508348,-1.3169426110237734
-0.1887370038426459,-0.07677236304250135,-1.3169426110237734
-0.1886808538426459,-0.07677236304250135,-1.3169426110237734
-0.1886247038426459,-0.07677236304250135,-1.320649962004811
-0.1885685538426459,-0.07307413818991755,-1.3169426110237734
-0.1885124038426459,-0.07307413818991755,-1.3169426110237734
-0.18845625384264592,-0.07307413818991755,-1.3169426110237734
-0.1884001038426459,-0.06937591333733376,-1.3169426110237734
-0.1883439538426459,-0.06937591333733376,-1.3169426110237734
-0.1882878038426459,-0.06937591333733376,-1.3169426110237734
-0.1882316538426459,-0.06567768848474995,-1.3169426110237734
-0.1881755038426459,-0.06567768848474995,-1.320649962004811
-0.18811935384264591,-0.06197946363216615,-1.3169426110237734
-0.1880632038426459,-0.06197946363216615,-1.3169426110237734
-0.1880070538426459,-0.06197946363216615,-1.320649962004811
-0.1879509038426459,-0.05828123877958235,-1.3169426110237734
-0.1878947538426459,-0.05828123877958235,-1.3169426110237734
-0.1878386038426459,-0.05828123877958235,-1.3169426110237734
-0.1877824538426459,-0.05828123877958235,-1.3169426110237734
-0.1877263038426459,-0.054583013926998554,-1.3169426110237734
-0.1876701538426459,-0.054583013926998554,-1.3169426110237734
-0.1876140038426459,-0.054583013926998554,-1.3169426110237734
-0.1875578538426459,-0.054583013926998554,-1.3169426110237734
-0.1875017038426459,-0.05088478907441475,-1.3169426110237734
-0.1874455538426459,-0.05088478907441475,-1.3169426110237734
-0.1873894038426459,-0.04718656422183096,-1.3169426110237734
-0.1873332538426459,-0.04718656422183096,-1.3169426110237734
-0.1872771038426459,-0.04718656422183096,-1.3169426110237734
-0.1872209538426459,-0.04718656422183096,-1.3169426110237734
-0.18716480384264592,-0.04718656422183096,-1.3169426110237734
-0.1871086538426459,-0.043488339369247155,-1.3169426110237734
-0.1870525038426459,-0.043488339369247155,-1.3169426110237734
-0.1869963538426459,-0.043488339369247155,-1.3169426110237734
-0.1869402038426459,-0.043488339369247155,-1.3169426110237734
-0.1868840538426459,-0.043488339369247155,-1.3169426110237734
-0.18682790384264591,-0.043488339369247155,-1.3169426110237734
-0.1867717538426459,-0.03979011451666335,-1.3169426110237734
-0.1867156038426459,-0.03979011451666335,-1.3169426110237734
-0.1866594538426459,-0.03979011451666335,-1.3169426110237734
-0.1866033038426459,-0.03979011451666335,-1.3169426110237734
-0.1865471538426459,-0.03609188966407956,-1.3169426110237734
-0.1864910038426459,-0.03609188966407956,-1.3169426110237734
-0.1864348538426459,-0.03979011451666335,-1.320649962004811
-0.1863787038426459,-0.03979011451666335,-1.3169426110237734
-0.1863225538426459,-0.03979011451666335,-1.320649962004811
-0.1862664038426459,-0.03609188966407956,-1.3169426110237734
-0.1862102538426459,-0.03979011451666167,-1.3169426110237734
-0.1861541038426459,-0.03609188966407956,-1.3169426110237734
-0.1860979538426459,-0.03609188966407956,-1.3169426110237734
-0.1860418038426459,-0.03609188966407956,-1.3169426110237734
-0.1859856538426459,-0.03609188966407956,-1.3169426110237734
-0.1859295038426459,-0.03609188966407956,-1.3169426110237734
-0.18587335384264592,-0.03609188966407956,-1.3169426110237734
-0.1858172038426459,-0.03609188966407956,-1.3169426110237734
-0.1857610538426459,-0.03609188966407956,-1.3169426110237734
-0.1857049038426459,-0.03609188966407956,-1.3169426110237734
-0.1856487538426459,-0.03609188966407956,-1.3169426110237734
-0.1855926038426459,-0.03609188966407956,-1.3169426110237734
-0.18553645384264592,-0.03609188966407956,-1.3169426110237734
-0.1854803038426459,-0.03609188966407956,-1.3169426110237734
-0.1854241538426459,-0.03609188966407956,-1.3169426110237734
-0.1853680038426459,-0.032393664811495755,-1.3169426110237734
-0.1853118538426459,-0.03609188966407956,-1.3169426110237734
-0.1852557038426459,-0.032393664811495755,-1.3169426110237734
-0.18519955384264591,-0.032393664811495755,-1.3169426110237734
-0.1851434038426459,-0.032393664811495755,-1.3169426110237734
-0.1850872538426459,-0.032393664811495755,-1.320649962004811
-0.1850311038426459,-0.032393664811495755,-1.320649962004811
-0.1849749538426459,-0.028695439958911956,-1.320649962004811
-0.1849188038426459,-0.028695439958911956,-1.3169426110237734
-0.1848626538426459,-0.028695439958911956,-1.3169426110237734
-0.1848065038426459,-0.028695439958911956,-1.3169426110237734
-0.1847503538426459,-0.028695439958911956,-1.3169426110237734
-0.1846942038426459,-0.024997215106328158,-1.3169426110237734
-0.1846380538426459,-0.028695439958911956,-1.3169426110237734
-0.1845819038426459,-0.028695439958911956,-1.3169426110237734
-0.1845257538426459,-0.028695439958911956,-1.3169426110237734
-0.1844696038426459,-0.028695439958911956,-1.3169426110237734
-0.1844134538426459,-0.028695439958911956,-1.3169426110237734
-0.1843573038426459,-0.028695439958911956,-1.3169426110237734
-0.1843011538426459,-0.028695439958911956,-1.3169426110237734
-0.18424500384264592,-0.028695439958911956,-1.3169426110237734
-0.1841888538426459,-0.028695439958911956,-1.3169426110237734
-0.1841327038426459,-0.028695439958911956,-1.3169426110237734
-0.1840765538426459,-0.028695439958911956,-1.3169426110237734
-0.1840204038426459,-0.024997215106328158,-1.3169426110237734
-0.1839642538426459,-0.024997215106328158,-1.3169426110237734
-0.18390810384264591,-0.024997215106328158,-1.3169426110237734
-0.1838519538426459,-0.028695439958911956,-1.3169426110237734
-0.1837958038426459,-0.028695439958911956,-1.3169426110237734
-0.1837396538426459,-0.028695439958911956,-1.3169426110237734
-0.1836835038426459,-0.032393664811495755,-1.3169426110237734
-0.1836273538426459,-0.032393664811495755,-1.320649962004811
-0.1835712038426459,-0.032393664811495755,-1.3169426110237734
-0.1835150538426459,-0.032393664811495755,-1.3169426110237734
-0.1834589038426459,-0.032393664811495755,-1.3169426110237734
-0.1834027538426459,-0.028695439958911956,-1.3169426110237734
-0.1833466038426459,-0.028695439958911956,-1.3169426110237734
-0.1832904538426459,-0.028695439958911956,-1.3169426110237734
-0.1832343038426459,-0.028695439958911956,-1.3169426110237734
-0.1831781538426459,-0.028695439958911956,-1.320649962004811
-0.1831220038426459,-0.028695439958911956,-1.3169426110237734
-0.1830658538426459,-0.028695439958911956,-1.3169426110237734
-0.1830097038426459,-0.032393664811495755,-1.3169426110237734
-0.18295355384264592,-0.032393664811495755,-1.3169426110237734
-0.1828974038426459,-0.032393664811495755,-1.3169426110237734
-0.1828412538426459,-0.032393664811495755,-1.3169426110237734
-0.1827851038426459,-0.032393664811495755,-1.3169426110237734
-0.1827289538426459,-0.032393664811495755,-1.3169426110237734
-0.1826728038426459,-0.032393664811495755,-1.3169426110237734
-0.18261665384264592,-0.032393664811495755,-1.3169426110237734
-0.1825605038426459,-0.03609188966407956,-1.3169426110237734
-0.1825043538426459,-0.032393664811495755,-1.3169426110237734
-0.1824482038426459,-0.03609188966407956,-1.3169426110237734
-0.1823920538426459,-0.03609188966407956,-1.3169426110237734
-0.1823359038426459,-0.03609188966407956,-1.3169426110237734
-0.18227975384264591,-0.03609188966407956,-1.3169426110237734
-0.1822236038426459,-0.03979011451666335,-1.3169426110237734
-0.1821674538426459,-0.03979011451666335,-1.3169426110237734
-0.1821113038426459,-0.03979011451666335,-1.3169426110237734
-0.1820551538426459,-0.03979011451666335,-1.3169426110237734
-0.1819990038426459,-0.03979011451666335,-1.3169426110237734
-0.1819428538426459,-0.03979011451666335,-1.3169426110237734
-0.1818867038426459,-0.03609188966407956,-1.3169426110237734
-0.1818305538426459,-0.03979011451666335,-1.3169426110237734
-0.1817744038426459,-0.03979011451666335,-1.3169426110237734
-0.1817182538426459,-0.03979011451666335,-1.3169426110237734
-0.18166210384264592,-0.03979011451666335,-1.3169426110237734
-0.1816059538426459,-0.03979011451666335,-1.3169426110237734
-0.1815498038426459,-0.03979011451666335,-1.3169426110237734
-0.1814936538426459,-0.03979011451666335,-1.3169426110237734
-0.1814375038426459,-0.03979011451666335,-1.320649962004811
-0.1813813538426459,-0.03979011451666335,-1.3169426110237734
-0.18132520384264592,-0.03979011451666335,-1.3169426110237734
-0.1812690538426459,-0.03979011451666335,-1.3169426110237734
-0.1812129038426459,-0.03979011451666335,-1.3169426110237734
-0.1811567538426459,-0.03979011451666335,-1.3169426110237734
-0.1811006038426459,-0.03979011451666335,-1.3169426110237734
-0.1810444538426459,-0.03979011451666335,-1.3169426110237734
-0.18098830384264591,-0.043488339369247155,-1.3169426110237734
-0.1809321538426459,-0.043488339369247155,-1.3169426110237734
-0.1808760038426459,-0.043488339369247155,-1.320649962004811
-0.1808198538426459,-0.043488339369247155,-1.3169426110237734
-0.1807637038426459,-0.043488339369247155,-1.3169426110237734
-0.1807075538426459,-0.043488339369247155,-1.3169426110237734
-0.1806514038426459,-0.043488339369247155,-1.3169426110237734
-0.1805952538426459,-0.043488339369247155,-1.320649962004811
-0.1805391038426459,-0.043488339369247155,-1.3169426110237734
-0.1804829538426459,-0.043488339369247155,-1.320649962004811
-0.1804268038426459,-0.043488339369247155,-1.320649962004811
-0.1803706538426459,-0.04718656422183096,-1.3169426110237734
-0.1803145038426459,-0.04718656422183096,-1.3169426110237734
-0.1802583538426459,-0.04718656422183096,-1.3169426110237734
-0.1802022038426459,-0.04718656422183096,-1.3169426110237734
-0.1801460538426459,-0.04718656422183096,-1.320649962004811
-0.1800899038426459,-0.04718656422183096,-1.3169426110237734
-0.18003375384264592,-0.04718656422183096,-1.3169426110237734
-0.1799776038426459,-0.04718656422183096,-1.3169426110237734
-0.1799214538426459,-0.05088478907441475,-1.3169426110237734
