acq0031.csv

#Digilent WaveForms Oscilloscope Acquisition
#Device Name: Discovery2
#Serial Number: SN:210321AA28BE
#Date Time: 2023-05-24 14:52:24.533
#Sample rate: 17809.4Hz
#Samples: 8192
#Trigger: Source: Channel 1 Type: Edge Condition: Rising Level: 800 mV Hyst.: Auto HoldOff: 100 ns
#Channel 1: Range: 1 V/div Offset: 0 V Attenuation: 1 X Sample Mode: Average
#Channel 2: Range: 1 V/div Offset: 0 V Attenuation: 1 X Sample Mode: Average

Time (s),Channel 1 (V),Channel 2 (V)
-0.19774283053209457,-0.05088478907441475,-1.3169426110237734
-0.19768668053209457,-0.06197946363216615,-1.3169426110237734
-0.19763053053209456,-0.06937591333733376,-1.3169426110237734
-0.19757438053209456,-0.08047058789508515,-1.3169426110237734
-0.19751823053209458,-0.09156526245283655,-1.3169426110237734
-0.19746208053209457,-0.09526348730542035,-1.3169426110237734
-0.19740593053209457,-0.10265993701058794,-1.3169426110237734
-0.19734978053209457,-0.11005638671575554,-1.3169426110237734
-0.19729363053209456,-0.11745283642092315,-1.3169426110237734
-0.19723748053209456,-0.12484928612609242,-1.3169426110237734
-0.19718133053209458,-0.12854751097867453,-1.3169426110237734
-0.19712518053209457,-0.13594396068384215,-1.3169426110237734
-0.19706903053209457,-0.13964218553642593,-1.3169426110237734
-0.19701288053209456,-0.14334041038900974,-1.3169426110237734
-0.19695673053209456,-0.14703863524159355,-1.3169426110237734
-0.19690058053209458,-0.15073686009417564,-1.3169426110237734
-0.19684443053209458,-0.15443508494676114,-1.3169426110237734
-0.19678828053209457,-0.15813330979934495,-1.3169426110237734
-0.19673213053209457,-0.15813330979934495,-1.3169426110237734
-0.19667598053209456,-0.16183153465192873,-1.3169426110237734
-0.19661983053209456,-0.16552975950451254,-1.3132352600427357
-0.19656368053209458,-0.16552975950451254,-1.3169426110237734
-0.19650753053209458,-0.16922798435709635,-1.3169426110237734
-0.19645138053209457,-0.17292620920968013,-1.3169426110237734
-0.19639523053209457,-0.17292620920968013,-1.3169426110237734
-0.19633908053209456,-0.17662443406226394,-1.3169426110237734
-0.19628293053209456,-0.17662443406226394,-1.3169426110237734
-0.19622678053209458,-0.18032265891484775,-1.3169426110237734
-0.19617063053209458,-0.18032265891484775,-1.3169426110237734
-0.19611448053209457,-0.18032265891484775,-1.3169426110237734
-0.19605833053209457,-0.18032265891484775,-1.3169426110237734
-0.19600218053209456,-0.18402088376743153,-1.3169426110237734
-0.19594603053209456,-0.18402088376743153,-1.3132352600427375
-0.19588988053209458,-0.18402088376743153,-1.3169426110237734
-0.19583373053209457,-0.18402088376743153,-1.3169426110237734
-0.19577758053209457,-0.18771910862001534,-1.3169426110237734
-0.19572143053209456,-0.18771910862001534,-1.3169426110237734
-0.19566528053209456,-0.18771910862001534,-1.3169426110237734
-0.19560913053209458,-0.18771910862001534,-1.3169426110237734
-0.19555298053209458,-0.19141733347259912,-1.3169426110237734
-0.19549683053209457,-0.18771910862001534,-1.3169426110237734
-0.19544068053209457,-0.19141733347259912,-1.3169426110237734
-0.19538453053209456,-0.19141733347259912,-1.3169426110237734
-0.19532838053209456,-0.19141733347259912,-1.3169426110237734
-0.19527223053209458,-0.19141733347259912,-1.3169426110237734
-0.19521608053209458,-0.19141733347259912,-1.3169426110237734
-0.19515993053209457,-0.19141733347259912,-1.3169426110237734
-0.19510378053209457,-0.19141733347259912,-1.3169426110237734
-0.19504763053209456,-0.19141733347259912,-1.3169426110237734
-0.19499148053209456,-0.19141733347259912,-1.3169426110237734
-0.19493533053209458,-0.19141733347259912,-1.3169426110237734
-0.19487918053209458,-0.18771910862001534,-1.3169426110237734
-0.19482303053209457,-0.18771910862001534,-1.3169426110237734
-0.19476688053209457,-0.18771910862001534,-1.3169426110237734
-0.19471073053209456,-0.18771910862001534,-1.3169426110237734
-0.19465458053209456,-0.18771910862001365,-1.3169426110237734
-0.19459843053209458,-0.18402088376743153,-1.3169426110237734
-0.19454228053209457,-0.18402088376743153,-1.3169426110237734
-0.19448613053209457,-0.18402088376743153,-1.3169426110237734
-0.19442998053209457,-0.18771910862001534,-1.3169426110237734
-0.19437383053209456,-0.18402088376743153,-1.3169426110237734
-0.19431768053209458,-0.18402088376743153,-1.3169426110237734
-0.19426153053209458,-0.18402088376743153,-1.3169426110237734
-0.19420538053209457,-0.18032265891484775,-1.3169426110237734
-0.19414923053209457,-0.18032265891484775,-1.3169426110237734
-0.19409308053209456,-0.17662443406226394,-1.3169426110237734
-0.19403693053209456,-0.17662443406226394,-1.3169426110237734
-0.19398078053209458,-0.17662443406226394,-1.3169426110237734
-0.19392463053209458,-0.17662443406226394,-1.3169426110237734
-0.19386848053209457,-0.17292620920968013,-1.3169426110237734
-0.19381233053209457,-0.17292620920968013,-1.3169426110237734
-0.19375618053209456,-0.17292620920968013,-1.3169426110237734
-0.19370003053209456,-0.17292620920968013,-1.3169426110237734
-0.19364388053209458,-0.16922798435709635,-1.3169426110237734
-0.19358773053209458,-0.17292620920968013,-1.3132352600427357
-0.19353158053209457,-0.16922798435709635,-1.3169426110237734
-0.19347543053209457,-0.16922798435709635,-1.3169426110237734
-0.19341928053209456,-0.16922798435709635,-1.3169426110237734
-0.19336313053209456,-0.16922798435709635,-1.3169426110237734
-0.19330698053209458,-0.16552975950451254,-1.3169426110237734
-0.19325083053209458,-0.16552975950451254,-1.3169426110237734
-0.19319468053209457,-0.16552975950451254,-1.3169426110237734
-0.19313853053209457,-0.16552975950451254,-1.3169426110237734
-0.19308238053209456,-0.16552975950451254,-1.3169426110237734
-0.19302623053209456,-0.16552975950451254,-1.3169426110237734
-0.19297008053209458,-0.16552975950451254,-1.3169426110237734
-0.19291393053209457,-0.16183153465192873,-1.3169426110237734
-0.19285778053209457,-0.16183153465192873,-1.3169426110237734
-0.19280163053209456,-0.16183153465192873,-1.3169426110237734
-0.19274548053209456,-0.16183153465192873,-1.3169426110237734
-0.19268933053209458,-0.15813330979934664,-1.3169426110237734
-0.19263318053209458,-0.16183153465192873,-1.3169426110237734
-0.19257703053209457,-0.15813330979934495,-1.3169426110237734
-0.19252088053209457,-0.15813330979934495,-1.3169426110237734
-0.19246473053209456,-0.15813330979934495,-1.3169426110237734
-0.19240858053209456,-0.15813330979934495,-1.3169426110237734
-0.19235243053209458,-0.15443508494676114,-1.3169426110237734
-0.19229628053209458,-0.15443508494676114,-1.3169426110237734
-0.19224013053209457,-0.15443508494676114,-1.3169426110237734
-0.19218398053209457,-0.15073686009417733,-1.3169426110237734
-0.19212783053209456,-0.15073686009417733,-1.3169426110237734
-0.19207168053209456,-0.14703863524159355,-1.3169426110237734
-0.19201553053209458,-0.14703863524159355,-1.3169426110237734
-0.19195938053209458,-0.14703863524159355,-1.3132352600427357
-0.19190323053209457,-0.14334041038900974,-1.3169426110237734
-0.19184708053209457,-0.14334041038900974,-1.3169426110237734
-0.19179093053209456,-0.14334041038900974,-1.3169426110237734
-0.19173478053209456,-0.13964218553642593,-1.3169426110237734
-0.19167863053209458,-0.13964218553642593,-1.3169426110237734
-0.19162248053209457,-0.13964218553642593,-1.3169426110237734
-0.19156633053209457,-0.13594396068384215,-1.3169426110237734
-0.19151018053209456,-0.13594396068384215,-1.3169426110237734
-0.19145403053209456,-0.13594396068384215,-1.3169426110237734
-0.19139788053209458,-0.13224573583126004,-1.3169426110237734
-0.19134173053209458,-0.13224573583125834,-1.3169426110237734
-0.19128558053209457,-0.12854751097867453,-1.3169426110237734
-0.19122943053209457,-0.12854751097867453,-1.3169426110237734
-0.19117328053209456,-0.12854751097867453,-1.3169426110237734
-0.19111713053209456,-0.12854751097867453,-1.3169426110237734
-0.19106098053209458,-0.12854751097867453,-1.3169426110237734
-0.19100483053209458,-0.12484928612609074,-1.3169426110237734
-0.19094868053209457,-0.12484928612609074,-1.3169426110237734
-0.19089253053209457,-0.12115106127350694,-1.3169426110237734
-0.19083638053209456,-0.12115106127350694,-1.3169426110237734
-0.19078023053209456,-0.12115106127350694,-1.3169426110237734
-0.19072408053209458,-0.11745283642092315,-1.3169426110237734
-0.19066793053209458,-0.11745283642092315,-1.3169426110237734
-0.19061178053209457,-0.11745283642092315,-1.3169426110237734
-0.19055563053209457,-0.11375461156833934,-1.3169426110237734
-0.19049948053209456,-0.11375461156833934,-1.3169426110237734
-0.19044333053209456,-0.11375461156833766,-1.3169426110237734
-0.19038718053209458,-0.11005638671575554,-1.3169426110237734
-0.19033103053209458,-0.11005638671575554,-1.3169426110237734
-0.19027488053209457,-0.10635816186317175,-1.3169426110237734
-0.19021873053209457,-0.10265993701058794,-1.3169426110237734
-0.19016258053209456,-0.10635816186317175,-1.3169426110237734
-0.19010643053209458,-0.10265993701058962,-1.3169426110237734
-0.19005028053209458,-0.10265993701058794,-1.3169426110237734
-0.18999413053209457,-0.10265993701058794,-1.3169426110237734
-0.18993798053209457,-0.09896171215800414,-1.3169426110237734
-0.18988183053209456,-0.09896171215800414,-1.3169426110237734
-0.18982568053209456,-0.09896171215800414,-1.3169426110237734
-0.18976953053209458,-0.09896171215800414,-1.3169426110237734
-0.18971338053209458,-0.09526348730542035,-1.3169426110237734
-0.18965723053209457,-0.09526348730542035,-1.3169426110237734
-0.18960108053209457,-0.09526348730542035,-1.3169426110237734
-0.18954493053209456,-0.09526348730542035,-1.3169426110237734
-0.18948878053209456,-0.09526348730542035,-1.3169426110237734
-0.18943263053209458,-0.09526348730542035,-1.3169426110237734
-0.18937648053209458,-0.09156526245283655,-1.3169426110237734
-0.18932033053209457,-0.09156526245283655,-1.3169426110237734
-0.18926418053209457,-0.08786703760025275,-1.3169426110237734
-0.18920803053209456,-0.08786703760025275,-1.3169426110237734
-0.18915188053209456,-0.08786703760025275,-1.3169426110237734
-0.18909573053209458,-0.08786703760025275,-1.3169426110237734
-0.18903958053209458,-0.08786703760025275,-1.3169426110237734
-0.18898343053209457,-0.08416881274766895,-1.3169426110237734
-0.18892728053209457,-0.08416881274766895,-1.3169426110237734
-0.18887113053209456,-0.08416881274766895,-1.3169426110237734
-0.18881498053209456,-0.08047058789508515,-1.3169426110237734
-0.18875883053209458,-0.08047058789508515,-1.3169426110237734
-0.18870268053209457,-0.08047058789508515,-1.3169426110237734
-0.18864653053209457,-0.08047058789508515,-1.3169426110237734
-0.18859038053209456,-0.07677236304250135,-1.3169426110237734
-0.18853423053209456,-0.07677236304250135,-1.3169426110237734
-0.18847808053209458,-0.07677236304250135,-1.3169426110237734
-0.18842193053209458,-0.07677236304250135,-1.3169426110237734
-0.18836578053209457,-0.07677236304250135,-1.3169426110237734
-0.18830963053209457,-0.07307413818991755,-1.320649962004811
-0.18825348053209456,-0.07307413818991755,-1.3169426110237734
-0.18819733053209456,-0.07307413818991755,-1.3169426110237734
-0.18814118053209458,-0.07307413818991755,-1.3169426110237734
-0.18808503053209458,-0.06937591333733376,-1.3169426110237734
-0.18802888053209457,-0.06937591333733376,-1.3169426110237734
-0.18797273053209457,-0.06937591333733376,-1.3169426110237734
-0.18791658053209456,-0.06567768848474995,-1.320649962004811
-0.18786043053209456,-0.06567768848474995,-1.320649962004811
-0.18780428053209458,-0.06197946363216615,-1.320649962004811
-0.18774813053209458,-0.06197946363216615,-1.3169426110237734
-0.18769198053209457,-0.06197946363216615,-1.3169426110237734
-0.18763583053209457,-0.05828123877958235,-1.3169426110237734
-0.18757968053209456,-0.05828123877958235,-1.3169426110237734
-0.18752353053209456,-0.05828123877958235,-1.3169426110237734
-0.18746738053209458,-0.05828123877958235,-1.3169426110237734
-0.18741123053209457,-0.054583013926998554,-1.3169426110237734
-0.18735508053209457,-0.05828123877958235,-1.3169426110237734
-0.18729893053209457,-0.054583013926998554,-1.320649962004811
-0.18724278053209456,-0.054583013926998554,-1.320649962004811
-0.18718663053209458,-0.054583013926998554,-1.320649962004811
-0.18713048053209458,-0.054583013926998554,-1.320649962004811
-0.18707433053209457,-0.05088478907441475,-1.3169426110237734
-0.18701818053209457,-0.05088478907441475,-1.3169426110237734
-0.18696203053209456,-0.04718656422183096,-1.3169426110237734
-0.18690588053209456,-0.04718656422183096,-1.3169426110237734
-0.18684973053209458,-0.04718656422183096,-1.3169426110237734
-0.18679358053209458,-0.04718656422183096,-1.3169426110237734
-0.18673743053209457,-0.04718656422183096,-1.3169426110237734
-0.18668128053209457,-0.043488339369247155,-1.3169426110237734
-0.18662513053209456,-0.043488339369247155,-1.320649962004811
-0.18656898053209456,-0.043488339369247155,-1.3169426110237734
-0.18651283053209458,-0.043488339369247155,-1.3169426110237734
-0.18645668053209458,-0.043488339369247155,-1.3169426110237734
-0.18640053053209457,-0.043488339369247155,-1.3169426110237734
-0.18634438053209457,-0.03979011451666335,-1.3169426110237734
-0.18628823053209456,-0.03979011451666335,-1.3169426110237734
-0.18623208053209456,-0.03979011451666335,-1.3169426110237734
-0.18617593053209458,-0.03979011451666335,-1.3169426110237734
-0.18611978053209458,-0.03979011451666335,-1.3169426110237734
-0.18606363053209457,-0.03979011451666335,-1.3169426110237734
-0.18600748053209457,-0.03979011451666335,-1.3169426110237734
-0.18595133053209456,-0.03609188966407956,-1.3169426110237734
-0.18589518053209458,-0.03609188966407956,-1.3206499620048093
-0.18583903053209458,-0.03609188966407956,-1.3169426110237734
-0.18578288053209457,-0.03979011451666335,-1.3169426110237734
-0.18572673053209457,-0.03609188966407956,-1.3169426110237734
-0.18567058053209456,-0.03609188966407956,-1.3169426110237734
-0.18561443053209456,-0.03609188966407956,-1.3169426110237734
-0.18555828053209458,-0.03979011451666335,-1.3169426110237734
-0.18550213053209458,-0.03609188966407956,-1.320649962004811
-0.18544598053209457,-0.03609188966407956,-1.3169426110237734
-0.18538983053209457,-0.03979011451666335,-1.3169426110237734
-0.18533368053209456,-0.03609188966407956,-1.3169426110237734
-0.18527753053209456,-0.03609188966407956,-1.320649962004811
-0.18522138053209458,-0.03609188966407956,-1.320649962004811
-0.18516523053209458,-0.03609188966407956,-1.3169426110237734
-0.18510908053209457,-0.03609188966407956,-1.3169426110237734
-0.18505293053209457,-0.032393664811495755,-1.3169426110237734
-0.18499678053209456,-0.03609188966407956,-1.3169426110237734
-0.18494063053209456,-0.032393664811495755,-1.3169426110237734
-0.18488448053209458,-0.032393664811495755,-1.3169426110237734
-0.18482833053209458,-0.032393664811495755,-1.3169426110237734
-0.18477218053209457,-0.032393664811495755,-1.3169426110237734
-0.18471603053209457,-0.032393664811495755,-1.320649962004811
-0.18465988053209456,-0.028695439958911956,-1.320649962004811
-0.18460373053209456,-0.028695439958911956,-1.3169426110237734
-0.18454758053209458,-0.028695439958911956,-1.3169426110237734
-0.18449143053209457,-0.028695439958911956,-1.320649962004811
-0.18443528053209457,-0.024997215106328158,-1.3169426110237734
-0.18437913053209457,-0.024997215106328158,-1.3169426110237734
-0.18432298053209456,-0.024997215106328158,-1.3169426110237734
-0.18426683053209458,-0.024997215106328158,-1.3169426110237734
-0.18421068053209458,-0.024997215106328158,-1.320649962004811
-0.18415453053209457,-0.024997215106328158,-1.320649962004811
-0.18409838053209457,-0.024997215106328158,-1.320649962004811
-0.18404223053209456,-0.024997215106328158,-1.320649962004811
-0.18398608053209456,-0.024997215106328158,-1.3169426110237734
-0.18392993053209458,-0.024997215106328158,-1.3169426110237734
-0.18387378053209458,-0.024997215106328158,-1.3169426110237734
-0.18381763053209457,-0.024997215106328158,-1.320649962004811
-0.18376148053209457,-0.024997215106328158,-1.3169426110237734
-0.18370533053209456,-0.024997215106328158,-1.3169426110237734
-0.18364918053209456,-0.024997215106328158,-1.320649962004811
-0.18359303053209458,-0.024997215106328158,-1.320649962004811
-0.18353688053209458,-0.024997215106328158,-1.3169426110237734
-0.18348073053209457,-0.024997215106328158,-1.3169426110237734
-0.18342458053209457,-0.024997215106328158,-1.320649962004811
-0.18336843053209456,-0.024997215106328158,-1.3169426110237734
-0.18331228053209456,-0.024997215106328158,-1.3169426110237752
-0.18325613053209458,-0.024997215106328158,-1.320649962004811
-0.18319998053209458,-0.028695439958911956,-1.3169426110237734
-0.18314383053209457,-0.028695439958911956,-1.320649962004811
-0.18308768053209457,-0.024997215106328158,-1.3169426110237734
-0.18303153053209456,-0.028695439958911956,-1.3169426110237734
-0.18297538053209458,-0.028695439958911956,-1.3169426110237734
-0.18291923053209458,-0.028695439958911956,-1.3169426110237734
-0.18286308053209457,-0.024997215106328158,-1.3169426110237734
-0.18280693053209457,-0.028695439958911956,-1.320649962004811
-0.18275078053209456,-0.028695439958911956,-1.320649962004811
-0.18269463053209456,-0.028695439958911956,-1.320649962004811
-0.18263848053209458,-0.028695439958911956,-1.3169426110237734
-0.18258233053209458,-0.028695439958911956,-1.3169426110237734
-0.18252618053209457,-0.028695439958911956,-1.3169426110237734
-0.18247003053209457,-0.028695439958911956,-1.320649962004811
-0.18241388053209456,-0.028695439958911956,-1.3169426110237734
-0.18235773053209456,-0.028695439958911956,-1.320649962004811
-0.18230158053209458,-0.032393664811495755,-1.3169426110237734
-0.18224543053209458,-0.028695439958911956,-1.3169426110237734
-0.18218928053209457,-0.028695439958911956,-1.3169426110237734
-0.18213313053209457,-0.032393664811495755,-1.320649962004811
-0.18207698053209456,-0.032393664811495755,-1.320649962004811
-0.18202083053209456,-0.032393664811495755,-1.3169426110237734
-0.18196468053209458,-0.032393664811495755,-1.3169426110237734
-0.18190853053209458,-0.03609188966407956,-1.320649962004811
-0.18185238053209457,-0.032393664811495755,-1.320649962004811
-0.18179623053209457,-0.03609188966407956,-1.320649962004811
-0.18174008053209456,-0.03609188966407956,-1.320649962004811
-0.18168393053209458,-0.03609188966407956,-1.320649962004811
-0.18162778053209458,-0.032393664811495755,-1.320649962004811
-0.18157163053209457,-0.03609188966407956,-1.320649962004811
-0.18151548053209457,-0.03609188966407956,-1.320649962004811
-0.18145933053209456,-0.032393664811495755,-1.320649962004811
-0.18140318053209456,-0.03609188966407956,-1.320649962004811
-0.18134703053209458,-0.03609188966407956,-1.3169426110237734
-0.18129088053209458,-0.03609188966407956,-1.3169426110237734
-0.18123473053209457,-0.03609188966407956,-1.3169426110237734
-0.18117858053209457,-0.03609188966407956,-1.3169426110237734
-0.18112243053209456,-0.03609188966407956,-1.3169426110237734
-0.18106628053209456,-0.03609188966407956,-1.320649962004811
-0.18101013053209458,-0.03609188966407956,-1.320649962004811
-0.18095398053209458,-0.03979011451666335,-1.320649962004811
-0.18089783053209457,-0.03609188966407956,-1.320649962004811
-0.18084168053209457,-0.03609188966407956,-1.3169426110237734
-0.18078553053209456,-0.03979011451666335,-1.320649962004811
-0.18072938053209456,-0.03609188966407956,-1.320649962004811
-0.18067323053209458,-0.03609188966407956,-1.320649962004811
-0.18061708053209458,-0.03609188966407956,-1.320649962004811
-0.18056093053209457,-0.03609188966407956,-1.3169426110237734
-0.18050478053209457,-0.03979011451666335,-1.3169426110237734
-0.18044863053209456,-0.03609188966407956,-1.320649962004811
-0.18039248053209456,-0.036091889664081236,-1.320649962004811
-0.18033633053209458,-0.03979011451666335,-1.320649962004811
-0.18028018053209457,-0.03979011451666335,-1.320649962004811
-0.18022403053209457,-0.03609188966407956,-1.320649962004811
-0.18016788053209457,-0.03979011451666335,-1.320649962004811
