200Hz/acq0027.csv

#Digilent WaveForms Oscilloscope Acquisition
#Device Name: Discovery2
#Serial Number: SN:210321AA28BE
#Date Time: 2023-05-24 14:48:04.727
#Sample rate: 558659Hz
#Samples: 8192
#Trigger: Source: Channel 1 Type: Edge Condition: Rising Level: 800 mV Hyst.: Auto HoldOff: 100 ns
#Channel 1: Range: 1 V/div Offset: 0 V Attenuation: 1 X Sample Mode: Average
#Channel 2: Range: 1 V/div Offset: 0 V Attenuation: 1 X Sample Mode: Average

Time (s),Channel 1 (V),Channel 2 (V)
-0.00774201086888498,0.048967281945347836,-1.3169426110237734
-0.00774022086888498,0.05266550679792995,-1.3206499620048093
-0.00773843086888498,0.048967281945347836,-1.3169426110237734
-0.00773664086888498,0.05266550679793163,-1.3169426110237734
-0.00773485086888498,0.05266550679793163,-1.3243573129858488
-0.0077330608688849795,0.052665506797928266,-1.3169426110237734
-0.00773127086888498,0.045269057092764034,-1.3169426110237734
-0.00772948086888498,0.048967281945347836,-1.3169426110237734
-0.00772769086888498,0.048967281945347836,-1.3169426110237734
-0.0077259008688849795,0.048967281945347836,-1.3169426110237734
-0.00772411086888498,0.04157083224018024,-1.320649962004811
-0.00772232086888498,0.048967281945347836,-1.3169426110237734
-0.00772053086888498,0.048967281945347836,-1.320649962004811
-0.00771874086888498,0.048967281945347836,-1.320649962004811
-0.00771695086888498,0.05266550679793163,-1.3169426110237734
-0.00771516086888498,0.048967281945347836,-1.320649962004811
-0.00771337086888498,0.045269057092764034,-1.3169426110237734
-0.00771158086888498,0.045269057092764034,-1.3132352600427357
-0.00770979086888498,0.048967281945347836,-1.309527909061698
-0.00770800086888498,0.045269057092764034,-1.3169426110237734
-0.00770621086888498,0.048967281945347836,-1.3169426110237734
-0.00770442086888498,0.048967281945347836,-1.3169426110237734
-0.00770263086888498,0.045269057092764034,-1.3169426110237734
-0.00770084086888498,0.045269057092764034,-1.320649962004811
-0.00769905086888498,0.03787260738759644,-1.320649962004811
-0.00769726086888498,0.045269057092764034,-1.3169426110237734
-0.00769547086888498,0.045269057092764034,-1.3169426110237734
-0.00769368086888498,0.04157083224018024,-1.320649962004811
-0.00769189086888498,0.045269057092764034,-1.3169426110237734
-0.00769010086888498,0.04157083224018024,-1.3169426110237734
-0.00768831086888498,0.04157083224018024,-1.320649962004811
-0.00768652086888498,0.045269057092764034,-1.320649962004811
-0.00768473086888498,0.045269057092764034,-1.320649962004811
-0.00768294086888498,0.04157083224018024,-1.320649962004811
-0.00768115086888498,0.04157083224018024,-1.320649962004811
-0.00767936086888498,0.03787260738759644,-1.3169426110237734
-0.00767757086888498,0.034174382535012635,-1.3169426110237734
-0.00767578086888498,0.03787260738759644,-1.3169426110237734
-0.00767399086888498,0.034174382535012635,-1.3169426110237734
-0.00767220086888498,0.03787260738759644,-1.3169426110237734
-0.00767041086888498,0.03787260738759644,-1.3169426110237734
-0.00766862086888498,0.034174382535012635,-1.3169426110237734
-0.00766683086888498,0.03787260738759644,-1.3169426110237734
-0.00766504086888498,0.026777932829845037,-1.320649962004811
-0.0076632508688849795,0.0304761576824322,-1.3169426110237734
-0.00766146086888498,0.03787260738759644,-1.3169426110237734
-0.00765967086888498,0.034174382535012635,-1.3169426110237734
-0.00765788086888498,0.034174382535012635,-1.3132352600427357
-0.0076560908688849795,0.03787260738759644,-1.3169426110237734
-0.00765430086888498,0.03787260738759644,-1.3169426110237734
-0.00765251086888498,0.03787260738759644,-1.3169426110237734
-0.00765072086888498,0.03047615768242884,-1.3169426110237734
-0.0076489308688849796,0.03787260738759644,-1.3169426110237734
-0.00764714086888498,0.03787260738759644,-1.3169426110237734
-0.00764535086888498,0.034174382535012635,-1.3169426110237734
-0.00764356086888498,0.034174382535012635,-1.3169426110237734
-0.00764177086888498,0.03047615768242884,-1.3132352600427357
-0.00763998086888498,0.026777932829845037,-1.3169426110237734
-0.00763819086888498,0.03047615768242884,-1.3169426110237734
-0.00763640086888498,0.03047615768242884,-1.320649962004811
-0.00763461086888498,0.03047615768242884,-1.3169426110237734
-0.00763282086888498,0.026777932829845037,-1.3169426110237734
-0.00763103086888498,0.026777932829845037,-1.3169426110237734
-0.00762924086888498,0.03047615768242884,-1.3132352600427357
-0.00762745086888498,0.034174382535012635,-1.3132352600427357
-0.00762566086888498,0.03047615768242884,-1.3169426110237734
-0.00762387086888498,0.03047615768242884,-1.320649962004811
-0.00762208086888498,0.034174382535012635,-1.320649962004811
-0.00762029086888498,0.026777932829845037,-1.320649962004811
-0.00761850086888498,0.03047615768242884,-1.3243573129858488
-0.00761671086888498,0.026777932829845037,-1.320649962004811
-0.00761492086888498,0.01938148312467744,-1.3169426110237734
-0.00761313086888498,0.02307970797726124,-1.320649962004811
-0.00761134086888498,0.026777932829845037,-1.3169426110237734
-0.00760955086888498,0.02307970797726124,-1.3169426110237734
-0.00760776086888498,0.03047615768242884,-1.3169426110237734
-0.00760597086888498,0.026777932829845037,-1.320649962004811
-0.00760418086888498,0.02307970797726124,-1.3132352600427357
-0.00760239086888498,0.026777932829845037,-1.3169426110237734
-0.00760060086888498,0.02307970797726124,-1.3169426110237734
-0.00759881086888498,0.02307970797726124,-1.3169426110237734
-0.00759702086888498,0.01938148312467744,-1.3169426110237734
-0.00759523086888498,0.026777932829845037,-1.320649962004811
-0.00759344086888498,0.030476157682427157,-1.320649962004811
-0.00759165086888498,0.026777932829845037,-1.3169426110237734
-0.00758986086888498,0.026777932829845037,-1.320649962004811
-0.00758807086888498,0.03047615768242884,-1.320649962004811
-0.0075862808688849795,0.026777932829843355,-1.313235260042739
-0.00758449086888498,0.02307970797726124,-1.320649962004811
-0.00758270086888498,0.026777932829845037,-1.3169426110237734
-0.00758091086888498,0.02307970797726124,-1.320649962004811
-0.0075791208688849795,0.01938148312467744,-1.320649962004811
-0.00757733086888498,0.02307970797726124,-1.3169426110237734
-0.00757554086888498,0.015683258272093638,-1.3169426110237734
-0.00757375086888498,0.01938148312467744,-1.3132352600427357
-0.0075719608688849796,0.01938148312467744,-1.3132352600427357
-0.00757017086888498,0.015683258272093638,-1.320649962004811
-0.00756838086888498,0.015683258272093638,-1.320649962004811
-0.00756659086888498,0.01938148312467744,-1.3169426110237734
-0.00756480086888498,0.01938148312467744,-1.3169426110237734
-0.00756301086888498,0.01938148312467744,-1.3169426110237734
-0.00756122086888498,0.02307970797726124,-1.320649962004811
-0.00755943086888498,0.015683258272093638,-1.3169426110237734
-0.00755764086888498,0.015683258272093638,-1.320649962004811
-0.00755585086888498,0.015683258272093638,-1.3169426110237734
-0.00755406086888498,0.01938148312467744,-1.320649962004811
-0.00755227086888498,0.015683258272093638,-1.3169426110237734
-0.00755048086888498,0.01198503341950984,-1.3169426110237734
-0.00754869086888498,0.015683258272093638,-1.320649962004811
-0.00754690086888498,0.01938148312467744,-1.3169426110237734
-0.00754511086888498,0.015683258272093638,-1.320649962004811
-0.00754332086888498,0.015683258272093638,-1.320649962004811
-0.00754153086888498,0.015683258272093638,-1.3169426110237734
-0.00753974086888498,0.015683258272093638,-1.320649962004811
-0.00753795086888498,0.01198503341950984,-1.320649962004811
-0.00753616086888498,0.01198503341950984,-1.3243573129858488
-0.00753437086888498,0.015683258272093638,-1.320649962004811
-0.00753258086888498,0.015683258272093638,-1.320649962004811
-0.00753079086888498,0.00828680856692604,-1.3169426110237734
-0.00752900086888498,0.01198503341950984,-1.3169426110237734
-0.00752721086888498,0.01198503341950984,-1.3132352600427357
-0.00752542086888498,0.00828680856692604,-1.320649962004811
-0.00752363086888498,0.011985033419508156,-1.3169426110237752
-0.00752184086888498,0.01198503341950984,-1.3169426110237734
-0.00752005086888498,0.01198503341950984,-1.3169426110237734
-0.00751826086888498,0.01198503341950984,-1.320649962004811
-0.00751647086888498,0.01198503341950984,-1.320649962004811
-0.00751468086888498,0.015683258272093638,-1.3169426110237734
-0.00751289086888498,0.01198503341950984,-1.3132352600427357
-0.00751110086888498,0.01198503341950984,-1.320649962004811
-0.0075093108688849795,0.011985033419508158,-1.3169426110237752
-0.00750752086888498,0.00828680856692604,-1.320649962004811
-0.00750573086888498,0.00828680856692604,-1.320649962004811
-0.00750394086888498,0.00458858371434224,-1.3169426110237734
-0.0075021508688849796,0.00828680856692604,-1.3169426110237734
-0.00750036086888498,-1.5264765052553506,0.04365519901706062
-0.00749857086888498,-3.1758847895077253,1.3449353933612915
-0.00749678086888498,-3.1573936652448067,1.3301059894371408
-0.00749499086888498,-3.149997215539639,1.326398638456103
-0.00749320086888498,-3.1426007658344712,1.3226912874750654
-0.00749141086888498,-3.13150609127672,1.3226912874750654
-0.00748962086888498,-3.1204114167189685,1.3189839364940277
-0.00748783086888498,-3.1130149670138008,1.3226912874750654
-0.00748604086888498,-3.1056185173086335,1.3189839364940277
-0.00748425086888498,-3.090825617898298,1.3226912874750654
-0.00748246086888498,-3.076032718487963,1.3189839364940277
-0.00748067086888498,-3.072334493635379,1.3189839364940277
-0.00747888086888498,-3.057541594225044,1.3189839364940277
-0.00747709086888498,-3.0464469196672925,1.3115692345319523
-0.00747530086888498,-3.035352245109541,1.31527658551299
-0.00747351086888498,-3.0205593456992057,1.3189839364940277
-0.00747172086888498,-3.016861120846622,1.3115692345319523
-0.00746993086888498,-2.9909735468785357,1.3115692345319523
-0.00746814086888498,-2.9798788723207843,1.3115692345319523
-0.00746635086888498,-2.9798788723207843,1.31527658551299
-0.00746456086888498,-2.961387748057865,1.3078618835509146
-0.00746277086888498,-2.950293073500114,1.3078618835509146
-0.00746098086888498,-2.9355001740897784,1.3004471815888392
-0.00745919086888498,-2.924405499532027,1.304154532569877
-0.00745740086888498,-2.9059143752691083,1.2893251286457261
-0.00745561086888498,-2.8985179255639406,1.2930324796267638
-0.00745382086888498,-2.8874232510061892,1.2893251286457261
-0.00745203086888498,-2.876328576448438,1.2930324796267638
-0.00745024086888498,-2.86893212674327,1.2930324796267638
-0.00744845086888498,-2.8578374521855188,1.2930324796267638
-0.00744666086888498,-2.8430445527751904,1.289325128645728
-0.00744487086888498,-2.8282516533648483,1.2893251286457261
-0.00744308086888498,-2.8208552036596806,1.2893251286457261
-0.00744129086888498,-2.817156978807097,1.2893251286457261
-0.0074395008688849795,-2.802364079396757,1.289325128645728
-0.00743771086888498,-2.7912694048390105,1.2930324796267638
-0.00743592086888498,-2.7801747302812587,1.2856177776646884
-0.00743413086888498,-2.7727782805760914,1.2856177776646884
-0.0074323408688849795,-2.7690800557235073,1.2819104266836507
-0.00743055086888498,-2.7505889314605887,1.2819104266836507
-0.00742876086888498,-2.743192481755421,1.2856177776646884
-0.00742697086888498,-2.724701357492502,1.278203075702613
-0.0074251808688849796,-2.717304907787334,1.278203075702613
-0.00742339086888498,-2.702512008376999,1.2744957247215754
-0.00742160086888498,-2.6988137835244155,1.2744957247215754
-0.00741981086888498,-2.6914173338192477,1.278203075702613
-0.00741802086888498,-2.68402088411408,1.278203075702613
-0.00741623086888498,-2.6766244344089127,1.2819104266836507
-0.00741444086888498,-2.669227984703745,1.2744957247215754
-0.00741265086888498,-2.6618315349985773,1.2744957247215754
-0.00741086086888498,-2.650736860440826,1.2744957247215754
-0.00740907086888498,-2.635943961030491,1.2744957247215754
-0.00740728086888498,-2.6396421858830745,1.2744957247215754
-0.00740549086888498,-2.6248492864727395,1.2744957247215754
-0.00740370086888498,-2.617452836767572,1.2744957247215754
-0.00740191086888498,-2.613754611914988,1.2744957247215754
-0.00740012086888498,-2.610056387062404,1.278203075702613
-0.00739833086888498,-2.591565262799485,1.278203075702613
-0.00739654086888498,-2.5841688130943177,1.2744957247215754
-0.00739475086888498,-2.57677236338915,1.278203075702613
-0.00739296086888498,-2.5656776888313986,1.2707883737405377
-0.00739117086888498,-2.554583014273647,1.2707883737405377
-0.00738938086888498,-2.5508847894210636,1.2707883737405377
-0.00738759086888498,-2.539790114863312,1.2633736717784623
-0.00738580086888498,-2.5323936651581445,1.2670810227595
-0.00738401086888498,-2.5286954403055604,1.2707883737405377
-0.00738222086888498,-2.517600765747809,1.2707883737405377
-0.00738043086888498,-2.5139025408952254,1.2707883737405377
-0.00737864086888498,-2.5065060911900576,1.2670810227595
-0.00737685086888498,-2.502807866337474,1.2707883737405377
-0.00737506086888498,-2.488014966927139,1.2707883737405377
-0.00737327086888498,-2.484316742074555,1.2707883737405377
-0.00737148086888498,-2.4806185172219712,1.2707883737405377
-0.00736969086888498,-2.473222067516807,1.2707883737405377
-0.00736790086888498,-2.462127392959052,1.2707883737405377
-0.00736611086888498,-2.4584291681064685,1.2744957247215754
-0.00736432086888498,-2.4510327184013008,1.2707883737405377
-0.0073625308688849795,-2.4399380438435445,1.2744957247215736
-0.00736074086888498,-2.428843369285798,1.2707883737405377
-0.00735895086888498,-2.4251451444332144,1.2707883737405377
-0.00735716086888498,-2.4214469195806303,1.2707883737405377
-0.0073553708688849796,-2.4066540201702953,1.2670810227595
-0.00735358086888498,-2.3992575704651276,1.2707883737405377
-0.00735179086888498,-2.395559345612544,1.2707883737405377
-0.00735000086888498,-2.39186112075996,1.2670810227595
-0.00734821086888498,-2.3844646710547925,1.2670810227595
-0.00734642086888498,-2.3807664462022085,1.2707883737405377
-0.00734463086888498,-2.377068221349625,1.2744957247215754
-0.00734284086888498,-2.369671771644457,1.2707883737405377
-0.00734105086888498,-2.36227532193929,1.2744957247215754
-0.00733926086888498,-2.351180647381538,1.2670810227595
-0.00733747086888498,-2.351180647381538,1.2707883737405377
-0.00733568086888498,-2.3400859728237866,1.2744957247215754
-0.00733389086888498,-2.3400859728237866,1.2707883737405377
-0.00733210086888498,-2.3326895231186193,1.2707883737405377
-0.00733031086888498,-2.321594848560868,1.2707883737405377
-0.00732852086888498,-2.3141983988557002,1.2707883737405377
-0.00732673086888498,-2.3068019491505325,1.2744957247215754
-0.00732494086888498,-2.295707274592781,1.2670810227595
-0.00732315086888498,-2.2883108248876134,1.2670810227595
-0.00732136086888498,-2.280914375182446,1.2670810227595
-0.00731957086888498,-2.280914375182446,1.2670810227595
-0.00731778086888498,-2.2735179254772784,1.2670810227595
-0.00731599086888498,-2.2661214757721106,1.2670810227595
-0.00731420086888498,-2.262423250919527,1.2744957247215754
-0.00731241086888498,-2.2550268012143593,1.2707883737405377
-0.00731062086888498,-2.2513285763617756,1.2670810227595
-0.00730883086888498,-2.2402339018040243,1.2670810227595
-0.00730704086888498,-2.2328374520988565,1.2670810227595
-0.00730525086888498,-2.221742777541105,1.2707883737405377
-0.00730346086888498,-2.225441002393689,1.2670810227595
-0.00730167086888498,-2.221742777541105,1.2744957247215754
-0.00729988086888498,-2.2106481029833587,1.2707883737405394
-0.00729809086888498,-2.203251653278186,1.2670810227595
-0.00729630086888498,-2.1995534284256024,1.2707883737405377
-0.00729451086888498,-2.1921569787204347,1.2670810227595
-0.0072927208688849795,-2.188458753867846,1.2670810227595017
-0.00729093086888498,-2.1773640793100997,1.2707883737405377
-0.00728914086888498,-2.169967629604932,1.2707883737405377
-0.00728735086888498,-2.1662694047523483,1.2670810227595
-0.0072855608688849795,-2.1625711798997607,1.2670810227595
-0.00728377086888498,-2.155174730194597,1.2670810227595
-0.00728198086888498,-2.147778280489429,1.2670810227595
-0.00728019086888498,-2.147778280489429,1.2670810227595
-0.0072784008688849796,-2.1403818307842615,1.2744957247215754
-0.00727661086888498,-2.12928715622651,1.2707883737405377
-0.00727482086888498,-2.132985381079094,1.2633736717784623
-0.00727303086888498,-2.12928715622651,1.2707883737405377
-0.00727124086888498,-2.1181924816687587,1.2707883737405377
-0.00726945086888498,-2.1107960319635914,1.2744957247215754
-0.00726766086888498,-2.1107960319635914,1.2744957247215754
-0.00726587086888498,-2.1033995822584237,1.2744957247215754
-0.00726408086888498,-2.0997013574058396,1.2707883737405377
-0.00726229086888498,-2.0886066828480883,1.2707883737405377
-0.00726050086888498,-2.0886066828480883,1.2707883737405377
-0.00725871086888498,-2.077512008290337,1.2670810227595
-0.00725692086888498,-2.0664173337325855,1.2670810227595
-0.00725513086888498,-2.0664173337325855,1.2670810227595
-0.00725334086888498,-2.055322659174834,1.2670810227595
-0.00725155086888498,-2.0516244343222505,1.2670810227595
-0.00724976086888498,-2.0442279846170828,1.2670810227595
-0.00724797086888498,-2.0442279846170828,1.2707883737405377
-0.00724618086888498,-2.036831534911915,1.2707883737405377
-0.00724439086888498,-2.0294350852067478,1.2670810227595
-0.00724260086888498,-2.0257368603541637,1.2670810227595
-0.00724081086888498,-2.0183404106489964,1.2707883737405377
-0.00723902086888498,-2.0183404106489964,1.2707883737405377
-0.00723723086888498,-2.0109439609438287,1.2707883737405377
-0.00723544086888498,-2.007245736091245,1.2707883737405377
-0.00723365086888498,-2.007245736091245,1.2744957247215754
-0.00723186086888498,-1.999849286386077,1.2707883737405377
-0.00723007086888498,-1.9887546118283257,1.2670810227595
-0.00722828086888498,-1.9850563869757418,1.2707883737405377
-0.00722649086888498,-1.9776599372705743,1.2707883737405377
-0.00722470086888498,-1.9702634875654066,1.2670810227595
-0.00722291086888498,-1.9628670378602424,1.2707883737405359
-0.00722112086888498,-1.9591688130076552,1.2633736717784623
-0.00721933086888498,-1.9554705881550714,1.2707883737405377
-0.00721754086888498,-1.94437591359732,1.2707883737405377
-0.0072157508688849795,-1.94437591359732,1.2670810227595
-0.00721396086888498,-1.94437591359732,1.2670810227595
-0.00721217086888498,-1.9369794638921525,1.2707883737405377
-0.00721038086888498,-1.9332812390395686,1.2670810227595
-0.0072085908688849796,-1.9295830141869847,1.2670810227595
-0.00720680086888498,-1.9221865644818172,1.2707883737405377
-0.00720501086888498,-1.9147901147766497,1.2670810227595
-0.00720322086888498,-1.907393665071482,1.2670810227595
-0.00720143086888498,-1.907393665071482,1.2707883737405377
-0.00719964086888498,-1.9036954402188981,1.2744957247215754
-0.00719785086888498,-1.8962989905137306,1.2707883737405377
-0.00719606086888498,-1.8889025408085631,1.2707883737405377
-0.00719427086888498,-1.8778078662508115,1.2707883737405377
-0.00719248086888498,-1.8815060911033954,1.2670810227595
-0.00719069086888498,-1.870411416545644,1.2670810227595
-0.00718890086888498,-1.870411416545644,1.2633736717784623
-0.00718711086888498,-1.8556185171353088,1.2633736717784623
-0.00718532086888498,-1.8593167419878927,1.2670810227595
-0.00718353086888498,-1.8593167419878927,1.2670810227595
-0.00718174086888498,-1.8519202922827251,1.2633736717784623
-0.00717995086888498,-1.8482220674301413,1.2670810227595
-0.00717816086888498,-1.8445238425775574,1.2670810227595
-0.00717637086888498,-1.8408256177249736,1.2707883737405377
-0.00717458086888498,-1.8297309431672222,1.2670810227595
-0.00717279086888498,-1.8297309431672222,1.2670810227595
-0.00717100086888498,-1.8186362686094708,1.2744957247215754
-0.00716921086888498,-1.814938043756887,1.2670810227595
-0.00716742086888498,-1.8112398189043033,1.2670810227595
-0.00716563086888498,-1.8112398189043033,1.2744957247215754
-0.00716384086888498,-1.8038433691991356,1.2707883737405377
-0.00716205086888498,-1.796446919493968,1.2670810227595
-0.00716026086888498,-1.7890504697888003,1.2670810227595
