200Hz/acq0070.csv

#Digilent WaveForms Oscilloscope Acquisition
#Device Name: Discovery2
#Serial Number: SN:210321AA28BE
#Date Time: 2023-05-24 14:48:05.919
#Sample rate: 558659Hz
#Samples: 8192
#Trigger: Source: Channel 1 Type: Edge Condition: Rising Level: 800 mV Hyst.: Auto HoldOff: 100 ns
#Channel 1: Range: 1 V/div Offset: 0 V Attenuation: 1 X Sample Mode: Average
#Channel 2: Range: 1 V/div Offset: 0 V Attenuation: 1 X Sample Mode: Average

Time (s),Channel 1 (V),Channel 2 (V)
-0.007741985776839717,0.04157083224018024,-1.320649962004811
-0.007740195776839718,0.037872607387598116,-1.320649962004811
-0.007738405776839717,0.03787260738759644,-1.320649962004811
-0.007736615776839717,0.026777932829845037,-1.320649962004811
-0.007734825776839717,0.026777932829845037,-1.3169426110237734
-0.007733035776839717,0.02307970797726292,-1.313235260042739
-0.007731245776839717,0.026777932829845037,-1.320649962004811
-0.007729455776839717,0.02307970797726124,-1.320649962004811
-0.0077276657768397174,0.015683258272093638,-1.3169426110237734
-0.007725875776839717,0.01938148312467744,-1.3243573129858488
-0.007724085776839717,0.01938148312467744,-1.320649962004811
-0.007722295776839717,0.01938148312467744,-1.320649962004811
-0.0077205057768397175,0.015683258272093638,-1.3169426110237734
-0.007718715776839717,0.01938148312467744,-1.3169426110237734
-0.007716925776839717,0.01198503341950984,-1.3169426110237734
-0.007715135776839717,0.01198503341950984,-1.3169426110237734
-0.0077133457768397175,0.01938148312467744,-1.3169426110237734
-0.007711555776839717,0.00828680856692604,-1.320649962004811
-0.007709765776839717,0.00828680856692604,-1.3243573129858488
-0.007707975776839717,0.01198503341950984,-1.3169426110237734
-0.0077061857768397175,0.015683258272093638,-1.320649962004811
-0.007704395776839717,0.015683258272093638,-1.320649962004811
-0.007702605776839717,0.01198503341950984,-1.320649962004811
-0.007700815776839717,0.00828680856692604,-1.320649962004811
-0.0076990257768397175,0.00458858371434224,-1.320649962004811
-0.007697235776839717,0.0008903588617584406,-1.320649962004811
-0.007695445776839717,0.0008903588617584406,-1.3169426110237734
-0.007693655776839717,0.00828680856692604,-1.3169426110237734
-0.0076918657768397175,0.01198503341950984,-1.320649962004811
-0.007690075776839717,0.00828680856692604,-1.320649962004811
-0.007688285776839717,0.015683258272093638,-1.3169426110237734
-0.007686495776839717,0.015683258272093638,-1.3169426110237734
-0.0076847057768397176,0.00458858371434224,-1.3169426110237734
-0.007682915776839717,0.00828680856692604,-1.320649962004811
-0.007681125776839717,0.00828680856692604,-1.3169426110237734
-0.007679335776839717,0.00458858371434224,-1.320649962004811
-0.007677545776839718,0.00828680856692604,-1.3243573129858488
-0.007675755776839717,0.00458858371434224,-1.320649962004811
-0.007673965776839717,0.00828680856692604,-1.3169426110237734
-0.007672175776839717,0.00458858371434224,-1.320649962004811
-0.007670385776839718,0.008286808566924358,-1.324357312985847
-0.007668595776839717,-0.002807865990825359,-1.3243573129858488
-0.007666805776839717,0.00458858371434224,-1.3169426110237734
-0.007665015776839717,0.00828680856692604,-1.3169426110237734
-0.007663225776839717,0.00458858371434224,-1.3169426110237734
-0.007661435776839717,0.00458858371434224,-1.3169426110237734
-0.007659645776839717,0.00458858371434224,-1.3243573129858488
-0.007657855776839717,0.0008903588617584406,-1.320649962004811
-0.007656065776839717,0.004588583714343922,-1.3169426110237734
-0.007654275776839717,0.00828680856692604,-1.3169426110237734
-0.007652485776839717,0.00458858371434224,-1.3169426110237734
-0.0076506957768397174,0.00458858371434224,-1.320649962004811
-0.007648905776839717,-0.002807865990825359,-1.320649962004811
-0.007647115776839717,-0.002807865990825359,-1.320649962004811
-0.007645325776839717,-0.002807865990825359,-1.3169426110237734
-0.0076435357768397175,0.0008903588617584406,-1.3169426110237734
-0.007641745776839717,0.0008903588617584406,-1.320649962004811
-0.007639955776839717,0.0008903588617584406,-1.3169426110237734
-0.007638165776839717,-0.002807865990825359,-1.3169426110237734
-0.0076363757768397175,-0.002807865990825359,-1.3169426110237734
-0.007634585776839717,-0.002807865990825359,-1.3169426110237734
-0.007632795776839717,-0.002807865990825359,-1.3169426110237734
-0.007631005776839717,0.0008903588617584406,-1.320649962004811
-0.0076292157768397175,0.0008903588617584406,-1.3169426110237734
-0.007627425776839717,0.00458858371434224,-1.320649962004811
-0.007625635776839717,0.0008903588617584406,-1.3169426110237734
-0.007623845776839717,0.0008903588617584406,-1.320649962004811
-0.0076220557768397175,0.0008903588617584406,-1.3243573129858488
-0.007620265776839717,0.00458858371434224,-1.3169426110237734
-0.007618475776839717,0.0008903588617584406,-1.320649962004811
-0.007616685776839717,0.0008903588617584406,-1.3132352600427357
-0.0076148957768397176,0.0008903588617584406,-1.3169426110237734
-0.007613105776839717,-0.0065060908434091584,-1.3169426110237734
-0.007611315776839717,-0.002807865990825359,-1.3169426110237734
-0.007609525776839717,0.0008903588617584406,-1.320649962004811
-0.007607735776839718,-0.002807865990825359,-1.320649962004811
-0.007605945776839717,-0.002807865990825359,-1.3243573129858488
-0.007604155776839717,-0.002807865990825359,-1.3169426110237734
-0.007602365776839717,0.0008903588617584406,-1.3169426110237734
-0.007600575776839718,-0.002807865990825359,-1.320649962004811
-0.007598785776839717,-0.0065060908434091584,-1.320649962004811
-0.007596995776839717,-0.0065060908434091584,-1.3169426110237734
-0.007595205776839717,-0.0065060908434091584,-1.3169426110237734
-0.007593415776839718,-0.010204315695991277,-1.3132352600427375
-0.007591625776839717,-0.0065060908434091584,-1.3132352600427357
-0.007589835776839717,-0.0065060908434091584,-1.3169426110237734
-0.007588045776839717,-0.002807865990825359,-1.3169426110237734
-0.007586255776839717,-0.002807865990823677,-1.3169426110237752
-0.007584465776839717,0.0008903588617584406,-1.320649962004811
-0.007582675776839717,-0.0065060908434091584,-1.320649962004811
-0.0075808857768397174,-0.0065060908434091584,-1.320649962004811
-0.007579095776839717,-0.010204315695992958,-1.3132352600427357
-0.007577305776839717,-0.010204315695992958,-1.3169426110237734
-0.007575515776839717,-0.0065060908434091584,-1.3169426110237734
-0.0075737257768397175,-0.010204315695992958,-1.3169426110237734
-0.007571935776839717,-0.002807865990825359,-1.3169426110237734
-0.007570145776839717,-0.0065060908434091584,-1.3169426110237734
-0.007568355776839717,-0.0065060908434091584,-1.320649962004811
-0.0075665657768397175,0.00458858371434224,-1.3169426110237734
-0.007564775776839717,-0.0065060908434091584,-1.320649962004811
-0.007562985776839717,-0.0065060908434091584,-1.320649962004811
-0.007561195776839717,-0.002807865990825359,-1.320649962004811
-0.0075594057768397175,-0.0065060908434091584,-1.320649962004811
-0.007557615776839717,-0.002807865990825359,-1.320649962004811
-0.007555825776839717,-0.002807865990825359,-1.3169426110237734
-0.007554035776839717,-0.0065060908434091584,-1.3169426110237734
-0.0075522457768397175,-0.0065060908434091584,-1.3169426110237734
-0.007550455776839717,-0.0065060908434091584,-1.320649962004811
-0.007548665776839717,-0.010204315695992958,-1.3169426110237734
-0.007546875776839717,-0.002807865990825359,-1.320649962004811
-0.0075450857768397175,-0.010204315695992958,-1.320649962004811
-0.007543295776839717,-0.013902540548576758,-1.3243573129858488
-0.007541505776839717,-0.010204315695992958,-1.3169426110237734
-0.007539715776839717,-0.013902540548576758,-1.320649962004811
-0.0075379257768397176,-0.010204315695992958,-1.320649962004811
-0.007536135776839717,-0.010204315695992958,-1.3169426110237734
-0.007534345776839717,-0.010204315695992958,-1.3169426110237734
-0.007532555776839717,-0.013902540548576758,-1.3169426110237734
-0.007530765776839718,-0.010204315695992958,-1.320649962004811
-0.007528975776839717,-0.010204315695992958,-1.320649962004811
-0.007527185776839717,-0.010204315695992958,-1.3169426110237734
-0.007525395776839717,-0.010204315695992958,-1.3169426110237734
-0.007523605776839718,-0.013902540548575076,-1.3206499620048093
-0.007521815776839717,-0.010204315695992958,-1.320649962004811
-0.007520025776839717,-0.013902540548576758,-1.3169426110237734
-0.007518235776839717,-0.017600765401160557,-1.320649962004811
-0.007516445776839718,-0.013902540548578441,-1.324357312985847
-0.007514655776839717,-0.013902540548576758,-1.320649962004811
-0.007512865776839717,-0.010204315695992958,-1.3243573129858488
-0.007511075776839717,-0.010204315695992958,-1.320649962004811
-0.007509285776839717,-0.021298990253740994,-1.3169426110237734
-0.007507495776839717,-0.013902540548576758,-1.3169426110237734
-0.007505705776839717,-0.017600765401160557,-1.3243573129858488
-0.0075039157768397174,-0.021298990253744356,-1.320649962004811
-0.007502125776839717,-0.010204315695992958,-1.3169426110237734
-0.007500335776839717,-1.5079853809924317,0.01770374214979676
-0.007498545776839717,-3.1795830143603094,1.3449353933612915
-0.0074967557768397175,-3.1610918900973903,1.3338133404181785
-0.007494965776839717,-3.149997215539639,1.3338133404181785
-0.007493175776839717,-3.149997215539639,1.3301059894371408
-0.007491385776839717,-3.1389025409818876,1.326398638456103
-0.0074895957768397175,-3.1389025409818876,1.326398638456103
-0.007487805776839717,-3.124109641571552,1.3226912874750654
-0.007486015776839717,-3.124109641571552,1.3226912874750654
-0.007484225776839717,-3.1130149670138008,1.3226912874750654
-0.0074824357768397175,-3.1019202924560494,1.3189839364940277
-0.007480645776839717,-3.090825617898298,1.3189839364940277
-0.007478855776839717,-3.072334493635379,1.3226912874750654
-0.007477065776839717,-3.057541594225044,1.31527658551299
-0.0074752757768397175,-3.0538433693724603,1.3115692345319523
-0.007473485776839717,-3.039050469962125,1.31527658551299
-0.007471695776839717,-3.02425757055179,1.31527658551299
-0.007469905776839717,-3.0205593456992057,1.3078618835509146
-0.0074681157768397175,-3.0057664462888707,1.3078618835509146
-0.007466325776839717,-2.9946717717311193,1.3078618835509146
-0.007464535776839717,-2.983577097173368,1.304154532569877
-0.007462745776839717,-2.9724824226156166,1.3004471815888392
-0.007460955776839718,-2.961387748057865,1.2967398306078015
-0.007459165776839717,-2.942896623794946,1.304154532569877
-0.007457375776839717,-2.9318019492371947,1.2967398306078015
-0.007455585776839717,-2.9207072746794434,1.2893251286457261
-0.007453795776839718,-2.9059143752691083,1.2930324796267638
-0.007452005776839717,-2.8985179255639406,1.2893251286457261
-0.007450215776839717,-2.883725026153605,1.2893251286457261
-0.007448425776839717,-2.872630351595854,1.2930324796267638
-0.007446635776839718,-2.868932126743272,1.289325128645728
-0.007444845776839717,-2.8615356770381024,1.2856177776646884
-0.007443055776839717,-2.8467427776277674,1.2856177776646884
-0.007441265776839717,-2.8393463279225997,1.2819104266836507
-0.007439475776839717,-2.8282516533648416,1.2856177776646884
-0.007437685776839717,-2.8134587539545133,1.2856177776646884
-0.007435895776839717,-2.802364079396762,1.2856177776646884
-0.007434105776839717,-2.794967629691594,1.2856177776646884
-0.007432315776839717,-2.7912694048390105,1.2856177776646884
-0.007430525776839717,-2.7801747302812587,1.2856177776646884
-0.007428735776839717,-2.7690800557235073,1.2856177776646884
-0.0074269457768397175,-2.7505889314605887,1.2856177776646884
-0.007425155776839717,-2.7468907066080046,1.2856177776646884
-0.007423365776839717,-2.7320978071976696,1.278203075702613
-0.007421575776839717,-2.724701357492502,1.2744957247215754
-0.0074197857768397175,-2.717304907787334,1.2744957247215754
-0.007417995776839717,-2.702512008376999,1.2744957247215754
-0.007416205776839717,-2.6951155586718314,1.2707883737405377
-0.007414415776839717,-2.687719108966664,1.278203075702613
-0.0074126257768397175,-2.6766244344089127,1.278203075702613
-0.007410835776839717,-2.6766244344089127,1.2707883737405377
-0.007409045776839717,-2.669227984703745,1.2744957247215754
-0.007407255776839717,-2.6581333101459936,1.2744957247215754
-0.0074054657768397175,-2.650736860440826,1.2707883737405377
-0.007403675776839717,-2.6396421858830745,1.2744957247215754
-0.007401885776839717,-2.632245736177907,1.2744957247215754
-0.007400095776839717,-2.6211510616201554,1.2707883737405377
-0.0073983057768397175,-2.6211510616201554,1.278203075702613
-0.007396515776839717,-2.610056387062404,1.2744957247215754
-0.007394725776839717,-2.5989617125046527,1.2744957247215754
-0.007392935776839717,-2.5878670379469013,1.2744957247215754
-0.0073911457768397176,-2.5878670379469013,1.2707883737405377
-0.007389355776839717,-2.57677236338915,1.2707883737405377
-0.007387565776839717,-2.569375913683982,1.2707883737405377
-0.007385775776839717,-2.558281239126231,1.2670810227595
-0.007383985776839718,-2.5471865645684795,1.2707883737405377
-0.007382195776839717,-2.5471865645684795,1.2707883737405377
-0.007380405776839717,-2.5323936651581445,1.2670810227595
-0.007378615776839717,-2.5323936651581445,1.2707883737405377
-0.007376825776839718,-2.5249972154529767,1.2707883737405377
-0.007375035776839717,-2.517600765747809,1.2707883737405377
-0.007373245776839717,-2.5102043160426417,1.2707883737405377
-0.007371455776839717,-2.4991096414848903,1.2707883737405377
-0.007369665776839718,-2.491713191779726,1.2670810227595017
-0.007367875776839717,-2.484316742074555,1.2707883737405377
-0.007366085776839717,-2.484316742074555,1.2707883737405377
-0.007364295776839717,-2.4769202923693876,1.2744957247215754
-0.007362505776839717,-2.4695238426642163,1.2707883737405394
-0.007360715776839717,-2.462127392959052,1.2744957247215754
-0.007358925776839717,-2.4510327184013008,1.2707883737405377
-0.0073571357768397174,-2.443636268696133,1.2707883737405377
-0.007355345776839717,-2.4362398189909658,1.2670810227595
-0.007353555776839717,-2.428843369285798,1.2670810227595
-0.007351765776839717,-2.4251451444332144,1.2670810227595
-0.0073499757768397175,-2.4140504698754626,1.2670810227595
-0.007348185776839717,-2.402955795317711,1.2744957247215754
-0.007346395776839717,-2.402955795317711,1.2744957247215754
-0.007344605776839717,-2.39186112075996,1.2670810227595
-0.0073428157768397175,-2.3844646710547925,1.2670810227595
-0.007341025776839717,-2.377068221349625,1.2707883737405377
-0.007339235776839717,-2.377068221349625,1.2670810227595
-0.007337445776839717,-2.369671771644457,1.2633736717784623
-0.0073356557768397175,-2.36227532193929,1.2633736717784623
-0.007333865776839717,-2.354878872234122,1.2707883737405377
-0.007332075776839717,-2.351180647381538,1.2707883737405377
-0.007330285776839717,-2.3474824225289543,1.2707883737405377
-0.0073284957768397175,-2.3400859728237866,1.2707883737405377
-0.007326705776839717,-2.3326895231186193,1.2744957247215754
-0.007324915776839717,-2.321594848560868,1.2707883737405377
-0.007323125776839717,-2.3141983988557002,1.2670810227595
-0.0073213357768397175,-2.3068019491505325,1.2707883737405377
-0.007319545776839717,-2.299405499445365,1.2670810227595
-0.007317755776839717,-2.295707274592781,1.2670810227595
-0.007315965776839717,-2.2846126000350298,1.2670810227595
-0.007314175776839718,-2.277216150329862,1.2707883737405377
-0.007312385776839717,-2.277216150329862,1.2670810227595
-0.007310595776839717,-2.2661214757721106,1.2707883737405377
-0.007308805776839717,-2.262423250919527,1.2707883737405377
-0.007307015776839718,-2.2587250260669434,1.2633736717784623
-0.007305225776839717,-2.2513285763617756,1.2707883737405377
-0.007303435776839717,-2.247630351509192,1.2707883737405377
-0.007301645776839717,-2.243932126656608,1.2707883737405377
-0.007299855776839718,-2.236535676951444,1.2707883737405377
-0.007298065776839717,-2.229139227246273,1.2744957247215754
-0.007296275776839717,-2.229139227246273,1.2707883737405377
-0.007294485776839717,-2.2180445526885215,1.2670810227595
-0.007292695776839717,-2.2143463278359325,1.2707883737405377
-0.007290905776839717,-2.203251653278186,1.2707883737405377
-0.007289115776839717,-2.1995534284256024,1.2670810227595
-0.007287325776839717,-2.1921569787204347,1.2670810227595
-0.007285535776839717,-2.1810623041626815,1.2670810227595017
-0.007283745776839717,-2.1773640793100997,1.2707883737405377
-0.007281955776839717,-2.173665854457516,1.2670810227595
-0.0072801657768397175,-2.1662694047523483,1.2670810227595
-0.007278375776839717,-2.1588729550471806,1.2633736717784623
-0.007276585776839717,-2.155174730194597,1.2707883737405377
-0.007274795776839717,-2.147778280489429,1.2670810227595
-0.0072730057768397175,-2.147778280489429,1.2670810227595
-0.007271215776839717,-2.1403818307842615,1.2670810227595
-0.007269425776839717,-2.136683605931678,1.2670810227595
-0.007267635776839717,-2.132985381079094,1.2670810227595
-0.0072658457768397175,-2.121890706521343,1.2707883737405377
-0.007264055776839717,-2.1181924816687587,1.2744957247215754
-0.007262265776839717,-2.121890706521343,1.278203075702613
-0.007260475776839717,-2.1070978071110074,1.2707883737405377
-0.0072586857768397175,-2.0997013574058396,1.2670810227595
-0.007256895776839717,-2.096003132553256,1.2633736717784623
-0.007255105776839717,-2.0886066828480883,1.2670810227595
-0.007253315776839717,-2.081210233142921,1.2670810227595
-0.0072515257768397175,-2.077512008290337,1.2670810227595
-0.007249735776839717,-2.062719108880002,1.2707883737405377
-0.007247945776839717,-2.0664173337325855,1.2633736717784623
-0.007246155776839717,-2.0590208840274182,1.2670810227595
-0.0072443657768397176,-2.055322659174834,1.2707883737405377
-0.007242575776839717,-2.0479262094696664,1.2670810227595
-0.007240785776839717,-2.0442279846170828,1.2707883737405377
-0.007238995776839717,-2.036831534911915,1.278203075702613
-0.007237205776839718,-2.036831534911915,1.2707883737405377
-0.007235415776839717,-2.0257368603541637,1.2670810227595
-0.007233625776839717,-2.0183404106489964,1.2744957247215754
-0.007231835776839717,-2.0183404106489964,1.2707883737405377
-0.007230045776839718,-2.0183404106489964,1.2744957247215754
-0.007228255776839717,-2.007245736091245,1.2744957247215754
-0.007226465776839717,-1.999849286386077,1.2670810227595
-0.007224675776839717,-1.9961510615334932,1.2744957247215754
-0.007222885776839718,-1.985056386975747,1.2707883737405394
-0.007221095776839717,-1.981358162123158,1.2707883737405377
-0.007219305776839717,-1.981358162123158,1.2670810227595
-0.007217515776839717,-1.9739617124179905,1.2670810227595
-0.007215725776839717,-1.9591688130076534,1.2670810227595
-0.007213935776839717,-1.9554705881550714,1.2670810227595
-0.007212145776839717,-1.9554705881550714,1.2670810227595
-0.0072103557768397174,-1.9554705881550714,1.2633736717784623
-0.007208565776839717,-1.9480741384499038,1.2670810227595
-0.007206775776839717,-1.94437591359732,1.2670810227595
-0.007204985776839717,-1.9406776887447361,1.2707883737405377
-0.0072031957768397175,-1.9369794638921525,1.2707883737405377
-0.007201405776839717,-1.9295830141869847,1.2633736717784623
-0.007199615776839717,-1.9221865644818172,1.2707883737405377
-0.007197825776839717,-1.9184883396292334,1.2707883737405377
-0.0071960357768397175,-1.9147901147766497,1.2707883737405377
-0.007194245776839717,-1.907393665071482,1.2670810227595
-0.007192455776839717,-1.8999972153663145,1.2707883737405377
-0.007190665776839717,-1.8999972153663145,1.2707883737405377
-0.0071888757768397175,-1.8962989905137306,1.2670810227595
-0.007187085776839717,-1.8815060911033954,1.2633736717784623
-0.007185295776839717,-1.8815060911033954,1.2670810227595
-0.007183505776839717,-1.8741096413982279,1.2707883737405377
-0.0071817157768397175,-1.8667131916930602,1.2633736717784623
-0.007179925776839717,-1.8667131916930602,1.2707883737405377
-0.007178135776839717,-1.8630149668404765,1.2670810227595
-0.007176345776839717,-1.8556185171353088,1.2670810227595
-0.0071745557768397175,-1.8519202922827251,1.2670810227595
