200Hz/acq0080.csv

#Digilent WaveForms Oscilloscope Acquisition
#Device Name: Discovery2
#Serial Number: SN:210321AA28BE
#Date Time: 2023-05-24 14:48:06.198
#Sample rate: 558659Hz
#Samples: 8192
#Trigger: Source: Channel 1 Type: Edge Condition: Rising Level: 800 mV Hyst.: Auto HoldOff: 100 ns
#Channel 1: Range: 1 V/div Offset: 0 V Attenuation: 1 X Sample Mode: Average
#Channel 2: Range: 1 V/div Offset: 0 V Attenuation: 1 X Sample Mode: Average

Time (s),Channel 1 (V),Channel 2 (V)
-0.007742413685825893,0.07115663106085063,-1.320649962004811
-0.007740623685825893,0.07115663106085063,-1.3169426110237752
-0.007738833685825892,0.07115663106085063,-1.320649962004811
-0.0077370436858258925,0.07115663106085063,-1.3169426110237734
-0.007735253685825893,0.06745840620826683,-1.3132352600427357
-0.007733463685825892,0.07115663106085063,-1.320649962004811
-0.007731673685825892,0.07115663106085063,-1.320649962004811
-0.0077298836858258925,0.06745840620826683,-1.320649962004811
-0.007728093685825893,0.06006195650309923,-1.320649962004811
-0.007726303685825892,0.06745840620826683,-1.320649962004811
-0.007724513685825892,0.06376018135568304,-1.3169426110237734
-0.0077227236858258925,0.06745840620826683,-1.3169426110237734
-0.007720933685825893,0.06745840620826683,-1.320649962004811
-0.007719143685825892,0.06745840620826683,-1.320649962004811
-0.007717353685825892,0.06376018135568304,-1.320649962004811
-0.0077155636858258925,0.06376018135568304,-1.320649962004811
-0.007713773685825893,0.06376018135568304,-1.320649962004811
-0.007711983685825892,0.07115663106085063,-1.320649962004811
-0.007710193685825892,0.06745840620826683,-1.3169426110237734
-0.0077084036858258926,0.06006195650309923,-1.3243573129858488
-0.007706613685825893,0.06376018135568304,-1.320649962004811
-0.007704823685825892,0.06376018135568304,-1.3169426110237734
-0.007703033685825892,0.06006195650309923,-1.320649962004811
-0.007701243685825893,0.06006195650309923,-1.3169426110237734
-0.007699453685825893,0.06006195650309923,-1.320649962004811
-0.007697663685825892,0.06745840620826683,-1.320649962004811
-0.007695873685825892,0.06376018135568304,-1.320649962004811
-0.007694083685825893,0.06376018135568304,-1.320649962004811
-0.007692293685825893,0.06376018135568304,-1.3169426110237734
-0.007690503685825892,0.06376018135568304,-1.3243573129858488
-0.007688713685825892,0.06376018135568304,-1.3243573129858488
-0.007686923685825893,0.06376018135568304,-1.320649962004811
-0.007685133685825893,0.06006195650309923,-1.3169426110237734
-0.007683343685825892,0.05636373165051543,-1.3169426110237734
-0.007681553685825892,0.05636373165051543,-1.3243573129858488
-0.007679763685825893,0.06376018135568304,-1.3243573129858488
-0.007677973685825893,0.05636373165051543,-1.3169426110237734
-0.007676183685825892,0.05636373165051543,-1.320649962004811
-0.0076743936858258924,0.05636373165051543,-1.3169426110237734
-0.007672603685825893,0.05636373165051543,-1.3169426110237734
-0.007670813685825893,0.06006195650309755,-1.3206499620048093
-0.007669023685825892,0.05636373165051543,-1.320649962004811
-0.0076672336858258925,0.05636373165051543,-1.320649962004811
-0.007665443685825893,0.06006195650309923,-1.3169426110237734
-0.007663653685825892,0.05636373165051543,-1.3169426110237734
-0.007661863685825892,0.05636373165051543,-1.3169426110237734
-0.0076600736858258925,0.05266550679793163,-1.3132352600427357
-0.007658283685825893,0.05636373165051543,-1.3169426110237734
-0.007656493685825892,0.05636373165051543,-1.320649962004811
-0.007654703685825892,0.05636373165051543,-1.320649962004811
-0.0076529136858258925,0.048967281945347836,-1.3169426110237734
-0.007651123685825893,0.05266550679793163,-1.3169426110237734
-0.007649333685825892,0.05266550679793163,-1.3243573129858488
-0.007647543685825892,0.05266550679793163,-1.3243573129858488
-0.0076457536858258925,0.05266550679793163,-1.3169426110237734
-0.007643963685825893,0.048967281945347836,-1.320649962004811
-0.007642173685825892,0.048967281945347836,-1.320649962004811
-0.007640383685825892,0.05266550679793163,-1.320649962004811
-0.0076385936858258925,0.05266550679793163,-1.3169426110237734
-0.007636803685825893,0.048967281945347836,-1.3169426110237734
-0.007635013685825892,0.05266550679793163,-1.320649962004811
-0.007633223685825892,0.045269057092764034,-1.320649962004811
-0.007631433685825893,0.045269057092764034,-1.3169426110237734
-0.007629643685825893,0.048967281945347836,-1.3169426110237734
-0.007627853685825892,0.05266550679793163,-1.3169426110237734
-0.007626063685825892,0.045269057092764034,-1.3243573129858488
-0.007624273685825893,0.045269057092764034,-1.320649962004811
-0.007622483685825893,0.048967281945347836,-1.3169426110237734
-0.007620693685825892,0.048967281945347836,-1.3169426110237734
-0.007618903685825892,0.045269057092764034,-1.3243573129858488
-0.007617113685825893,0.04157083224018024,-1.320649962004811
-0.007615323685825893,0.04157083224018024,-1.320649962004811
-0.007613533685825892,0.045269057092764034,-1.3132352600427357
-0.007611743685825892,0.045269057092764034,-1.3169426110237734
-0.007609953685825893,0.045269057092764034,-1.3169426110237734
-0.007608163685825893,0.03787260738759644,-1.3169426110237734
-0.007606373685825892,0.04157083224018024,-1.320649962004811
-0.007604583685825892,0.03787260738759644,-1.3169426110237734
-0.007602793685825893,0.045269057092764034,-1.3132352600427357
-0.007601003685825893,0.045269057092764034,-1.3169426110237734
-0.007599213685825892,0.04157083224018024,-1.3169426110237734
-0.0075974236858258925,0.045269057092764034,-1.320649962004811
-0.007595633685825893,0.05266550679793163,-1.320649962004811
-0.007593843685825893,0.0452690570927674,-1.320649962004811
-0.007592053685825892,0.04157083224018024,-1.3169426110237734
-0.0075902636858258925,0.045269057092764034,-1.320649962004811
-0.007588473685825893,0.045269057092764034,-1.3169426110237734
-0.007586683685825892,0.03787260738759644,-1.3169426110237734
-0.007584893685825892,0.03787260738759644,-1.3169426110237734
-0.0075831036858258925,0.03787260738759644,-1.320649962004811
-0.007581313685825893,0.04157083224018024,-1.320649962004811
-0.007579523685825892,0.04157083224018024,-1.320649962004811
-0.007577733685825892,0.034174382535012635,-1.3132352600427357
-0.0075759436858258925,0.04157083224018024,-1.3169426110237734
-0.007574153685825893,0.04157083224018024,-1.320649962004811
-0.007572363685825892,0.04157083224018024,-1.320649962004811
-0.007570573685825892,0.03787260738759644,-1.3169426110237734
-0.0075687836858258925,0.03787260738759644,-1.3243573129858488
-0.007566993685825893,0.034174382535012635,-1.3169426110237734
-0.007565203685825892,0.034174382535012635,-1.3169426110237734
-0.007563413685825892,0.03047615768242884,-1.320649962004811
-0.0075616236858258926,0.03047615768242884,-1.3169426110237734
-0.007559833685825893,0.034174382535012635,-1.3169426110237734
-0.007558043685825892,0.034174382535012635,-1.3169426110237734
-0.007556253685825892,0.03047615768242884,-1.3169426110237734
-0.007554463685825893,0.03787260738759644,-1.3169426110237734
-0.007552673685825893,0.04157083224018024,-1.320649962004811
-0.007550883685825892,0.03787260738759644,-1.320649962004811
-0.007549093685825892,0.03047615768242884,-1.320649962004811
-0.007547303685825893,0.03047615768242884,-1.3169426110237734
-0.007545513685825893,0.034174382535012635,-1.3169426110237734
-0.007543723685825892,0.03787260738759644,-1.320649962004811
-0.007541933685825892,0.03787260738759644,-1.320649962004811
-0.007540143685825893,0.034174382535012635,-1.320649962004811
-0.007538353685825893,0.034174382535012635,-1.320649962004811
-0.007536563685825892,0.03047615768242884,-1.3169426110237734
-0.007534773685825892,0.034174382535012635,-1.3169426110237734
-0.007532983685825893,0.03047615768242884,-1.320649962004811
-0.007531193685825893,0.026777932829845037,-1.3169426110237734
-0.007529403685825892,0.03047615768242884,-1.3169426110237734
-0.0075276136858258924,0.034174382535012635,-1.320649962004811
-0.007525823685825893,0.026777932829845037,-1.320649962004811
-0.007524033685825893,0.030476157682427157,-1.320649962004811
-0.007522243685825892,0.03047615768242884,-1.3132352600427357
-0.0075204536858258925,0.034174382535012635,-1.3243573129858488
-0.007518663685825893,0.026777932829845037,-1.320649962004811
-0.007516873685825893,0.02307970797726292,-1.324357312985847
-0.007515083685825892,0.01938148312467744,-1.320649962004811
-0.0075132936858258925,0.026777932829845037,-1.3169426110237734
-0.007511503685825893,0.026777932829845037,-1.3169426110237734
-0.007509713685825892,0.030476157682423795,-1.3169426110237752
-0.007507923685825892,0.01938148312467744,-1.320649962004811
-0.0075061336858258925,0.026777932829845037,-1.3243573129858488
-0.007504343685825893,0.026777932829845037,-1.3169426110237734
-0.007502553685825892,0.026777932829845037,-1.3169426110237734
-0.007500763685825892,-1.1455593454392192,-0.2640549324090681
-0.0074989736858258925,-3.1721865646551417,1.3412280423802538
-0.007497183685825893,-3.149997215539639,1.3338133404181785
-0.007495393685825892,-3.1389025409818876,1.326398638456103
-0.007493603685825892,-3.127807866424136,1.3189839364940277
-0.0074918136858258925,-3.1204114167189685,1.326398638456103
-0.007490023685825893,-3.1130149670138008,1.3189839364940277
-0.007488233685825892,-3.1019202924560494,1.3226912874750654
-0.007486443685825892,-3.0871273930457144,1.326398638456103
-0.007484653685825893,-3.0797309433405466,1.3226912874750654
-0.007482863685825893,-3.0649380439302116,1.3189839364940277
-0.007481073685825892,-3.057541594225044,1.3226912874750654
-0.007479283685825892,-3.042748694814709,1.3226912874750654
-0.007477493685825893,-3.0279557954043734,1.3189839364940277
-0.007475703685825893,-3.016861120846622,1.3226912874750654
-0.007473913685825892,-3.0094646711414543,1.3226912874750654
-0.007472123685825892,-2.9946717717311193,1.3189839364940277
-0.007470333685825893,-2.983577097173368,1.3115692345319523
-0.007468543685825893,-2.968784197763033,1.3115692345319523
-0.007466753685825892,-2.9539912983526975,1.304154532569877
-0.007464963685825892,-2.9391983989423625,1.304154532569877
-0.007463173685825893,-2.924405499532027,1.304154532569877
-0.007461383685825893,-2.9133108249742756,1.3004471815888392
-0.007459593685825892,-2.9022161504165243,1.3004471815888392
-0.007457803685825892,-2.8874232510061892,1.3004471815888392
-0.007456013685825893,-2.876328576448438,1.2967398306078015
-0.007454223685825893,-2.86893212674327,1.3004471815888392
-0.007452433685825892,-2.8652339018906865,1.2930324796267638
-0.0074506436858258925,-2.8467427776277674,1.2930324796267638
-0.007448853685825893,-2.8430445527751838,1.2967398306078015
-0.007447063685825893,-2.828251653364855,1.2930324796267656
-0.007445273685825892,-2.8134587539545133,1.2930324796267638
-0.0074434836858258925,-2.809760529101929,1.2930324796267638
-0.007441693685825893,-2.798665854544178,1.2893251286457261
-0.007439903685825892,-2.7912694048390057,1.2930324796267656
-0.007438113685825892,-2.7801747302812587,1.2967398306078015
-0.0074363236858258925,-2.7690800557235073,1.2930324796267638
-0.007434533685825893,-2.757985381165756,1.2893251286457261
-0.007432743685825892,-2.7468907066080046,1.2856177776646884
-0.007430953685825892,-2.7320978071976696,1.2819104266836507
-0.0074291636858258925,-2.721003132639918,1.2819104266836507
-0.007427373685825893,-2.709908458082167,1.278203075702613
-0.007425583685825892,-2.702512008376999,1.278203075702613
-0.007423793685825892,-2.6951155586718314,1.278203075702613
-0.0074220036858258925,-2.6803226592614964,1.2819104266836507
-0.007420213685825893,-2.6729262095563286,1.2744957247215754
-0.007418423685825892,-2.6655297598511614,1.2744957247215754
-0.007416633685825892,-2.6581333101459936,1.2744957247215754
-0.0074148436858258926,-2.650736860440826,1.278203075702613
-0.007413053685825893,-2.6470386355882423,1.278203075702613
-0.007411263685825892,-2.635943961030491,1.2744957247215754
-0.007409473685825892,-2.628547511325323,1.2744957247215754
-0.007407683685825893,-2.617452836767572,1.2744957247215754
-0.007405893685825893,-2.613754611914988,1.2707883737405377
-0.007404103685825892,-2.5989617125046527,1.2744957247215754
-0.007402313685825892,-2.5878670379469013,1.278203075702613
-0.007400523685825893,-2.5804705882417336,1.278203075702613
-0.007398733685825893,-2.5730741385365663,1.2707883737405377
-0.007396943685825892,-2.5656776888313986,1.2744957247215754
-0.007395153685825892,-2.554583014273647,1.2707883737405377
-0.007393363685825893,-2.543488339715896,1.2744957247215754
-0.007391573685825893,-2.539790114863312,1.2670810227595
-0.007389783685825892,-2.5286954403055604,1.2707883737405377
-0.007387993685825892,-2.5286954403055604,1.2744957247215754
-0.007386203685825893,-2.521298990600393,1.2707883737405377
-0.007384413685825893,-2.5139025408952254,1.2744957247215754
-0.007382623685825892,-2.5065060911900576,1.278203075702613
-0.0073808336858258924,-2.502807866337474,1.2707883737405377
-0.007379043685825893,-2.4917131917797226,1.2707883737405377
-0.007377253685825893,-2.488014966927139,1.2744957247215754
-0.007375463685825892,-2.4806185172219712,1.2707883737405377
-0.0073736736858258925,-2.4769202923693876,1.2744957247215754
-0.007371883685825893,-2.465825617811636,1.2819104266836507
-0.007370093685825893,-2.458429168106472,1.2744957247215787
-0.007368303685825892,-2.4547309432538844,1.2744957247215754
-0.0073665136858258925,-2.443636268696133,1.2707883737405377
-0.007364723685825893,-2.4325415941383817,1.2744957247215754
-0.007362933685825892,-2.425145144433211,1.2670810227595
-0.007361143685825892,-2.4177486947280467,1.2670810227595
-0.0073593536858258925,-2.4066540201702953,1.2670810227595
-0.007357563685825893,-2.3992575704651276,1.2707883737405377
-0.007355773685825892,-2.395559345612544,1.2633736717784623
-0.007353983685825892,-2.39186112075996,1.2707883737405377
-0.0073521936858258925,-2.3844646710547925,1.2670810227595
-0.007350403685825893,-2.369671771644457,1.2707883737405377
-0.007348613685825892,-2.369671771644457,1.2707883737405377
-0.007346823685825892,-2.36227532193929,1.2707883737405377
-0.0073450336858258925,-2.354878872234122,1.2707883737405377
-0.007343243685825893,-2.3400859728237866,1.2707883737405377
-0.007341453685825892,-2.336387747971203,1.2707883737405377
-0.007339663685825892,-2.3400859728237866,1.2670810227595
-0.007337873685825893,-2.3326895231186193,1.2707883737405377
-0.007336083685825893,-2.3289912982660352,1.2707883737405377
-0.007334293685825892,-2.3141983988557002,1.2670810227595
-0.007332503685825892,-2.3105001740031166,1.2744957247215754
-0.007330713685825893,-2.299405499445365,1.2670810227595
-0.007328923685825893,-2.2920090497401975,1.2707883737405377
-0.007327133685825892,-2.2883108248876134,1.2670810227595
-0.007325343685825892,-2.280914375182446,1.2670810227595
-0.007323553685825893,-2.2735179254772784,1.2670810227595
-0.007321763685825893,-2.2698197006246947,1.2670810227595
-0.007319973685825892,-2.2587250260669434,1.2707883737405377
-0.007318183685825892,-2.2550268012143593,1.2670810227595
-0.007316393685825893,-2.2513285763617756,1.2707883737405377
-0.007314603685825893,-2.243932126656608,1.2707883737405377
-0.007312813685825892,-2.2365356769514406,1.2707883737405377
-0.007311023685825892,-2.229139227246273,1.2707883737405377
-0.007309233685825893,-2.229139227246273,1.2707883737405377
-0.007307443685825893,-2.225441002393689,1.2707883737405377
-0.007305653685825892,-2.2180445526885215,1.2707883737405377
-0.0073038636858258925,-2.2143463278359374,1.2744957247215754
-0.007302073685825893,-2.1995534284256024,1.2744957247215754
-0.007300283685825893,-2.1995534284256024,1.2707883737405394
-0.007298493685825892,-2.188458753867851,1.2744957247215754
-0.0072967036858258925,-2.1773640793100997,1.2707883737405377
-0.007294913685825893,-2.169967629604932,1.2707883737405377
-0.007293123685825892,-2.169967629604927,1.274495724721572
-0.007291333685825892,-2.1588729550471806,1.2670810227595
-0.0072895436858258925,-2.1588729550471806,1.2707883737405377
-0.007287753685825893,-2.151476505342013,1.2707883737405377
-0.007285963685825892,-2.144080055636844,1.2707883737405359
-0.007284173685825892,-2.1403818307842615,1.2670810227595
-0.0072823836858258925,-2.132985381079094,1.2670810227595
-0.007280593685825893,-2.136683605931678,1.2633736717784623
-0.007278803685825892,-2.121890706521343,1.2744957247215754
-0.007277013685825892,-2.121890706521343,1.2707883737405377
-0.0072752236858258925,-2.1107960319635914,1.2670810227595
-0.007273433685825893,-2.1033995822584237,1.2670810227595
-0.007271643685825892,-2.0997013574058396,1.2744957247215754
-0.007269853685825892,-2.096003132553256,1.2707883737405377
-0.0072680636858258926,-2.0886066828480883,1.2670810227595
-0.007266273685825893,-2.0849084579955046,1.2707883737405377
-0.007264483685825892,-2.0738137834377532,1.2707883737405377
-0.007262693685825892,-2.0664173337325855,1.2596663207974246
-0.007260903685825893,-2.062719108880002,1.2633736717784623
-0.007259113685825893,-2.055322659174834,1.2670810227595
-0.007257323685825892,-2.0516244343222505,1.2670810227595
-0.007255533685825892,-2.0442279846170828,1.2670810227595
-0.007253743685825893,-2.0442279846170828,1.2707883737405377
-0.007251953685825893,-2.0331333100593314,1.2707883737405377
-0.007250163685825892,-2.0294350852067478,1.2670810227595
-0.007248373685825892,-2.0294350852067478,1.2707883737405377
-0.007246583685825893,-2.02203863550158,1.2707883737405377
-0.007244793685825893,-2.0146421857964123,1.2707883737405377
-0.007243003685825892,-2.0109439609438287,1.2707883737405377
-0.007241213685825892,-2.007245736091245,1.2707883737405377
-0.007239423685825893,-2.003547511238661,1.2707883737405377
-0.007237633685825893,-2.003547511238661,1.278203075702613
-0.007235843685825892,-1.9924528366809093,1.278203075702613
-0.0072340536858258924,-1.9850563869757418,1.2707883737405377
-0.007232263685825893,-1.981358162123158,1.2707883737405377
-0.007230473685825893,-1.9739617124179905,1.2707883737405377
-0.007228683685825892,-1.962867037860239,1.2670810227595
-0.0072268936858258925,-1.962867037860239,1.2670810227595
-0.007225103685825893,-1.9517723633024877,1.2670810227595
-0.007223313685825893,-1.9480741384499056,1.263373671778464
-0.007221523685825892,-1.9480741384499038,1.2707883737405377
-0.0072197336858258925,-1.9406776887447361,1.2670810227595
-0.007217943685825893,-1.9332812390395686,1.2670810227595
-0.007216153685825892,-1.929583014186983,1.2670810227595
-0.007214363685825892,-1.925884789334401,1.2670810227595
-0.0072125736858258925,-1.9184883396292334,1.2670810227595
-0.007210783685825893,-1.9147901147766497,1.2670810227595
-0.007208993685825892,-1.907393665071482,1.2707883737405377
-0.007207203685825892,-1.9036954402188981,1.2670810227595
-0.0072054136858258925,-1.8999972153663145,1.2670810227595
-0.007203623685825893,-1.8962989905137306,1.2670810227595
-0.007201833685825892,-1.8926007656611468,1.2670810227595
-0.007200043685825892,-1.8852043159559793,1.2670810227595
-0.0071982536858258925,-1.8778078662508115,1.2670810227595
-0.007196463685825893,-1.8741096413982279,1.2670810227595
-0.007194673685825892,-1.8741096413982279,1.2707883737405377
-0.007192883685825892,-1.8667131916930602,1.2633736717784623
-0.007191093685825893,-1.8630149668404765,1.2670810227595
-0.007189303685825893,-1.8556185171353088,1.2633736717784623
-0.007187513685825892,-1.8445238425775574,1.2670810227595
-0.007185723685825892,-1.8408256177249736,1.2707883737405377
-0.007183933685825893,-1.8297309431672222,1.2707883737405377
-0.007182143685825893,-1.8297309431672222,1.2744957247215754
-0.007180353685825892,-1.833429168019806,1.2670810227595
-0.007178563685825892,-1.8260327183146385,1.2633736717784623
-0.007176773685825893,-1.8260327183146385,1.2633736717784623
-0.007174983685825893,-1.814938043756887,1.2670810227595
-0.007173193685825892,-1.8112398189043033,1.2744957247215754
-0.007171403685825892,-1.8038433691991356,1.2744957247215754
-0.007169613685825893,-1.8038433691991356,1.2707883737405377
