200Hz/acq0038.csv

#Digilent WaveForms Oscilloscope Acquisition
#Device Name: Discovery2
#Serial Number: SN:210321AA28BE
#Date Time: 2023-05-24 14:48:05.028
#Sample rate: 558659Hz
#Samples: 8192
#Trigger: Source: Channel 1 Type: Edge Condition: Rising Level: 800 mV Hyst.: Auto HoldOff: 100 ns
#Channel 1: Range: 1 V/div Offset: 0 V Attenuation: 1 X Sample Mode: Average
#Channel 2: Range: 1 V/div Offset: 0 V Attenuation: 1 X Sample Mode: Average

Time (s),Channel 1 (V),Channel 2 (V)
-0.007741874379726741,0.048967281945347836,-1.320649962004811
-0.007740084379726741,0.048967281945347836,-1.320649962004811
-0.00773829437972674,0.04157083224018024,-1.3132352600427357
-0.0077365043797267405,0.045269057092764034,-1.3132352600427357
-0.007734714379726741,0.045269057092764034,-1.3169426110237734
-0.00773292437972674,0.04526905709276571,-1.3169426110237734
-0.00773113437972674,0.048967281945347836,-1.3169426110237734
-0.0077293443797267405,0.045269057092764034,-1.320649962004811
-0.007727554379726741,0.045269057092764034,-1.3169426110237734
-0.00772576437972674,0.048967281945347836,-1.3169426110237734
-0.00772397437972674,0.048967281945347836,-1.320649962004811
-0.0077221843797267405,0.045269057092764034,-1.320649962004811
-0.007720394379726741,0.048967281945347836,-1.3169426110237734
-0.00771860437972674,0.048967281945347836,-1.3169426110237734
-0.00771681437972674,0.045269057092764034,-1.3169426110237734
-0.0077150243797267405,0.04157083224018024,-1.320649962004811
-0.007713234379726741,0.04157083224018024,-1.320649962004811
-0.00771144437972674,0.045269057092764034,-1.3169426110237734
-0.00770965437972674,0.04157083224018024,-1.320649962004811
-0.0077078643797267405,0.04157083224018024,-1.3169426110237734
-0.007706074379726741,0.04157083224018024,-1.320649962004811
-0.00770428437972674,0.03787260738759644,-1.320649962004811
-0.00770249437972674,0.04157083224018024,-1.3169426110237734
-0.0077007043797267406,0.045269057092764034,-1.320649962004811
-0.007698914379726741,0.03787260738759644,-1.320649962004811
-0.00769712437972674,0.04157083224018024,-1.3169426110237734
-0.00769533437972674,0.04157083224018024,-1.320649962004811
-0.007693544379726741,0.03787260738759644,-1.3169426110237734
-0.007691754379726741,0.03787260738759644,-1.3169426110237734
-0.00768996437972674,0.034174382535012635,-1.3169426110237734
-0.00768817437972674,0.03787260738759644,-1.3169426110237734
-0.007686384379726741,0.03787260738759644,-1.3169426110237734
-0.007684594379726741,0.034174382535012635,-1.3132352600427357
-0.00768280437972674,0.03787260738759644,-1.3169426110237734
-0.00768101437972674,0.04157083224018024,-1.320649962004811
-0.007679224379726741,0.04157083224018024,-1.320649962004811
-0.007677434379726741,0.04157083224018024,-1.320649962004811
-0.00767564437972674,0.03787260738759644,-1.3169426110237734
-0.00767385437972674,0.04157083224018024,-1.320649962004811
-0.007672064379726741,0.03787260738759644,-1.3132352600427357
-0.007670274379726741,0.034174382535014314,-1.3169426110237716
-0.00766848437972674,0.034174382535012635,-1.3132352600427357
-0.0076666943797267404,0.03787260738759644,-1.320649962004811
-0.007664904379726741,0.034174382535012635,-1.320649962004811
-0.00766311437972674,0.04157083224017687,-1.320649962004811
-0.00766132437972674,0.034174382535012635,-1.320649962004811
-0.0076595343797267405,0.034174382535012635,-1.320649962004811
-0.007657744379726741,0.03047615768242884,-1.3132352600427357
-0.00765595437972674,0.034174382535012635,-1.3169426110237752
-0.00765416437972674,0.034174382535012635,-1.320649962004811
-0.0076523743797267405,0.03047615768242884,-1.3169426110237734
-0.007650584379726741,0.034174382535012635,-1.3169426110237734
-0.00764879437972674,0.026777932829845037,-1.320649962004811
-0.00764700437972674,0.03047615768242884,-1.3132352600427357
-0.0076452143797267405,0.026777932829845037,-1.3132352600427357
-0.007643424379726741,0.02307970797726124,-1.3169426110237734
-0.00764163437972674,0.026777932829845037,-1.320649962004811
-0.00763984437972674,0.034174382535012635,-1.320649962004811
-0.0076380543797267405,0.03047615768242884,-1.3169426110237734
-0.007636264379726741,0.03047615768242884,-1.3169426110237734
-0.00763447437972674,0.026777932829845037,-1.3169426110237734
-0.00763268437972674,0.026777932829845037,-1.3169426110237734
-0.0076308943797267405,0.03047615768242884,-1.3243573129858488
-0.007629104379726741,0.026777932829845037,-1.3169426110237734
-0.00762731437972674,0.026777932829845037,-1.3169426110237734
-0.00762552437972674,0.034174382535012635,-1.320649962004811
-0.007623734379726741,0.03047615768242884,-1.3169426110237734
-0.007621944379726741,0.026777932829845037,-1.320649962004811
-0.00762015437972674,0.02307970797726124,-1.320649962004811
-0.00761836437972674,0.026777932829845037,-1.3169426110237734
-0.007616574379726741,0.02307970797726124,-1.3132352600427357
-0.007614784379726741,0.026777932829845037,-1.3169426110237734
-0.00761299437972674,0.026777932829845037,-1.3169426110237734
-0.00761120437972674,0.026777932829845037,-1.3169426110237734
-0.007609414379726741,0.01938148312467744,-1.3132352600427357
-0.007607624379726741,0.026777932829845037,-1.3132352600427357
-0.00760583437972674,0.03047615768242884,-1.320649962004811
-0.00760404437972674,0.02307970797726124,-1.3169426110237734
-0.007602254379726741,0.026777932829845037,-1.320649962004811
-0.007600464379726741,0.01938148312467744,-1.320649962004811
-0.00759867437972674,0.01938148312467744,-1.3169426110237734
-0.00759688437972674,0.02307970797726124,-1.320649962004811
-0.007595094379726741,0.026777932829845037,-1.320649962004811
-0.007593304379726741,0.019381483124680805,-1.313235260042739
-0.00759151437972674,0.01938148312467744,-1.3169426110237734
-0.0075897243797267405,0.02307970797726124,-1.320649962004811
-0.007587934379726741,0.02307970797726124,-1.3169426110237734
-0.00758614437972674,0.023079707977259556,-1.313235260042739
-0.00758435437972674,0.01938148312467744,-1.320649962004811
-0.0075825643797267405,0.026777932829845037,-1.3169426110237734
-0.007580774379726741,0.01938148312467744,-1.320649962004811
-0.00757898437972674,0.01938148312467744,-1.320649962004811
-0.00757719437972674,0.01198503341950984,-1.3169426110237734
-0.0075754043797267405,0.02307970797726124,-1.3169426110237734
-0.007573614379726741,0.01938148312467744,-1.3169426110237734
-0.00757182437972674,0.02307970797726124,-1.3132352600427357
-0.00757003437972674,0.015683258272093638,-1.3169426110237734
-0.0075682443797267405,0.01938148312467744,-1.3132352600427357
-0.007566454379726741,0.01938148312467744,-1.320649962004811
-0.00756466437972674,0.01938148312467744,-1.3169426110237734
-0.00756287437972674,0.026777932829845037,-1.320649962004811
-0.0075610843797267405,0.02307970797726124,-1.320649962004811
-0.007559294379726741,0.026777932829845037,-1.3169426110237734
-0.00755750437972674,0.015683258272093638,-1.3169426110237734
-0.00755571437972674,0.02307970797726124,-1.3169426110237734
-0.0075539243797267406,0.02307970797726124,-1.3169426110237734
-0.007552134379726741,0.015683258272093638,-1.3169426110237734
-0.00755034437972674,0.01938148312467744,-1.3243573129858488
-0.00754855437972674,0.015683258272093638,-1.3169426110237734
-0.007546764379726741,0.01198503341950984,-1.3132352600427357
-0.007544974379726741,0.01198503341950984,-1.320649962004811
-0.00754318437972674,0.01938148312467744,-1.320649962004811
-0.00754139437972674,0.015683258272093638,-1.320649962004811
-0.007539604379726741,0.00828680856692604,-1.320649962004811
-0.007537814379726741,0.01198503341950984,-1.320649962004811
-0.00753602437972674,0.015683258272093638,-1.320649962004811
-0.00753423437972674,0.015683258272093638,-1.3169426110237734
-0.007532444379726741,0.015683258272093638,-1.3169426110237734
-0.007530654379726741,0.015683258272093638,-1.3169426110237734
-0.00752886437972674,0.01198503341950984,-1.3169426110237734
-0.00752707437972674,0.01198503341950984,-1.3169426110237734
-0.007525284379726741,0.01198503341950984,-1.320649962004811
-0.007523494379726741,0.01198503341950984,-1.320649962004811
-0.00752170437972674,0.01198503341950984,-1.320649962004811
-0.0075199143797267404,0.00828680856692604,-1.3169426110237734
-0.007518124379726741,0.00828680856692604,-1.320649962004811
-0.007516334379726741,0.00828680856692604,-1.320649962004811
-0.00751454437972674,0.00828680856692604,-1.3169426110237734
-0.0075127543797267405,0.01198503341950984,-1.3169426110237734
-0.007510964379726741,0.00828680856692604,-1.3169426110237734
-0.00750917437972674,0.00828680856692436,-1.3169426110237752
-0.00750738437972674,0.00458858371434224,-1.320649962004811
-0.0075055943797267405,0.00458858371434224,-1.320649962004811
-0.007503804379726741,0.00458858371434224,-1.320649962004811
-0.00750201437972674,0.0008903588617584406,-1.3132352600427357
-0.00750022437972674,-1.7298788721474596,0.2104859931637569
-0.0074984343797267405,-3.1721865646551417,1.3375206913992161
-0.007496644379726741,-3.1573936652448067,1.3226912874750654
-0.00749485437972674,-3.146298990687055,1.3226912874750654
-0.00749306437972674,-3.1389025409818876,1.3189839364940277
-0.0074912743797267405,-3.127807866424136,1.326398638456103
-0.007489484379726741,-3.124109641571552,1.3189839364940277
-0.00748769437972674,-3.1130149670138008,1.3226912874750654
-0.00748590437972674,-3.1056185173086335,1.3226912874750654
-0.0074841143797267405,-3.094523842750882,1.3226912874750654
-0.007482324379726741,-3.0834291681931303,1.3189839364940277
-0.00748053437972674,-3.076032718487963,1.3226912874750654
-0.00747874437972674,-3.0686362687827953,1.3189839364940277
-0.007476954379726741,-3.0464469196672925,1.3189839364940277
-0.007475164379726741,-3.039050469962125,1.3226912874750654
-0.00747337437972674,-3.02425757055179,1.3189839364940277
-0.00747158437972674,-3.0131628959940384,1.3189839364940277
-0.007469794379726741,-2.998369996583703,1.3115692345319523
-0.007468004379726741,-2.983577097173368,1.3115692345319523
-0.00746621437972674,-2.965085972910449,1.304154532569877
-0.00746442437972674,-2.9539912983526975,1.304154532569877
-0.007462634379726741,-2.9465948486475297,1.3004471815888392
-0.007460844379726741,-2.9355001740897784,1.3004471815888392
-0.00745905437972674,-2.924405499532027,1.2967398306078015
-0.00745726437972674,-2.909612600121692,1.2930324796267638
-0.007455474379726741,-2.9022161504165243,1.2967398306078015
-0.007453684379726741,-2.8874232510061892,1.2893251286457261
-0.00745189437972674,-2.876328576448438,1.2930324796267638
-0.00745010437972674,-2.86893212674327,1.2930324796267638
-0.007448314379726741,-2.8578374521855188,1.2930324796267638
-0.007446524379726741,-2.8467427776277723,1.2967398306077997
-0.00744473437972674,-2.831949878217432,1.2893251286457261
-0.0074429443797267405,-2.8245534285122647,1.2893251286457261
-0.007441154379726741,-2.8208552036596806,1.2893251286457261
-0.00743936437972674,-2.802364079396757,1.2893251286457261
-0.00743757437972674,-2.7912694048390105,1.2893251286457261
-0.0074357843797267405,-2.783872955133843,1.2819104266836507
-0.007433994379726741,-2.7727782805760914,1.2819104266836507
-0.00743220437972674,-2.76168360601834,1.278203075702613
-0.00743041437972674,-2.7468907066080046,1.278203075702613
-0.0074286243797267405,-2.7394942569028373,1.2819104266836507
-0.007426834379726741,-2.728399582345086,1.278203075702613
-0.00742504437972674,-2.721003132639918,1.278203075702613
-0.00742325437972674,-2.7136066829347505,1.2819104266836507
-0.0074214643797267405,-2.702512008376999,1.278203075702613
-0.007419674379726741,-2.6988137835244155,1.278203075702613
-0.00741788437972674,-2.687719108966664,1.278203075702613
-0.00741609437972674,-2.687719108966664,1.2819104266836507
-0.0074143043797267405,-2.6729262095563286,1.278203075702613
-0.007412514379726741,-2.6618315349985773,1.278203075702613
-0.00741072437972674,-2.650736860440826,1.2707883737405377
-0.00740893437972674,-2.643340410735658,1.2819104266836507
-0.0074071443797267406,-2.6396421858830745,1.2819104266836507
-0.007405354379726741,-2.628547511325323,1.278203075702613
-0.00740356437972674,-2.6211510616201554,1.278203075702613
-0.00740177437972674,-2.6063581622098204,1.2744957247215754
-0.007399984379726741,-2.6026599373572368,1.2744957247215754
-0.007398194379726741,-2.591565262799485,1.2744957247215754
-0.00739640437972674,-2.5804705882417336,1.2744957247215754
-0.00739461437972674,-2.569375913683982,1.2744957247215754
-0.007392824379726741,-2.5656776888313986,1.2744957247215754
-0.007391034379726741,-2.558281239126231,1.2707883737405377
-0.00738924437972674,-2.5508847894210636,1.2707883737405377
-0.00738745437972674,-2.5471865645684795,1.2744957247215754
-0.007385664379726741,-2.536091890010728,1.2744957247215754
-0.007383874379726741,-2.5249972154529767,1.2707883737405377
-0.00738208437972674,-2.521298990600393,1.2744957247215754
-0.00738029437972674,-2.517600765747809,1.2744957247215754
-0.007378504379726741,-2.5065060911900576,1.2744957247215754
-0.007376714379726741,-2.502807866337474,1.2744957247215754
-0.00737492437972674,-2.4917131917797226,1.2744957247215754
-0.0073731343797267404,-2.484316742074555,1.278203075702613
-0.007371344379726741,-2.4806185172219712,1.2707883737405377
-0.007369554379726741,-2.473222067516807,1.2707883737405377
-0.00736776437972674,-2.462127392959052,1.2744957247215754
-0.0073659743797267405,-2.4510327184013008,1.2670810227595
-0.007364184379726741,-2.447334493548717,1.2707883737405377
-0.00736239437972674,-2.4325415941383817,1.2707883737405359
-0.00736060437972674,-2.4325415941383817,1.2670810227595
-0.0073588143797267405,-2.4251451444332144,1.2744957247215754
-0.007357024379726741,-2.4140504698754626,1.2670810227595
-0.00735523437972674,-2.410352245022879,1.2707883737405377
-0.00735344437972674,-2.3992575704651276,1.2670810227595
-0.0073516543797267405,-2.395559345612544,1.2707883737405377
-0.007349864379726741,-2.39186112075996,1.2707883737405377
-0.00734807437972674,-2.39186112075996,1.2670810227595
-0.00734628437972674,-2.3844646710547925,1.2707883737405377
-0.0073444943797267405,-2.377068221349625,1.2744957247215754
-0.007342704379726741,-2.369671771644457,1.2707883737405377
-0.00734091437972674,-2.3659735467918734,1.2744957247215754
-0.00733912437972674,-2.36227532193929,1.2744957247215754
-0.0073373343797267405,-2.351180647381538,1.2744957247215754
-0.007335544379726741,-2.336387747971203,1.2744957247215754
-0.00733375437972674,-2.3326895231186193,1.2707883737405377
-0.00733196437972674,-2.3289912982660352,1.2670810227595
-0.007330174379726741,-2.3141983988557002,1.2670810227595
-0.007328384379726741,-2.3105001740031166,1.2670810227595
-0.00732659437972674,-2.303103724297949,1.2707883737405377
-0.00732480437972674,-2.299405499445365,1.2744957247215754
-0.007323014379726741,-2.299405499445365,1.2670810227595
-0.007321224379726741,-2.2883108248876134,1.2707883737405377
-0.00731943437972674,-2.277216150329862,1.2670810227595
-0.00731764437972674,-2.2735179254772784,1.2670810227595
-0.007315854379726741,-2.2661214757721106,1.2744957247215754
-0.007314064379726741,-2.262423250919527,1.2707883737405377
-0.00731227437972674,-2.2587250260669434,1.2707883737405377
-0.00731048437972674,-2.2550268012143593,1.2744957247215754
-0.007308694379726741,-2.2513285763617756,1.2744957247215754
-0.007306904379726741,-2.2402339018040243,1.2707883737405377
-0.00730511437972674,-2.229139227246273,1.2707883737405377
-0.00730332437972674,-2.225441002393689,1.2707883737405377
-0.007301534379726741,-2.2143463278359374,1.2744957247215754
-0.007299744379726741,-2.2143463278359374,1.2670810227595033
-0.00729795437972674,-2.20694987813077,1.2670810227595
-0.0072961643797267405,-2.1995534284256024,1.2670810227595
-0.007294374379726741,-2.1921569787204347,1.2707883737405377
-0.00729258437972674,-2.184760529015264,1.2670810227595017
-0.00729079437972674,-2.1773640793100997,1.2707883737405377
-0.0072890043797267405,-2.173665854457516,1.2707883737405377
-0.007287214379726741,-2.1662694047523483,1.2707883737405377
-0.00728542437972674,-2.1662694047523448,1.2744957247215736
-0.00728363437972674,-2.1588729550471806,1.2707883737405377
-0.0072818443797267405,-2.155174730194597,1.2707883737405377
-0.007280054379726741,-2.147778280489429,1.2744957247215754
-0.00727826437972674,-2.1440800556368456,1.2707883737405377
-0.00727647437972674,-2.1403818307842615,1.2707883737405377
-0.0072746843797267405,-2.136683605931678,1.2707883737405377
-0.007272894379726741,-2.132985381079094,1.2707883737405377
-0.00727110437972674,-2.1181924816687587,1.2670810227595
-0.00726931437972674,-2.114494256816175,1.2707883737405377
-0.0072675243797267405,-2.1033995822584237,1.2670810227595
-0.007265734379726741,-2.0997013574058396,1.2670810227595
-0.00726394437972674,-2.0923049077006723,1.2670810227595
-0.00726215437972674,-2.0886066828480883,1.2707883737405377
-0.0072603643797267406,-2.0849084579955046,1.2670810227595
-0.007258574379726741,-2.0738137834377532,1.2744957247215754
-0.00725678437972674,-2.0738137834377532,1.2670810227595
-0.00725499437972674,-2.0701155585851696,1.2670810227595
-0.007253204379726741,-2.062719108880002,1.2633736717784623
-0.007251414379726741,-2.0590208840274182,1.2670810227595
-0.00724962437972674,-2.055322659174834,1.2707883737405377
-0.00724783437972674,-2.0442279846170828,1.2670810227595
-0.007246044379726741,-2.040529759764499,1.2707883737405377
-0.007244254379726741,-2.0294350852067478,1.2670810227595
-0.00724246437972674,-2.0331333100593314,1.2707883737405377
-0.00724067437972674,-2.0294350852067478,1.2707883737405377
-0.007238884379726741,-2.02203863550158,1.2670810227595
-0.007237094379726741,-2.0146421857964123,1.2744957247215754
-0.00723530437972674,-2.007245736091245,1.2744957247215754
-0.00723351437972674,-2.003547511238661,1.2707883737405377
-0.007231724379726741,-1.9961510615334932,1.2670810227595
-0.007229934379726741,-1.9887546118283257,1.2670810227595
-0.00722814437972674,-1.981358162123158,1.2670810227595
-0.0072263543797267404,-1.9776599372705743,1.2633736717784623
-0.007224564379726741,-1.981358162123158,1.2670810227595
-0.007222774379726741,-1.9739617124179938,1.274495724721572
-0.00722098437972674,-1.9591688130076552,1.2670810227595
-0.0072191943797267405,-1.9591688130076552,1.2707883737405377
-0.007217404379726741,-1.9480741384499038,1.2707883737405377
-0.00721561437972674,-1.948074138449902,1.2670810227595
-0.00721382437972674,-1.94437591359732,1.2670810227595
-0.0072120343797267405,-1.9369794638921525,1.2670810227595
-0.007210244379726741,-1.9369794638921525,1.2744957247215754
-0.00720845437972674,-1.9369794638921525,1.2707883737405377
-0.00720666437972674,-1.9221865644818172,1.2744957247215754
-0.0072048743797267405,-1.9221865644818172,1.2744957247215754
-0.007203084379726741,-1.9221865644818172,1.2707883737405377
-0.00720129437972674,-1.907393665071482,1.2707883737405377
-0.00719950437972674,-1.8962989905137306,1.2707883737405377
-0.0071977143797267405,-1.8926007656611468,1.2707883737405377
-0.007195924379726741,-1.8852043159559793,1.2670810227595
-0.00719413437972674,-1.8815060911033954,1.2670810227595
-0.00719234437972674,-1.8778078662508115,1.2670810227595
-0.0071905543797267405,-1.8741096413982279,1.2707883737405377
-0.007188764379726741,-1.8741096413982279,1.2670810227595
-0.00718697437972674,-1.8667131916930602,1.2633736717784623
-0.00718518437972674,-1.8630149668404765,1.2707883737405377
-0.007183394379726741,-1.8556185171353088,1.2670810227595
-0.007181604379726741,-1.8519202922827251,1.2670810227595
-0.00717981437972674,-1.8445238425775574,1.2670810227595
-0.00717802437972674,-1.8445238425775574,1.2707883737405377
-0.007176234379726741,-1.83712739287239,1.2707883737405377
-0.007174444379726741,-1.83712739287239,1.2707883737405377
-0.00717265437972674,-1.833429168019806,1.2707883737405377
-0.00717086437972674,-1.8186362686094708,1.2670810227595
-0.007169074379726741,-1.8112398189043033,1.2670810227595
-0.007167284379726741,-1.8075415940517194,1.2707883737405377
-0.00716549437972674,-1.8038433691991356,1.2707883737405377
