200Hz/acq0097.csv

#Digilent WaveForms Oscilloscope Acquisition
#Device Name: Discovery2
#Serial Number: SN:210321AA28BE
#Date Time: 2023-05-24 14:48:06.675
#Sample rate: 558659Hz
#Samples: 8192
#Trigger: Source: Channel 1 Type: Edge Condition: Rising Level: 800 mV Hyst.: Auto HoldOff: 100 ns
#Channel 1: Range: 1 V/div Offset: 0 V Attenuation: 1 X Sample Mode: Average
#Channel 2: Range: 1 V/div Offset: 0 V Attenuation: 1 X Sample Mode: Average

Time (s),Channel 1 (V),Channel 2 (V)
-0.007741040621435903,0.06745840620826683,-1.320649962004811
-0.007739250621435903,0.07115663106084895,-1.324357312985847
-0.0077374606214359026,0.07115663106085063,-1.320649962004811
-0.007735670621435903,0.06376018135568304,-1.3169426110237734
-0.007733880621435903,0.06745840620826683,-1.320649962004811
-0.007732090621435902,0.06745840620826515,-1.3206499620048078
-0.007730300621435903,0.06376018135568304,-1.3132352600427357
-0.007728510621435903,0.06745840620826683,-1.3169426110237734
-0.007726720621435903,0.06006195650309923,-1.3169426110237734
-0.007724930621435902,0.06745840620826683,-1.320649962004811
-0.007723140621435903,0.06745840620826683,-1.320649962004811
-0.007721350621435903,0.06376018135568304,-1.320649962004811
-0.007719560621435903,0.06376018135568304,-1.3243573129858488
-0.007717770621435902,0.06745840620826683,-1.320649962004811
-0.007715980621435903,0.06376018135568304,-1.3243573129858488
-0.007714190621435903,0.06006195650309923,-1.3132352600427357
-0.007712400621435903,0.06006195650309923,-1.320649962004811
-0.007710610621435902,0.06376018135568304,-1.3169426110237734
-0.007708820621435903,0.06376018135568304,-1.320649962004811
-0.007707030621435903,0.05636373165051543,-1.3169426110237734
-0.007705240621435903,0.06376018135568304,-1.3169426110237734
-0.0077034506214359024,0.05636373165051543,-1.320649962004811
-0.007701660621435903,0.06006195650309923,-1.320649962004811
-0.007699870621435903,0.06006195650309923,-1.3169426110237734
-0.007698080621435903,0.06006195650309923,-1.320649962004811
-0.0076962906214359025,0.06006195650309923,-1.3169426110237734
-0.007694500621435903,0.05636373165051543,-1.320649962004811
-0.007692710621435903,0.06376018135568304,-1.3169426110237734
-0.007690920621435903,0.06376018135568304,-1.3169426110237734
-0.0076891306214359025,0.05636373165051543,-1.3169426110237734
-0.007687340621435903,0.05636373165051543,-1.3169426110237734
-0.007685550621435903,0.05636373165051543,-1.3169426110237734
-0.007683760621435903,0.05266550679793163,-1.3243573129858488
-0.0076819706214359025,0.05636373165051543,-1.320649962004811
-0.007680180621435903,0.05636373165051543,-1.320649962004811
-0.007678390621435903,0.05266550679793163,-1.320649962004811
-0.007676600621435903,0.05636373165051543,-1.320649962004811
-0.0076748106214359025,0.05636373165051543,-1.3169426110237734
-0.007673020621435903,0.05636373165051543,-1.320649962004811
-0.007671230621435903,0.05636373165051543,-1.320649962004811
-0.007669440621435903,0.05636373165051543,-1.3169426110237752
-0.0076676506214359025,0.05636373165051543,-1.3169426110237734
-0.007665860621435903,0.05266550679793163,-1.3169426110237734
-0.007664070621435903,0.05636373165051543,-1.3169426110237734
-0.007662280621435902,0.05266550679793163,-1.3169426110237752
-0.007660490621435903,0.05266550679793163,-1.320649962004811
-0.007658700621435903,0.05266550679793163,-1.3169426110237734
-0.007656910621435903,0.05266550679793163,-1.3243573129858488
-0.007655120621435902,0.052665506797928266,-1.3169426110237767
-0.007653330621435903,0.045269057092764034,-1.3243573129858488
-0.007651540621435903,0.05266550679793163,-1.320649962004811
-0.007649750621435903,0.05266550679793163,-1.3132352600427357
-0.007647960621435902,0.048967281945347836,-1.3169426110237734
-0.007646170621435903,0.05266550679793163,-1.3169426110237734
-0.007644380621435903,0.05266550679793163,-1.3243573129858488
-0.007642590621435903,0.048967281945347836,-1.320649962004811
-0.007640800621435902,0.05266550679793163,-1.3169426110237734
-0.007639010621435903,0.05266550679793163,-1.3169426110237734
-0.007637220621435903,0.045269057092764034,-1.320649962004811
-0.007635430621435903,0.05266550679793163,-1.320649962004811
-0.007633640621435902,0.05266550679793163,-1.320649962004811
-0.007631850621435903,0.048967281945347836,-1.3169426110237734
-0.007630060621435903,0.045269057092764034,-1.3169426110237734
-0.007628270621435903,0.048967281945347836,-1.320649962004811
-0.0076264806214359025,0.045269057092764034,-1.3169426110237734
-0.007624690621435903,0.045269057092764034,-1.3132352600427357
-0.007622900621435903,0.045269057092764034,-1.3169426110237734
-0.007621110621435903,0.045269057092764034,-1.3243573129858488
-0.0076193206214359025,0.048967281945347836,-1.3169426110237734
-0.007617530621435903,0.04157083224018024,-1.3169426110237734
-0.007615740621435903,0.04157083224018024,-1.320649962004811
-0.007613950621435903,0.04157083224018024,-1.320649962004811
-0.0076121606214359025,0.04157083224018024,-1.320649962004811
-0.007610370621435903,0.04157083224018024,-1.3169426110237734
-0.007608580621435903,0.04157083224018024,-1.3169426110237734
-0.007606790621435903,0.04157083224018024,-1.3169426110237734
-0.0076050006214359025,0.045269057092764034,-1.320649962004811
-0.007603210621435903,0.045269057092764034,-1.3243573129858488
-0.007601420621435903,0.045269057092764034,-1.3280646639668865
-0.007599630621435903,0.04157083224018024,-1.320649962004811
-0.0075978406214359025,0.04157083224018024,-1.320649962004811
-0.007596050621435903,0.03787260738759644,-1.3169426110237734
-0.007594260621435903,0.045269057092764034,-1.3132352600427357
-0.007592470621435903,0.0378726073875998,-1.3169426110237716
-0.0075906806214359026,0.03787260738759644,-1.3169426110237734
-0.007588890621435903,0.04157083224018024,-1.3169426110237734
-0.007587100621435903,0.04157083224018024,-1.3132352600427357
-0.007585310621435902,0.04157083224018192,-1.3206499620048093
-0.007583520621435903,0.045269057092764034,-1.3169426110237734
-0.007581730621435903,0.045269057092764034,-1.320649962004811
-0.007579940621435903,0.03787260738759644,-1.320649962004811
-0.007578150621435902,0.034174382535012635,-1.3169426110237734
-0.007576360621435903,0.03787260738759644,-1.3169426110237734
-0.007574570621435903,0.03787260738759644,-1.3169426110237734
-0.007572780621435903,0.03787260738759644,-1.3169426110237734
-0.007570990621435902,0.03787260738759644,-1.320649962004811
-0.007569200621435903,0.04157083224018024,-1.320649962004811
-0.007567410621435903,0.034174382535012635,-1.320649962004811
-0.007565620621435903,0.04157083224018024,-1.3169426110237734
-0.007563830621435902,0.034174382535012635,-1.320649962004811
-0.007562040621435903,0.03787260738759644,-1.3169426110237734
-0.007560250621435903,0.034174382535012635,-1.320649962004811
-0.007558460621435903,0.03787260738759644,-1.3169426110237734
-0.0075566706214359024,0.04157083224018024,-1.320649962004811
-0.007554880621435903,0.034174382535012635,-1.3169426110237734
-0.007553090621435903,0.034174382535012635,-1.3132352600427357
-0.007551300621435903,0.03787260738759644,-1.3169426110237734
-0.0075495106214359025,0.03047615768242884,-1.320649962004811
-0.007547720621435903,0.034174382535012635,-1.3132352600427357
-0.007545930621435903,0.03787260738759644,-1.320649962004811
-0.007544140621435903,0.034174382535012635,-1.3169426110237734
-0.0075423506214359025,0.03787260738759644,-1.320649962004811
-0.007540560621435903,0.03787260738759644,-1.320649962004811
-0.007538770621435903,0.03787260738759644,-1.320649962004811
-0.007536980621435903,0.034174382535012635,-1.3169426110237734
-0.0075351906214359025,0.034174382535012635,-1.320649962004811
-0.007533400621435903,0.034174382535012635,-1.3243573129858488
-0.007531610621435903,0.034174382535012635,-1.320649962004811
-0.007529820621435903,0.034174382535012635,-1.320649962004811
-0.0075280306214359025,0.03047615768242884,-1.320649962004811
-0.007526240621435903,0.034174382535012635,-1.3169426110237734
-0.007524450621435903,0.03047615768242884,-1.3169426110237734
-0.007522660621435903,0.03047615768242884,-1.3169426110237734
-0.0075208706214359025,0.03047615768242884,-1.3132352600427357
-0.007519080621435903,0.026777932829845037,-1.3169426110237734
-0.007517290621435903,0.03047615768242884,-1.320649962004811
-0.007515500621435903,0.034174382535010955,-1.3169426110237752
-0.007513710621435903,0.03047615768242884,-1.320649962004811
-0.007511920621435903,0.026777932829845037,-1.3169426110237734
-0.007510130621435903,0.026777932829845037,-1.3132352600427357
-0.007508340621435902,0.02677793282984672,-1.3169426110237734
-0.007506550621435903,0.03047615768242884,-1.3169426110237734
-0.007504760621435903,0.03047615768242884,-1.3169426110237734
-0.007502970621435903,0.03047615768242884,-1.3169426110237734
-0.007501180621435902,-0.8349084578221803,-0.519862150100669
-0.007499390621435903,-3.168488339802558,1.3338133404181785
-0.007497600621435903,-3.1536954403922226,1.3301059894371408
-0.007495810621435903,-3.1389025409818876,1.326398638456103
-0.007494020621435902,-3.13150609127672,1.326398638456103
-0.007492230621435903,-3.124109641571552,1.3226912874750654
-0.007490440621435903,-3.109316742161217,1.3226912874750654
-0.007488650621435903,-3.1019202924560494,1.326398638456103
-0.007486860621435902,-3.090825617898298,1.3226912874750654
-0.007485070621435903,-3.0797309433405466,1.3189839364940277
-0.007483280621435903,-3.0649380439302116,1.326398638456103
-0.007481490621435903,-3.0538433693724603,1.3226912874750654
-0.0074797006214359025,-3.042748694814709,1.3189839364940277
-0.007477910621435903,-3.0279557954043734,1.31527658551299
-0.007476120621435903,-3.0131628959940384,1.31527658551299
-0.007474330621435903,-2.998369996583703,1.3115692345319523
-0.0074725406214359025,-2.983577097173368,1.3115692345319523
-0.007470750621435903,-2.9761806474682,1.3115692345319523
-0.007468960621435903,-2.965085972910449,1.3078618835509146
-0.007467170621435903,-2.9465948486475297,1.3078618835509146
-0.0074653806214359025,-2.9355001740897784,1.3115692345319523
-0.007463590621435903,-2.924405499532027,1.304154532569877
-0.007461800621435903,-2.9170090498268597,1.3004471815888392
-0.007460010621435903,-2.9059143752691083,1.3004471815888392
-0.0074582206214359025,-2.8948197007113565,1.2967398306078015
-0.007456430621435903,-2.883725026153605,1.2967398306078015
-0.007454640621435903,-2.872630351595854,1.2967398306078015
-0.007452850621435903,-2.8615356770381024,1.2930324796267638
-0.0074510606214359025,-2.850441002480351,1.2967398306078015
-0.007449270621435903,-2.8430445527751838,1.2967398306078015
-0.007447480621435903,-2.8282516533648483,1.2930324796267638
-0.007445690621435903,-2.81345875395452,1.2930324796267638
-0.0074439006214359026,-2.8060623042493456,1.2893251286457261
-0.007442110621435903,-2.7912694048390105,1.2893251286457261
-0.007440320621435903,-2.7801747302812587,1.2856177776646884
-0.007438530621435902,-2.7690800557235025,1.281910426683649
-0.007436740621435903,-2.757985381165756,1.278203075702613
-0.007434950621435903,-2.7542871563131723,1.278203075702613
-0.007433160621435903,-2.7357960320502532,1.2819104266836507
-0.007431370621435902,-2.728399582345086,1.278203075702613
-0.007429580621435903,-2.721003132639918,1.278203075702613
-0.007427790621435903,-2.7136066829347505,1.2819104266836507
-0.007426000621435903,-2.702512008376999,1.278203075702613
-0.007424210621435902,-2.6951155586718314,1.278203075702613
-0.007422420621435903,-2.68402088411408,1.2819104266836507
-0.007420630621435903,-2.6729262095563286,1.2819104266836507
-0.007418840621435903,-2.6618315349985773,1.278203075702613
-0.007417050621435902,-2.6581333101459936,1.278203075702613
-0.007415260621435903,-2.650736860440826,1.2744957247215754
-0.007413470621435903,-2.6396421858830745,1.2744957247215754
-0.007411680621435903,-2.632245736177907,1.278203075702613
-0.0074098906214359024,-2.6211510616201554,1.2744957247215754
-0.007408100621435903,-2.613754611914988,1.2744957247215754
-0.007406310621435903,-2.6026599373572368,1.2744957247215754
-0.007404520621435903,-2.595263487652069,1.2707883737405377
-0.0074027306214359025,-2.5841688130943177,1.2744957247215754
-0.007400940621435903,-2.5730741385365663,1.2744957247215754
-0.007399150621435903,-2.57677236338915,1.2707883737405377
-0.007397360621435903,-2.561979463978815,1.2707883737405377
-0.0073955706214359025,-2.554583014273647,1.278203075702613
-0.007393780621435903,-2.5471865645684795,1.2744957247215754
-0.007391990621435903,-2.536091890010728,1.2707883737405377
-0.007390200621435903,-2.536091890010728,1.2744957247215754
-0.0073884106214359025,-2.5286954403055604,1.2744957247215754
-0.007386620621435903,-2.521298990600393,1.2707883737405377
-0.007384830621435903,-2.5139025408952254,1.2744957247215754
-0.007383040621435903,-2.5102043160426417,1.2819104266836507
-0.0073812506214359025,-2.4991096414848903,1.2819104266836507
-0.007379460621435903,-2.488014966927139,1.2744957247215754
-0.007377670621435903,-2.4769202923693876,1.2670810227595
-0.007375880621435903,-2.4732220675168035,1.2744957247215754
-0.0073740906214359025,-2.465825617811636,1.2670810227595
-0.007372300621435903,-2.4510327184013008,1.2633736717784623
-0.007370510621435903,-2.447334493548717,1.2670810227595
-0.007368720621435903,-2.439938043843553,1.2707883737405359
-0.007366930621435903,-2.4399380438435494,1.2670810227595
-0.007365140621435903,-2.428843369285798,1.2670810227595
-0.007363350621435903,-2.4177486947280467,1.2670810227595
-0.007361560621435902,-2.414050469875461,1.2707883737405359
-0.007359770621435903,-2.410352245022879,1.2670810227595
-0.007357980621435903,-2.3992575704651276,1.2707883737405377
-0.007356190621435903,-2.395559345612544,1.2707883737405377
-0.007354400621435902,-2.3844646710547925,1.2670810227595
-0.007352610621435903,-2.377068221349625,1.2670810227595
-0.007350820621435903,-2.373369996497041,1.2707883737405377
-0.007349030621435903,-2.369671771644457,1.2707883737405377
-0.007347240621435902,-2.3585770970867057,1.2707883737405377
-0.007345450621435903,-2.354878872234122,1.2744957247215754
-0.007343660621435903,-2.3437841976763707,1.2670810227595
-0.007341870621435903,-2.3400859728237866,1.2707883737405377
-0.007340080621435902,-2.3252930734134516,1.2670810227595
-0.007338290621435903,-2.321594848560868,1.2633736717784623
-0.007336500621435903,-2.3105001740031166,1.2670810227595
-0.007334710621435903,-2.3068019491505325,1.2670810227595
-0.0073329206214359025,-2.303103724297949,1.2670810227595
-0.007331130621435903,-2.2920090497401975,1.2707883737405377
-0.007329340621435903,-2.2846126000350298,1.2707883737405377
-0.007327550621435903,-2.2846126000350298,1.2744957247215754
-0.0073257606214359025,-2.277216150329862,1.2744957247215754
-0.007323970621435903,-2.2698197006246947,1.2670810227595
-0.007322180621435903,-2.262423250919527,1.2670810227595
-0.007320390621435903,-2.262423250919527,1.2744957247215754
-0.0073186006214359025,-2.2550268012143593,1.2707883737405377
-0.007316810621435903,-2.2513285763617756,1.2707883737405377
-0.007315020621435903,-2.247630351509192,1.2744957247215754
-0.007313230621435903,-2.2365356769514406,1.278203075702613
-0.0073114406214359025,-2.2328374520988565,1.2707883737405377
-0.007309650621435903,-2.221742777541105,1.2707883737405377
-0.007307860621435903,-2.210648102983354,1.2707883737405377
-0.007306070621435903,-2.203251653278186,1.2670810227595
-0.0073042806214359025,-2.1921569787204347,1.2670810227595
-0.007302490621435903,-2.1847605290152674,1.2707883737405377
-0.007300700621435903,-2.1810623041626833,1.2633736717784623
-0.007298910621435903,-2.1736658544575196,1.2670810227594982
-0.0072971206214359026,-2.169967629604932,1.2707883737405377
-0.007295330621435903,-2.1662694047523483,1.2707883737405377
-0.007293540621435903,-2.162571179899764,1.2707883737405377
-0.007291750621435902,-2.158872955047179,1.2707883737405343
-0.007289960621435903,-2.155174730194597,1.2633736717784623
-0.007288170621435903,-2.151476505342013,1.2670810227595
-0.007286380621435903,-2.1403818307842615,1.2707883737405377
-0.007284590621435902,-2.1366836059316743,1.2744957247215754
-0.007282800621435903,-2.12928715622651,1.2744957247215754
-0.007281010621435903,-2.1255889313739265,1.2707883737405377
-0.007279220621435903,-2.121890706521343,1.2707883737405377
-0.007277430621435902,-2.1107960319635914,1.2670810227595
-0.007275640621435903,-2.1070978071110074,1.2707883737405377
-0.007273850621435903,-2.0997013574058396,1.2670810227595
-0.007272060621435903,-2.0886066828480883,1.2670810227595
-0.007270270621435902,-2.0849084579955046,1.2707883737405377
-0.007268480621435903,-2.081210233142921,1.2707883737405377
-0.007266690621435903,-2.0738137834377532,1.2707883737405377
-0.007264900621435903,-2.0701155585851696,1.2633736717784623
-0.0072631106214359024,-2.062719108880002,1.2670810227595
-0.007261320621435903,-2.0590208840274182,1.2670810227595
-0.007259530621435903,-2.055322659174834,1.2707883737405377
-0.007257740621435903,-2.0479262094696664,1.2744957247215754
-0.0072559506214359025,-2.040529759764499,1.278203075702613
-0.007254160621435903,-2.040529759764499,1.2819104266836507
-0.007252370621435903,-2.040529759764499,1.2744957247215754
-0.007250580621435903,-2.0294350852067478,1.2744957247215754
-0.0072487906214359025,-2.0257368603541637,1.2670810227595
-0.007247000621435903,-2.0146421857964123,1.2670810227595
-0.007245210621435903,-2.0109439609438287,1.2744957247215754
-0.007243420621435903,-2.003547511238661,1.2744957247215754
-0.0072416306214359025,-1.999849286386077,1.2670810227595
-0.007239840621435903,-1.9924528366809093,1.2633736717784623
-0.007238050621435903,-1.9850563869757418,1.2670810227595
-0.007236260621435903,-1.981358162123158,1.2707883737405377
-0.0072344706214359025,-1.9739617124179905,1.2707883737405377
-0.007232680621435903,-1.9739617124179905,1.2670810227595
-0.007230890621435903,-1.9665652627128227,1.2707883737405377
-0.007229100621435903,-1.9554705881550714,1.2670810227595
-0.0072273106214359025,-1.9554705881550714,1.2707883737405377
-0.007225520621435903,-1.9554705881550714,1.2670810227595
-0.007223730621435903,-1.94437591359732,1.2707883737405377
-0.007221940621435903,-1.940677688744738,1.2670810227595017
-0.007220150621435903,-1.9295830141869847,1.2707883737405377
-0.007218360621435903,-1.9295830141869847,1.2707883737405377
-0.007216570621435903,-1.9295830141869847,1.2744957247215754
-0.007214780621435902,-1.925884789334396,1.2707883737405359
-0.007212990621435903,-1.9147901147766497,1.2670810227595
-0.007211200621435903,-1.907393665071482,1.2707883737405377
-0.007209410621435903,-1.8999972153663145,1.2670810227595
-0.007207620621435902,-1.8926007656611468,1.2633736717784623
-0.007205830621435903,-1.8852043159559793,1.2633736717784623
-0.007204040621435903,-1.8889025408085631,1.2670810227595
-0.007202250621435903,-1.8778078662508115,1.2670810227595
-0.007200460621435902,-1.8741096413982279,1.2707883737405377
-0.007198670621435903,-1.8741096413982279,1.2707883737405377
-0.007196880621435903,-1.8667131916930602,1.2670810227595
-0.007195090621435903,-1.8630149668404765,1.2707883737405377
-0.007193300621435902,-1.8593167419878927,1.2670810227595
-0.007191510621435903,-1.8519202922827251,1.2707883737405377
-0.007189720621435903,-1.8519202922827251,1.2707883737405377
-0.007187930621435903,-1.8482220674301413,1.2670810227595
-0.0071861406214359025,-1.8408256177249736,1.2744957247215754
-0.007184350621435903,-1.8408256177249736,1.2707883737405377
-0.007182560621435903,-1.8297309431672222,1.2707883737405377
-0.007180770621435903,-1.8260327183146385,1.2707883737405377
-0.0071789806214359025,-1.814938043756887,1.2633736717784623
-0.007177190621435903,-1.8112398189043033,1.2670810227595
-0.007175400621435903,-1.8075415940517194,1.2670810227595
-0.007173610621435903,-1.800145144346552,1.2707883737405377
-0.0071718206214359025,-1.796446919493968,1.2707883737405377
-0.007170030621435903,-1.7890504697888003,1.2670810227595
-0.007168240621435903,-1.7890504697888003,1.2670810227595
