200Hz/acq0049.csv

#Digilent WaveForms Oscilloscope Acquisition
#Device Name: Discovery2
#Serial Number: SN:210321AA28BE
#Date Time: 2023-05-24 14:48:05.342
#Sample rate: 558659Hz
#Samples: 8192
#Trigger: Source: Channel 1 Type: Edge Condition: Rising Level: 800 mV Hyst.: Auto HoldOff: 100 ns
#Channel 1: Range: 1 V/div Offset: 0 V Attenuation: 1 X Sample Mode: Average
#Channel 2: Range: 1 V/div Offset: 0 V Attenuation: 1 X Sample Mode: Average

Time (s),Channel 1 (V),Channel 2 (V)
-0.0077419580380667895,0.06376018135568304,-1.320649962004811
-0.00774016803806679,0.06745840620826515,-1.320649962004811
-0.007738378038066789,0.06376018135568304,-1.320649962004811
-0.007736588038066789,0.06745840620826683,-1.320649962004811
-0.0077347980380667895,0.07115663106085063,-1.3169426110237734
-0.007733008038066789,0.07115663106084895,-1.3169426110237752
-0.007731218038066789,0.06745840620826683,-1.320649962004811
-0.007729428038066789,0.06376018135568304,-1.3169426110237734
-0.0077276380380667895,0.06745840620826683,-1.3169426110237734
-0.007725848038066789,0.06376018135568304,-1.3132352600427357
-0.007724058038066789,0.06376018135568304,-1.320649962004811
-0.007722268038066789,0.06745840620826683,-1.3169426110237734
-0.0077204780380667895,0.06376018135568304,-1.320649962004811
-0.007718688038066789,0.06376018135568304,-1.320649962004811
-0.007716898038066789,0.06006195650309923,-1.3132352600427357
-0.007715108038066789,0.06745840620826683,-1.320649962004811
-0.0077133180380667896,0.06006195650309923,-1.320649962004811
-0.007711528038066789,0.06006195650309923,-1.3169426110237734
-0.007709738038066789,0.06376018135568304,-1.3169426110237734
-0.007707948038066789,0.06745840620826683,-1.3169426110237734
-0.00770615803806679,0.06006195650309923,-1.3169426110237734
-0.007704368038066789,0.06006195650309923,-1.3169426110237734
-0.007702578038066789,0.06006195650309923,-1.320649962004811
-0.007700788038066789,0.06376018135568304,-1.3243573129858488
-0.00769899803806679,0.05636373165051543,-1.320649962004811
-0.007697208038066789,0.06006195650309923,-1.3169426110237734
-0.007695418038066789,0.05636373165051543,-1.3243573129858488
-0.007693628038066789,0.06006195650309923,-1.320649962004811
-0.00769183803806679,0.05636373165051543,-1.320649962004811
-0.007690048038066789,0.05636373165051543,-1.3169426110237734
-0.007688258038066789,0.05636373165051543,-1.3132352600427357
-0.007686468038066789,0.05636373165051543,-1.3132352600427357
-0.00768467803806679,0.05636373165051543,-1.320649962004811
-0.007682888038066789,0.05636373165051543,-1.3169426110237734
-0.007681098038066789,0.06006195650309923,-1.3169426110237734
-0.0076793080380667894,0.05636373165051543,-1.3169426110237734
-0.00767751803806679,0.06006195650309923,-1.320649962004811
-0.007675728038066789,0.05266550679793163,-1.320649962004811
-0.007673938038066789,0.05266550679793163,-1.3169426110237734
-0.0076721480380667895,0.05266550679793163,-1.320649962004811
-0.00767035803806679,0.048967281945349515,-1.3169426110237752
-0.007668568038066789,0.05266550679793163,-1.3243573129858488
-0.007666778038066789,0.05636373165051543,-1.320649962004811
-0.0076649880380667895,0.06006195650309923,-1.3169426110237734
-0.007663198038066789,0.05266550679793163,-1.3169426110237752
-0.007661408038066789,0.05266550679793163,-1.320649962004811
-0.007659618038066789,0.05636373165051543,-1.320649962004811
-0.0076578280380667895,0.05266550679793163,-1.3169426110237734
-0.007656038038066789,0.05266550679793163,-1.3206499620048093
-0.007654248038066789,0.05266550679793163,-1.3169426110237734
-0.007652458038066789,0.05266550679793163,-1.3132352600427357
-0.0076506680380667895,0.048967281945347836,-1.3169426110237734
-0.007648878038066789,0.048967281945347836,-1.3169426110237734
-0.007647088038066789,0.05266550679793163,-1.3169426110237734
-0.007645298038066789,0.045269057092764034,-1.3169426110237734
-0.0076435080380667896,0.048967281945347836,-1.3169426110237734
-0.007641718038066789,0.048967281945347836,-1.3169426110237734
-0.007639928038066789,0.045269057092764034,-1.320649962004811
-0.007638138038066789,0.048967281945347836,-1.3169426110237734
-0.00763634803806679,0.048967281945347836,-1.320649962004811
-0.007634558038066789,0.048967281945347836,-1.3169426110237734
-0.007632768038066789,0.048967281945347836,-1.320649962004811
-0.007630978038066789,0.048967281945347836,-1.320649962004811
-0.00762918803806679,0.04157083224018024,-1.3169426110237734
-0.007627398038066789,0.045269057092764034,-1.3243573129858488
-0.007625608038066789,0.048967281945347836,-1.320649962004811
-0.007623818038066789,0.048967281945347836,-1.3169426110237734
-0.00762202803806679,0.045269057092764034,-1.3132352600427357
-0.007620238038066789,0.048967281945347836,-1.320649962004811
-0.007618448038066789,0.04157083224018024,-1.3169426110237734
-0.007616658038066789,0.048967281945347836,-1.3243573129858488
-0.00761486803806679,0.045269057092764034,-1.320649962004811
-0.007613078038066789,0.04157083224018024,-1.3169426110237734
-0.007611288038066789,0.04157083224018024,-1.320649962004811
-0.0076094980380667894,0.04157083224018024,-1.320649962004811
-0.00760770803806679,0.045269057092764034,-1.3169426110237734
-0.007605918038066789,0.04157083224018024,-1.3169426110237734
-0.007604128038066789,0.03787260738759644,-1.3169426110237734
-0.0076023380380667895,0.048967281945347836,-1.3169426110237734
-0.00760054803806679,0.045269057092764034,-1.320649962004811
-0.007598758038066789,0.045269057092764034,-1.320649962004811
-0.007596968038066789,0.04157083224018024,-1.3243573129858488
-0.0075951780380667895,0.04157083224018024,-1.3243573129858488
-0.00759338803806679,0.034174382535016,-1.3206499620048129
-0.007591598038066789,0.04157083224018024,-1.3243573129858488
-0.007589808038066789,0.04157083224018024,-1.320649962004811
-0.0075880180380667895,0.045269057092764034,-1.320649962004811
-0.007586228038066789,0.04157083224017856,-1.3132352600427375
-0.007584438038066789,0.03787260738759644,-1.3169426110237734
-0.007582648038066789,0.03787260738759644,-1.3169426110237734
-0.0075808580380667895,0.04157083224018024,-1.3132352600427357
-0.007579068038066789,0.04157083224018024,-1.3169426110237734
-0.007577278038066789,0.04157083224018024,-1.320649962004811
-0.007575488038066789,0.034174382535012635,-1.320649962004811
-0.0075736980380667895,0.03787260738759644,-1.320649962004811
-0.007571908038066789,0.03787260738759644,-1.320649962004811
-0.007570118038066789,0.03047615768242884,-1.320649962004811
-0.007568328038066789,0.03787260738759644,-1.3169426110237734
-0.0075665380380667896,0.03787260738759644,-1.3169426110237734
-0.007564748038066789,0.03787260738759644,-1.3169426110237734
-0.007562958038066789,0.034174382535012635,-1.3169426110237734
-0.007561168038066789,0.03047615768242884,-1.3169426110237734
-0.00755937803806679,0.03047615768242884,-1.309527909061698
-0.007557588038066789,0.026777932829845037,-1.3169426110237734
-0.007555798038066789,0.03047615768242884,-1.3169426110237734
-0.007554008038066789,0.03047615768242884,-1.320649962004811
-0.00755221803806679,0.03047615768242884,-1.320649962004811
-0.007550428038066789,0.034174382535012635,-1.3169426110237734
-0.007548638038066789,0.03047615768242884,-1.3243573129858488
-0.007546848038066789,0.034174382535012635,-1.320649962004811
-0.00754505803806679,0.026777932829845037,-1.3169426110237734
-0.007543268038066789,0.03047615768242884,-1.320649962004811
-0.007541478038066789,0.03047615768242884,-1.3169426110237734
-0.007539688038066789,0.03047615768242884,-1.320649962004811
-0.00753789803806679,0.034174382535012635,-1.3243573129858488
-0.007536108038066789,0.026777932829845037,-1.3243573129858488
-0.007534318038066789,0.026777932829845037,-1.320649962004811
-0.0075325280380667894,0.034174382535012635,-1.3169426110237734
-0.00753073803806679,0.03047615768242884,-1.320649962004811
-0.007528948038066789,0.03047615768242884,-1.320649962004811
-0.007527158038066789,0.026777932829845037,-1.320649962004811
-0.0075253680380667895,0.026777932829845037,-1.320649962004811
-0.00752357803806679,0.026777932829845037,-1.320649962004811
-0.007521788038066789,0.026777932829845037,-1.320649962004811
-0.007519998038066789,0.026777932829845037,-1.320649962004811
-0.0075182080380667895,0.01938148312467744,-1.320649962004811
-0.00751641803806679,0.023079707977259556,-1.324357312985847
-0.007514628038066789,0.02307970797726124,-1.3169426110237734
-0.007512838038066789,0.02307970797726124,-1.3169426110237734
-0.0075110480380667895,0.02307970797726124,-1.320649962004811
-0.007509258038066789,0.026777932829843355,-1.324357312985847
-0.007507468038066789,0.02307970797726124,-1.320649962004811
-0.007505678038066789,0.026777932829845037,-1.320649962004811
-0.0075038880380667895,0.026777932829845037,-1.320649962004811
-0.007502098038066789,0.02307970797726124,-1.3169426110237734
-0.007500308038066789,-1.6115356768647782,0.12521692059988992
-0.007498518038066789,-3.164790114949974,1.3375206913992161
-0.0074967280380667895,-3.149997215539639,1.326398638456103
-0.007494938038066789,-3.1389025409818876,1.326398638456103
-0.007493148038066789,-3.1352043161293035,1.3226912874750654
-0.007491358038066789,-3.127807866424136,1.326398638456103
-0.00748956803806679,-3.1204114167189685,1.326398638456103
-0.007487778038066789,-3.1056185173086335,1.326398638456103
-0.007485988038066789,-3.0982220676034657,1.326398638456103
-0.007484198038066789,-3.0871273930457144,1.326398638456103
-0.00748240803806679,-3.076032718487963,1.326398638456103
-0.007480618038066789,-3.0612398190776275,1.3226912874750654
-0.007478828038066789,-3.0464469196672925,1.3189839364940277
-0.007477038038066789,-3.035352245109541,1.3115692345319523
-0.00747524803806679,-3.0205593456992057,1.3115692345319523
-0.007473458038066789,-3.0094646711414543,1.3115692345319523
-0.007471668038066789,-2.9946717717311193,1.3078618835509146
-0.007469878038066789,-2.9798788723207843,1.3115692345319523
-0.00746808803806679,-2.961387748057865,1.304154532569877
-0.007466298038066789,-2.9539912983526975,1.304154532569877
-0.007464508038066789,-2.9391983989423625,1.3004471815888392
-0.007462718038066789,-2.924405499532027,1.304154532569877
-0.00746092803806679,-2.9170090498268597,1.3004471815888392
-0.007459138038066789,-2.9059143752691083,1.3004471815888392
-0.007457348038066789,-2.8948197007113565,1.3004471815888392
-0.0074555580380667895,-2.883725026153605,1.2967398306078015
-0.00745376803806679,-2.872630351595854,1.2967398306078015
-0.007451978038066789,-2.8652339018906865,1.2967398306078015
-0.007450188038066789,-2.854139227332935,1.2930324796267638
-0.0074483980380667895,-2.8467427776277674,1.2930324796267638
-0.00744660803806679,-2.8282516533648567,1.2930324796267638
-0.007444818038066789,-2.817156978807097,1.2893251286457261
-0.007443028038066789,-2.809760529101929,1.2893251286457261
-0.0074412380380667895,-2.798665854544178,1.2893251286457261
-0.007439448038066789,-2.7838729551338393,1.2856177776646884
-0.007437658038066789,-2.776476505428675,1.2856177776646884
-0.007435868038066789,-2.7653818308709237,1.2819104266836507
-0.0074340780380667895,-2.7542871563131723,1.2707883737405377
-0.007432288038066789,-2.743192481755421,1.2819104266836507
-0.007430498038066789,-2.7320978071976696,1.2856177776646884
-0.007428708038066789,-2.724701357492502,1.2819104266836507
-0.0074269180380667895,-2.709908458082167,1.2819104266836507
-0.007425128038066789,-2.709908458082167,1.2819104266836507
-0.007423338038066789,-2.6988137835244155,1.2819104266836507
-0.007421548038066789,-2.687719108966664,1.2856177776646884
-0.0074197580380667896,-2.6766244344089127,1.278203075702613
-0.007417968038066789,-2.6729262095563286,1.278203075702613
-0.007416178038066789,-2.669227984703745,1.2819104266836507
-0.007414388038066789,-2.6581333101459936,1.278203075702613
-0.00741259803806679,-2.643340410735658,1.278203075702613
-0.007410808038066789,-2.6396421858830745,1.278203075702613
-0.007409018038066789,-2.6248492864727395,1.2744957247215754
-0.007407228038066789,-2.617452836767572,1.2744957247215754
-0.00740543803806679,-2.610056387062404,1.2707883737405377
-0.007403648038066789,-2.6026599373572368,1.2670810227595
-0.007401858038066789,-2.591565262799485,1.2744957247215754
-0.007400068038066789,-2.5804705882417336,1.2744957247215754
-0.00739827803806679,-2.57677236338915,1.2707883737405377
-0.007396488038066789,-2.569375913683982,1.2707883737405377
-0.007394698038066789,-2.561979463978815,1.2744957247215754
-0.007392908038066789,-2.554583014273647,1.2744957247215754
-0.00739111803806679,-2.5508847894210636,1.2744957247215754
-0.007389328038066789,-2.539790114863312,1.2744957247215754
-0.007387538038066789,-2.5286954403055604,1.2707883737405377
-0.0073857480380667894,-2.5286954403055604,1.2707883737405377
-0.00738395803806679,-2.517600765747809,1.2744957247215754
-0.007382168038066789,-2.5102043160426417,1.2670810227595
-0.007380378038066789,-2.502807866337474,1.278203075702613
-0.0073785880380667895,-2.4917131917797226,1.2744957247215754
-0.00737679803806679,-2.484316742074555,1.2670810227595
-0.007375008038066789,-2.4732220675168035,1.2707883737405377
-0.007373218038066789,-2.465825617811636,1.2670810227595
-0.0073714280380667895,-2.465825617811636,1.2633736717784623
-0.00736963803806679,-2.458429168106472,1.2670810227594982
-0.007367848038066789,-2.447334493548717,1.2633736717784623
-0.007366058038066789,-2.4399380438435494,1.2670810227595
-0.0073642680380667895,-2.4325415941383817,1.2670810227595
-0.007362478038066789,-2.428843369285793,1.2670810227595017
-0.007360688038066789,-2.4177486947280467,1.2707883737405377
-0.007358898038066789,-2.410352245022879,1.2670810227595
-0.0073571080380667895,-2.410352245022879,1.2819104266836507
-0.007355318038066789,-2.3992575704651276,1.2707883737405377
-0.007353528038066789,-2.3992575704651276,1.2744957247215754
-0.007351738038066789,-2.388162895907376,1.2744957247215754
-0.0073499480380667895,-2.3807664462022085,1.2670810227595
-0.007348158038066789,-2.377068221349625,1.2707883737405377
-0.007346368038066789,-2.3659735467918734,1.2707883737405377
-0.007344578038066789,-2.3585770970867057,1.2707883737405377
-0.00734278803806679,-2.351180647381538,1.2744957247215754
-0.007340998038066789,-2.3400859728237866,1.2707883737405377
-0.007339208038066789,-2.3289912982660352,1.2707883737405377
-0.007337418038066789,-2.321594848560868,1.2670810227595
-0.00733562803806679,-2.317896623708284,1.2707883737405377
-0.007333838038066789,-2.3141983988557002,1.2670810227595
-0.007332048038066789,-2.3105001740031166,1.2707883737405377
-0.007330258038066789,-2.3068019491505325,1.2707883737405377
-0.00732846803806679,-2.295707274592781,1.2670810227595
-0.007326678038066789,-2.2920090497401975,1.2633736717784623
-0.007324888038066789,-2.280914375182446,1.2633736717784623
-0.007323098038066789,-2.277216150329862,1.2596663207974246
-0.00732130803806679,-2.2698197006246947,1.2633736717784623
-0.007319518038066789,-2.2661214757721106,1.2707883737405377
-0.007317728038066789,-2.2587250260669434,1.2744957247215754
-0.007315938038066789,-2.2550268012143593,1.2744957247215754
-0.00731414803806679,-2.2513285763617756,1.2744957247215754
-0.007312358038066789,-2.2402339018040243,1.2707883737405377
-0.007310568038066789,-2.229139227246273,1.2670810227595
-0.0073087780380667895,-2.221742777541105,1.2670810227595
-0.00730698803806679,-2.2180445526885215,1.2670810227595
-0.007305198038066789,-2.210648102983354,1.2670810227595
-0.007303408038066789,-2.203251653278186,1.2633736717784623
-0.0073016180380667895,-2.203251653278186,1.2707883737405377
-0.00729982803806679,-2.1921569787204396,1.2707883737405377
-0.007298038038066789,-2.188458753867851,1.2707883737405377
-0.007296248038066789,-2.1847605290152674,1.2670810227595
-0.0072944580380667895,-2.1810623041626833,1.2744957247215754
-0.007292668038066789,-2.173665854457516,1.2707883737405377
-0.007290878038066789,-2.173665854457516,1.2707883737405377
-0.007289088038066789,-2.162571179899764,1.2707883737405377
-0.0072872980380667895,-2.162571179899764,1.2670810227595
-0.007285508038066789,-2.158872955047179,1.2670810227595
-0.007283718038066789,-2.155174730194597,1.2670810227595
-0.007281928038066789,-2.1440800556368456,1.2670810227595
-0.0072801380380667895,-2.132985381079094,1.278203075702613
-0.007278348038066789,-2.12928715622651,1.278203075702613
-0.007276558038066789,-2.121890706521343,1.2744957247215754
-0.007274768038066789,-2.1107960319635914,1.2744957247215754
-0.0072729780380667896,-2.1033995822584237,1.2707883737405377
-0.007271188038066789,-2.096003132553256,1.2744957247215754
-0.007269398038066789,-2.0923049077006723,1.2670810227595
-0.007267608038066789,-2.0886066828480883,1.2670810227595
-0.00726581803806679,-2.081210233142921,1.2670810227595
-0.007264028038066789,-2.081210233142921,1.2707883737405377
-0.007262238038066789,-2.077512008290337,1.2670810227595
-0.007260448038066789,-2.0664173337325855,1.2744957247215754
-0.00725865803806679,-2.0590208840274182,1.2707883737405377
-0.007256868038066789,-2.0590208840274182,1.2744957247215754
-0.007255078038066789,-2.055322659174834,1.2744957247215754
-0.007253288038066789,-2.0479262094696664,1.2707883737405377
-0.00725149803806679,-2.040529759764499,1.2744957247215754
-0.007249708038066789,-2.036831534911915,1.2707883737405377
-0.007247918038066789,-2.0257368603541637,1.2670810227595
-0.007246128038066789,-2.02203863550158,1.2670810227595
-0.00724433803806679,-2.0146421857964123,1.2633736717784623
-0.007242548038066789,-2.007245736091245,1.2633736717784623
-0.007240758038066789,-2.007245736091245,1.2596663207974246
-0.0072389680380667894,-1.999849286386077,1.2670810227595
-0.00723717803806679,-1.9961510615334932,1.2707883737405377
-0.007235388038066789,-1.9850563869757418,1.2670810227595
-0.007233598038066789,-1.981358162123158,1.2670810227595
-0.0072318080380667895,-1.9739617124179905,1.2670810227595
-0.00723001803806679,-1.9702634875654066,1.2744957247215754
-0.007228228038066789,-1.9702634875654066,1.2670810227595
-0.007226438038066789,-1.9665652627128227,1.2707883737405377
-0.0072246480380667895,-1.962867037860239,1.2707883737405377
-0.00722285803806679,-1.9480741384499105,1.2707883737405377
-0.007221068038066789,-1.9480741384499038,1.2670810227595
-0.007219278038066789,-1.94437591359732,1.2707883737405377
-0.0072174880380667895,-1.9406776887447361,1.2744957247215754
-0.007215698038066789,-1.9369794638921507,1.2782030757026113
-0.007213908038066789,-1.9332812390395686,1.2744957247215754
-0.007212118038066789,-1.9295830141869847,1.2744957247215754
-0.0072103280380667895,-1.9147901147766497,1.2707883737405377
-0.007208538038066789,-1.9147901147766497,1.2707883737405377
-0.007206748038066789,-1.9036954402188981,1.2670810227595
-0.007204958038066789,-1.8999972153663145,1.2670810227595
-0.0072031680380667895,-1.8962989905137306,1.2707883737405377
-0.007201378038066789,-1.8852043159559793,1.2633736717784623
-0.007199588038066789,-1.8852043159559793,1.2670810227595
-0.007197798038066789,-1.8815060911033954,1.2707883737405377
-0.00719600803806679,-1.870411416545644,1.2707883737405377
-0.007194218038066789,-1.870411416545644,1.2707883737405377
-0.007192428038066789,-1.8593167419878927,1.2707883737405377
-0.007190638038066789,-1.8593167419878927,1.2670810227595
-0.00718884803806679,-1.8519202922827251,1.2670810227595
-0.007187058038066789,-1.8482220674301413,1.2670810227595
-0.007185268038066789,-1.8445238425775574,1.2670810227595
-0.007183478038066789,-1.8445238425775574,1.2707883737405377
-0.00718168803806679,-1.8408256177249736,1.2744957247215754
-0.007179898038066789,-1.833429168019806,1.2707883737405377
-0.007178108038066789,-1.8223344934620547,1.2670810227595
-0.007176318038066789,-1.8186362686094708,1.2670810227595
-0.00717452803806679,-1.8112398189043033,1.2744957247215754
-0.007172738038066789,-1.8075415940517194,1.2633736717784623
-0.007170948038066789,-1.8075415940517194,1.2670810227595
-0.007169158038066789,-1.800145144346552,1.2670810227595
-0.00716736803806679,-1.7927486946413842,1.2633736717784623
