200Hz/acq0033.csv

#Digilent WaveForms Oscilloscope Acquisition
#Device Name: Discovery2
#Serial Number: SN:210321AA28BE
#Date Time: 2023-05-24 14:48:04.890
#Sample rate: 558659Hz
#Samples: 8192
#Trigger: Source: Channel 1 Type: Edge Condition: Rising Level: 800 mV Hyst.: Auto HoldOff: 100 ns
#Channel 1: Range: 1 V/div Offset: 0 V Attenuation: 1 X Sample Mode: Average
#Channel 2: Range: 1 V/div Offset: 0 V Attenuation: 1 X Sample Mode: Average

Time (s),Channel 1 (V),Channel 2 (V)
-0.007741577510023014,0.05266550679793163,-1.3132352600427357
-0.007739787510023014,0.05266550679793163,-1.3169426110237716
-0.007737997510023013,0.05636373165051543,-1.3169426110237734
-0.0077362075100230136,0.05266550679793163,-1.3169426110237734
-0.007734417510023014,0.045269057092764034,-1.3132352600427357
-0.007732627510023013,0.0489672819453512,-1.3169426110237734
-0.007730837510023013,0.05636373165051543,-1.3169426110237734
-0.007729047510023014,0.05266550679793163,-1.3243573129858488
-0.007727257510023014,0.05266550679793163,-1.3169426110237734
-0.007725467510023013,0.05266550679793163,-1.3169426110237734
-0.007723677510023013,0.05266550679793163,-1.320649962004811
-0.007721887510023014,0.048967281945347836,-1.320649962004811
-0.007720097510023014,0.048967281945347836,-1.3169426110237734
-0.007718307510023013,0.048967281945347836,-1.3169426110237734
-0.007716517510023013,0.045269057092764034,-1.320649962004811
-0.007714727510023014,0.048967281945347836,-1.320649962004811
-0.007712937510023014,0.05266550679793163,-1.320649962004811
-0.007711147510023013,0.045269057092764034,-1.3132352600427357
-0.007709357510023013,0.04157083224018024,-1.320649962004811
-0.007707567510023014,0.045269057092764034,-1.3169426110237734
-0.007705777510023014,0.048967281945347836,-1.320649962004811
-0.007703987510023013,0.04157083224018024,-1.320649962004811
-0.0077021975100230134,0.045269057092764034,-1.320649962004811
-0.007700407510023014,0.045269057092764034,-1.320649962004811
-0.007698617510023014,0.045269057092764034,-1.3169426110237734
-0.007696827510023013,0.045269057092764034,-1.320649962004811
-0.0076950375100230135,0.04157083224018024,-1.3169426110237734
-0.007693247510023014,0.045269057092764034,-1.3169426110237734
-0.007691457510023014,0.045269057092764034,-1.320649962004811
-0.007689667510023013,0.045269057092764034,-1.3169426110237734
-0.0076878775100230135,0.045269057092764034,-1.3169426110237734
-0.007686087510023014,0.045269057092764034,-1.3169426110237734
-0.007684297510023014,0.03787260738759644,-1.3169426110237734
-0.007682507510023013,0.04157083224018024,-1.3169426110237734
-0.0076807175100230135,0.04157083224018024,-1.3169426110237734
-0.007678927510023014,0.04157083224018024,-1.3132352600427357
-0.007677137510023014,0.03787260738759644,-1.3169426110237734
-0.007675347510023013,0.034174382535012635,-1.3132352600427357
-0.0076735575100230135,0.03787260738759644,-1.3132352600427357
-0.007671767510023014,0.03787260738759644,-1.3169426110237734
-0.007669977510023014,0.034174382535014314,-1.3132352600427375
-0.007668187510023013,0.034174382535012635,-1.3169426110237734
-0.0076663975100230135,0.03787260738759644,-1.3169426110237734
-0.007664607510023014,0.03787260738759644,-1.320649962004811
-0.007662817510023013,0.03787260738759644,-1.320649962004811
-0.007661027510023013,0.03787260738759644,-1.320649962004811
-0.007659237510023014,0.04157083224018024,-1.320649962004811
-0.007657447510023014,0.034174382535012635,-1.3132352600427357
-0.007655657510023013,0.037872607387598116,-1.3169426110237752
-0.007653867510023013,0.04157083224018024,-1.320649962004811
-0.007652077510023014,0.04157083224018024,-1.320649962004811
-0.007650287510023014,0.034174382535012635,-1.320649962004811
-0.007648497510023013,0.03787260738759644,-1.3169426110237734
-0.007646707510023013,0.03787260738759644,-1.3169426110237734
-0.007644917510023014,0.03787260738759644,-1.3169426110237734
-0.007643127510023014,0.034174382535012635,-1.320649962004811
-0.007641337510023013,0.03787260738759644,-1.3243573129858488
-0.007639547510023013,0.034174382535012635,-1.3243573129858488
-0.007637757510023014,0.03787260738759644,-1.3169426110237734
-0.007635967510023014,0.034174382535012635,-1.3169426110237734
-0.007634177510023013,0.034174382535012635,-1.3169426110237734
-0.007632387510023013,0.04157083224018024,-1.3169426110237734
-0.007630597510023014,0.03047615768242884,-1.320649962004811
-0.007628807510023014,0.03047615768242884,-1.320649962004811
-0.007627017510023013,0.03047615768242884,-1.3169426110237734
-0.0076252275100230135,0.034174382535012635,-1.3169426110237734
-0.007623437510023014,0.03047615768242884,-1.3169426110237734
-0.007621647510023014,0.03047615768242884,-1.320649962004811
-0.007619857510023013,0.026777932829845037,-1.3243573129858488
-0.0076180675100230135,0.02307970797726124,-1.320649962004811
-0.007616277510023014,0.03047615768242884,-1.320649962004811
-0.007614487510023014,0.03047615768242884,-1.3169426110237734
-0.007612697510023013,0.034174382535012635,-1.3169426110237734
-0.0076109075100230135,0.03047615768242884,-1.309527909061698
-0.007609117510023014,0.03047615768242884,-1.3169426110237734
-0.007607327510023014,0.02307970797726124,-1.3169426110237734
-0.007605537510023013,0.026777932829845037,-1.320649962004811
-0.0076037475100230135,0.03047615768242884,-1.320649962004811
-0.007601957510023014,0.034174382535012635,-1.3243573129858488
-0.007600167510023014,0.026777932829845037,-1.320649962004811
-0.007598377510023013,0.03047615768242884,-1.3169426110237734
-0.0075965875100230135,0.03047615768242884,-1.320649962004811
-0.007594797510023014,0.026777932829845037,-1.320649962004811
-0.007593007510023014,0.030476157682427157,-1.320649962004811
-0.007591217510023013,0.026777932829845037,-1.3169426110237734
-0.0075894275100230136,0.026777932829845037,-1.3132352600427357
-0.007587637510023014,0.02307970797726124,-1.3169426110237734
-0.007585847510023013,0.026777932829845037,-1.3169426110237734
-0.007584057510023013,0.026777932829845037,-1.3169426110237734
-0.007582267510023014,0.02307970797726124,-1.3169426110237734
-0.007580477510023014,0.02307970797726124,-1.320649962004811
-0.007578687510023013,0.026777932829845037,-1.320649962004811
-0.007576897510023013,0.026777932829845037,-1.3169426110237734
-0.007575107510023014,0.026777932829845037,-1.3169426110237734
-0.007573317510023014,0.026777932829845037,-1.320649962004811
-0.007571527510023013,0.02307970797726124,-1.3169426110237734
-0.007569737510023013,0.01938148312467744,-1.320649962004811
-0.007567947510023014,0.02307970797726124,-1.3169426110237734
-0.007566157510023014,0.026777932829845037,-1.3169426110237734
-0.007564367510023013,0.01938148312467744,-1.320649962004811
-0.007562577510023013,0.026777932829845037,-1.320649962004811
-0.007560787510023014,0.01938148312467744,-1.320649962004811
-0.007558997510023014,0.02307970797726124,-1.3169426110237734
-0.007557207510023013,0.02307970797726124,-1.320649962004811
-0.0075554175100230134,0.02307970797726124,-1.320649962004811
-0.007553627510023014,0.015683258272093638,-1.320649962004811
-0.007551837510023014,0.01938148312467744,-1.320649962004811
-0.007550047510023013,0.015683258272093638,-1.3169426110237734
-0.0075482575100230135,0.02307970797726124,-1.320649962004811
-0.007546467510023014,0.02307970797726124,-1.3169426110237734
-0.007544677510023014,0.01938148312467744,-1.320649962004811
-0.007542887510023013,0.015683258272093638,-1.3169426110237734
-0.0075410975100230135,0.015683258272093638,-1.3169426110237734
-0.007539307510023014,0.01938148312467744,-1.3169426110237734
-0.007537517510023014,0.015683258272093638,-1.320649962004811
-0.007535727510023013,0.01938148312467744,-1.3243573129858488
-0.0075339375100230135,0.015683258272093638,-1.3169426110237734
-0.007532147510023014,0.015683258272093638,-1.3169426110237734
-0.007530357510023014,0.01938148312467744,-1.3132352600427357
-0.007528567510023013,0.02307970797726124,-1.3169426110237734
-0.0075267775100230135,0.01938148312467744,-1.3169426110237734
-0.007524987510023014,0.015683258272093638,-1.3169426110237734
-0.007523197510023014,0.019381483124675757,-1.3169426110237734
-0.007521407510023013,0.01938148312467744,-1.320649962004811
-0.0075196175100230135,0.01938148312467744,-1.320649962004811
-0.007517827510023014,0.01938148312467744,-1.320649962004811
-0.007516037510023014,0.011985033419513203,-1.3169426110237752
-0.007514247510023013,0.015683258272093638,-1.3169426110237734
-0.007512457510023014,0.015683258272093638,-1.320649962004811
-0.007510667510023014,0.00828680856692604,-1.3169426110237734
-0.007508877510023013,0.015683258272091955,-1.3132352600427375
-0.007507087510023013,0.01198503341950984,-1.3169426110237734
-0.007505297510023014,0.015683258272093638,-1.3169426110237734
-0.007503507510023014,0.015683258272093638,-1.3169426110237734
-0.007501717510023013,0.015683258272093638,-1.3243573129858488
-0.007499927510023013,-2.4732220675168035,0.8333209579780897
-0.007498137510023014,-3.168488339802558,1.3301059894371408
-0.007496347510023014,-3.1536954403922226,1.326398638456103
-0.007494557510023013,-3.1426007658344712,1.326398638456103
-0.007492767510023013,-3.13150609127672,1.3189839364940277
-0.007490977510023014,-3.127807866424136,1.3189839364940277
-0.007489187510023014,-3.1130149670138008,1.326398638456103
-0.007487397510023013,-3.1019202924560494,1.326398638456103
-0.007485607510023013,-3.094523842750882,1.3226912874750654
-0.007483817510023014,-3.0834291681931303,1.3189839364940277
-0.007482027510023014,-3.076032718487963,1.3226912874750654
-0.007480237510023013,-3.0686362687827953,1.3226912874750654
-0.0074784475100230135,-3.050145144519876,1.3226912874750654
-0.007476657510023014,-3.042748694814709,1.326398638456103
-0.007474867510023014,-3.02425757055179,1.3226912874750654
-0.007473077510023013,-3.0131628959940384,1.3189839364940277
-0.0074712875100230135,-3.002068221436287,1.31527658551299
-0.007469497510023014,-2.983577097173368,1.31527658551299
-0.007467707510023014,-2.9761806474682,1.3115692345319523
-0.007465917510023013,-2.961387748057865,1.3078618835509146
-0.0074641275100230135,-2.9539912983526975,1.304154532569877
-0.007462337510023014,-2.9355001740897784,1.304154532569877
-0.007460547510023014,-2.9207072746794434,1.3004471815888392
-0.007458757510023013,-2.909612600121692,1.3004471815888392
-0.0074569675100230135,-2.8985179255639406,1.2967398306078015
-0.007455177510023014,-2.8874232510061892,1.2930324796267638
-0.007453387510023014,-2.876328576448438,1.2930324796267638
-0.007451597510023013,-2.8615356770381024,1.2930324796267638
-0.0074498075100230135,-2.850441002480351,1.2967398306078015
-0.007448017510023014,-2.8393463279225997,1.2930324796267638
-0.007446227510023014,-2.8319498782174355,1.289325128645728
-0.007444437510023013,-2.817156978807097,1.2930324796267638
-0.0074426475100230136,-2.809760529101929,1.2930324796267638
-0.007440857510023014,-2.798665854544178,1.2893251286457261
-0.007439067510023013,-2.791269404839007,1.281910426683654
-0.007437277510023013,-2.783872955133843,1.2893251286457261
-0.007435487510023014,-2.7727782805760914,1.2819104266836507
-0.007433697510023014,-2.7542871563131723,1.2856177776646884
-0.007431907510023013,-2.7468907066080046,1.2819104266836507
-0.007430117510023013,-2.7357960320502532,1.2819104266836507
-0.007428327510023014,-2.7357960320502532,1.278203075702613
-0.007426537510023014,-2.724701357492502,1.278203075702613
-0.007424747510023013,-2.709908458082167,1.2744957247215754
-0.007422957510023013,-2.6988137835244155,1.2744957247215754
-0.007421167510023014,-2.6951155586718314,1.2744957247215754
-0.007419377510023014,-2.6766244344089127,1.2819104266836507
-0.007417587510023013,-2.6766244344089127,1.2744957247215754
-0.007415797510023013,-2.6655297598511614,1.278203075702613
-0.007414007510023014,-2.6581333101459936,1.2819104266836507
-0.007412217510023014,-2.6544350852934095,1.2744957247215754
-0.007410427510023013,-2.6470386355882423,1.278203075702613
-0.0074086375100230134,-2.635943961030491,1.2744957247215754
-0.007406847510023014,-2.628547511325323,1.2819104266836507
-0.007405057510023014,-2.6211510616201554,1.2856177776646884
-0.007403267510023013,-2.6211510616201554,1.2819104266836507
-0.0074014775100230135,-2.6063581622098204,1.278203075702613
-0.007399687510023014,-2.591565262799485,1.278203075702613
-0.007397897510023014,-2.5878670379469013,1.278203075702613
-0.007396107510023013,-2.57677236338915,1.2707883737405377
-0.0073943175100230135,-2.5656776888313986,1.2707883737405377
-0.007392527510023014,-2.554583014273647,1.2707883737405377
-0.007390737510023014,-2.5471865645684795,1.2707883737405377
-0.007388947510023013,-2.539790114863312,1.2707883737405377
-0.0073871575100230135,-2.536091890010728,1.2707883737405377
-0.007385367510023014,-2.5323936651581445,1.2707883737405377
-0.007383577510023014,-2.5139025408952254,1.2744957247215754
-0.007381787510023013,-2.5102043160426417,1.2744957247215754
-0.0073799975100230135,-2.5065060911900576,1.2744957247215754
-0.007378207510023014,-2.502807866337474,1.2744957247215754
-0.007376417510023014,-2.4917131917797226,1.2670810227595
-0.007374627510023013,-2.484316742074555,1.2670810227595
-0.0073728375100230135,-2.4732220675168035,1.2744957247215754
-0.007371047510023014,-2.4732220675168035,1.2707883737405377
-0.007369257510023014,-2.4658256178116393,1.2782030757026097
-0.007367467510023013,-2.4547309432538844,1.2707883737405377
-0.007365677510023014,-2.447334493548717,1.2744957247215754
-0.007363887510023014,-2.4362398189909658,1.2744957247215754
-0.007362097510023013,-2.432541594138377,1.2707883737405377
-0.007360307510023013,-2.4214469195806303,1.2707883737405377
-0.007358517510023014,-2.4177486947280467,1.2670810227595
-0.007356727510023014,-2.410352245022879,1.2633736717784623
-0.007354937510023013,-2.402955795317711,1.2670810227595
-0.007353147510023013,-2.395559345612544,1.2670810227595
-0.007351357510023014,-2.3844646710547925,1.2670810227595
-0.007349567510023014,-2.3807664462022085,1.2707883737405377
-0.007347777510023013,-2.3807664462022085,1.2670810227595
-0.007345987510023013,-2.369671771644457,1.2670810227595
-0.007344197510023014,-2.36227532193929,1.2744957247215754
-0.007342407510023014,-2.3585770970867057,1.2744957247215754
-0.007340617510023013,-2.354878872234122,1.2744957247215754
-0.007338827510023013,-2.3474824225289543,1.2744957247215754
-0.007337037510023014,-2.3437841976763707,1.2707883737405377
-0.007335247510023014,-2.3326895231186193,1.2707883737405377
-0.007333457510023013,-2.317896623708284,1.2707883737405377
-0.0073316675100230135,-2.3141983988557002,1.2707883737405377
-0.007329877510023014,-2.303103724297949,1.2670810227595
-0.007328087510023014,-2.299405499445365,1.2633736717784623
-0.007326297510023013,-2.2920090497401975,1.2670810227595
-0.0073245075100230135,-2.2846126000350298,1.2670810227595
-0.007322717510023014,-2.277216150329862,1.2670810227595
-0.007320927510023014,-2.277216150329862,1.2670810227595
-0.007319137510023013,-2.2698197006246947,1.2670810227595
-0.0073173475100230135,-2.262423250919527,1.2744957247215754
-0.007315557510023014,-2.262423250919527,1.2744957247215754
-0.007313767510023014,-2.2513285763617756,1.2670810227595
-0.007311977510023013,-2.247630351509192,1.2670810227595
-0.0073101875100230135,-2.2328374520988565,1.2707883737405377
-0.007308397510023014,-2.2328374520988565,1.2633736717784623
-0.007306607510023014,-2.225441002393689,1.2707883737405377
-0.007304817510023013,-2.225441002393689,1.2744957247215754
-0.0073030275100230135,-2.2180445526885215,1.278203075702613
-0.007301237510023014,-2.203251653278186,1.2744957247215754
-0.007299447510023014,-2.203251653278186,1.2744957247215754
-0.007297657510023013,-2.1921569787204347,1.2744957247215754
-0.0072958675100230136,-2.188458753867851,1.2670810227595
-0.007294077510023014,-2.1810623041626833,1.2670810227595
-0.007292287510023013,-2.177364079310095,1.2670810227595017
-0.007290497510023013,-2.1662694047523483,1.2707883737405377
-0.007288707510023014,-2.162571179899764,1.2633736717784623
-0.007286917510023014,-2.155174730194597,1.2707883737405377
-0.007285127510023013,-2.147778280489429,1.2707883737405359
-0.007283337510023013,-2.147778280489429,1.2670810227595
-0.007281547510023014,-2.1440800556368456,1.2670810227595
-0.007279757510023014,-2.136683605931678,1.2707883737405377
-0.007277967510023013,-2.132985381079094,1.2670810227595
-0.007276177510023013,-2.121890706521343,1.2670810227595
-0.007274387510023014,-2.121890706521343,1.2707883737405377
-0.007272597510023014,-2.121890706521343,1.278203075702613
-0.007270807510023013,-2.1107960319635914,1.2707883737405377
-0.007269017510023013,-2.1070978071110074,1.2707883737405377
-0.007267227510023014,-2.0923049077006723,1.2707883737405377
-0.007265437510023014,-2.0923049077006723,1.2633736717784623
-0.007263647510023013,-2.0849084579955046,1.2670810227595
-0.0072618575100230134,-2.077512008290337,1.2744957247215754
-0.007260067510023014,-2.0701155585851696,1.2670810227595
-0.007258277510023014,-2.062719108880002,1.2633736717784623
-0.007256487510023013,-2.0590208840274182,1.2633736717784623
-0.0072546975100230135,-2.0516244343222505,1.2707883737405377
-0.007252907510023014,-2.0442279846170828,1.2707883737405377
-0.007251117510023014,-2.0331333100593314,1.2670810227595
-0.007249327510023013,-2.0331333100593314,1.2707883737405377
-0.0072475375100230135,-2.0331333100593314,1.2707883737405377
-0.007245747510023014,-2.0183404106489964,1.2707883737405377
-0.007243957510023014,-2.02203863550158,1.2670810227595
-0.007242167510023013,-2.0146421857964123,1.2633736717784623
-0.0072403775100230135,-2.003547511238661,1.2707883737405377
-0.007238587510023014,-2.003547511238661,1.2670810227595
-0.007236797510023014,-1.999849286386077,1.2670810227595
-0.007235007510023013,-1.9887546118283257,1.2707883737405377
-0.0072332175100230135,-1.9887546118283257,1.2707883737405377
-0.007231427510023014,-1.9850563869757418,1.2707883737405377
-0.007229637510023014,-1.9739617124179905,1.2670810227595
-0.007227847510023013,-1.9665652627128227,1.2670810227595
-0.0072260575100230135,-1.9591688130076552,1.2670810227595
-0.007224267510023014,-1.962867037860239,1.2670810227595
-0.007222477510023014,-1.9554705881550747,1.2670810227595
-0.007220687510023013,-1.9480741384499038,1.2670810227595
-0.007218897510023014,-1.9406776887447361,1.2670810227595
-0.007217107510023014,-1.9369794638921525,1.2670810227595
-0.007215317510023013,-1.9369794638921507,1.2707883737405377
-0.007213527510023013,-1.9332812390395686,1.2707883737405377
-0.007211737510023014,-1.925884789334401,1.2670810227595
-0.007209947510023014,-1.9184883396292334,1.2670810227595
-0.007208157510023013,-1.9184883396292334,1.2707883737405377
-0.007206367510023013,-1.9110918899240659,1.2707883737405377
-0.007204577510023014,-1.9110918899240659,1.2707883737405377
-0.007202787510023014,-1.907393665071482,1.2670810227595
-0.007200997510023013,-1.8962989905137306,1.2633736717784623
-0.007199207510023013,-1.8926007656611468,1.2633736717784623
-0.007197417510023014,-1.8889025408085631,1.2633736717784623
-0.007195627510023014,-1.8778078662508115,1.2670810227595
-0.007193837510023013,-1.8778078662508115,1.2670810227595
-0.007192047510023013,-1.8630149668404765,1.2670810227595
-0.007190257510023014,-1.8630149668404765,1.2670810227595
-0.007188467510023014,-1.8556185171353088,1.2633736717784623
-0.007186677510023013,-1.8519202922827251,1.2596663207974246
-0.0071848875100230135,-1.8482220674301413,1.2670810227595
-0.007183097510023014,-1.83712739287239,1.2670810227595
-0.007181307510023014,-1.83712739287239,1.2707883737405377
-0.007179517510023013,-1.833429168019806,1.2707883737405377
-0.0071777275100230135,-1.8297309431672222,1.2707883737405377
-0.007175937510023014,-1.8223344934620547,1.2707883737405377
-0.007174147510023014,-1.8223344934620547,1.2707883737405377
-0.007172357510023013,-1.8186362686094708,1.2707883737405377
-0.0071705675100230135,-1.814938043756887,1.2707883737405377
-0.007168777510023014,-1.8112398189043033,1.2670810227595
