200Hz/acq0018.csv

#Digilent WaveForms Oscilloscope Acquisition
#Device Name: Discovery2
#Serial Number: SN:210321AA28BE
#Date Time: 2023-05-24 14:48:04.481
#Sample rate: 558659Hz
#Samples: 8192
#Trigger: Source: Channel 1 Type: Edge Condition: Rising Level: 800 mV Hyst.: Auto HoldOff: 100 ns
#Channel 1: Range: 1 V/div Offset: 0 V Attenuation: 1 X Sample Mode: Average
#Channel 2: Range: 1 V/div Offset: 0 V Attenuation: 1 X Sample Mode: Average

Time (s),Channel 1 (V),Channel 2 (V)
-0.007742215423687704,0.01938148312467744,-1.320649962004811
-0.007740425423687704,0.01938148312467744,-1.320649962004811
-0.007738635423687704,0.01938148312467744,-1.320649962004811
-0.007736845423687704,0.01938148312467744,-1.3169426110237734
-0.007735055423687704,0.015683258272093638,-1.3169426110237734
-0.007733265423687703,0.01938148312467744,-1.3206499620048093
-0.007731475423687704,0.01938148312467744,-1.3169426110237734
-0.007729685423687704,0.015683258272093638,-1.3243573129858488
-0.007727895423687704,0.015683258272093638,-1.320649962004811
-0.0077261054236877034,0.01938148312467744,-1.3169426110237734
-0.007724315423687704,0.015683258272093638,-1.3169426110237734
-0.007722525423687704,0.01198503341950984,-1.3169426110237734
-0.007720735423687704,0.015683258272093638,-1.3132352600427357
-0.0077189454236877035,0.01198503341950984,-1.320649962004811
-0.007717155423687704,0.015683258272093638,-1.320649962004811
-0.007715365423687704,0.01198503341950984,-1.320649962004811
-0.007713575423687704,0.01198503341950984,-1.320649962004811
-0.0077117854236877035,0.01198503341950984,-1.320649962004811
-0.007709995423687704,0.00458858371434224,-1.320649962004811
-0.007708205423687704,0.00828680856692604,-1.3169426110237734
-0.007706415423687704,0.00828680856692604,-1.320649962004811
-0.0077046254236877035,0.00828680856692604,-1.320649962004811
-0.007702835423687704,0.00458858371434224,-1.320649962004811
-0.007701045423687704,0.01198503341950984,-1.3169426110237734
-0.007699255423687704,0.01198503341950984,-1.3169426110237734
-0.0076974654236877035,0.01198503341950984,-1.3132352600427357
-0.007695675423687704,0.01198503341950984,-1.3169426110237734
-0.007693885423687704,0.00828680856692604,-1.320649962004811
-0.007692095423687704,0.00828680856692604,-1.3169426110237734
-0.0076903054236877036,0.00828680856692604,-1.3169426110237734
-0.007688515423687704,0.00458858371434224,-1.3169426110237734
-0.007686725423687704,0.0008903588617584406,-1.3169426110237734
-0.007684935423687704,0.00458858371434224,-1.320649962004811
-0.007683145423687704,0.01198503341950984,-1.320649962004811
-0.007681355423687704,0.00458858371434224,-1.3169426110237734
-0.007679565423687704,0.00458858371434224,-1.3169426110237734
-0.007677775423687704,0.00458858371434224,-1.320649962004811
-0.007675985423687704,0.00458858371434224,-1.3132352600427357
-0.007674195423687704,0.00828680856692604,-1.320649962004811
-0.007672405423687704,0.00458858371434224,-1.320649962004811
-0.007670615423687704,0.008286808566924358,-1.3169426110237752
-0.007668825423687704,0.00458858371434224,-1.3169426110237734
-0.007667035423687704,0.01198503341950984,-1.3169426110237734
-0.007665245423687704,0.00458858371434224,-1.3169426110237734
-0.007663455423687703,0.004588583714340558,-1.3243573129858455
-0.007661665423687704,0.0008903588617584406,-1.3169426110237734
-0.007659875423687704,0.00458858371434224,-1.3169426110237734
-0.007658085423687704,0.0008903588617584406,-1.3169426110237734
-0.0076562954236877034,0.004588583714340558,-1.3169426110237716
-0.007654505423687704,0.0008903588617584406,-1.3132352600427357
-0.007652715423687704,0.00458858371434224,-1.320649962004811
-0.007650925423687704,0.0008903588617584406,-1.3132352600427357
-0.0076491354236877035,0.0008903588617584406,-1.320649962004811
-0.007647345423687704,0.00458858371434224,-1.3132352600427357
-0.007645555423687704,0.0008903588617584406,-1.3169426110237734
-0.007643765423687704,0.0008903588617584406,-1.3169426110237734
-0.0076419754236877035,-0.002807865990825359,-1.3132352600427357
-0.007640185423687704,0.0008903588617584406,-1.320649962004811
-0.007638395423687704,0.0008903588617584406,-1.320649962004811
-0.007636605423687704,-0.0065060908434091584,-1.3243573129858488
-0.0076348154236877035,0.0008903588617584406,-1.3169426110237734
-0.007633025423687704,-0.002807865990825359,-1.3132352600427357
-0.007631235423687704,-0.0065060908434091584,-1.309527909061698
-0.007629445423687704,-0.002807865990825359,-1.3132352600427357
-0.0076276554236877035,-0.0065060908434091584,-1.3169426110237734
-0.007625865423687704,-0.0065060908434091584,-1.3132352600427357
-0.007624075423687704,0.0008903588617584406,-1.3132352600427357
-0.007622285423687704,-0.0065060908434091584,-1.3169426110237734
-0.0076204954236877035,-0.002807865990825359,-1.3169426110237734
-0.007618705423687704,-0.0065060908434091584,-1.320649962004811
-0.007616915423687704,-0.0065060908434091584,-1.3169426110237734
-0.007615125423687704,-0.002807865990825359,-1.320649962004811
-0.0076133354236877036,-0.002807865990825359,-1.320649962004811
-0.007611545423687704,-0.002807865990825359,-1.3169426110237734
-0.007609755423687704,-0.0065060908434091584,-1.3169426110237734
-0.007607965423687704,-0.002807865990825359,-1.320649962004811
-0.007606175423687704,-0.0065060908434091584,-1.3169426110237734
-0.007604385423687704,-0.010204315695992958,-1.320649962004811
-0.007602595423687704,-0.010204315695992958,-1.3169426110237734
-0.007600805423687704,-0.010204315695992958,-1.3169426110237734
-0.007599015423687704,-0.010204315695992958,-1.3169426110237734
-0.007597225423687704,-0.0065060908434091584,-1.320649962004811
-0.007595435423687704,-0.0065060908434091584,-1.3169426110237734
-0.007593645423687704,-0.010204315695991277,-1.3169426110237734
-0.007591855423687704,-0.010204315695992958,-1.3169426110237734
-0.007590065423687704,-0.010204315695992958,-1.320649962004811
-0.007588275423687704,-0.013902540548576758,-1.320649962004811
-0.007586485423687703,-0.010204315695991277,-1.320649962004811
-0.007584695423687704,-0.0065060908434091584,-1.320649962004811
-0.007582905423687704,-0.010204315695992958,-1.320649962004811
-0.007581115423687704,-0.010204315695992958,-1.3169426110237734
-0.0075793254236877034,-0.013902540548576758,-1.3132352600427357
-0.007577535423687704,-0.0065060908434091584,-1.320649962004811
-0.007575745423687704,-0.010204315695992958,-1.3132352600427357
-0.007573955423687704,-0.0065060908434091584,-1.3169426110237734
-0.0075721654236877035,-0.013902540548576758,-1.3169426110237734
-0.007570375423687704,-0.013902540548576758,-1.3169426110237734
-0.007568585423687704,-0.010204315695992958,-1.309527909061698
-0.007566795423687704,-0.013902540548576758,-1.3132352600427357
-0.0075650054236877035,-0.013902540548576758,-1.3169426110237734
-0.007563215423687704,-0.010204315695992958,-1.3169426110237734
-0.007561425423687704,-0.013902540548576758,-1.320649962004811
-0.007559635423687704,-0.010204315695992958,-1.320649962004811
-0.0075578454236877035,-0.017600765401160557,-1.320649962004811
-0.007556055423687704,-0.013902540548576758,-1.320649962004811
-0.007554265423687704,-0.013902540548576758,-1.3132352600427357
-0.007552475423687704,-0.013902540548576758,-1.3169426110237734
-0.0075506854236877035,-0.017600765401160557,-1.3169426110237734
-0.007548895423687704,-0.017600765401160557,-1.3169426110237734
-0.007547105423687704,-0.017600765401160557,-1.320649962004811
-0.007545315423687704,-0.013902540548576758,-1.320649962004811
-0.0075435254236877036,-0.013902540548576758,-1.3169426110237734
-0.007541735423687704,-0.013902540548576758,-1.320649962004811
-0.007539945423687704,-0.017600765401160557,-1.320649962004811
-0.007538155423687704,-0.017600765401160557,-1.3169426110237734
-0.007536365423687704,-0.013902540548576758,-1.320649962004811
-0.007534575423687704,-0.013902540548576758,-1.3169426110237734
-0.007532785423687704,-0.013902540548576758,-1.3169426110237734
-0.007530995423687704,-0.013902540548576758,-1.3169426110237734
-0.007529205423687704,-0.021298990253744356,-1.3169426110237734
-0.007527415423687704,-0.017600765401160557,-1.3169426110237734
-0.007525625423687704,-0.017600765401160557,-1.3169426110237734
-0.007523835423687704,-0.024997215106324792,-1.3132352600427375
-0.007522045423687704,-0.017600765401160557,-1.3169426110237734
-0.007520255423687704,-0.017600765401160557,-1.3169426110237734
-0.007518465423687704,-0.021298990253744356,-1.3169426110237734
-0.007516675423687704,-0.021298990253744356,-1.3132352600427375
-0.007514885423687704,-0.024997215106328158,-1.320649962004811
-0.007513095423687704,-0.021298990253744356,-1.320649962004811
-0.007511305423687704,-0.017600765401160557,-1.3169426110237734
-0.0075095154236877034,-0.013902540548580122,-1.3169426110237716
-0.007507725423687704,-0.021298990253744356,-1.3132352600427357
-0.007505935423687704,-0.024997215106328158,-1.3169426110237734
-0.007504145423687704,-0.024997215106328158,-1.320649962004811
-0.0075023554236877035,-0.024997215106328158,-1.3132352600427357
-0.007500565423687704,-1.2676007655744848,-0.18990791278831415
-0.007498775423687704,-3.1795830143603094,1.3375206913992161
-0.007496985423687704,-3.168488339802558,1.3301059894371408
-0.0074951954236877035,-3.164790114949974,1.326398638456103
-0.007493405423687704,-3.1573936652448067,1.326398638456103
-0.007491615423687704,-3.149997215539639,1.3301059894371408
-0.007489825423687704,-3.1389025409818876,1.3226912874750654
-0.0074880354236877035,-3.13150609127672,1.3226912874750654
-0.007486245423687704,-3.124109641571552,1.3189839364940277
-0.007484455423687704,-3.116713191866385,1.3226912874750654
-0.007482665423687704,-3.109316742161217,1.3226912874750654
-0.0074808754236877035,-3.094523842750882,1.3226912874750654
-0.007479085423687704,-3.0871273930457144,1.3226912874750654
-0.007477295423687704,-3.072334493635379,1.3189839364940277
-0.007475505423687704,-3.0612398190776275,1.3189839364940277
-0.0074737154236877035,-3.0464469196672925,1.31527658551299
-0.007471925423687704,-3.035352245109541,1.31527658551299
-0.007470135423687704,-3.0205593456992057,1.3115692345319523
-0.007468345423687704,-3.0131628959940384,1.31527658551299
-0.0074665554236877036,-2.998369996583703,1.3078618835509146
-0.007464765423687704,-2.9909735468785357,1.3078618835509146
-0.007462975423687704,-2.9761806474682,1.3078618835509146
-0.007461185423687704,-2.968784197763033,1.304154532569877
-0.007459395423687704,-2.961387748057865,1.304154532569877
-0.007457605423687704,-2.9465948486475297,1.3004471815888392
-0.007455815423687704,-2.9318019492371947,1.2967398306078015
-0.007454025423687704,-2.924405499532027,1.2930324796267638
-0.007452235423687704,-2.909612600121692,1.2930324796267638
-0.007450445423687704,-2.8948197007113565,1.3004471815888392
-0.007448655423687704,-2.8874232510061892,1.2930324796267638
-0.007446865423687704,-2.8726303515958604,1.289325128645728
-0.007445075423687704,-2.8652339018906865,1.2893251286457261
-0.007443285423687704,-2.8578374521855188,1.2856177776646884
-0.007441495423687704,-2.8430445527751838,1.2856177776646884
-0.007439705423687703,-2.8430445527751753,1.2856177776646867
-0.007437915423687704,-2.8245534285122647,1.2819104266836507
-0.007436125423687704,-2.8134587539545133,1.2819104266836507
-0.007434335423687704,-2.802364079396762,1.2819104266836507
-0.0074325454236877034,-2.794967629691594,1.2856177776646884
-0.007430755423687704,-2.783872955133843,1.2819104266836507
-0.007428965423687704,-2.776476505428675,1.2856177776646884
-0.007427175423687704,-2.7690800557235073,1.2819104266836507
-0.0074253854236877035,-2.7542871563131723,1.2819104266836507
-0.007423595423687704,-2.7468907066080046,1.2819104266836507
-0.007421805423687704,-2.7357960320502532,1.278203075702613
-0.007420015423687704,-2.724701357492502,1.2744957247215754
-0.0074182254236877035,-2.717304907787334,1.278203075702613
-0.007416435423687704,-2.7062102332295828,1.2744957247215754
-0.007414645423687704,-2.6988137835244155,1.2744957247215754
-0.007412855423687704,-2.687719108966664,1.2744957247215754
-0.0074110654236877035,-2.6803226592614964,1.2744957247215754
-0.007409275423687704,-2.669227984703745,1.2707883737405377
-0.007407485423687704,-2.669227984703745,1.2744957247215754
-0.007405695423687704,-2.6544350852934095,1.2744957247215754
-0.0074039054236877035,-2.6544350852934095,1.278203075702613
-0.007402115423687704,-2.6396421858830745,1.2744957247215754
-0.007400325423687704,-2.635943961030491,1.2707883737405377
-0.007398535423687704,-2.628547511325323,1.2744957247215754
-0.0073967454236877036,-2.617452836767572,1.278203075702613
-0.007394955423687704,-2.617452836767572,1.278203075702613
-0.007393165423687704,-2.613754611914988,1.2744957247215754
-0.007391375423687704,-2.595263487652069,1.278203075702613
-0.007389585423687704,-2.5878670379469013,1.2707883737405377
-0.007387795423687704,-2.57677236338915,1.2744957247215754
-0.007386005423687704,-2.569375913683982,1.2744957247215754
-0.007384215423687704,-2.558281239126231,1.2707883737405377
-0.007382425423687704,-2.5508847894210636,1.2707883737405377
-0.007380635423687704,-2.543488339715896,1.2670810227595
-0.007378845423687704,-2.536091890010728,1.2670810227595
-0.007377055423687704,-2.5323936651581445,1.2670810227595
-0.007375265423687704,-2.5249972154529767,1.2670810227595
-0.007373475423687704,-2.521298990600393,1.2707883737405377
-0.007371685423687704,-2.517600765747809,1.2744957247215754
-0.007369895423687704,-2.5065060911900625,1.2707883737405394
-0.007368105423687704,-2.4917131917797226,1.2707883737405377
-0.007366315423687704,-2.484316742074555,1.2744957247215754
-0.007364525423687704,-2.4806185172219712,1.2707883737405377
-0.0073627354236877034,-2.476920292369384,1.2744957247215771
-0.007360945423687704,-2.46952384266422,1.278203075702613
-0.007359155423687704,-2.465825617811636,1.2670810227595
-0.007357365423687704,-2.4547309432538844,1.2707883737405377
-0.0073555754236877035,-2.4510327184013008,1.2707883737405377
-0.007353785423687704,-2.4399380438435494,1.2707883737405377
-0.007351995423687704,-2.4325415941383817,1.2707883737405377
-0.007350205423687704,-2.4214469195806303,1.2633736717784623
-0.0073484154236877035,-2.4177486947280467,1.2670810227595
-0.007346625423687704,-2.4140504698754626,1.2633736717784623
-0.007344835423687704,-2.402955795317711,1.2670810227595
-0.007343045423687704,-2.3992575704651276,1.2707883737405377
-0.0073412554236877035,-2.39186112075996,1.2744957247215754
-0.007339465423687704,-2.3844646710547925,1.2707883737405377
-0.007337675423687704,-2.377068221349625,1.2707883737405377
-0.007335885423687704,-2.373369996497041,1.2670810227595
-0.0073340954236877035,-2.369671771644457,1.2707883737405377
-0.007332305423687704,-2.3585770970867057,1.2670810227595
-0.007330515423687704,-2.354878872234122,1.2707883737405377
-0.007328725423687704,-2.351180647381538,1.278203075702613
-0.0073269354236877035,-2.351180647381538,1.2744957247215754
-0.007325145423687704,-2.336387747971203,1.2707883737405377
-0.007323355423687704,-2.3252930734134516,1.2744957247215754
-0.007321565423687704,-2.3252930734134516,1.2744957247215754
-0.0073197754236877036,-2.3141983988557002,1.2707883737405377
-0.007317985423687704,-2.3105001740031166,1.2633736717784623
-0.007316195423687704,-2.299405499445365,1.2670810227595
-0.007314405423687704,-2.299405499445365,1.2670810227595
-0.007312615423687704,-2.2883108248876134,1.2707883737405377
-0.007310825423687704,-2.280914375182446,1.2670810227595
-0.007309035423687704,-2.2735179254772784,1.2670810227595
-0.007307245423687704,-2.262423250919527,1.2670810227595
-0.007305455423687704,-2.262423250919527,1.2707883737405377
-0.007303665423687704,-2.2550268012143593,1.2633736717784623
-0.007301875423687704,-2.2550268012143593,1.2670810227595
-0.007300085423687704,-2.243932126656613,1.263373671778464
-0.007298295423687704,-2.2365356769514406,1.2670810227595
-0.007296505423687704,-2.229139227246273,1.2707883737405377
-0.007294715423687704,-2.229139227246273,1.2744957247215754
-0.007292925423687703,-2.2217427775411034,1.2744957247215736
-0.007291135423687704,-2.2180445526885215,1.2707883737405377
-0.007289345423687704,-2.210648102983354,1.2670810227595
-0.007287555423687704,-2.203251653278186,1.2670810227595
-0.0072857654236877034,-2.192156978720431,1.2670810227594982
-0.007283975423687704,-2.1847605290152674,1.2633736717784623
-0.007282185423687704,-2.1847605290152674,1.2670810227595
-0.007280395423687704,-2.1773640793100997,1.2707883737405377
-0.0072786054236877035,-2.169967629604932,1.2670810227595
-0.007276815423687704,-2.169967629604932,1.2670810227595
-0.007275025423687704,-2.155174730194597,1.2670810227595
-0.007273235423687704,-2.1588729550471806,1.2670810227595
-0.0072714454236877035,-2.147778280489429,1.2707883737405377
-0.007269655423687704,-2.147778280489429,1.2670810227595
-0.007267865423687704,-2.1440800556368456,1.2707883737405377
-0.007266075423687704,-2.136683605931678,1.2744957247215754
-0.0072642854236877035,-2.12928715622651,1.2707883737405377
-0.007262495423687704,-2.12928715622651,1.2707883737405377
-0.007260705423687704,-2.121890706521343,1.2670810227595
-0.007258915423687704,-2.114494256816175,1.2707883737405377
-0.0072571254236877035,-2.1107960319635914,1.2744957247215754
-0.007255335423687704,-2.1033995822584237,1.2707883737405377
-0.007253545423687704,-2.0997013574058396,1.2707883737405377
-0.007251755423687704,-2.081210233142921,1.2707883737405377
-0.0072499654236877036,-2.077512008290337,1.2707883737405377
-0.007248175423687704,-2.077512008290337,1.2670810227595
-0.007246385423687704,-2.0701155585851696,1.2670810227595
-0.007244595423687704,-2.0664173337325855,1.2670810227595
-0.007242805423687704,-2.062719108880002,1.2670810227595
-0.007241015423687704,-2.055322659174834,1.2744957247215754
-0.007239225423687704,-2.0479262094696664,1.2707883737405377
-0.007237435423687704,-2.0442279846170828,1.2744957247215754
-0.007235645423687704,-2.040529759764499,1.2707883737405377
-0.007233855423687704,-2.036831534911915,1.2707883737405377
-0.007232065423687704,-2.0257368603541637,1.2670810227595
-0.007230275423687704,-2.02203863550158,1.2707883737405377
-0.007228485423687704,-2.02203863550158,1.2744957247215754
-0.007226695423687704,-2.0146421857964123,1.2744957247215754
-0.007224905423687704,-2.007245736091245,1.2707883737405377
-0.007223115423687704,-2.0035475112386627,1.2670810227595017
-0.007221325423687704,-1.9924528366809093,1.2707883737405377
-0.007219535423687704,-1.9850563869757418,1.2707883737405377
-0.007217745423687704,-1.9850563869757418,1.2670810227595
-0.0072159554236877034,-1.9739617124179887,1.2633736717784623
-0.007214165423687704,-1.9702634875654066,1.2633736717784623
-0.007212375423687704,-1.9591688130076552,1.2633736717784623
-0.007210585423687704,-1.962867037860239,1.2633736717784623
-0.0072087954236877035,-1.9554705881550714,1.2670810227595
-0.007207005423687704,-1.9517723633024877,1.2670810227595
-0.007205215423687704,-1.9517723633024877,1.2707883737405377
-0.007203425423687704,-1.9517723633024877,1.2744957247215754
-0.0072016354236877035,-1.9369794638921525,1.2707883737405377
-0.007199845423687704,-1.9332812390395686,1.2707883737405377
-0.007198055423687704,-1.9332812390395686,1.2744957247215754
-0.007196265423687704,-1.9295830141869847,1.2707883737405377
-0.0071944754236877035,-1.9295830141869847,1.2744957247215754
-0.007192685423687704,-1.9221865644818172,1.2707883737405377
-0.007190895423687704,-1.907393665071482,1.2707883737405377
-0.007189105423687704,-1.9036954402188981,1.2744957247215754
-0.0071873154236877035,-1.8999972153663145,1.2670810227595
-0.007185525423687704,-1.8889025408085631,1.2707883737405377
-0.007183735423687704,-1.8852043159559793,1.2633736717784623
-0.007181945423687704,-1.8778078662508115,1.2633736717784623
-0.0071801554236877035,-1.8778078662508115,1.2633736717784623
-0.007178365423687704,-1.8741096413982279,1.2670810227595
-0.007176575423687704,-1.870411416545644,1.2670810227595
-0.007174785423687704,-1.8630149668404765,1.2670810227595
