200Hz/acq0098.csv

#Digilent WaveForms Oscilloscope Acquisition
#Device Name: Discovery2
#Serial Number: SN:210321AA28BE
#Date Time: 2023-05-24 14:48:06.712
#Sample rate: 558659Hz
#Samples: 8192
#Trigger: Source: Channel 1 Type: Edge Condition: Rising Level: 800 mV Hyst.: Auto HoldOff: 100 ns
#Channel 1: Range: 1 V/div Offset: 0 V Attenuation: 1 X Sample Mode: Average
#Channel 2: Range: 1 V/div Offset: 0 V Attenuation: 1 X Sample Mode: Average

Time (s),Channel 1 (V),Channel 2 (V)
-0.007741368168555605,0.03787260738759644,-1.320649962004811
-0.007739578168555605,0.03787260738759644,-1.320649962004811
-0.007737788168555604,0.04157083224018024,-1.320649962004811
-0.007735998168555604,0.034174382535012635,-1.3169426110237734
-0.007734208168555605,0.03787260738759644,-1.320649962004811
-0.007732418168555604,0.037872607387598116,-1.3132352600427375
-0.007730628168555604,0.04157083224018024,-1.3169426110237734
-0.007728838168555604,0.04157083224018024,-1.320649962004811
-0.007727048168555605,0.04157083224018024,-1.320649962004811
-0.007725258168555604,0.03787260738759644,-1.3169426110237734
-0.007723468168555604,0.03787260738759644,-1.320649962004811
-0.007721678168555604,0.034174382535012635,-1.3169426110237734
-0.007719888168555605,0.034174382535012635,-1.320649962004811
-0.007718098168555604,0.03787260738759644,-1.3169426110237734
-0.007716308168555604,0.034174382535012635,-1.3169426110237734
-0.0077145181685556044,0.034174382535012635,-1.3169426110237734
-0.007712728168555605,0.034174382535012635,-1.3169426110237734
-0.007710938168555604,0.03047615768242884,-1.3132352600427357
-0.007709148168555604,0.03787260738759644,-1.3132352600427357
-0.0077073581685556045,0.034174382535012635,-1.3169426110237734
-0.007705568168555605,0.03047615768242884,-1.3169426110237734
-0.007703778168555604,0.03047615768242884,-1.320649962004811
-0.007701988168555604,0.03047615768242884,-1.320649962004811
-0.0077001981685556045,0.034174382535012635,-1.320649962004811
-0.007698408168555605,0.03047615768242884,-1.320649962004811
-0.007696618168555604,0.03047615768242884,-1.3169426110237734
-0.007694828168555604,0.03047615768242884,-1.320649962004811
-0.0076930381685556045,0.03047615768242884,-1.320649962004811
-0.007691248168555605,0.03047615768242884,-1.3169426110237734
-0.007689458168555604,0.03047615768242884,-1.3169426110237734
-0.007687668168555604,0.026777932829845037,-1.3132352600427357
-0.0076858781685556045,0.026777932829845037,-1.3169426110237734
-0.007684088168555605,0.03047615768242884,-1.320649962004811
-0.007682298168555604,0.026777932829845037,-1.3169426110237734
-0.007680508168555604,0.026777932829845037,-1.320649962004811
-0.0076787181685556045,0.034174382535012635,-1.3169426110237734
-0.007676928168555605,0.03047615768242884,-1.3243573129858488
-0.007675138168555604,0.026777932829845037,-1.320649962004811
-0.007673348168555604,0.026777932829845037,-1.320649962004811
-0.0076715581685556046,0.02307970797726124,-1.320649962004811
-0.007669768168555605,0.026777932829843355,-1.320649962004811
-0.007667978168555604,0.03047615768242884,-1.3169426110237734
-0.007666188168555604,0.02307970797726124,-1.320649962004811
-0.007664398168555605,0.02307970797726124,-1.320649962004811
-0.007662608168555604,0.026777932829843355,-1.3243573129858488
-0.007660818168555604,0.02307970797726124,-1.3243573129858488
-0.007659028168555604,0.026777932829845037,-1.320649962004811
-0.007657238168555605,0.026777932829845037,-1.3169426110237734
-0.007655448168555604,0.023079707977257877,-1.3169426110237734
-0.007653658168555604,0.015683258272093638,-1.3169426110237734
-0.007651868168555604,0.02307970797726124,-1.3132352600427357
-0.007650078168555605,0.01938148312467744,-1.320649962004811
-0.007648288168555604,0.026777932829845037,-1.3169426110237734
-0.007646498168555604,0.02307970797726124,-1.3169426110237734
-0.007644708168555604,0.02307970797726124,-1.3169426110237734
-0.007642918168555605,0.02307970797726124,-1.320649962004811
-0.007641128168555604,0.01938148312467744,-1.3243573129858488
-0.007639338168555604,0.01938148312467744,-1.3169426110237734
-0.0076375481685556044,0.01938148312467744,-1.3169426110237734
-0.007635758168555605,0.01938148312467744,-1.3169426110237734
-0.007633968168555604,0.01938148312467744,-1.3169426110237734
-0.007632178168555604,0.01938148312467744,-1.3132352600427357
-0.0076303881685556045,0.01938148312467744,-1.3169426110237734
-0.007628598168555605,0.02307970797726124,-1.320649962004811
-0.007626808168555604,0.01938148312467744,-1.3169426110237734
-0.007625018168555604,0.01938148312467744,-1.320649962004811
-0.0076232281685556045,0.01938148312467744,-1.320649962004811
-0.007621438168555605,0.01198503341950984,-1.320649962004811
-0.007619648168555604,0.01938148312467744,-1.3169426110237734
-0.007617858168555604,0.01198503341950984,-1.320649962004811
-0.0076160681685556045,0.01938148312467744,-1.320649962004811
-0.007614278168555605,0.015683258272093638,-1.320649962004811
-0.007612488168555604,0.015683258272093638,-1.3169426110237734
-0.007610698168555604,0.015683258272093638,-1.320649962004811
-0.0076089081685556045,0.015683258272093638,-1.3169426110237734
-0.007607118168555605,0.01938148312467744,-1.3169426110237734
-0.007605328168555604,0.01938148312467744,-1.3169426110237734
-0.007603538168555604,0.01938148312467744,-1.3169426110237734
-0.0076017481685556046,0.015683258272093638,-1.3169426110237734
-0.007599958168555605,0.015683258272093638,-1.3169426110237734
-0.007598168168555604,0.00828680856692604,-1.320649962004811
-0.007596378168555604,0.015683258272093638,-1.320649962004811
-0.007594588168555605,0.015683258272093638,-1.320649962004811
-0.007592798168555605,0.011985033419511522,-1.3169426110237752
-0.007591008168555604,0.01198503341950984,-1.320649962004811
-0.007589218168555604,0.015683258272093638,-1.3169426110237734
-0.007587428168555605,0.01198503341950984,-1.3132352600427357
-0.007585638168555604,0.01198503341950984,-1.320649962004811
-0.007583848168555604,0.01198503341950984,-1.320649962004811
-0.007582058168555604,0.00828680856692604,-1.3169426110237734
-0.007580268168555605,0.00828680856692604,-1.320649962004811
-0.007578478168555604,0.00458858371434224,-1.320649962004811
-0.007576688168555604,0.00458858371434224,-1.3169426110237734
-0.007574898168555604,0.00828680856692604,-1.3169426110237734
-0.007573108168555605,0.00828680856692604,-1.320649962004811
-0.007571318168555604,0.00828680856692604,-1.3169426110237734
-0.007569528168555604,0.00828680856692604,-1.320649962004811
-0.0075677381685556044,0.00828680856692604,-1.3169426110237734
-0.007565948168555605,0.01198503341950984,-1.3169426110237734
-0.007564158168555604,0.01198503341950984,-1.3169426110237734
-0.007562368168555604,0.015683258272093638,-1.3132352600427357
-0.0075605781685556045,0.00828680856692604,-1.3169426110237734
-0.007558788168555605,0.00458858371434224,-1.3243573129858488
-0.007556998168555604,0.00458858371434224,-1.3243573129858488
-0.007555208168555604,0.00458858371434224,-1.3169426110237734
-0.0075534181685556045,0.00458858371434224,-1.3169426110237734
-0.007551628168555605,0.00458858371434224,-1.3132352600427357
-0.007549838168555604,0.00458858371434224,-1.3132352600427357
-0.007548048168555604,0.0008903588617584406,-1.3132352600427357
-0.0075462581685556045,0.00458858371434224,-1.3132352600427357
-0.007544468168555605,0.0008903588617584406,-1.3132352600427357
-0.007542678168555604,0.00458858371434224,-1.320649962004811
-0.007540888168555604,0.00458858371434224,-1.3169426110237734
-0.0075390981685556045,0.00458858371434224,-1.320649962004811
-0.007537308168555605,0.00828680856692604,-1.3169426110237734
-0.007535518168555604,0.00458858371434224,-1.320649962004811
-0.007533728168555604,0.00458858371434224,-1.320649962004811
-0.0075319381685556045,0.0008903588617584406,-1.320649962004811
-0.007530148168555605,0.00458858371434224,-1.3132352600427357
-0.007528358168555604,-0.002807865990825359,-1.3169426110237734
-0.007526568168555604,0.0008903588617584406,-1.320649962004811
-0.0075247781685556046,0.0008903588617584406,-1.320649962004811
-0.007522988168555605,0.004588583714340558,-1.320649962004811
-0.007521198168555604,0.00458858371434224,-1.320649962004811
-0.007519408168555604,-0.002807865990825359,-1.320649962004811
-0.007517618168555605,0.0008903588617584406,-1.320649962004811
-0.007515828168555605,-0.002807865990823677,-1.320649962004811
-0.007514038168555604,0.0008903588617584406,-1.3169426110237734
-0.007512248168555604,-0.002807865990825359,-1.320649962004811
-0.007510458168555605,-0.002807865990825359,-1.3169426110237734
-0.007508668168555604,0.00458858371434224,-1.3169426110237752
-0.007506878168555604,0.00458858371434224,-1.320649962004811
-0.007505088168555604,0.0008903588617584406,-1.3132352600427357
-0.007503298168555605,-0.002807865990825359,-1.320649962004811
-0.007501508168555604,-0.23949425655618853,-1.0351839364649087
-0.007499718168555604,-3.168488339802558,1.3338133404181785
-0.007497928168555604,-3.164790114949974,1.3338133404181785
-0.007496138168555605,-3.1536954403922226,1.326398638456103
-0.007494348168555604,-3.1426007658344712,1.326398638456103
-0.007492558168555604,-3.1389025409818876,1.3226912874750654
-0.0074907681685556044,-3.13150609127672,1.3226912874750654
-0.007488978168555605,-3.124109641571552,1.3226912874750654
-0.007487188168555604,-3.116713191866385,1.326398638456103
-0.007485398168555604,-3.109316742161217,1.326398638456103
-0.0074836081685556045,-3.0982220676034657,1.326398638456103
-0.007481818168555605,-3.090825617898298,1.3226912874750654
-0.007480028168555604,-3.076032718487963,1.3189839364940277
-0.007478238168555604,-3.0612398190776275,1.3189839364940277
-0.0074764481685556045,-3.042748694814709,1.31527658551299
-0.007474658168555605,-3.0279557954043734,1.31527658551299
-0.007472868168555604,-3.0131628959940384,1.3115692345319523
-0.007471078168555604,-3.002068221436287,1.3078618835509146
-0.0074692881685556045,-2.9909735468785357,1.3078618835509146
-0.007467498168555605,-2.9798788723207843,1.3078618835509146
-0.007465708168555604,-2.9724824226156166,1.3078618835509146
-0.007463918168555604,-2.961387748057865,1.304154532569877
-0.0074621281685556045,-2.950293073500114,1.304154532569877
-0.007460338168555605,-2.9355001740897784,1.304154532569877
-0.007458548168555604,-2.924405499532027,1.2967398306078015
-0.007456758168555604,-2.9170090498268597,1.2967398306078015
-0.0074549681685556046,-2.9059143752691083,1.2967398306078015
-0.007453178168555605,-2.8874232510061892,1.2967398306078015
-0.007451388168555604,-2.8874232510061892,1.2930324796267638
-0.007449598168555604,-2.872630351595854,1.2930324796267638
-0.007447808168555605,-2.8652339018906865,1.3004471815888392
-0.007446018168555605,-2.85413922733294,1.2967398306078033
-0.007444228168555604,-2.8393463279225997,1.2893251286457261
-0.007442438168555604,-2.8282516533648483,1.2856177776646884
-0.007440648168555605,-2.809760529101929,1.2856177776646884
-0.007438858168555604,-2.802364079396757,1.2856177776646867
-0.007437068168555604,-2.7912694048390105,1.2819104266836507
-0.007435278168555604,-2.783872955133843,1.2819104266836507
-0.007433488168555605,-2.7690800557235073,1.278203075702613
-0.007431698168555604,-2.7653818308709237,1.278203075702613
-0.007429908168555604,-2.7542871563131723,1.278203075702613
-0.007428118168555604,-2.743192481755421,1.2819104266836507
-0.007426328168555605,-2.7320978071976696,1.2856177776646884
-0.007424538168555604,-2.721003132639918,1.278203075702613
-0.007422748168555604,-2.717304907787334,1.278203075702613
-0.0074209581685556044,-2.709908458082167,1.278203075702613
-0.007419168168555605,-2.6951155586718314,1.2819104266836507
-0.007417378168555604,-2.6988137835244155,1.2819104266836507
-0.007415588168555604,-2.6803226592614964,1.2819104266836507
-0.0074137981685556045,-2.6729262095563286,1.2744957247215754
-0.007412008168555605,-2.6655297598511614,1.2744957247215754
-0.007410218168555604,-2.6581333101459936,1.2744957247215754
-0.007408428168555604,-2.6470386355882423,1.278203075702613
-0.0074066381685556045,-2.635943961030491,1.2707883737405377
-0.007404848168555605,-2.6248492864727395,1.2744957247215754
-0.007403058168555604,-2.617452836767572,1.2707883737405377
-0.007401268168555604,-2.613754611914988,1.2707883737405377
-0.0073994781685556045,-2.6063581622098204,1.2707883737405377
-0.007397688168555605,-2.5989617125046527,1.2707883737405377
-0.007395898168555604,-2.591565262799485,1.2707883737405377
-0.007394108168555604,-2.5804705882417336,1.2670810227595
-0.0073923181685556045,-2.569375913683982,1.2707883737405377
-0.007390528168555605,-2.5656776888313986,1.2744957247215754
-0.007388738168555604,-2.558281239126231,1.2707883737405377
-0.007386948168555604,-2.5508847894210636,1.2744957247215754
-0.0073851581685556045,-2.543488339715896,1.278203075702613
-0.007383368168555605,-2.539790114863312,1.278203075702613
-0.007381578168555604,-2.5286954403055604,1.2819104266836507
-0.007379788168555604,-2.521298990600393,1.278203075702613
-0.0073779981685556046,-2.517600765747809,1.2707883737405377
-0.007376208168555605,-2.4991096414848903,1.2707883737405377
-0.007374418168555604,-2.4917131917797226,1.2707883737405377
-0.007372628168555604,-2.484316742074555,1.2670810227595
-0.007370838168555605,-2.4769202923693876,1.2707883737405377
-0.007369048168555605,-2.4732220675168053,1.2707883737405377
-0.007367258168555604,-2.465825617811636,1.2707883737405377
-0.007365468168555604,-2.4547309432538844,1.2744957247215754
-0.007363678168555605,-2.447334493548717,1.2744957247215754
-0.007361888168555604,-2.4473344935487136,1.2670810227595
-0.007360098168555604,-2.4399380438435494,1.2670810227595
-0.007358308168555604,-2.428843369285798,1.2670810227595
-0.007356518168555605,-2.4251451444332144,1.2744957247215754
-0.007354728168555604,-2.4177486947280467,1.2707883737405377
-0.007352938168555604,-2.410352245022879,1.2744957247215754
-0.007351148168555604,-2.410352245022879,1.2744957247215754
-0.007349358168555605,-2.402955795317711,1.2707883737405377
-0.007347568168555604,-2.395559345612544,1.2707883737405377
-0.007345778168555604,-2.377068221349625,1.2707883737405377
-0.0073439881685556044,-2.373369996497041,1.2707883737405377
-0.007342198168555605,-2.3659735467918734,1.2633736717784623
-0.007340408168555604,-2.36227532193929,1.2670810227595
-0.007338618168555604,-2.354878872234122,1.2670810227595
-0.0073368281685556045,-2.3474824225289543,1.2670810227595
-0.007335038168555605,-2.3437841976763707,1.2670810227595
-0.007333248168555604,-2.3289912982660352,1.2633736717784623
-0.007331458168555604,-2.3326895231186193,1.2633736717784623
-0.0073296681685556045,-2.3252930734134516,1.2670810227595
-0.007327878168555605,-2.317896623708284,1.2707883737405377
-0.007326088168555604,-2.3105001740031166,1.2707883737405377
-0.007324298168555604,-2.3068019491505325,1.2744957247215754
-0.0073225081685556045,-2.295707274592781,1.2744957247215754
-0.007320718168555605,-2.2920090497401975,1.2744957247215754
-0.007318928168555604,-2.2920090497401975,1.2744957247215754
-0.007317138168555604,-2.2846126000350298,1.278203075702613
-0.0073153481685556045,-2.277216150329862,1.2707883737405377
-0.007313558168555605,-2.2661214757721106,1.2707883737405377
-0.007311768168555604,-2.2513285763617756,1.2707883737405377
-0.007309978168555604,-2.247630351509192,1.2670810227595
-0.0073081881685556046,-2.247630351509192,1.2707883737405377
-0.007306398168555605,-2.2365356769514406,1.2707883737405377
-0.007304608168555604,-2.229139227246273,1.2744957247215754
-0.007302818168555604,-2.229139227246273,1.2707883737405377
-0.007301028168555605,-2.2180445526885215,1.2707883737405377
-0.007299238168555605,-2.206949878130775,1.2670810227595017
-0.007297448168555604,-2.210648102983354,1.2670810227595
-0.007295658168555604,-2.1995534284256024,1.2707883737405377
-0.007293868168555605,-2.1921569787204347,1.2670810227595
-0.007292078168555604,-2.192156978720433,1.2670810227595
-0.007290288168555604,-2.188458753867851,1.2670810227595
-0.007288498168555604,-2.1773640793100997,1.2707883737405377
-0.007286708168555605,-2.169967629604932,1.2670810227595
-0.007284918168555604,-2.1662694047523465,1.2707883737405377
-0.007283128168555604,-2.162571179899764,1.2707883737405377
-0.007281338168555604,-2.155174730194597,1.2707883737405377
-0.007279548168555605,-2.155174730194597,1.2670810227595
-0.007277758168555604,-2.1440800556368456,1.2670810227595
-0.007275968168555604,-2.136683605931678,1.2707883737405377
-0.0072741781685556044,-2.132985381079094,1.2670810227595
-0.007272388168555605,-2.121890706521343,1.2633736717784623
-0.007270598168555604,-2.114494256816175,1.2670810227595
-0.007268808168555604,-2.1107960319635914,1.2707883737405377
-0.0072670181685556045,-2.1070978071110074,1.2744957247215754
-0.007265228168555605,-2.1033995822584237,1.2707883737405377
-0.007263438168555604,-2.096003132553256,1.2707883737405377
-0.007261648168555604,-2.0923049077006723,1.2707883737405377
-0.0072598581685556045,-2.081210233142921,1.2707883737405377
-0.007258068168555605,-2.077512008290337,1.2744957247215754
-0.007256278168555604,-2.0738137834377532,1.2707883737405377
-0.007254488168555604,-2.0701155585851696,1.2744957247215754
-0.0072526981685556045,-2.0664173337325855,1.2707883737405377
-0.007250908168555605,-2.062719108880002,1.2744957247215754
-0.007249118168555604,-2.055322659174834,1.2707883737405377
-0.007247328168555604,-2.0516244343222505,1.2744957247215754
-0.0072455381685556045,-2.040529759764499,1.2744957247215754
-0.007243748168555605,-2.036831534911915,1.2707883737405377
-0.007241958168555604,-2.0257368603541637,1.2707883737405377
-0.007240168168555604,-2.0183404106489964,1.2707883737405377
-0.0072383781685556045,-2.0146421857964123,1.2670810227595
-0.007236588168555605,-2.007245736091245,1.2670810227595
-0.007234798168555604,-2.007245736091245,1.2670810227595
-0.007233008168555604,-1.9961510615334932,1.2670810227595
-0.0072312181685556046,-1.9961510615334932,1.2707883737405377
-0.007229428168555605,-1.9887546118283257,1.2670810227595
-0.007227638168555604,-1.9887546118283257,1.2670810227595
-0.007225848168555604,-1.981358162123158,1.2707883737405377
-0.007224058168555605,-1.9739617124179905,1.2670810227595
-0.007222268168555605,-1.9702634875654084,1.2670810227595
-0.007220478168555604,-1.9665652627128227,1.2707883737405377
-0.007218688168555604,-1.9665652627128227,1.2707883737405377
-0.007216898168555605,-1.9554705881550714,1.2744957247215754
-0.007215108168555604,-1.951772363302486,1.2707883737405359
-0.007213318168555604,-1.9480741384499038,1.2670810227595
-0.007211528168555604,-1.9369794638921525,1.2670810227595
-0.007209738168555605,-1.9332812390395686,1.2670810227595
-0.007207948168555604,-1.925884789334401,1.2670810227595
-0.007206158168555604,-1.9221865644818172,1.2670810227595
-0.007204368168555604,-1.9147901147766497,1.2670810227595
-0.007202578168555605,-1.9110918899240659,1.2670810227595
-0.007200788168555604,-1.907393665071482,1.2707883737405377
-0.007198998168555604,-1.9036954402188981,1.2707883737405377
-0.0071972081685556044,-1.8999972153663145,1.2707883737405377
-0.007195418168555605,-1.8962989905137306,1.2707883737405377
-0.007193628168555604,-1.8852043159559793,1.2707883737405377
-0.007191838168555604,-1.8852043159559793,1.2707883737405377
-0.0071900481685556045,-1.8778078662508115,1.2707883737405377
-0.007188258168555605,-1.870411416545644,1.2670810227595
-0.007186468168555604,-1.8741096413982279,1.2707883737405377
-0.007184678168555604,-1.870411416545644,1.2744957247215754
-0.0071828881685556045,-1.8630149668404765,1.2744957247215754
-0.007181098168555605,-1.8593167419878927,1.2707883737405377
-0.007179308168555604,-1.8482220674301413,1.2707883737405377
-0.007177518168555604,-1.8482220674301413,1.2707883737405377
-0.0071757281685556045,-1.8408256177249736,1.2707883737405377
-0.007173938168555605,-1.8297309431672222,1.2670810227595
-0.007172148168555604,-1.8223344934620547,1.2633736717784623
-0.007170358168555604,-1.8186362686094708,1.2633736717784623
