200Hz/acq0071.csv

#Digilent WaveForms Oscilloscope Acquisition
#Device Name: Discovery2
#Serial Number: SN:210321AA28BE
#Date Time: 2023-05-24 14:48:05.946
#Sample rate: 558659Hz
#Samples: 8192
#Trigger: Source: Channel 1 Type: Edge Condition: Rising Level: 800 mV Hyst.: Auto HoldOff: 100 ns
#Channel 1: Range: 1 V/div Offset: 0 V Attenuation: 1 X Sample Mode: Average
#Channel 2: Range: 1 V/div Offset: 0 V Attenuation: 1 X Sample Mode: Average

Time (s),Channel 1 (V),Channel 2 (V)
-0.007741009513556985,0.015683258272093638,-1.3169426110237734
-0.0077392195135569854,0.023079707977257877,-1.3169426110237734
-0.007737429513556985,0.02307970797726124,-1.320649962004811
-0.007735639513556985,0.02307970797726124,-1.3169426110237734
-0.007733849513556985,0.02307970797726124,-1.320649962004811
-0.007732059513556985,0.026777932829839993,-1.3169426110237752
-0.007730269513556985,0.015683258272093638,-1.320649962004811
-0.007728479513556985,0.015683258272093638,-1.320649962004811
-0.007726689513556985,0.015683258272093638,-1.320649962004811
-0.007724899513556985,0.02307970797726124,-1.320649962004811
-0.007723109513556985,0.02307970797726124,-1.320649962004811
-0.007721319513556985,0.01938148312467744,-1.3132352600427357
-0.007719529513556985,0.015683258272093638,-1.320649962004811
-0.007717739513556985,0.01938148312467744,-1.3169426110237734
-0.007715949513556985,0.01938148312467744,-1.320649962004811
-0.007714159513556985,0.01938148312467744,-1.3243573129858488
-0.007712369513556985,0.02307970797726124,-1.320649962004811
-0.007710579513556985,0.015683258272093638,-1.3169426110237734
-0.007708789513556985,0.01198503341950984,-1.3243573129858488
-0.007706999513556985,0.01938148312467744,-1.320649962004811
-0.007705209513556985,0.015683258272093638,-1.320649962004811
-0.007703419513556985,0.01198503341950984,-1.320649962004811
-0.007701629513556985,0.01198503341950984,-1.320649962004811
-0.007699839513556985,0.00828680856692604,-1.320649962004811
-0.007698049513556985,0.00458858371434224,-1.3243573129858488
-0.007696259513556985,0.00828680856692604,-1.320649962004811
-0.007694469513556985,0.01198503341950984,-1.3169426110237734
-0.007692679513556985,0.015683258272093638,-1.320649962004811
-0.007690889513556985,0.015683258272093638,-1.320649962004811
-0.007689099513556985,0.00828680856692604,-1.320649962004811
-0.007687309513556985,0.01198503341950984,-1.3169426110237734
-0.007685519513556985,0.01198503341950984,-1.3169426110237734
-0.007683729513556985,0.00828680856692604,-1.3169426110237734
-0.007681939513556985,0.015683258272093638,-1.3243573129858488
-0.007680149513556985,0.00458858371434224,-1.320649962004811
-0.007678359513556985,0.00828680856692604,-1.320649962004811
-0.007676569513556985,0.01198503341950984,-1.3169426110237734
-0.007674779513556985,0.00458858371434224,-1.320649962004811
-0.007672989513556985,0.00458858371434224,-1.3169426110237734
-0.007671199513556985,0.00828680856692604,-1.320649962004811
-0.007669409513556985,0.00828680856692604,-1.3169426110237752
-0.007667619513556985,0.01198503341950984,-1.3169426110237734
-0.007665829513556985,0.00828680856692604,-1.3169426110237734
-0.007664039513556985,0.00458858371434224,-1.3169426110237734
-0.007662249513556985,0.00828680856692604,-1.320649962004811
-0.007660459513556985,0.00828680856692604,-1.320649962004811
-0.007658669513556985,0.00458858371434224,-1.320649962004811
-0.007656879513556985,0.00828680856692604,-1.320649962004811
-0.007655089513556985,0.00458858371434224,-1.320649962004811
-0.007653299513556985,0.00458858371434224,-1.320649962004811
-0.007651509513556985,0.00458858371434224,-1.320649962004811
-0.007649719513556985,0.00458858371434224,-1.320649962004811
-0.007647929513556985,0.0008903588617584406,-1.320649962004811
-0.007646139513556985,0.0008903588617584406,-1.3169426110237734
-0.007644349513556985,0.00458858371434224,-1.3169426110237734
-0.007642559513556985,0.00828680856692604,-1.320649962004811
-0.007640769513556985,0.0008903588617584406,-1.320649962004811
-0.007638979513556985,-0.002807865990825359,-1.3169426110237734
-0.007637189513556985,0.00458858371434224,-1.3169426110237734
-0.007635399513556985,-0.002807865990825359,-1.3243573129858488
-0.007633609513556985,0.0008903588617584406,-1.320649962004811
-0.007631819513556985,0.0008903588617584406,-1.320649962004811
-0.007630029513556985,-0.002807865990825359,-1.3169426110237734
-0.007628239513556985,-0.002807865990825359,-1.320649962004811
-0.007626449513556985,0.0008903588617584406,-1.320649962004811
-0.007624659513556985,0.0008903588617584406,-1.320649962004811
-0.007622869513556985,-0.0065060908434091584,-1.320649962004811
-0.007621079513556985,0.00458858371434224,-1.320649962004811
-0.007619289513556985,0.0008903588617584406,-1.3169426110237734
-0.007617499513556985,0.0008903588617584406,-1.3169426110237734
-0.007615709513556985,-0.002807865990825359,-1.320649962004811
-0.007613919513556985,-0.0065060908434091584,-1.320649962004811
-0.007612129513556985,-0.0065060908434091584,-1.320649962004811
-0.007610339513556985,-0.0065060908434091584,-1.320649962004811
-0.007608549513556985,-0.002807865990825359,-1.320649962004811
-0.007606759513556985,-0.0065060908434091584,-1.3169426110237734
-0.007604969513556985,-0.0065060908434091584,-1.320649962004811
-0.007603179513556985,-0.010204315695992958,-1.320649962004811
-0.007601389513556985,-0.010204315695992958,-1.320649962004811
-0.007599599513556985,-0.010204315695992958,-1.3169426110237734
-0.007597809513556985,-0.002807865990825359,-1.3169426110237734
-0.007596019513556985,-0.0065060908434091584,-1.3169426110237734
-0.007594229513556985,-0.0065060908434091584,-1.320649962004811
-0.0075924395135569854,-0.0065060908434091584,-1.324357312985847
-0.007590649513556985,0.0008903588617584406,-1.3243573129858488
-0.007588859513556985,-0.0065060908434091584,-1.3169426110237734
-0.007587069513556985,-0.010204315695992958,-1.320649962004811
-0.007585279513556985,-0.0028078659908270407,-1.3169426110237734
-0.007583489513556985,-0.0065060908434091584,-1.3169426110237734
-0.007581699513556985,-0.0065060908434091584,-1.3169426110237734
-0.007579909513556985,-0.010204315695992958,-1.3169426110237734
-0.007578119513556985,-0.010204315695992958,-1.3169426110237734
-0.007576329513556985,-0.013902540548576758,-1.320649962004811
-0.007574539513556985,-0.013902540548576758,-1.320649962004811
-0.007572749513556985,-0.0065060908434091584,-1.320649962004811
-0.007570959513556985,-0.0065060908434091584,-1.3169426110237734
-0.007569169513556985,-0.010204315695992958,-1.320649962004811
-0.007567379513556985,-0.002807865990825359,-1.3169426110237734
-0.007565589513556985,-0.002807865990825359,-1.320649962004811
-0.007563799513556985,-0.013902540548576758,-1.3169426110237734
-0.007562009513556985,-0.010204315695992958,-1.3169426110237734
-0.007560219513556985,-0.010204315695992958,-1.320649962004811
-0.007558429513556985,-0.010204315695992958,-1.320649962004811
-0.007556639513556985,-0.0065060908434091584,-1.320649962004811
-0.007554849513556985,-0.013902540548576758,-1.3169426110237734
-0.007553059513556985,-0.0065060908434091584,-1.320649962004811
-0.007551269513556985,-0.010204315695992958,-1.3243573129858488
-0.007549479513556985,-0.0065060908434091584,-1.320649962004811
-0.007547689513556985,-0.0065060908434091584,-1.3243573129858488
-0.007545899513556985,-0.010204315695992958,-1.3169426110237734
-0.007544109513556985,-0.013902540548576758,-1.320649962004811
-0.007542319513556985,-0.010204315695992958,-1.320649962004811
-0.007540529513556985,-0.0065060908434091584,-1.320649962004811
-0.007538739513556985,-0.013902540548576758,-1.320649962004811
-0.007536949513556985,-0.013902540548576758,-1.320649962004811
-0.007535159513556985,-0.013902540548576758,-1.320649962004811
-0.007533369513556985,-0.013902540548576758,-1.320649962004811
-0.007531579513556985,-0.013902540548576758,-1.3243573129858488
-0.007529789513556985,-0.013902540548576758,-1.3169426110237734
-0.007527999513556985,-0.010204315695992958,-1.320649962004811
-0.007526209513556985,-0.013902540548576758,-1.3243573129858488
-0.007524419513556985,-0.017600765401160557,-1.3243573129858488
-0.007522629513556985,-0.013902540548578441,-1.3243573129858488
-0.007520839513556985,-0.017600765401160557,-1.3169426110237734
-0.007519049513556985,-0.017600765401160557,-1.320649962004811
-0.007517259513556985,-0.021298990253744356,-1.3243573129858488
-0.0075154695135569854,-0.021298990253744356,-1.3206499620048129
-0.007513679513556985,-0.017600765401160557,-1.320649962004811
-0.007511889513556985,-0.021298990253744356,-1.3169426110237734
-0.007510099513556985,-0.017600765401160557,-1.320649962004811
-0.007508309513556985,-0.017600765401160557,-1.3206499620048129
-0.007506519513556985,-0.017600765401160557,-1.3243573129858488
-0.007504729513556985,-0.021298990253744356,-1.3243573129858488
-0.007502939513556985,-0.021298990253744356,-1.320649962004811
-0.007501149513556985,-0.9051747300212725,-0.49391069323340514
-0.007499359513556985,-3.183281239212893,1.3412280423802538
-0.007497569513556985,-3.1721865646551417,1.3375206913992161
-0.007495779513556985,-3.1610918900973903,1.3301059894371408
-0.007493989513556985,-3.1536954403922226,1.326398638456103
-0.007492199513556985,-3.149997215539639,1.326398638456103
-0.007490409513556985,-3.1426007658344712,1.3226912874750654
-0.007488619513556985,-3.1352043161293035,1.3189839364940277
-0.007486829513556985,-3.1204114167189685,1.3189839364940277
-0.007485039513556985,-3.109316742161217,1.3226912874750654
-0.007483249513556985,-3.1056185173086335,1.3226912874750654
-0.007481459513556985,-3.0982220676034657,1.31527658551299
-0.007479669513556985,-3.090825617898298,1.31527658551299
-0.007477879513556985,-3.0797309433405466,1.3189839364940277
-0.007476089513556985,-3.0612398190776275,1.31527658551299
-0.007474299513556985,-3.050145144519876,1.31527658551299
-0.007472509513556985,-3.035352245109541,1.31527658551299
-0.007470719513556985,-3.0279557954043734,1.3115692345319523
-0.007468929513556985,-3.016861120846622,1.3115692345319523
-0.007467139513556985,-3.002068221436287,1.31527658551299
-0.007465349513556985,-2.9872753220259516,1.3078618835509146
-0.007463559513556985,-2.9761806474682,1.3078618835509146
-0.007461769513556985,-2.9724824226156166,1.304154532569877
-0.007459979513556985,-2.950293073500114,1.2967398306078015
-0.007458189513556985,-2.9355001740897784,1.2930324796267638
-0.007456399513556985,-2.928103724384611,1.2930324796267638
-0.007454609513556985,-2.9170090498268597,1.2930324796267638
-0.007452819513556985,-2.9022161504165243,1.2893251286457261
-0.007451029513556985,-2.8948197007113565,1.2893251286457261
-0.007449239513556985,-2.8874232510061892,1.2930324796267638
-0.007447449513556985,-2.876328576448438,1.2893251286457261
-0.0074456595135569854,-2.8652339018906914,1.2893251286457261
-0.007443869513556985,-2.854139227332935,1.2819104266836507
-0.007442079513556985,-2.8467427776277674,1.2893251286457261
-0.007440289513556985,-2.831949878217432,1.2856177776646884
-0.007438499513556985,-2.8245534285122598,1.2856177776646884
-0.007436709513556985,-2.8134587539545133,1.2856177776646884
-0.007434919513556985,-2.802364079396762,1.2819104266836507
-0.007433129513556985,-2.794967629691594,1.2856177776646884
-0.007431339513556985,-2.783872955133843,1.2893251286457261
-0.007429549513556985,-2.7727782805760914,1.2856177776646884
-0.007427759513556985,-2.76168360601834,1.2819104266836507
-0.007425969513556985,-2.757985381165756,1.2744957247215754
-0.007424179513556985,-2.7468907066080046,1.2744957247215754
-0.007422389513556985,-2.7357960320502532,1.278203075702613
-0.007420599513556985,-2.728399582345086,1.2744957247215754
-0.007418809513556985,-2.7136066829347505,1.2707883737405377
-0.007417019513556985,-2.7062102332295828,1.278203075702613
-0.007415229513556985,-2.6951155586718314,1.278203075702613
-0.007413439513556985,-2.68402088411408,1.278203075702613
-0.007411649513556985,-2.6803226592614964,1.278203075702613
-0.007409859513556985,-2.6655297598511614,1.278203075702613
-0.007408069513556985,-2.6618315349985773,1.2744957247215754
-0.007406279513556985,-2.6544350852934095,1.2707883737405377
-0.007404489513556985,-2.6470386355882423,1.2744957247215754
-0.007402699513556985,-2.6396421858830745,1.2744957247215754
-0.007400909513556985,-2.628547511325323,1.2707883737405377
-0.007399119513556985,-2.6248492864727395,1.2744957247215754
-0.007397329513556985,-2.6248492864727395,1.2744957247215754
-0.007395539513556985,-2.6026599373572368,1.2744957247215754
-0.007393749513556985,-2.5989617125046527,1.2707883737405377
-0.007391959513556985,-2.5878670379469013,1.2744957247215754
-0.007390169513556985,-2.57677236338915,1.2744957247215754
-0.007388379513556985,-2.5656776888313986,1.2670810227595
-0.007386589513556985,-2.561979463978815,1.2670810227595
-0.007384799513556985,-2.558281239126231,1.2707883737405377
-0.007383009513556985,-2.5471865645684795,1.2670810227595
-0.007381219513556985,-2.543488339715896,1.2670810227595
-0.007379429513556985,-2.536091890010728,1.2707883737405377
-0.007377639513556985,-2.5323936651581445,1.2707883737405377
-0.007375849513556985,-2.521298990600393,1.2744957247215754
-0.007374059513556985,-2.517600765747809,1.2744957247215754
-0.007372269513556985,-2.5065060911900576,1.2744957247215754
-0.007370479513556985,-2.4954114166323063,1.2707883737405377
-0.0073686895135569854,-2.4880149669271425,1.2707883737405377
-0.007366899513556985,-2.484316742074555,1.2707883737405377
-0.007365109513556985,-2.484316742074555,1.2744957247215754
-0.007363319513556985,-2.4732220675168035,1.278203075702613
-0.007361529513556985,-2.469523842664213,1.2744957247215754
-0.007359739513556985,-2.4547309432538844,1.2744957247215754
-0.007357949513556985,-2.4510327184013008,1.2670810227595
-0.007356159513556985,-2.4399380438435494,1.2707883737405377
-0.007354369513556985,-2.4325415941383817,1.2633736717784623
-0.007352579513556985,-2.4251451444332144,1.2633736717784623
-0.007350789513556985,-2.4177486947280467,1.2670810227595
-0.007348999513556985,-2.4140504698754626,1.2707883737405377
-0.007347209513556985,-2.4066540201702953,1.2670810227595
-0.007345419513556985,-2.402955795317711,1.2707883737405377
-0.007343629513556985,-2.3992575704651276,1.2670810227595
-0.007341839513556985,-2.39186112075996,1.2707883737405377
-0.007340049513556985,-2.3807664462022085,1.2670810227595
-0.007338259513556985,-2.373369996497041,1.2670810227595
-0.007336469513556985,-2.3659735467918734,1.2707883737405377
-0.007334679513556985,-2.36227532193929,1.2707883737405377
-0.007332889513556985,-2.354878872234122,1.2744957247215754
-0.007331099513556985,-2.3474824225289543,1.2707883737405377
-0.007329309513556985,-2.3474824225289543,1.2707883737405377
-0.007327519513556985,-2.3326895231186193,1.2670810227595
-0.007325729513556985,-2.3252930734134516,1.2707883737405377
-0.007323939513556985,-2.3141983988557002,1.2670810227595
-0.007322149513556985,-2.3105001740031166,1.2670810227595
-0.007320359513556985,-2.3068019491505325,1.2670810227595
-0.007318569513556985,-2.295707274592781,1.2633736717784623
-0.007316779513556985,-2.2920090497401975,1.2670810227595
-0.007314989513556985,-2.280914375182446,1.2670810227595
-0.007313199513556985,-2.277216150329862,1.2633736717784623
-0.007311409513556985,-2.2735179254772784,1.2633736717784623
-0.007309619513556985,-2.2735179254772784,1.2744957247215754
-0.007307829513556985,-2.2661214757721106,1.2744957247215754
-0.007306039513556985,-2.262423250919527,1.2707883737405377
-0.007304249513556985,-2.2550268012143593,1.2707883737405377
-0.007302459513556985,-2.2513285763617756,1.2707883737405377
-0.007300669513556985,-2.243932126656608,1.2670810227595
-0.0072988795135569854,-2.240233901804026,1.274495724721572
-0.007297089513556985,-2.229139227246273,1.2707883737405377
-0.007295299513556985,-2.225441002393689,1.2744957247215754
-0.007293509513556985,-2.2180445526885215,1.2707883737405377
-0.007291719513556985,-2.2069498781307684,1.2744957247215736
-0.007289929513556985,-2.203251653278186,1.2707883737405377
-0.007288139513556985,-2.1958552035730188,1.2670810227595
-0.007286349513556985,-2.188458753867851,1.2670810227595
-0.007284559513556985,-2.184760529015264,1.2670810227595
-0.007282769513556985,-2.1773640793100997,1.2670810227595
-0.007280979513556985,-2.169967629604932,1.2633736717784623
-0.007279189513556985,-2.1588729550471806,1.2670810227595
-0.007277399513556985,-2.1588729550471806,1.2707883737405377
-0.007275609513556985,-2.155174730194597,1.2670810227595
-0.007273819513556985,-2.151476505342013,1.2707883737405377
-0.007272029513556985,-2.151476505342013,1.2707883737405377
-0.007270239513556985,-2.136683605931678,1.2633736717784623
-0.007268449513556985,-2.1403818307842615,1.2670810227595
-0.007266659513556985,-2.132985381079094,1.2707883737405377
-0.007264869513556985,-2.1255889313739265,1.2744957247215754
-0.007263079513556985,-2.121890706521343,1.2744957247215754
-0.007261289513556985,-2.1107960319635914,1.2707883737405377
-0.007259499513556985,-2.1070978071110074,1.2707883737405377
-0.007257709513556985,-2.1033995822584237,1.2707883737405377
-0.007255919513556985,-2.0886066828480883,1.2707883737405377
-0.007254129513556985,-2.0886066828480883,1.2670810227595
-0.007252339513556985,-2.0738137834377532,1.2670810227595
-0.007250549513556985,-2.0738137834377532,1.2707883737405377
-0.007248759513556985,-2.0701155585851696,1.2670810227595
-0.007246969513556985,-2.062719108880002,1.2707883737405377
-0.007245179513556985,-2.0590208840274182,1.2670810227595
-0.007243389513556985,-2.0590208840274182,1.2707883737405377
-0.007241599513556985,-2.055322659174834,1.2670810227595
-0.007239809513556985,-2.0479262094696664,1.2744957247215754
-0.007238019513556985,-2.036831534911915,1.2707883737405377
-0.007236229513556985,-2.036831534911915,1.2707883737405377
-0.007234439513556985,-2.0331333100593314,1.2670810227595
-0.007232649513556985,-2.0294350852067478,1.2707883737405377
-0.007230859513556985,-2.02203863550158,1.2707883737405377
-0.007229069513556985,-2.0146421857964123,1.2707883737405377
-0.007227279513556985,-2.007245736091245,1.2670810227595
-0.007225489513556985,-1.999849286386077,1.2744957247215754
-0.007223699513556985,-1.9961510615334932,1.2744957247215754
-0.0072219095135569854,-1.988754611828329,1.2707883737405394
-0.007220119513556985,-1.9887546118283257,1.2670810227595
-0.007218329513556985,-1.981358162123158,1.2670810227595
-0.007216539513556985,-1.9776599372705743,1.2707883737405377
-0.007214749513556985,-1.9739617124179853,1.2670810227595
-0.007212959513556985,-1.962867037860239,1.2670810227595
-0.007211169513556985,-1.9591688130076552,1.2707883737405377
-0.007209379513556985,-1.9517723633024877,1.2670810227595
-0.007207589513556985,-1.9517723633024877,1.2670810227595
-0.007205799513556985,-1.94437591359732,1.2633736717784623
-0.007204009513556985,-1.94437591359732,1.2670810227595
-0.007202219513556985,-1.9369794638921525,1.2707883737405377
-0.007200429513556985,-1.925884789334401,1.2670810227595
-0.007198639513556985,-1.925884789334401,1.2707883737405377
-0.007196849513556985,-1.9221865644818172,1.2744957247215754
-0.007195059513556985,-1.9221865644818172,1.2707883737405377
-0.007193269513556985,-1.9110918899240659,1.2707883737405377
-0.007191479513556985,-1.907393665071482,1.2707883737405377
-0.007189689513556985,-1.8962989905137306,1.2670810227595
-0.007187899513556985,-1.8926007656611468,1.2670810227595
-0.007186109513556985,-1.8852043159559793,1.2670810227595
-0.007184319513556985,-1.8815060911033954,1.2670810227595
-0.007182529513556985,-1.8741096413982279,1.2670810227595
-0.007180739513556985,-1.8741096413982279,1.2670810227595
-0.007178949513556985,-1.8667131916930602,1.2670810227595
-0.007177159513556985,-1.8630149668404765,1.2707883737405377
-0.007175369513556985,-1.8630149668404765,1.2707883737405377
-0.007173579513556985,-1.8593167419878927,1.2633736717784623
-0.007171789513556985,-1.8556185171353088,1.2670810227595
-0.007169999513556985,-1.8445238425775574,1.2670810227595
