200Hz/acq0031.csv

#Digilent WaveForms Oscilloscope Acquisition
#Device Name: Discovery2
#Serial Number: SN:210321AA28BE
#Date Time: 2023-05-24 14:48:04.836
#Sample rate: 558659Hz
#Samples: 8192
#Trigger: Source: Channel 1 Type: Edge Condition: Rising Level: 800 mV Hyst.: Auto HoldOff: 100 ns
#Channel 1: Range: 1 V/div Offset: 0 V Attenuation: 1 X Sample Mode: Average
#Channel 2: Range: 1 V/div Offset: 0 V Attenuation: 1 X Sample Mode: Average

Time (s),Channel 1 (V),Channel 2 (V)
-0.007742111553838315,0.05266550679793163,-1.3243573129858488
-0.007740321553838315,0.05266550679793163,-1.3169426110237767
-0.0077385315538383145,0.05266550679793163,-1.3132352600427357
-0.007736741553838315,0.05636373165051543,-1.3169426110237734
-0.007734951553838315,0.05636373165051543,-1.3169426110237734
-0.007733161553838314,0.05266550679793163,-1.3169426110237734
-0.0077313715538383145,0.05266550679793163,-1.3169426110237734
-0.007729581553838315,0.05266550679793163,-1.3169426110237734
-0.007727791553838315,0.048967281945347836,-1.320649962004811
-0.007726001553838314,0.048967281945347836,-1.320649962004811
-0.0077242115538383145,0.05266550679793163,-1.3169426110237734
-0.007722421553838315,0.048967281945347836,-1.3169426110237734
-0.007720631553838315,0.048967281945347836,-1.3169426110237734
-0.007718841553838314,0.048967281945347836,-1.320649962004811
-0.0077170515538383146,0.045269057092764034,-1.3169426110237734
-0.007715261553838315,0.048967281945347836,-1.3132352600427357
-0.007713471553838315,0.045269057092764034,-1.3132352600427357
-0.007711681553838314,0.045269057092764034,-1.3169426110237734
-0.007709891553838315,0.045269057092764034,-1.3169426110237734
-0.007708101553838315,0.045269057092764034,-1.3169426110237734
-0.007706311553838315,0.045269057092764034,-1.3169426110237734
-0.007704521553838314,0.04157083224018024,-1.3132352600427357
-0.007702731553838315,0.048967281945347836,-1.3169426110237734
-0.007700941553838315,0.045269057092764034,-1.3132352600427357
-0.007699151553838315,0.045269057092764034,-1.3169426110237734
-0.007697361553838314,0.05266550679793163,-1.3169426110237734
-0.007695571553838315,0.045269057092764034,-1.3132352600427357
-0.007693781553838315,0.04157083224018024,-1.320649962004811
-0.007691991553838315,0.04157083224018024,-1.320649962004811
-0.007690201553838314,0.04157083224018024,-1.3243573129858488
-0.007688411553838315,0.045269057092764034,-1.3243573129858488
-0.007686621553838315,0.045269057092764034,-1.3169426110237734
-0.007684831553838315,0.04157083224018024,-1.320649962004811
-0.0076830415538383144,0.03787260738759644,-1.3169426110237734
-0.007681251553838315,0.04157083224018024,-1.3169426110237734
-0.007679461553838315,0.04157083224018024,-1.3169426110237734
-0.007677671553838315,0.04157083224018024,-1.320649962004811
-0.0076758815538383145,0.045269057092764034,-1.3169426110237734
-0.007674091553838315,0.045269057092764034,-1.3169426110237734
-0.007672301553838315,0.034174382535012635,-1.3169426110237734
-0.007670511553838315,0.03787260738759476,-1.3169426110237734
-0.0076687215538383145,0.03787260738759644,-1.3169426110237734
-0.007666931553838315,0.03787260738759644,-1.3169426110237734
-0.007665141553838315,0.03787260738759644,-1.3169426110237734
-0.007663351553838314,0.034174382535014314,-1.3169426110237734
-0.0076615615538383145,0.03787260738759644,-1.3169426110237734
-0.007659771553838315,0.03787260738759644,-1.3169426110237734
-0.007657981553838315,0.03787260738759644,-1.3169426110237734
-0.007656191553838314,0.034174382535014314,-1.3169426110237734
-0.0076544015538383145,0.03787260738759644,-1.3169426110237734
-0.007652611553838315,0.03787260738759644,-1.3169426110237734
-0.007650821553838315,0.03787260738759644,-1.3169426110237734
-0.007649031553838314,0.04157083224018024,-1.320649962004811
-0.0076472415538383146,0.04157083224018024,-1.320649962004811
-0.007645451553838315,0.034174382535012635,-1.3169426110237734
-0.007643661553838315,0.03787260738759644,-1.320649962004811
-0.007641871553838314,0.034174382535012635,-1.320649962004811
-0.007640081553838315,0.03047615768242884,-1.3169426110237734
-0.007638291553838315,0.034174382535012635,-1.3132352600427357
-0.007636501553838315,0.03047615768242884,-1.3132352600427357
-0.007634711553838314,0.034174382535012635,-1.3169426110237734
-0.007632921553838315,0.026777932829845037,-1.3169426110237734
-0.007631131553838315,0.03047615768242884,-1.3169426110237734
-0.007629341553838315,0.034174382535012635,-1.3169426110237734
-0.007627551553838314,0.034174382535012635,-1.3169426110237734
-0.007625761553838315,0.034174382535012635,-1.3169426110237734
-0.007623971553838315,0.03047615768242884,-1.320649962004811
-0.007622181553838315,0.034174382535012635,-1.320649962004811
-0.007620391553838314,0.03047615768242884,-1.3243573129858488
-0.007618601553838315,0.03047615768242884,-1.320649962004811
-0.007616811553838315,0.02307970797726124,-1.3169426110237734
-0.007615021553838315,0.026777932829845037,-1.320649962004811
-0.0076132315538383144,0.026777932829845037,-1.3169426110237734
-0.007611441553838315,0.026777932829845037,-1.3169426110237734
-0.007609651553838315,0.026777932829845037,-1.3169426110237734
-0.007607861553838315,0.034174382535012635,-1.3132352600427357
-0.0076060715538383145,0.03047615768242884,-1.3169426110237734
-0.007604281553838315,0.03047615768242884,-1.320649962004811
-0.007602491553838315,0.02307970797726124,-1.320649962004811
-0.007600701553838315,0.026777932829845037,-1.3169426110237734
-0.0075989115538383145,0.026777932829845037,-1.3169426110237734
-0.007597121553838315,0.01938148312467744,-1.3169426110237734
-0.007595331553838315,0.02307970797726124,-1.3169426110237734
-0.007593541553838315,0.026777932829843355,-1.3206499620048093
-0.0075917515538383145,0.026777932829845037,-1.3169426110237734
-0.007589961553838315,0.03047615768242884,-1.3169426110237734
-0.007588171553838315,0.02307970797726124,-1.3132352600427357
-0.007586381553838314,0.026777932829845037,-1.3169426110237734
-0.0075845915538383145,0.026777932829845037,-1.3169426110237734
-0.007582801553838315,0.026777932829845037,-1.320649962004811
-0.007581011553838315,0.02307970797726124,-1.320649962004811
-0.007579221553838314,0.026777932829845037,-1.3132352600427357
-0.0075774315538383145,0.026777932829845037,-1.320649962004811
-0.007575641553838315,0.026777932829845037,-1.3169426110237734
-0.007573851553838315,0.026777932829845037,-1.320649962004811
-0.007572061553838314,0.02307970797726124,-1.320649962004811
-0.0075702715538383146,0.02307970797726124,-1.320649962004811
-0.007568481553838315,0.02307970797726124,-1.3169426110237734
-0.007566691553838315,0.02307970797726124,-1.3169426110237734
-0.007564901553838314,0.026777932829845037,-1.3169426110237734
-0.007563111553838315,0.02307970797726124,-1.3169426110237734
-0.007561321553838315,0.01938148312467744,-1.3169426110237734
-0.007559531553838315,0.02307970797726124,-1.3169426110237734
-0.007557741553838314,0.02307970797726124,-1.320649962004811
-0.007555951553838315,0.015683258272093638,-1.3169426110237734
-0.007554161553838315,0.02307970797726124,-1.3132352600427357
-0.007552371553838315,0.01938148312467744,-1.3169426110237734
-0.007550581553838314,0.01938148312467744,-1.3169426110237734
-0.007548791553838315,0.02307970797726124,-1.320649962004811
-0.007547001553838315,0.02307970797726124,-1.320649962004811
-0.007545211553838315,0.02307970797726124,-1.3169426110237734
-0.007543421553838314,0.01938148312467744,-1.320649962004811
-0.007541631553838315,0.015683258272093638,-1.3132352600427357
-0.007539841553838315,0.015683258272093638,-1.3169426110237734
-0.007538051553838315,0.02307970797726124,-1.3169426110237734
-0.0075362615538383144,0.02307970797726124,-1.3132352600427357
-0.007534471553838315,0.01938148312467744,-1.3169426110237734
-0.007532681553838315,0.015683258272093638,-1.3132352600427357
-0.007530891553838315,0.02307970797726124,-1.3132352600427357
-0.0075291015538383145,0.015683258272093638,-1.320649962004811
-0.007527311553838315,0.01198503341950984,-1.3169426110237734
-0.007525521553838315,0.015683258272093638,-1.320649962004811
-0.007523731553838315,0.011985033419511522,-1.320649962004811
-0.0075219415538383145,0.015683258272093638,-1.320649962004811
-0.007520151553838315,0.01938148312467744,-1.3169426110237734
-0.007518361553838315,0.015683258272093638,-1.320649962004811
-0.007516571553838315,0.015683258272093638,-1.320649962004811
-0.0075147815538383145,0.015683258272093638,-1.320649962004811
-0.007512991553838315,0.01198503341950984,-1.320649962004811
-0.007511201553838315,0.015683258272093638,-1.3132352600427357
-0.007509411553838314,0.019381483124674078,-1.3169426110237734
-0.0075076215538383145,0.01198503341950984,-1.3169426110237734
-0.007505831553838315,0.01198503341950984,-1.3132352600427357
-0.007504041553838315,0.015683258272093638,-1.3169426110237734
-0.007502251553838314,0.01198503341950984,-1.3132352600427357
-0.0075004615538383146,-1.3822457360045826,-0.07127268139510792
-0.007498671553838315,-3.1721865646551417,1.3412280423802538
-0.007496881553838315,-3.149997215539639,1.3301059894371408
-0.007495091553838314,-3.1389025409818876,1.326398638456103
-0.007493301553838315,-3.1352043161293035,1.326398638456103
-0.007491511553838315,-3.127807866424136,1.326398638456103
-0.007489721553838315,-3.124109641571552,1.326398638456103
-0.007487931553838314,-3.1056185173086335,1.3226912874750654
-0.007486141553838315,-3.1019202924560494,1.3226912874750654
-0.007484351553838315,-3.090825617898298,1.3189839364940277
-0.007482561553838315,-3.0834291681931303,1.3226912874750654
-0.007480771553838314,-3.0649380439302116,1.3226912874750654
-0.007478981553838315,-3.050145144519876,1.3189839364940277
-0.007477191553838315,-3.042748694814709,1.3226912874750654
-0.007475401553838315,-3.0316540202569575,1.31527658551299
-0.007473611553838314,-3.016861120846622,1.31527658551299
-0.007471821553838315,-3.0094646711414543,1.31527658551299
-0.007470031553838315,-2.9909735468785357,1.31527658551299
-0.007468241553838315,-2.9872753220259516,1.31527658551299
-0.0074664515538383144,-2.968784197763033,1.3115692345319523
-0.007464661553838315,-2.957689523205281,1.3078618835509146
-0.007462871553838315,-2.9465948486475297,1.304154532569877
-0.007461081553838315,-2.928103724384611,1.304154532569877
-0.0074592915538383145,-2.9133108249742756,1.304154532569877
-0.007457501553838315,-2.9022161504165243,1.3004471815888392
-0.007455711553838315,-2.891121475858773,1.2967398306078015
-0.007453921553838315,-2.8800268013010215,1.2930324796267638
-0.0074521315538383145,-2.876328576448438,1.2930324796267638
-0.007450341553838315,-2.8578374521855188,1.2893251286457261
-0.007448551553838315,-2.8467427776277674,1.2930324796267638
-0.007446761553838315,-2.8430445527751855,1.2930324796267638
-0.0074449715538383145,-2.8245534285122647,1.2856177776646884
-0.007443181553838315,-2.8208552036596806,1.2893251286457261
-0.007441391553838315,-2.8060623042493456,1.2856177776646884
-0.007439601553838314,-2.7986658545441743,1.281910426683654
-0.0074378115538383145,-2.7912694048390105,1.2893251286457261
-0.007436021553838315,-2.783872955133843,1.2930324796267638
-0.007434231553838315,-2.7690800557235073,1.2893251286457261
-0.007432441553838314,-2.757985381165756,1.2893251286457261
-0.0074306515538383145,-2.743192481755421,1.2856177776646884
-0.007428861553838315,-2.743192481755421,1.278203075702613
-0.007427071553838315,-2.724701357492502,1.278203075702613
-0.007425281553838314,-2.7136066829347505,1.2819104266836507
-0.0074234915538383146,-2.702512008376999,1.2819104266836507
-0.007421701553838315,-2.6951155586718314,1.2819104266836507
-0.007419911553838315,-2.68402088411408,1.2744957247215754
-0.007418121553838314,-2.6803226592614964,1.2744957247215754
-0.007416331553838315,-2.669227984703745,1.2819104266836507
-0.007414541553838315,-2.6655297598511614,1.2744957247215754
-0.007412751553838315,-2.6581333101459936,1.278203075702613
-0.007410961553838314,-2.650736860440826,1.278203075702613
-0.007409171553838315,-2.6396421858830745,1.278203075702613
-0.007407381553838315,-2.635943961030491,1.278203075702613
-0.007405591553838315,-2.6248492864727395,1.278203075702613
-0.007403801553838314,-2.617452836767572,1.278203075702613
-0.007402011553838315,-2.6026599373572368,1.2744957247215754
-0.007400221553838315,-2.591565262799485,1.2744957247215754
-0.007398431553838315,-2.5878670379469013,1.278203075702613
-0.007396641553838314,-2.57677236338915,1.2744957247215754
-0.007394851553838315,-2.569375913683982,1.2744957247215754
-0.007393061553838315,-2.561979463978815,1.2744957247215754
-0.007391271553838315,-2.5471865645684795,1.2744957247215754
-0.0073894815538383144,-2.5471865645684795,1.2744957247215754
-0.007387691553838315,-2.536091890010728,1.2744957247215754
-0.007385901553838315,-2.5286954403055604,1.2707883737405377
-0.007384111553838315,-2.521298990600393,1.2707883737405377
-0.0073823215538383145,-2.5139025408952254,1.2707883737405377
-0.007380531553838315,-2.502807866337474,1.2744957247215754
-0.007378741553838315,-2.4954114166323063,1.2744957247215754
-0.007376951553838315,-2.4954114166323063,1.2744957247215754
-0.0073751615538383145,-2.488014966927139,1.2707883737405377
-0.007373371553838315,-2.4806185172219712,1.2670810227595
-0.007371581553838315,-2.46952384266422,1.278203075702613
-0.007369791553838315,-2.4621273929590557,1.2744957247215771
-0.0073680015538383145,-2.4584291681064685,1.2707883737405377
-0.007366211553838315,-2.447334493548717,1.2707883737405377
-0.007364421553838315,-2.4399380438435494,1.2707883737405377
-0.007362631553838314,-2.432541594138378,1.2670810227595
-0.0073608415538383145,-2.4251451444332144,1.2670810227595
-0.007359051553838315,-2.4251451444332144,1.2670810227595
-0.007357261553838315,-2.410352245022879,1.2670810227595
-0.007355471553838314,-2.4066540201702953,1.2670810227595
-0.0073536815538383146,-2.395559345612544,1.2707883737405377
-0.007351891553838315,-2.388162895907376,1.2670810227595
-0.007350101553838315,-2.3807664462022085,1.2670810227595
-0.007348311553838314,-2.377068221349625,1.2744957247215754
-0.007346521553838315,-2.373369996497041,1.2707883737405377
-0.007344731553838315,-2.3585770970867057,1.2744957247215754
-0.007342941553838315,-2.3585770970867057,1.2670810227595
-0.007341151553838314,-2.351180647381538,1.2707883737405377
-0.007339361553838315,-2.3437841976763707,1.2744957247215754
-0.007337571553838315,-2.3400859728237866,1.2670810227595
-0.007335781553838315,-2.3326895231186193,1.2707883737405377
-0.007333991553838314,-2.3252930734134516,1.2744957247215754
-0.007332201553838315,-2.317896623708284,1.2707883737405377
-0.007330411553838315,-2.3141983988557002,1.2744957247215754
-0.007328621553838315,-2.3068019491505325,1.2707883737405377
-0.007326831553838314,-2.295707274592781,1.2707883737405377
-0.007325041553838315,-2.2920090497401975,1.2707883737405377
-0.007323251553838315,-2.280914375182446,1.2670810227595
-0.007321461553838315,-2.2698197006246947,1.2707883737405377
-0.0073196715538383144,-2.2698197006246947,1.2744957247215754
-0.007317881553838315,-2.2661214757721106,1.2670810227595
-0.007316091553838315,-2.2587250260669434,1.2670810227595
-0.007314301553838315,-2.2550268012143593,1.2707883737405377
-0.0073125115538383145,-2.243932126656608,1.2707883737405377
-0.007310721553838315,-2.2402339018040243,1.2707883737405377
-0.007308931553838315,-2.2365356769514406,1.2744957247215754
-0.007307141553838315,-2.2328374520988565,1.2670810227595
-0.0073053515538383145,-2.225441002393689,1.2744957247215754
-0.007303561553838315,-2.221742777541105,1.2744957247215754
-0.007301771553838315,-2.210648102983354,1.278203075702613
-0.007299981553838315,-2.206949878130772,1.270788373740541
-0.0072981915538383145,-2.1995534284256024,1.2707883737405377
-0.007296401553838315,-2.188458753867851,1.2670810227595
-0.007294611553838315,-2.1810623041626833,1.2670810227595
-0.007292821553838314,-2.177364079310095,1.263373671778464
-0.0072910315538383145,-2.1662694047523483,1.2670810227595
-0.007289241553838315,-2.1588729550471806,1.2670810227595
-0.007287451553838315,-2.1588729550471806,1.2707883737405377
-0.007285661553838314,-2.1551747301945934,1.2670810227595033
-0.0072838715538383145,-2.147778280489429,1.2744957247215754
-0.007282081553838315,-2.1440800556368456,1.2670810227595
-0.007280291553838315,-2.1403818307842615,1.2707883737405377
-0.007278501553838314,-2.132985381079094,1.2707883737405377
-0.0072767115538383146,-2.1255889313739265,1.2670810227595
-0.007274921553838315,-2.121890706521343,1.2707883737405377
-0.007273131553838315,-2.1181924816687587,1.2744957247215754
-0.007271341553838314,-2.114494256816175,1.2707883737405377
-0.007269551553838315,-2.1181924816687587,1.2744957247215754
-0.007267761553838315,-2.1033995822584237,1.2744957247215754
-0.007265971553838315,-2.096003132553256,1.2707883737405377
-0.007264181553838314,-2.0886066828480883,1.2744957247215754
-0.007262391553838315,-2.081210233142921,1.2670810227595
-0.007260601553838315,-2.077512008290337,1.2670810227595
-0.007258811553838315,-2.0701155585851696,1.2707883737405377
-0.007257021553838314,-2.0664173337325855,1.2707883737405377
-0.007255231553838315,-2.0590208840274182,1.2670810227595
-0.007253441553838315,-2.0442279846170828,1.2744957247215754
-0.007251651553838315,-2.0479262094696664,1.2670810227595
-0.007249861553838314,-2.0479262094696664,1.2707883737405377
-0.007248071553838315,-2.036831534911915,1.2707883737405377
-0.007246281553838315,-2.0294350852067478,1.2707883737405377
-0.007244491553838315,-2.0257368603541637,1.2744957247215754
-0.0072427015538383144,-2.0109439609438287,1.2670810227595
-0.007240911553838315,-2.0109439609438287,1.2707883737405377
-0.007239121553838315,-2.0109439609438287,1.2707883737405377
-0.007237331553838315,-2.003547511238661,1.2744957247215754
-0.0072355415538383145,-1.999849286386077,1.2707883737405377
-0.007233751553838315,-1.9924528366809093,1.2707883737405377
-0.007231961553838315,-1.9850563869757418,1.2707883737405377
-0.007230171553838315,-1.981358162123158,1.2670810227595
-0.0072283815538383145,-1.9739617124179905,1.2707883737405377
-0.007226591553838315,-1.9665652627128227,1.2670810227595
-0.007224801553838315,-1.9591688130076552,1.2670810227595
-0.007223011553838315,-1.9554705881550731,1.2670810227595
-0.0072212215538383145,-1.9554705881550714,1.2670810227595
-0.007219431553838315,-1.9517723633024877,1.2707883737405377
-0.007217641553838315,-1.9369794638921525,1.2707883737405377
-0.007215851553838314,-1.940677688744731,1.2707883737405377
-0.0072140615538383145,-1.9295830141869847,1.2707883737405377
-0.007212271553838315,-1.9295830141869847,1.2707883737405377
-0.007210481553838315,-1.9221865644818172,1.2670810227595
-0.007208691553838314,-1.9147901147766497,1.2670810227595
-0.0072069015538383146,-1.9184883396292334,1.2707883737405377
-0.007205111553838315,-1.9110918899240659,1.2744957247215754
-0.007203321553838315,-1.9036954402188981,1.2707883737405377
-0.007201531553838314,-1.8999972153663145,1.2744957247215754
-0.007199741553838315,-1.8962989905137306,1.2707883737405377
-0.007197951553838315,-1.8889025408085631,1.2707883737405377
-0.007196161553838315,-1.8815060911033954,1.2707883737405377
-0.007194371553838314,-1.870411416545644,1.2670810227595
-0.007192581553838315,-1.8667131916930602,1.2633736717784623
-0.007190791553838315,-1.8630149668404765,1.2670810227595
-0.007189001553838315,-1.8556185171353088,1.2670810227595
-0.007187211553838314,-1.8519202922827251,1.2670810227595
-0.007185421553838315,-1.8519202922827251,1.2670810227595
-0.007183631553838315,-1.8445238425775574,1.2670810227595
-0.007181841553838315,-1.8408256177249736,1.2707883737405377
-0.007180051553838314,-1.83712739287239,1.2744957247215754
-0.007178261553838315,-1.8260327183146385,1.2707883737405377
-0.007176471553838315,-1.8223344934620547,1.2670810227595
-0.007174681553838315,-1.8186362686094708,1.2670810227595
-0.0071728915538383144,-1.8112398189043033,1.2670810227595
-0.007171101553838315,-1.8112398189043033,1.2707883737405377
