200Hz/acq0064.csv

#Digilent WaveForms Oscilloscope Acquisition
#Device Name: Discovery2
#Serial Number: SN:210321AA28BE
#Date Time: 2023-05-24 14:48:05.752
#Sample rate: 558659Hz
#Samples: 8192
#Trigger: Source: Channel 1 Type: Edge Condition: Rising Level: 800 mV Hyst.: Auto HoldOff: 100 ns
#Channel 1: Range: 1 V/div Offset: 0 V Attenuation: 1 X Sample Mode: Average
#Channel 2: Range: 1 V/div Offset: 0 V Attenuation: 1 X Sample Mode: Average

Time (s),Channel 1 (V),Channel 2 (V)
-0.007741859861733319,0.03787260738759644,-1.320649962004811
-0.007740069861733319,0.03787260738759644,-1.324357312985847
-0.007738279861733318,0.034174382535012635,-1.320649962004811
-0.007736489861733318,0.03787260738759644,-1.3132352600427357
-0.007734699861733319,0.04157083224018024,-1.3169426110237734
-0.007732909861733318,0.03787260738759644,-1.3169426110237734
-0.007731119861733318,0.03787260738759644,-1.3169426110237734
-0.0077293298617333184,0.034174382535012635,-1.3169426110237734
-0.007727539861733319,0.034174382535012635,-1.3169426110237734
-0.007725749861733318,0.034174382535012635,-1.3169426110237734
-0.007723959861733318,0.034174382535012635,-1.3132352600427357
-0.0077221698617333185,0.03787260738759644,-1.3169426110237734
-0.007720379861733319,0.03787260738759644,-1.320649962004811
-0.007718589861733318,0.034174382535012635,-1.3169426110237734
-0.007716799861733318,0.03047615768242884,-1.320649962004811
-0.0077150098617333185,0.034174382535012635,-1.320649962004811
-0.007713219861733319,0.034174382535012635,-1.320649962004811
-0.007711429861733318,0.03047615768242884,-1.3169426110237734
-0.007709639861733318,0.034174382535012635,-1.320649962004811
-0.0077078498617333185,0.03047615768242884,-1.320649962004811
-0.007706059861733319,0.03047615768242884,-1.3169426110237734
-0.007704269861733318,0.034174382535012635,-1.3169426110237734
-0.007702479861733318,0.026777932829845037,-1.3169426110237734
-0.0077006898617333185,0.034174382535012635,-1.3169426110237734
-0.007698899861733319,0.034174382535012635,-1.3169426110237734
-0.007697109861733318,0.03047615768242884,-1.320649962004811
-0.007695319861733318,0.03787260738759644,-1.320649962004811
-0.0076935298617333185,0.03047615768242884,-1.3169426110237734
-0.007691739861733319,0.03047615768242884,-1.3169426110237734
-0.007689949861733318,0.03047615768242884,-1.3169426110237734
-0.007688159861733318,0.03047615768242884,-1.3169426110237734
-0.007686369861733319,0.03047615768242884,-1.3132352600427357
-0.007684579861733319,0.026777932829845037,-1.3169426110237734
-0.007682789861733318,0.03047615768242884,-1.3169426110237734
-0.007680999861733318,0.034174382535012635,-1.3169426110237734
-0.007679209861733319,0.026777932829845037,-1.3169426110237734
-0.007677419861733319,0.026777932829845037,-1.3169426110237734
-0.007675629861733318,0.026777932829845037,-1.3169426110237734
-0.007673839861733318,0.026777932829845037,-1.320649962004811
-0.007672049861733319,0.026777932829845037,-1.3169426110237734
-0.007670259861733319,0.030476157682427157,-1.3206499620048093
-0.007668469861733318,0.03047615768242884,-1.320649962004811
-0.007666679861733318,0.02307970797726124,-1.3169426110237734
-0.007664889861733319,0.01938148312467744,-1.320649962004811
-0.007663099861733318,0.019381483124679123,-1.320649962004811
-0.007661309861733318,0.02307970797726124,-1.320649962004811
-0.007659519861733318,0.01938148312467744,-1.320649962004811
-0.007657729861733319,0.026777932829845037,-1.3169426110237734
-0.007655939861733318,0.01938148312467744,-1.3243573129858455
-0.007654149861733318,0.01938148312467744,-1.3169426110237734
-0.0076523598617333185,0.01938148312467744,-1.320649962004811
-0.007650569861733319,0.01938148312467744,-1.3169426110237734
-0.007648779861733318,0.026777932829845037,-1.3169426110237734
-0.007646989861733318,0.01938148312467744,-1.3132352600427357
-0.0076451998617333185,0.026777932829845037,-1.3169426110237734
-0.007643409861733319,0.02307970797726124,-1.3169426110237734
-0.007641619861733318,0.01938148312467744,-1.320649962004811
-0.007639829861733318,0.01938148312467744,-1.320649962004811
-0.0076380398617333185,0.02307970797726124,-1.3169426110237734
-0.007636249861733319,0.015683258272093638,-1.320649962004811
-0.007634459861733318,0.01938148312467744,-1.320649962004811
-0.007632669861733318,0.01198503341950984,-1.3243573129858488
-0.0076308798617333185,0.01938148312467744,-1.320649962004811
-0.007629089861733319,0.015683258272093638,-1.3169426110237734
-0.007627299861733318,0.01938148312467744,-1.3132352600427357
-0.007625509861733318,0.02307970797726124,-1.3169426110237734
-0.0076237198617333185,0.015683258272093638,-1.3169426110237734
-0.007621929861733319,0.015683258272093638,-1.3169426110237734
-0.007620139861733318,0.01198503341950984,-1.3169426110237734
-0.007618349861733318,0.015683258272093638,-1.3132352600427357
-0.0076165598617333186,0.015683258272093638,-1.320649962004811
-0.007614769861733319,0.01938148312467744,-1.3169426110237734
-0.007612979861733318,0.01938148312467744,-1.3169426110237734
-0.007611189861733318,0.01938148312467744,-1.320649962004811
-0.007609399861733319,0.015683258272093638,-1.3243573129858488
-0.007607609861733319,0.015683258272093638,-1.320649962004811
-0.007605819861733318,0.015683258272093638,-1.320649962004811
-0.007604029861733318,0.01938148312467744,-1.320649962004811
-0.007602239861733319,0.015683258272093638,-1.3243573129858488
-0.007600449861733319,0.01198503341950984,-1.3243573129858488
-0.007598659861733318,0.01198503341950984,-1.3243573129858488
-0.007596869861733318,0.01198503341950984,-1.320649962004811
-0.007595079861733319,0.00828680856692604,-1.320649962004811
-0.007593289861733319,0.00828680856692604,-1.324357312985847
-0.007591499861733318,0.01198503341950984,-1.3132352600427357
-0.007589709861733318,0.01198503341950984,-1.320649962004811
-0.007587919861733319,0.01198503341950984,-1.320649962004811
-0.007586129861733318,0.00828680856692604,-1.3169426110237752
-0.007584339861733318,0.00828680856692604,-1.320649962004811
-0.0075825498617333184,0.00828680856692604,-1.3243573129858488
-0.007580759861733319,0.00458858371434224,-1.320649962004811
-0.007578969861733318,0.00828680856692604,-1.320649962004811
-0.007577179861733318,0.01198503341950984,-1.320649962004811
-0.0075753898617333185,0.01198503341950984,-1.320649962004811
-0.007573599861733319,0.015683258272093638,-1.3243573129858488
-0.007571809861733318,0.01198503341950984,-1.320649962004811
-0.007570019861733318,0.015683258272093638,-1.3169426110237734
-0.0075682298617333185,0.00828680856692604,-1.320649962004811
-0.007566439861733319,0.00828680856692604,-1.3169426110237734
-0.007564649861733318,0.00828680856692604,-1.320649962004811
-0.007562859861733318,0.00828680856692604,-1.3169426110237734
-0.0075610698617333185,0.00458858371434224,-1.3132352600427357
-0.007559279861733319,0.00458858371434224,-1.3243573129858488
-0.007557489861733318,0.00828680856692604,-1.320649962004811
-0.007555699861733318,0.00828680856692604,-1.3169426110237734
-0.0075539098617333185,-0.002807865990825359,-1.320649962004811
-0.007552119861733319,0.00458858371434224,-1.320649962004811
-0.007550329861733318,0.00458858371434224,-1.320649962004811
-0.007548539861733318,0.0008903588617584406,-1.320649962004811
-0.0075467498617333185,0.0008903588617584406,-1.3169426110237734
-0.007544959861733319,0.00828680856692604,-1.3169426110237734
-0.007543169861733318,0.01198503341950984,-1.320649962004811
-0.007541379861733318,0.01198503341950984,-1.320649962004811
-0.007539589861733319,0.00828680856692604,-1.3169426110237734
-0.007537799861733319,0.0008903588617584406,-1.3169426110237734
-0.007536009861733318,-0.002807865990825359,-1.320649962004811
-0.007534219861733318,0.00458858371434224,-1.320649962004811
-0.007532429861733319,0.0008903588617584406,-1.320649962004811
-0.007530639861733319,-0.002807865990825359,-1.3169426110237734
-0.007528849861733318,-0.002807865990825359,-1.320649962004811
-0.007527059861733318,0.0008903588617584406,-1.320649962004811
-0.007525269861733319,0.00458858371434224,-1.320649962004811
-0.007523479861733319,0.008286808566924358,-1.3169426110237752
-0.007521689861733318,0.00458858371434224,-1.320649962004811
-0.007519899861733318,-0.002807865990825359,-1.3132352600427357
-0.007518109861733319,0.0008903588617584406,-1.3132352600427357
-0.007516319861733319,0.0008903588617584406,-1.3169426110237716
-0.007514529861733318,-0.0065060908434091584,-1.3169426110237734
-0.007512739861733318,-0.002807865990825359,-1.320649962004811
-0.007510949861733319,0.0008903588617584406,-1.320649962004811
-0.007509159861733318,0.004588583714340558,-1.3169426110237752
-0.007507369861733318,0.0008903588617584406,-1.320649962004811
-0.0075055798617333185,0.0008903588617584406,-1.3243573129858488
-0.007503789861733319,0.0008903588617584406,-1.320649962004811
-0.007501999861733318,-0.002807865990825359,-1.3132352600427357
-0.007500209861733318,-1.7113877478845407,0.1919492382585684
-0.0074984198617333185,-3.1758847895077253,1.3375206913992161
-0.007496629861733319,-3.1610918900973903,1.3301059894371408
-0.007494839861733318,-3.1536954403922226,1.3301059894371408
-0.007493049861733318,-3.146298990687055,1.3301059894371408
-0.0074912598617333185,-3.1389025409818876,1.326398638456103
-0.007489469861733319,-3.13150609127672,1.3226912874750654
-0.007487679861733318,-3.124109641571552,1.3226912874750654
-0.007485889861733318,-3.1130149670138008,1.3189839364940277
-0.0074840998617333185,-3.1056185173086335,1.3189839364940277
-0.007482309861733319,-3.090825617898298,1.3226912874750654
-0.007480519861733318,-3.072334493635379,1.3189839364940277
-0.007478729861733318,-3.0649380439302116,1.3189839364940277
-0.0074769398617333185,-3.050145144519876,1.3115692345319523
-0.007475149861733319,-3.035352245109541,1.3115692345319523
-0.007473359861733318,-3.02425757055179,1.31527658551299
-0.007471569861733318,-3.016861120846622,1.3078618835509146
-0.0074697798617333186,-3.002068221436287,1.304154532569877
-0.007467989861733319,-2.9909735468785357,1.304154532569877
-0.007466199861733318,-2.9761806474682,1.304154532569877
-0.007464409861733318,-2.965085972910449,1.304154532569877
-0.007462619861733319,-2.957689523205281,1.3004471815888392
-0.007460829861733319,-2.9465948486475297,1.304154532569877
-0.007459039861733318,-2.9355001740897784,1.3004471815888392
-0.007457249861733318,-2.924405499532027,1.304154532569877
-0.007455459861733319,-2.909612600121692,1.3004471815888392
-0.007453669861733319,-2.8985179255639406,1.3004471815888392
-0.007451879861733318,-2.883725026153605,1.2967398306078015
-0.007450089861733318,-2.872630351595854,1.2893251286457261
-0.007448299861733319,-2.8578374521855188,1.2856177776646884
-0.007446509861733319,-2.8430445527751904,1.2819104266836525
-0.007444719861733318,-2.8393463279225997,1.2856177776646884
-0.007442929861733318,-2.8282516533648483,1.2893251286457261
-0.007441139861733319,-2.817156978807097,1.2819104266836507
-0.007439349861733318,-2.8097605291019243,1.2893251286457243
-0.007437559861733318,-2.798665854544178,1.2856177776646884
-0.0074357698617333184,-2.794967629691594,1.2819104266836507
-0.007433979861733319,-2.776476505428675,1.2819104266836507
-0.007432189861733318,-2.7690800557235073,1.2856177776646884
-0.007430399861733318,-2.757985381165756,1.2819104266836507
-0.0074286098617333185,-2.7505889314605887,1.278203075702613
-0.007426819861733319,-2.7468907066080046,1.2856177776646884
-0.007425029861733318,-2.7357960320502532,1.2856177776646884
-0.007423239861733318,-2.728399582345086,1.2893251286457261
-0.0074214498617333185,-2.717304907787334,1.2856177776646884
-0.007419659861733319,-2.7062102332295828,1.278203075702613
-0.007417869861733318,-2.6988137835244155,1.278203075702613
-0.007416079861733318,-2.687719108966664,1.2744957247215754
-0.0074142898617333185,-2.6766244344089127,1.2744957247215754
-0.007412499861733319,-2.6655297598511614,1.2744957247215754
-0.007410709861733318,-2.6544350852934095,1.278203075702613
-0.007408919861733318,-2.6470386355882423,1.2744957247215754
-0.0074071298617333185,-2.643340410735658,1.2707883737405377
-0.007405339861733319,-2.632245736177907,1.2707883737405377
-0.007403549861733318,-2.617452836767572,1.2707883737405377
-0.007401759861733318,-2.617452836767572,1.2670810227595
-0.0073999698617333185,-2.610056387062404,1.2707883737405377
-0.007398179861733319,-2.5989617125046527,1.2744957247215754
-0.007396389861733318,-2.595263487652069,1.2707883737405377
-0.007394599861733318,-2.5841688130943177,1.2744957247215754
-0.007392809861733319,-2.57677236338915,1.278203075702613
-0.007391019861733319,-2.569375913683982,1.278203075702613
-0.007389229861733318,-2.561979463978815,1.2707883737405377
-0.007387439861733318,-2.5508847894210636,1.2670810227595
-0.007385649861733319,-2.5471865645684795,1.2707883737405377
-0.007383859861733319,-2.5323936651581445,1.2670810227595
-0.007382069861733318,-2.5249972154529767,1.2707883737405377
-0.007380279861733318,-2.517600765747809,1.2707883737405377
-0.007378489861733319,-2.5065060911900576,1.2744957247215754
-0.007376699861733319,-2.5065060911900576,1.278203075702613
-0.007374909861733318,-2.502807866337474,1.2707883737405377
-0.007373119861733318,-2.4954114166323063,1.2707883737405377
-0.007371329861733319,-2.484316742074555,1.2707883737405377
-0.007369539861733319,-2.476920292369391,1.2670810227595017
-0.007367749861733318,-2.4732220675168035,1.2707883737405377
-0.007365959861733318,-2.465825617811636,1.2707883737405377
-0.007364169861733319,-2.4584291681064685,1.2707883737405377
-0.007362379861733318,-2.4547309432538826,1.2744957247215754
-0.007360589861733318,-2.4510327184013008,1.2744957247215754
-0.0073587998617333185,-2.443636268696133,1.278203075702613
-0.007357009861733319,-2.4325415941383817,1.2744957247215754
-0.007355219861733318,-2.4251451444332144,1.2744957247215754
-0.007353429861733318,-2.410352245022879,1.2707883737405377
-0.0073516398617333185,-2.402955795317711,1.2707883737405377
-0.007349849861733319,-2.3992575704651276,1.2670810227595
-0.007348059861733318,-2.39186112075996,1.2707883737405377
-0.007346269861733318,-2.3844646710547925,1.2707883737405377
-0.0073444798617333185,-2.3807664462022085,1.2707883737405377
-0.007342689861733319,-2.373369996497041,1.2670810227595
-0.007340899861733318,-2.3659735467918734,1.2633736717784623
-0.007339109861733318,-2.3585770970867057,1.2670810227595
-0.0073373198617333185,-2.3474824225289543,1.2707883737405377
-0.007335529861733319,-2.3474824225289543,1.2707883737405377
-0.007333739861733318,-2.3400859728237866,1.2670810227595
-0.007331949861733318,-2.3326895231186193,1.2707883737405377
-0.0073301598617333185,-2.3289912982660352,1.2707883737405377
-0.007328369861733319,-2.3252930734134516,1.2707883737405377
-0.007326579861733318,-2.317896623708284,1.2707883737405377
-0.007324789861733318,-2.3068019491505325,1.2744957247215754
-0.0073229998617333186,-2.3068019491505325,1.2670810227595
-0.007321209861733319,-2.295707274592781,1.2670810227595
-0.007319419861733318,-2.2846126000350298,1.2707883737405377
-0.007317629861733318,-2.277216150329862,1.2707883737405377
-0.007315839861733319,-2.2698197006246947,1.2670810227595
-0.007314049861733319,-2.2698197006246947,1.2707883737405377
-0.007312259861733318,-2.262423250919527,1.2670810227595
-0.007310469861733318,-2.2587250260669434,1.2670810227595
-0.007308679861733319,-2.247630351509192,1.2670810227595
-0.007306889861733319,-2.243932126656608,1.2670810227595
-0.007305099861733318,-2.2365356769514406,1.2707883737405377
-0.007303309861733318,-2.229139227246273,1.2707883737405377
-0.007301519861733319,-2.221742777541105,1.2707883737405377
-0.007299729861733319,-2.221742777541105,1.2707883737405377
-0.007297939861733318,-2.210648102983354,1.2707883737405377
-0.007296149861733318,-2.20694987813077,1.2707883737405377
-0.007294359861733319,-2.203251653278186,1.2744957247215754
-0.007292569861733318,-2.199553428425599,1.2744957247215754
-0.007290779861733318,-2.1921569787204347,1.2744957247215754
-0.0072889898617333184,-2.188458753867851,1.2707883737405377
-0.007287199861733319,-2.173665854457516,1.2744957247215754
-0.007285409861733318,-2.1662694047523465,1.2707883737405359
-0.007283619861733318,-2.162571179899764,1.2670810227595
-0.0072818298617333185,-2.1588729550471806,1.2670810227595
-0.007280039861733319,-2.155174730194597,1.2670810227595
-0.007278249861733318,-2.151476505342013,1.2670810227595
-0.007276459861733318,-2.147778280489429,1.2670810227595
-0.0072746698617333185,-2.136683605931678,1.2670810227595
-0.007272879861733319,-2.132985381079094,1.2670810227595
-0.007271089861733318,-2.1255889313739265,1.2670810227595
-0.007269299861733318,-2.1181924816687587,1.2670810227595
-0.0072675098617333185,-2.1181924816687587,1.2707883737405377
-0.007265719861733319,-2.1070978071110074,1.2707883737405377
-0.007263929861733318,-2.1033995822584237,1.2707883737405377
-0.007262139861733318,-2.096003132553256,1.2707883737405377
-0.0072603498617333185,-2.096003132553256,1.2707883737405377
-0.007258559861733319,-2.0886066828480883,1.2744957247215754
-0.007256769861733318,-2.081210233142921,1.2707883737405377
-0.007254979861733318,-2.0738137834377532,1.2744957247215754
-0.0072531898617333185,-2.0664173337325855,1.2670810227595
-0.007251399861733319,-2.055322659174834,1.2633736717784623
-0.007249609861733318,-2.0516244343222505,1.2670810227595
-0.007247819861733318,-2.0479262094696664,1.2670810227595
-0.007246029861733319,-2.040529759764499,1.2707883737405377
-0.007244239861733319,-2.036831534911915,1.2707883737405377
-0.007242449861733318,-2.0294350852067478,1.2670810227595
-0.007240659861733318,-2.0294350852067478,1.2670810227595
-0.007238869861733319,-2.0183404106489964,1.2670810227595
-0.007237079861733319,-2.0183404106489964,1.2707883737405377
-0.007235289861733318,-2.0146421857964123,1.2707883737405377
-0.007233499861733318,-2.007245736091245,1.2744957247215754
-0.007231709861733319,-2.003547511238661,1.2707883737405377
-0.007229919861733319,-1.999849286386077,1.2707883737405377
-0.007228129861733318,-1.9961510615334932,1.2744957247215754
-0.007226339861733318,-1.9961510615334932,1.2744957247215754
-0.007224549861733319,-1.9850563869757418,1.2707883737405377
-0.007222759861733319,-1.9776599372705777,1.2670810227595017
-0.007220969861733318,-1.9702634875654066,1.2670810227595
-0.007219179861733318,-1.962867037860239,1.2744957247215754
-0.007217389861733319,-1.9517723633024877,1.2707883737405377
-0.007215599861733318,-1.948074138449902,1.2707883737405377
-0.007213809861733318,-1.94437591359732,1.2707883737405377
-0.0072120198617333185,-1.9369794638921525,1.2670810227595
-0.007210229861733319,-1.9295830141869847,1.2670810227595
-0.007208439861733318,-1.9332812390395686,1.2670810227595
-0.007206649861733318,-1.925884789334401,1.2670810227595
-0.0072048598617333185,-1.9184883396292334,1.2633736717784623
-0.007203069861733319,-1.9147901147766497,1.2670810227595
-0.007201279861733318,-1.9110918899240659,1.2707883737405377
-0.007199489861733318,-1.9110918899240659,1.2670810227595
-0.0071976998617333185,-1.9036954402188981,1.2707883737405377
-0.007195909861733319,-1.8962989905137306,1.2707883737405377
-0.007194119861733318,-1.8926007656611468,1.2707883737405377
-0.007192329861733318,-1.8889025408085631,1.2744957247215754
-0.0071905398617333185,-1.8778078662508115,1.2744957247215754
-0.007188749861733319,-1.8778078662508115,1.2670810227595
-0.007186959861733318,-1.870411416545644,1.2707883737405377
-0.007185169861733318,-1.870411416545644,1.2670810227595
-0.0071833798617333185,-1.8667131916930602,1.2670810227595
-0.007181589861733319,-1.8556185171353088,1.2633736717784623
-0.007179799861733318,-1.8482220674301413,1.2633736717784623
-0.007178009861733318,-1.8408256177249736,1.2633736717784623
-0.0071762198617333186,-1.8408256177249736,1.2707883737405377
-0.007174429861733319,-1.83712739287239,1.2707883737405377
-0.007172639861733318,-1.833429168019806,1.2670810227595
-0.007170849861733318,-1.8260327183146385,1.2707883737405377
