200Hz/acq0036.csv

#Digilent WaveForms Oscilloscope Acquisition
#Device Name: Discovery2
#Serial Number: SN:210321AA28BE
#Date Time: 2023-05-24 14:48:04.973
#Sample rate: 558659Hz
#Samples: 8192
#Trigger: Source: Channel 1 Type: Edge Condition: Rising Level: 800 mV Hyst.: Auto HoldOff: 100 ns
#Channel 1: Range: 1 V/div Offset: 0 V Attenuation: 1 X Sample Mode: Average
#Channel 2: Range: 1 V/div Offset: 0 V Attenuation: 1 X Sample Mode: Average

Time (s),Channel 1 (V),Channel 2 (V)
-0.007741842934890148,0.07115663106085063,-1.3132352600427357
-0.007740052934890148,0.0637601813556864,-1.3243573129858437
-0.007738262934890147,0.06745840620826683,-1.3132352600427357
-0.007736472934890147,0.06745840620826683,-1.309527909061698
-0.007734682934890148,0.06745840620826683,-1.3132352600427357
-0.007732892934890147,0.06376018135568472,-1.3169426110237752
-0.007731102934890147,0.06745840620826683,-1.320649962004811
-0.007729312934890147,0.06745840620826683,-1.320649962004811
-0.007727522934890148,0.06006195650309923,-1.320649962004811
-0.007725732934890147,0.06745840620826683,-1.320649962004811
-0.007723942934890147,0.07115663106085063,-1.3169426110237734
-0.007722152934890147,0.06745840620826683,-1.3132352600427357
-0.007720362934890148,0.06376018135568304,-1.320649962004811
-0.007718572934890147,0.06745840620826683,-1.320649962004811
-0.007716782934890147,0.06376018135568304,-1.3169426110237734
-0.0077149929348901474,0.06376018135568304,-1.3169426110237734
-0.007713202934890148,0.06376018135568304,-1.3132352600427357
-0.007711412934890147,0.06376018135568304,-1.3169426110237734
-0.007709622934890147,0.06006195650309923,-1.3169426110237734
-0.0077078329348901475,0.06376018135568304,-1.3169426110237734
-0.007706042934890148,0.06376018135568304,-1.3132352600427357
-0.007704252934890147,0.06745840620826683,-1.3169426110237734
-0.007702462934890147,0.06006195650309923,-1.3169426110237734
-0.0077006729348901475,0.06006195650309923,-1.3132352600427357
-0.007698882934890148,0.06376018135568304,-1.3132352600427357
-0.007697092934890147,0.06006195650309923,-1.3132352600427357
-0.007695302934890147,0.06376018135568304,-1.320649962004811
-0.0076935129348901475,0.06006195650309923,-1.3169426110237734
-0.007691722934890148,0.06376018135568304,-1.3169426110237734
-0.007689932934890147,0.06006195650309923,-1.320649962004811
-0.007688142934890147,0.05636373165051543,-1.320649962004811
-0.0076863529348901475,0.06006195650309923,-1.3169426110237734
-0.007684562934890148,0.05636373165051543,-1.320649962004811
-0.007682772934890147,0.05266550679793163,-1.320649962004811
-0.007680982934890147,0.05266550679793163,-1.3132352600427357
-0.0076791929348901476,0.05636373165051543,-1.3132352600427357
-0.007677402934890148,0.05636373165051543,-1.3169426110237734
-0.007675612934890147,0.05636373165051543,-1.3169426110237734
-0.007673822934890147,0.06376018135568304,-1.3169426110237734
-0.007672032934890148,0.05636373165051543,-1.320649962004811
-0.007670242934890148,0.0489672819453512,-1.313235260042739
-0.007668452934890147,0.05266550679793163,-1.3132352600427357
-0.007666662934890147,0.05636373165051543,-1.3132352600427357
-0.007664872934890148,0.05636373165051543,-1.3169426110237734
-0.007663082934890147,0.056363731650513754,-1.320649962004811
-0.007661292934890147,0.05266550679793163,-1.320649962004811
-0.007659502934890147,0.05266550679793163,-1.3169426110237734
-0.007657712934890148,0.05636373165051543,-1.320649962004811
-0.007655922934890147,0.06006195650309755,-1.320649962004811
-0.007654132934890147,0.05636373165051543,-1.320649962004811
-0.007652342934890147,0.05636373165051543,-1.3243573129858488
-0.007650552934890148,0.05266550679793163,-1.3169426110237734
-0.007648762934890147,0.048967281945347836,-1.3169426110237734
-0.007646972934890147,0.05266550679793163,-1.3169426110237734
-0.0076451829348901474,0.048967281945347836,-1.3243573129858488
-0.007643392934890148,0.048967281945347836,-1.3169426110237734
-0.007641602934890147,0.05266550679793163,-1.320649962004811
-0.007639812934890147,0.05266550679793163,-1.3169426110237734
-0.0076380229348901475,0.048967281945347836,-1.320649962004811
-0.007636232934890148,0.05266550679793163,-1.320649962004811
-0.007634442934890147,0.048967281945347836,-1.320649962004811
-0.007632652934890147,0.048967281945347836,-1.3169426110237734
-0.0076308629348901475,0.05266550679793163,-1.3132352600427357
-0.007629072934890148,0.045269057092764034,-1.3169426110237734
-0.007627282934890147,0.048967281945347836,-1.3169426110237734
-0.007625492934890147,0.045269057092764034,-1.320649962004811
-0.0076237029348901475,0.045269057092764034,-1.3169426110237734
-0.007621912934890148,0.05636373165051543,-1.3169426110237734
-0.007620122934890147,0.048967281945347836,-1.320649962004811
-0.007618332934890147,0.045269057092764034,-1.3169426110237734
-0.0076165429348901475,0.048967281945347836,-1.3169426110237734
-0.007614752934890148,0.045269057092764034,-1.3169426110237734
-0.007612962934890147,0.04157083224018024,-1.3169426110237734
-0.007611172934890147,0.045269057092764034,-1.320649962004811
-0.0076093829348901475,0.045269057092764034,-1.3169426110237734
-0.007607592934890148,0.045269057092764034,-1.320649962004811
-0.007605802934890147,0.045269057092764034,-1.3169426110237734
-0.007604012934890147,0.045269057092764034,-1.3169426110237734
-0.0076022229348901476,0.04157083224018024,-1.3169426110237734
-0.007600432934890148,0.04157083224018024,-1.320649962004811
-0.007598642934890147,0.045269057092764034,-1.3169426110237734
-0.007596852934890147,0.04157083224018024,-1.3132352600427357
-0.007595062934890148,0.04157083224018024,-1.3169426110237734
-0.007593272934890148,0.045269057092762355,-1.3169426110237734
-0.007591482934890147,0.03787260738759644,-1.320649962004811
-0.007589692934890147,0.045269057092764034,-1.3169426110237734
-0.007587902934890148,0.045269057092764034,-1.320649962004811
-0.007586112934890147,0.04157083224018024,-1.320649962004811
-0.007584322934890147,0.04157083224018024,-1.320649962004811
-0.007582532934890147,0.04157083224018024,-1.320649962004811
-0.007580742934890148,0.045269057092764034,-1.3169426110237734
-0.007578952934890147,0.045269057092764034,-1.320649962004811
-0.007577162934890147,0.04157083224018024,-1.3169426110237734
-0.007575372934890147,0.04157083224018024,-1.3132352600427357
-0.007573582934890148,0.03787260738759644,-1.320649962004811
-0.007571792934890147,0.03787260738759644,-1.320649962004811
-0.007570002934890147,0.03787260738759644,-1.320649962004811
-0.0075682129348901474,0.034174382535012635,-1.3169426110237734
-0.007566422934890148,0.03787260738759644,-1.3169426110237734
-0.007564632934890147,0.04157083224018024,-1.3243573129858488
-0.007562842934890147,0.03787260738759644,-1.320649962004811
-0.0075610529348901475,0.03787260738759644,-1.320649962004811
-0.007559262934890148,0.03787260738759644,-1.3169426110237734
-0.007557472934890147,0.03787260738759644,-1.3132352600427357
-0.007555682934890147,0.04157083224018024,-1.3169426110237734
-0.0075538929348901475,0.04157083224018024,-1.3132352600427357
-0.007552102934890148,0.04157083224018024,-1.3132352600427357
-0.007550312934890147,0.04157083224018024,-1.320649962004811
-0.007548522934890147,0.03787260738759644,-1.320649962004811
-0.0075467329348901475,0.03787260738759644,-1.3169426110237734
-0.007544942934890148,0.034174382535012635,-1.3169426110237734
-0.007543152934890147,0.034174382535012635,-1.3169426110237734
-0.007541362934890147,0.034174382535012635,-1.3132352600427357
-0.0075395729348901475,0.034174382535012635,-1.3169426110237734
-0.007537782934890148,0.03047615768242884,-1.3169426110237734
-0.007535992934890147,0.034174382535012635,-1.3132352600427357
-0.007534202934890147,0.034174382535012635,-1.3169426110237734
-0.0075324129348901476,0.034174382535012635,-1.3169426110237734
-0.007530622934890148,0.034174382535012635,-1.3169426110237734
-0.007528832934890147,0.034174382535012635,-1.320649962004811
-0.007527042934890147,0.03787260738759644,-1.320649962004811
-0.007525252934890148,0.034174382535012635,-1.3243573129858488
-0.007523462934890148,0.034174382535012635,-1.3206499620048129
-0.007521672934890147,0.034174382535012635,-1.320649962004811
-0.007519882934890147,0.03047615768242884,-1.3169426110237734
-0.007518092934890148,0.034174382535012635,-1.3169426110237734
-0.007516302934890148,0.030476157682430522,-1.3132352600427375
-0.007514512934890147,0.03047615768242884,-1.320649962004811
-0.007512722934890147,0.03047615768242884,-1.3169426110237734
-0.007510932934890148,0.026777932829845037,-1.3169426110237734
-0.007509142934890147,0.03047615768242884,-1.320649962004811
-0.007507352934890147,0.03047615768242884,-1.320649962004811
-0.007505562934890147,0.026777932829845037,-1.3169426110237734
-0.007503772934890148,0.026777932829845037,-1.3169426110237734
-0.007501982934890147,0.026777932829845037,-1.320649962004811
-0.007500192934890147,-1.7853522449362167,0.26609625787932234
-0.0074984029348901474,-3.1610918900973903,1.3375206913992161
-0.007496612934890148,-3.146298990687055,1.326398638456103
-0.007494822934890147,-3.13150609127672,1.326398638456103
-0.007493032934890147,-3.124109641571552,1.3226912874750654
-0.0074912429348901475,-3.1130149670138008,1.326398638456103
-0.007489452934890148,-3.109316742161217,1.326398638456103
-0.007487662934890147,-3.1019202924560494,1.3226912874750654
-0.007485872934890147,-3.0871273930457144,1.3226912874750654
-0.0074840829348901475,-3.0797309433405466,1.3189839364940277
-0.007482292934890148,-3.0649380439302116,1.3189839364940277
-0.007480502934890147,-3.057541594225044,1.3189839364940277
-0.007478712934890147,-3.039050469962125,1.31527658551299
-0.0074769229348901475,-3.035352245109541,1.3226912874750654
-0.007475132934890148,-3.0205593456992057,1.3226912874750654
-0.007473342934890147,-3.0057664462888707,1.3226912874750654
-0.007471552934890147,-2.9946717717311193,1.3189839364940277
-0.0074697629348901475,-2.9798788723207843,1.31527658551299
-0.007467972934890148,-2.961387748057865,1.304154532569877
-0.007466182934890147,-2.950293073500114,1.304154532569877
-0.007464392934890147,-2.9391983989423625,1.304154532569877
-0.0074626029348901475,-2.924405499532027,1.3078618835509146
-0.007460812934890148,-2.909612600121692,1.3004471815888392
-0.007459022934890147,-2.9059143752691083,1.2967398306078015
-0.007457232934890147,-2.8874232510061892,1.2967398306078015
-0.0074554429348901476,-2.8800268013010215,1.2930324796267638
-0.007453652934890148,-2.86893212674327,1.2930324796267638
-0.007451862934890147,-2.854139227332935,1.2930324796267638
-0.007450072934890147,-2.8467427776277674,1.2930324796267638
-0.007448282934890148,-2.835648103070016,1.2930324796267638
-0.007446492934890148,-2.8245534285122695,1.2930324796267638
-0.007444702934890147,-2.809760529101929,1.2893251286457261
-0.007442912934890147,-2.802364079396762,1.2930324796267638
-0.007441122934890148,-2.798665854544178,1.2930324796267638
-0.007439332934890147,-2.783872955133836,1.2856177776646884
-0.007437542934890147,-2.7690800557235073,1.2856177776646884
-0.007435752934890147,-2.76168360601834,1.2856177776646884
-0.007433962934890148,-2.7468907066080046,1.2819104266836507
-0.007432172934890147,-2.7357960320502532,1.278203075702613
-0.007430382934890147,-2.724701357492502,1.278203075702613
-0.007428592934890147,-2.7136066829347505,1.2819104266836507
-0.007426802934890148,-2.7062102332295828,1.2819104266836507
-0.007425012934890147,-2.6951155586718314,1.2819104266836507
-0.007423222934890147,-2.687719108966664,1.2744957247215754
-0.0074214329348901474,-2.6803226592614964,1.2819104266836507
-0.007419642934890148,-2.6729262095563286,1.2819104266836507
-0.007417852934890147,-2.6655297598511614,1.278203075702613
-0.007416062934890147,-2.6544350852934095,1.278203075702613
-0.0074142729348901475,-2.6470386355882423,1.278203075702613
-0.007412482934890148,-2.6396421858830745,1.278203075702613
-0.007410692934890147,-2.635943961030491,1.2819104266836507
-0.007408902934890147,-2.6248492864727395,1.278203075702613
-0.0074071129348901475,-2.617452836767572,1.278203075702613
-0.007405322934890148,-2.610056387062404,1.278203075702613
-0.007403532934890147,-2.5989617125046527,1.2744957247215754
-0.007401742934890147,-2.5878670379469013,1.2744957247215754
-0.0073999529348901475,-2.57677236338915,1.2744957247215754
-0.007398162934890148,-2.569375913683982,1.2707883737405377
-0.007396372934890147,-2.561979463978815,1.2670810227595
-0.007394582934890147,-2.554583014273647,1.2707883737405377
-0.0073927929348901475,-2.543488339715896,1.2707883737405377
-0.007391002934890148,-2.539790114863312,1.2707883737405377
-0.007389212934890147,-2.5323936651581445,1.2744957247215754
-0.007387422934890147,-2.5286954403055604,1.2707883737405377
-0.0073856329348901475,-2.5139025408952254,1.2707883737405377
-0.007383842934890148,-2.5065060911900576,1.2707883737405377
-0.007382052934890147,-2.4991096414848903,1.2707883737405377
-0.007380262934890147,-2.4917131917797226,1.2744957247215754
-0.007378472934890148,-2.488014966927139,1.2707883737405377
-0.007376682934890148,-2.4806185172219712,1.2670810227595
-0.007374892934890147,-2.46952384266422,1.2707883737405377
-0.007373102934890147,-2.46952384266422,1.2707883737405377
-0.007371312934890148,-2.4584291681064685,1.2744957247215754
-0.007369522934890148,-2.447334493548722,1.2744957247215754
-0.007367732934890147,-2.4399380438435494,1.2744957247215754
-0.007365942934890147,-2.4362398189909658,1.2707883737405377
-0.007364152934890148,-2.4214469195806303,1.2707883737405377
-0.007362362934890147,-2.417748694728043,1.2707883737405343
-0.007360572934890147,-2.410352245022879,1.2633736717784623
-0.007358782934890147,-2.4066540201702953,1.2670810227595
-0.007356992934890148,-2.402955795317711,1.2707883737405377
-0.007355202934890147,-2.395559345612544,1.2707883737405377
-0.007353412934890147,-2.388162895907376,1.2707883737405377
-0.007351622934890147,-2.3807664462022085,1.2707883737405377
-0.007349832934890148,-2.369671771644457,1.2707883737405377
-0.007348042934890147,-2.3659735467918734,1.2744957247215754
-0.007346252934890147,-2.36227532193929,1.2744957247215754
-0.0073444629348901475,-2.354878872234122,1.2707883737405377
-0.007342672934890148,-2.351180647381538,1.2707883737405377
-0.007340882934890147,-2.3437841976763707,1.2707883737405377
-0.007339092934890147,-2.336387747971203,1.2744957247215754
-0.0073373029348901475,-2.3252930734134516,1.2707883737405377
-0.007335512934890148,-2.321594848560868,1.2707883737405377
-0.007333722934890147,-2.3105001740031166,1.2707883737405377
-0.007331932934890147,-2.299405499445365,1.2707883737405377
-0.0073301429348901475,-2.2920090497401975,1.2707883737405377
-0.007328352934890148,-2.2883108248876134,1.2707883737405377
-0.007326562934890147,-2.2883108248876134,1.2670810227595
-0.007324772934890147,-2.2735179254772784,1.2670810227595
-0.0073229829348901475,-2.2735179254772784,1.2707883737405377
-0.007321192934890148,-2.2661214757721106,1.2670810227595
-0.007319402934890147,-2.2587250260669434,1.2670810227595
-0.007317612934890147,-2.2513285763617756,1.2670810227595
-0.0073158229348901475,-2.247630351509192,1.2670810227595
-0.007314032934890148,-2.2365356769514406,1.2670810227595
-0.007312242934890147,-2.229139227246273,1.2707883737405377
-0.007310452934890147,-2.225441002393689,1.2744957247215754
-0.0073086629348901476,-2.221742777541105,1.2707883737405377
-0.007306872934890148,-2.2180445526885215,1.2744957247215754
-0.007305082934890147,-2.210648102983354,1.278203075702613
-0.007303292934890147,-2.203251653278186,1.2707883737405377
-0.007301502934890148,-2.1995534284256024,1.2707883737405377
-0.007299712934890148,-2.1921569787204382,1.2670810227595017
-0.007297922934890147,-2.1847605290152674,1.2707883737405377
-0.007296132934890147,-2.1773640793100997,1.2707883737405377
-0.007294342934890148,-2.1662694047523483,1.2670810227595
-0.007292552934890147,-2.1625711798997624,1.2670810227595
-0.007290762934890147,-2.1588729550471806,1.2670810227595
-0.007288972934890147,-2.151476505342013,1.2707883737405377
-0.007287182934890148,-2.147778280489429,1.2670810227595
-0.007285392934890147,-2.132985381079094,1.2670810227595017
-0.007283602934890147,-2.132985381079094,1.2707883737405377
-0.007281812934890147,-2.1255889313739265,1.2670810227595
-0.007280022934890148,-2.1255889313739265,1.2670810227595
-0.007278232934890147,-2.121890706521343,1.2744957247215754
-0.007276442934890147,-2.1181924816687587,1.2707883737405377
-0.0072746529348901474,-2.1107960319635914,1.278203075702613
-0.007272862934890148,-2.1107960319635914,1.2744957247215754
-0.007271072934890147,-2.096003132553256,1.2744957247215754
-0.007269282934890147,-2.0923049077006723,1.2744957247215754
-0.0072674929348901475,-2.0849084579955046,1.2707883737405377
-0.007265702934890148,-2.0738137834377532,1.2707883737405377
-0.007263912934890147,-2.0701155585851696,1.2670810227595
-0.007262122934890147,-2.0590208840274182,1.2670810227595
-0.0072603329348901475,-2.055322659174834,1.2707883737405377
-0.007258542934890148,-2.0516244343222505,1.2707883737405377
-0.007256752934890147,-2.0442279846170828,1.2670810227595
-0.007254962934890147,-2.0442279846170828,1.2633736717784623
-0.0072531729348901475,-2.040529759764499,1.2633736717784623
-0.007251382934890148,-2.0331333100593314,1.2707883737405377
-0.007249592934890147,-2.02203863550158,1.2707883737405377
-0.007247802934890147,-2.02203863550158,1.2707883737405377
-0.0072460129348901475,-2.0183404106489964,1.2707883737405377
-0.007244222934890148,-2.0146421857964123,1.2744957247215754
-0.007242432934890147,-2.007245736091245,1.2670810227595
-0.007240642934890147,-1.999849286386077,1.2707883737405377
-0.0072388529348901475,-1.9961510615334932,1.2707883737405377
-0.007237062934890148,-1.9850563869757418,1.2707883737405377
-0.007235272934890147,-1.981358162123158,1.2633736717784623
-0.007233482934890147,-1.9739617124179905,1.2670810227595
-0.007231692934890148,-1.9702634875654066,1.2670810227595
-0.007229902934890148,-1.962867037860239,1.2670810227595
-0.007228112934890147,-1.9665652627128227,1.2670810227595
-0.007226322934890147,-1.9517723633024877,1.2707883737405377
-0.007224532934890148,-1.9517723633024877,1.2707883737405377
-0.007222742934890148,-1.9443759135973233,1.2670810227595017
-0.007220952934890147,-1.9369794638921525,1.2670810227595
-0.007219162934890147,-1.9332812390395686,1.2670810227595
-0.007217372934890148,-1.9295830141869847,1.2670810227595
-0.007215582934890147,-1.9221865644818155,1.2670810227595017
-0.007213792934890147,-1.9184883396292334,1.2707883737405377
-0.007212002934890147,-1.9184883396292334,1.2707883737405377
-0.007210212934890148,-1.9110918899240659,1.2744957247215754
-0.007208422934890147,-1.9110918899240659,1.2744957247215754
-0.007206632934890147,-1.907393665071482,1.2744957247215754
-0.007204842934890147,-1.8962989905137306,1.2744957247215754
-0.007203052934890148,-1.8852043159559793,1.278203075702613
-0.007201262934890147,-1.8852043159559793,1.2707883737405377
-0.007199472934890147,-1.8778078662508115,1.2744957247215754
-0.0071976829348901475,-1.8667131916930602,1.2670810227595
-0.007195892934890148,-1.8630149668404765,1.2670810227595
-0.007194102934890147,-1.8556185171353088,1.2670810227595
-0.007192312934890147,-1.8482220674301413,1.2707883737405377
-0.0071905229348901475,-1.8482220674301413,1.2670810227595
-0.007188732934890148,-1.8408256177249736,1.2707883737405377
-0.007186942934890147,-1.8408256177249736,1.2670810227595
-0.007185152934890147,-1.83712739287239,1.2670810227595
-0.0071833629348901475,-1.833429168019806,1.2707883737405377
-0.007181572934890148,-1.8297309431672222,1.2670810227595
-0.007179782934890147,-1.8223344934620547,1.2707883737405377
-0.007177992934890147,-1.8186362686094708,1.2633736717784623
-0.0071762029348901475,-1.8112398189043033,1.2707883737405377
-0.007174412934890148,-1.814938043756887,1.2633736717784623
-0.007172622934890147,-1.8075415940517194,1.2707883737405377
-0.007170832934890147,-1.796446919493968,1.2744957247215754
