200Hz/acq0089.csv

#Digilent WaveForms Oscilloscope Acquisition
#Device Name: Discovery2
#Serial Number: SN:210321AA28BE
#Date Time: 2023-05-24 14:48:06.445
#Sample rate: 558659Hz
#Samples: 8192
#Trigger: Source: Channel 1 Type: Edge Condition: Rising Level: 800 mV Hyst.: Auto HoldOff: 100 ns
#Channel 1: Range: 1 V/div Offset: 0 V Attenuation: 1 X Sample Mode: Average
#Channel 2: Range: 1 V/div Offset: 0 V Attenuation: 1 X Sample Mode: Average

Time (s),Channel 1 (V),Channel 2 (V)
-0.007741376354289504,0.07485485591343444,-1.320649962004811
-0.0077395863542895045,0.07115663106085231,-1.3169426110237752
-0.007737796354289504,0.07115663106085063,-1.320649962004811
-0.007736006354289504,0.06745840620826683,-1.3169426110237734
-0.007734216354289504,0.06745840620826683,-1.3169426110237734
-0.007732426354289504,0.06376018135568472,-1.3169426110237716
-0.007730636354289504,0.06745840620826683,-1.3132352600427357
-0.007728846354289504,0.06745840620826683,-1.320649962004811
-0.007727056354289504,0.06376018135568304,-1.320649962004811
-0.007725266354289504,0.07115663106085063,-1.320649962004811
-0.007723476354289504,0.06745840620826683,-1.320649962004811
-0.007721686354289504,0.06745840620826683,-1.320649962004811
-0.007719896354289504,0.06376018135568304,-1.320649962004811
-0.007718106354289504,0.06745840620826683,-1.320649962004811
-0.007716316354289504,0.06745840620826683,-1.3169426110237734
-0.007714526354289504,0.06376018135568304,-1.3169426110237734
-0.007712736354289504,0.06745840620826683,-1.3169426110237734
-0.007710946354289504,0.06006195650309923,-1.3169426110237734
-0.007709156354289504,0.06006195650309923,-1.3169426110237734
-0.007707366354289504,0.06376018135568304,-1.3169426110237734
-0.007705576354289504,0.06745840620826683,-1.320649962004811
-0.007703786354289504,0.06006195650309923,-1.3169426110237734
-0.007701996354289504,0.06745840620826683,-1.320649962004811
-0.007700206354289504,0.06006195650309923,-1.3169426110237734
-0.0076984163542895044,0.06006195650309923,-1.320649962004811
-0.007696626354289504,0.06376018135568304,-1.3169426110237734
-0.007694836354289504,0.06006195650309923,-1.3169426110237734
-0.007693046354289504,0.06006195650309923,-1.320649962004811
-0.0076912563542895045,0.05636373165051543,-1.3132352600427357
-0.007689466354289504,0.05266550679793163,-1.3169426110237734
-0.007687676354289504,0.05636373165051543,-1.3169426110237734
-0.007685886354289504,0.05636373165051543,-1.3169426110237734
-0.0076840963542895045,0.05636373165051543,-1.320649962004811
-0.007682306354289504,0.05636373165051543,-1.320649962004811
-0.007680516354289504,0.06006195650309923,-1.3169426110237734
-0.007678726354289504,0.06006195650309923,-1.320649962004811
-0.0076769363542895045,0.06006195650309923,-1.320649962004811
-0.007675146354289504,0.05636373165051543,-1.320649962004811
-0.007673356354289504,0.05636373165051543,-1.3169426110237734
-0.007671566354289504,0.06006195650309923,-1.3132352600427357
-0.0076697763542895045,0.052665506797935,-1.3169426110237716
-0.007667986354289504,0.06006195650309923,-1.3169426110237734
-0.007666196354289504,0.05636373165051543,-1.3132352600427357
-0.007664406354289504,0.05266550679793163,-1.3169426110237734
-0.007662616354289504,0.05636373165051543,-1.3206499620048093
-0.007660826354289504,0.05636373165051543,-1.3169426110237734
-0.007659036354289504,0.05266550679793163,-1.320649962004811
-0.007657246354289504,0.048967281945347836,-1.320649962004811
-0.007655456354289504,0.056363731650513754,-1.3169426110237734
-0.007653666354289504,0.05266550679793163,-1.3169426110237734
-0.007651876354289504,0.05636373165051543,-1.3169426110237734
-0.007650086354289504,0.05266550679793163,-1.3132352600427357
-0.007648296354289504,0.06006195650309923,-1.309527909061698
-0.007646506354289504,0.05266550679793163,-1.3169426110237734
-0.007644716354289504,0.05266550679793163,-1.320649962004811
-0.007642926354289504,0.048967281945347836,-1.3243573129858488
-0.007641136354289504,0.048967281945347836,-1.3169426110237734
-0.007639346354289504,0.048967281945347836,-1.3169426110237734
-0.007637556354289504,0.048967281945347836,-1.320649962004811
-0.007635766354289504,0.048967281945347836,-1.3169426110237734
-0.007633976354289504,0.05266550679793163,-1.3169426110237734
-0.007632186354289504,0.048967281945347836,-1.320649962004811
-0.007630396354289504,0.05266550679793163,-1.3169426110237734
-0.007628606354289504,0.048967281945347836,-1.3169426110237734
-0.007626816354289504,0.048967281945347836,-1.3169426110237734
-0.007625026354289504,0.048967281945347836,-1.3169426110237734
-0.007623236354289504,0.048967281945347836,-1.3169426110237734
-0.0076214463542895045,0.045269057092764034,-1.320649962004811
-0.007619656354289504,0.048967281945347836,-1.320649962004811
-0.007617866354289504,0.048967281945347836,-1.3169426110237734
-0.007616076354289504,0.048967281945347836,-1.3169426110237734
-0.0076142863542895045,0.045269057092764034,-1.3169426110237734
-0.007612496354289504,0.04157083224018024,-1.320649962004811
-0.007610706354289504,0.045269057092764034,-1.320649962004811
-0.007608916354289504,0.045269057092764034,-1.3169426110237734
-0.0076071263542895045,0.04157083224018024,-1.3132352600427357
-0.007605336354289504,0.045269057092764034,-1.3169426110237734
-0.007603546354289504,0.04157083224018024,-1.3169426110237734
-0.007601756354289504,0.045269057092764034,-1.320649962004811
-0.0075999663542895045,0.045269057092764034,-1.320649962004811
-0.007598176354289504,0.048967281945347836,-1.3169426110237734
-0.007596386354289504,0.045269057092764034,-1.3243573129858488
-0.007594596354289504,0.04157083224018024,-1.320649962004811
-0.0075928063542895045,0.04157083224018024,-1.313235260042739
-0.007591016354289504,0.04157083224018024,-1.3132352600427357
-0.007589226354289504,0.04157083224018024,-1.3169426110237734
-0.007587436354289504,0.04157083224018024,-1.320649962004811
-0.007585646354289504,0.04157083224018024,-1.3169426110237752
-0.007583856354289504,0.04157083224018024,-1.320649962004811
-0.007582066354289504,0.04157083224018024,-1.3169426110237734
-0.007580276354289504,0.04157083224018024,-1.320649962004811
-0.007578486354289504,0.04157083224018024,-1.320649962004811
-0.007576696354289504,0.04157083224018024,-1.320649962004811
-0.007574906354289504,0.04157083224018024,-1.320649962004811
-0.007573116354289504,0.03047615768242884,-1.3169426110237734
-0.007571326354289504,0.03787260738759644,-1.3169426110237734
-0.007569536354289504,0.03787260738759644,-1.3169426110237734
-0.007567746354289504,0.03047615768242884,-1.3169426110237734
-0.007565956354289504,0.03787260738759644,-1.3169426110237734
-0.007564166354289504,0.045269057092764034,-1.3169426110237734
-0.007562376354289504,0.034174382535012635,-1.3169426110237734
-0.007560586354289504,0.03787260738759644,-1.3169426110237734
-0.007558796354289504,0.03787260738759644,-1.3169426110237734
-0.007557006354289504,0.034174382535012635,-1.3169426110237734
-0.007555216354289504,0.034174382535012635,-1.320649962004811
-0.007553426354289504,0.034174382535012635,-1.3132352600427357
-0.0075516363542895044,0.034174382535012635,-1.320649962004811
-0.007549846354289504,0.034174382535012635,-1.320649962004811
-0.007548056354289504,0.034174382535012635,-1.3243573129858488
-0.007546266354289504,0.03047615768242884,-1.320649962004811
-0.0075444763542895045,0.03787260738759644,-1.320649962004811
-0.007542686354289504,0.03047615768242884,-1.320649962004811
-0.007540896354289504,0.026777932829845037,-1.320649962004811
-0.007539106354289504,0.034174382535012635,-1.320649962004811
-0.0075373163542895045,0.03047615768242884,-1.3169426110237734
-0.007535526354289504,0.034174382535012635,-1.3132352600427357
-0.007533736354289504,0.03047615768242884,-1.320649962004811
-0.007531946354289504,0.03047615768242884,-1.320649962004811
-0.0075301563542895045,0.034174382535012635,-1.320649962004811
-0.007528366354289504,0.026777932829845037,-1.3169426110237734
-0.007526576354289504,0.02307970797726124,-1.3169426110237734
-0.007524786354289504,0.03047615768242884,-1.3169426110237734
-0.0075229963542895045,0.03047615768242884,-1.3206499620048093
-0.007521206354289504,0.02307970797726124,-1.320649962004811
-0.007519416354289504,0.026777932829845037,-1.320649962004811
-0.007517626354289504,0.026777932829845037,-1.3169426110237734
-0.0075158363542895045,0.026777932829845037,-1.3206499620048093
-0.007514046354289504,0.026777932829845037,-1.3169426110237734
-0.007512256354289504,0.026777932829845037,-1.3169426110237734
-0.007510466354289504,0.02307970797726124,-1.3169426110237734
-0.007508676354289504,0.026777932829843355,-1.3169426110237734
-0.007506886354289504,0.02307970797726124,-1.3169426110237734
-0.007505096354289504,0.02307970797726124,-1.3132352600427357
-0.007503306354289504,0.02307970797726124,-1.3169426110237734
-0.007501516354289504,-0.24319248140877234,-1.0129398305786825
-0.007499726354289504,-3.168488339802558,1.3301059894371408
-0.007497936354289504,-3.1536954403922226,1.3301059894371408
-0.007496146354289504,-3.1389025409818876,1.3226912874750654
-0.007494356354289504,-3.13150609127672,1.3226912874750654
-0.007492566354289504,-3.124109641571552,1.3226912874750654
-0.007490776354289504,-3.1130149670138008,1.3226912874750654
-0.007488986354289504,-3.1019202924560494,1.3226912874750654
-0.007487196354289504,-3.0982220676034657,1.3189839364940277
-0.007485406354289504,-3.0871273930457144,1.3226912874750654
-0.007483616354289504,-3.072334493635379,1.3226912874750654
-0.007481826354289504,-3.0612398190776275,1.3189839364940277
-0.007480036354289504,-3.050145144519876,1.3226912874750654
-0.007478246354289504,-3.035352245109541,1.3226912874750654
-0.007476456354289504,-3.0279557954043734,1.3189839364940277
-0.0074746663542895045,-3.0131628959940384,1.31527658551299
-0.007472876354289504,-2.9946717717311193,1.3189839364940277
-0.007471086354289504,-2.983577097173368,1.31527658551299
-0.007469296354289504,-2.9724824226156166,1.3115692345319523
-0.0074675063542895045,-2.9539912983526975,1.3078618835509146
-0.007465716354289504,-2.9355001740897784,1.304154532569877
-0.007463926354289504,-2.9318019492371947,1.3004471815888392
-0.007462136354289504,-2.9170090498268597,1.2930324796267638
-0.0074603463542895045,-2.909612600121692,1.2967398306078015
-0.007458556354289504,-2.891121475858773,1.2967398306078015
-0.007456766354289504,-2.8874232510061892,1.2967398306078015
-0.007454976354289504,-2.876328576448438,1.2930324796267638
-0.0074531863542895045,-2.8652339018906865,1.2967398306078015
-0.007451396354289504,-2.854139227332935,1.2967398306078015
-0.007449606354289504,-2.8430445527751838,1.2930324796267638
-0.007447816354289504,-2.835648103070016,1.2893251286457261
-0.0074460263542895045,-2.828251653364852,1.293032479626762
-0.007444236354289504,-2.817156978807097,1.2930324796267638
-0.007442446354289504,-2.809760529101929,1.2893251286457261
-0.007440656354289504,-2.7912694048390105,1.2893251286457261
-0.007438866354289504,-2.780174730281254,1.2930324796267587
-0.007437076354289504,-2.7690800557235073,1.2819104266836507
-0.007435286354289504,-2.757985381165756,1.2819104266836507
-0.007433496354289504,-2.7505889314605887,1.2819104266836507
-0.007431706354289504,-2.7394942569028373,1.2819104266836507
-0.007429916354289504,-2.7320978071976696,1.278203075702613
-0.007428126354289504,-2.717304907787334,1.278203075702613
-0.007426336354289504,-2.7062102332295828,1.278203075702613
-0.007424546354289504,-2.702512008376999,1.2819104266836507
-0.007422756354289504,-2.687719108966664,1.2819104266836507
-0.007420966354289504,-2.6766244344089127,1.278203075702613
-0.007419176354289504,-2.6729262095563286,1.278203075702613
-0.007417386354289504,-2.6618315349985773,1.278203075702613
-0.007415596354289504,-2.6544350852934095,1.2819104266836507
-0.007413806354289504,-2.6470386355882423,1.278203075702613
-0.007412016354289504,-2.643340410735658,1.2819104266836507
-0.007410226354289504,-2.632245736177907,1.278203075702613
-0.007408436354289504,-2.617452836767572,1.2744957247215754
-0.007406646354289504,-2.610056387062404,1.278203075702613
-0.0074048563542895044,-2.6063581622098204,1.2744957247215754
-0.007403066354289504,-2.595263487652069,1.278203075702613
-0.007401276354289504,-2.5804705882417336,1.2670810227595
-0.007399486354289504,-2.5730741385365663,1.2707883737405377
-0.0073976963542895045,-2.5656776888313986,1.2707883737405377
-0.007395906354289504,-2.561979463978815,1.2744957247215754
-0.007394116354289504,-2.561979463978815,1.2707883737405377
-0.007392326354289504,-2.5471865645684795,1.2744957247215754
-0.0073905363542895045,-2.539790114863312,1.2707883737405377
-0.007388746354289504,-2.5323936651581445,1.2744957247215754
-0.007386956354289504,-2.5249972154529767,1.2707883737405377
-0.007385166354289504,-2.5139025408952254,1.2670810227595
-0.0073833763542895045,-2.5139025408952254,1.2744957247215754
-0.007381586354289504,-2.5065060911900576,1.2744957247215754
-0.007379796354289504,-2.4991096414848903,1.2707883737405377
-0.007378006354289504,-2.488014966927139,1.2707883737405377
-0.0073762163542895045,-2.484316742074555,1.2744957247215754
-0.007374426354289504,-2.4732220675168035,1.2633736717784623
-0.007372636354289504,-2.465825617811636,1.2707883737405377
-0.007370846354289504,-2.4584291681064685,1.2707883737405377
-0.0073690563542895045,-2.447334493548722,1.2670810227595017
-0.007367266354289504,-2.443636268696133,1.2670810227595
-0.007365476354289504,-2.4362398189909658,1.2670810227595
-0.007363686354289504,-2.428843369285798,1.2670810227595
-0.007361896354289504,-2.4214469195806285,1.2707883737405394
-0.007360106354289504,-2.4177486947280467,1.2744957247215754
-0.007358316354289504,-2.4066540201702953,1.2670810227595
-0.007356526354289504,-2.3992575704651276,1.2670810227595
-0.007354736354289504,-2.395559345612544,1.2707883737405377
-0.007352946354289504,-2.3844646710547925,1.2633736717784623
-0.007351156354289504,-2.377068221349625,1.2670810227595
-0.007349366354289504,-2.373369996497041,1.2670810227595
-0.007347576354289504,-2.3659735467918734,1.2670810227595
-0.007345786354289504,-2.3585770970867057,1.2707883737405377
-0.007343996354289504,-2.354878872234122,1.2744957247215754
-0.007342206354289504,-2.351180647381538,1.2670810227595
-0.007340416354289504,-2.3437841976763707,1.2670810227595
-0.007338626354289504,-2.3326895231186193,1.2670810227595
-0.007336836354289504,-2.3252930734134516,1.2633736717784623
-0.007335046354289504,-2.3141983988557002,1.2670810227595
-0.007333256354289504,-2.3105001740031166,1.2707883737405377
-0.007331466354289504,-2.303103724297949,1.2670810227595
-0.007329676354289504,-2.295707274592781,1.2633736717784623
-0.0073278863542895045,-2.2920090497401975,1.2670810227595
-0.007326096354289504,-2.2883108248876134,1.2633736717784623
-0.007324306354289504,-2.277216150329862,1.2707883737405377
-0.007322516354289504,-2.2735179254772784,1.2670810227595
-0.0073207263542895045,-2.2661214757721106,1.2707883737405377
-0.007318936354289504,-2.2587250260669434,1.2670810227595
-0.007317146354289504,-2.2587250260669434,1.2707883737405377
-0.007315356354289504,-2.247630351509192,1.2707883737405377
-0.0073135663542895045,-2.243932126656608,1.2707883737405377
-0.007311776354289504,-2.243932126656608,1.2707883737405377
-0.007309986354289504,-2.2365356769514406,1.2744957247215754
-0.007308196354289504,-2.225441002393689,1.2707883737405377
-0.0073064063542895045,-2.2180445526885215,1.2670810227595
-0.007304616354289504,-2.210648102983354,1.2670810227595
-0.007302826354289504,-2.203251653278186,1.2707883737405377
-0.007301036354289504,-2.1958552035730188,1.2707883737405377
-0.0072992463542895045,-2.1884587538678546,1.2670810227595017
-0.007297456354289504,-2.1847605290152674,1.2670810227595
-0.007295666354289504,-2.173665854457516,1.2670810227595
-0.007293876354289504,-2.169967629604932,1.2670810227595
-0.007292086354289504,-2.1662694047523465,1.2707883737405359
-0.007290296354289504,-2.162571179899764,1.2670810227595
-0.007288506354289504,-2.1588729550471806,1.2707883737405377
-0.007286716354289504,-2.151476505342013,1.2670810227595
-0.007284926354289504,-2.1477782804894243,1.2670810227595
-0.007283136354289504,-2.136683605931678,1.2670810227595
-0.007281346354289504,-2.132985381079094,1.2707883737405377
-0.007279556354289504,-2.121890706521343,1.2707883737405377
-0.007277766354289504,-2.121890706521343,1.2707883737405377
-0.007275976354289504,-2.1181924816687587,1.2707883737405377
-0.007274186354289504,-2.1070978071110074,1.2670810227595
-0.007272396354289504,-2.1033995822584237,1.2670810227595
-0.007270606354289504,-2.096003132553256,1.2633736717784623
-0.007268816354289504,-2.0923049077006723,1.2707883737405377
-0.007267026354289504,-2.0849084579955046,1.2707883737405377
-0.007265236354289504,-2.0738137834377532,1.2670810227595
-0.007263446354289504,-2.0738137834377532,1.2670810227595
-0.007261656354289504,-2.0664173337325855,1.2670810227595
-0.007259866354289504,-2.062719108880002,1.2744957247215754
-0.0072580763542895044,-2.0590208840274182,1.2670810227595
-0.007256286354289504,-2.0516244343222505,1.2670810227595
-0.007254496354289504,-2.0442279846170828,1.2707883737405377
-0.007252706354289504,-2.036831534911915,1.2707883737405377
-0.0072509163542895045,-2.036831534911915,1.2670810227595
-0.007249126354289504,-2.036831534911915,1.2633736717784623
-0.007247336354289504,-2.0294350852067478,1.2670810227595
-0.007245546354289504,-2.0183404106489964,1.2670810227595
-0.0072437563542895045,-2.0183404106489964,1.2744957247215754
-0.007241966354289504,-2.0109439609438287,1.2707883737405377
-0.007240176354289504,-2.007245736091245,1.2707883737405377
-0.007238386354289504,-1.999849286386077,1.2707883737405377
-0.0072365963542895045,-1.9924528366809093,1.2707883737405377
-0.007234806354289504,-1.9887546118283257,1.2670810227595
-0.007233016354289504,-1.9776599372705743,1.2633736717784623
-0.007231226354289504,-1.9702634875654066,1.2633736717784623
-0.0072294363542895045,-1.9665652627128227,1.2670810227595
-0.007227646354289504,-1.9665652627128227,1.2670810227595
-0.007225856354289504,-1.9554705881550714,1.2596663207974246
-0.007224066354289504,-1.9517723633024877,1.2633736717784623
-0.0072222763542895045,-1.9517723633024877,1.2744957247215702
-0.007220486354289504,-1.94437591359732,1.2707883737405377
-0.007218696354289504,-1.9332812390395686,1.2707883737405377
-0.007216906354289504,-1.9369794638921525,1.2670810227595
-0.007215116354289504,-1.9295830141869847,1.2670810227595017
-0.007213326354289504,-1.9295830141869847,1.2707883737405377
-0.007211536354289504,-1.9184883396292334,1.2707883737405377
-0.007209746354289504,-1.9110918899240659,1.2707883737405377
-0.007207956354289504,-1.9110918899240659,1.2670810227595
-0.007206166354289504,-1.9036954402188981,1.2670810227595
-0.007204376354289504,-1.8926007656611468,1.2670810227595
-0.007202586354289504,-1.8889025408085631,1.2670810227595
-0.007200796354289504,-1.8815060911033954,1.2670810227595
-0.007199006354289504,-1.8778078662508115,1.2670810227595
-0.007197216354289504,-1.8778078662508115,1.2670810227595
-0.007195426354289504,-1.870411416545644,1.2670810227595
-0.007193636354289504,-1.8667131916930602,1.2670810227595
-0.007191846354289504,-1.8593167419878927,1.2670810227595
-0.007190056354289504,-1.8556185171353088,1.2707883737405377
-0.007188266354289504,-1.8482220674301413,1.2633736717784623
-0.007186476354289504,-1.8482220674301413,1.2707883737405377
-0.007184686354289504,-1.8445238425775574,1.2707883737405377
-0.007182896354289504,-1.833429168019806,1.2670810227595
-0.0071811063542895045,-1.8297309431672222,1.2670810227595
-0.007179316354289504,-1.8297309431672222,1.2707883737405377
-0.007177526354289504,-1.8297309431672222,1.278203075702613
-0.007175736354289504,-1.8186362686094708,1.2707883737405377
-0.0071739463542895045,-1.8186362686094708,1.2707883737405377
-0.007172156354289504,-1.8038433691991356,1.2670810227595
-0.007170366354289504,-1.800145144346552,1.2670810227595
-0.007168576354289504,-1.7927486946413842,1.2633736717784623
