200Hz/acq0069.csv

#Digilent WaveForms Oscilloscope Acquisition
#Device Name: Discovery2
#Serial Number: SN:210321AA28BE
#Date Time: 2023-05-24 14:48:05.890
#Sample rate: 558659Hz
#Samples: 8192
#Trigger: Source: Channel 1 Type: Edge Condition: Rising Level: 800 mV Hyst.: Auto HoldOff: 100 ns
#Channel 1: Range: 1 V/div Offset: 0 V Attenuation: 1 X Sample Mode: Average
#Channel 2: Range: 1 V/div Offset: 0 V Attenuation: 1 X Sample Mode: Average

Time (s),Channel 1 (V),Channel 2 (V)
-0.007741689969493704,0.05266550679793163,-1.3169426110237734
-0.007739899969493704,0.05266550679793163,-1.3169426110237734
-0.007738109969493703,0.048967281945347836,-1.320649962004811
-0.007736319969493703,0.05266550679793163,-1.320649962004811
-0.007734529969493704,0.05636373165051543,-1.3169426110237734
-0.007732739969493703,0.048967281945349515,-1.3169426110237734
-0.007730949969493703,0.05266550679793163,-1.3169426110237734
-0.007729159969493703,0.05266550679793163,-1.3243573129858488
-0.007727369969493704,0.048967281945347836,-1.3243573129858488
-0.007725579969493703,0.048967281945347836,-1.3169426110237734
-0.007723789969493703,0.048967281945347836,-1.320649962004811
-0.007721999969493703,0.05266550679793163,-1.3169426110237734
-0.007720209969493704,0.045269057092764034,-1.3169426110237734
-0.007718419969493703,0.048967281945347836,-1.3243573129858488
-0.007716629969493703,0.048967281945347836,-1.320649962004811
-0.0077148399694937034,0.045269057092764034,-1.3169426110237734
-0.007713049969493704,0.045269057092764034,-1.3169426110237734
-0.007711259969493703,0.045269057092764034,-1.320649962004811
-0.007709469969493703,0.045269057092764034,-1.3169426110237734
-0.0077076799694937035,0.048967281945347836,-1.3243573129858488
-0.007705889969493704,0.04157083224018024,-1.3132352600427357
-0.007704099969493703,0.05266550679793163,-1.3243573129858488
-0.007702309969493703,0.048967281945347836,-1.320649962004811
-0.0077005199694937035,0.045269057092764034,-1.3169426110237734
-0.007698729969493704,0.048967281945347836,-1.3169426110237734
-0.007696939969493703,0.045269057092764034,-1.320649962004811
-0.007695149969493703,0.04157083224018024,-1.3169426110237734
-0.0076933599694937035,0.045269057092764034,-1.3169426110237734
-0.007691569969493704,0.04157083224018024,-1.3169426110237734
-0.007689779969493703,0.04157083224018024,-1.3169426110237734
-0.007687989969493703,0.04157083224018024,-1.3132352600427357
-0.0076861999694937035,0.04157083224018024,-1.320649962004811
-0.007684409969493704,0.04157083224018024,-1.320649962004811
-0.007682619969493703,0.045269057092764034,-1.320649962004811
-0.007680829969493703,0.04157083224018024,-1.320649962004811
-0.0076790399694937036,0.03787260738759644,-1.320649962004811
-0.007677249969493704,0.04157083224018024,-1.320649962004811
-0.007675459969493703,0.04157083224018024,-1.320649962004811
-0.007673669969493703,0.03787260738759644,-1.3169426110237734
-0.007671879969493704,0.03787260738759644,-1.320649962004811
-0.007670089969493704,0.03787260738759644,-1.3169426110237752
-0.007668299969493703,0.03787260738759644,-1.3132352600427357
-0.007666509969493703,0.034174382535012635,-1.3169426110237734
-0.007664719969493704,0.03787260738759644,-1.320649962004811
-0.007662929969493703,0.0378726073875998,-1.3132352600427375
-0.007661139969493703,0.045269057092764034,-1.3169426110237734
-0.007659349969493703,0.04157083224018024,-1.3169426110237734
-0.007657559969493704,0.034174382535012635,-1.320649962004811
-0.007655769969493703,0.034174382535010955,-1.3169426110237752
-0.007653979969493703,0.03047615768242884,-1.320649962004811
-0.007652189969493703,0.034174382535012635,-1.3169426110237734
-0.007650399969493704,0.03787260738759644,-1.3169426110237734
-0.007648609969493703,0.03787260738759644,-1.3169426110237734
-0.007646819969493703,0.034174382535012635,-1.3132352600427357
-0.0076450299694937034,0.034174382535012635,-1.3169426110237734
-0.007643239969493704,0.026777932829845037,-1.3169426110237734
-0.007641449969493703,0.03787260738759644,-1.3169426110237734
-0.007639659969493703,0.026777932829845037,-1.3169426110237734
-0.0076378699694937035,0.026777932829845037,-1.3169426110237734
-0.007636079969493704,0.034174382535012635,-1.320649962004811
-0.007634289969493703,0.034174382535012635,-1.3243573129858488
-0.007632499969493703,0.03047615768242884,-1.320649962004811
-0.0076307099694937035,0.034174382535012635,-1.320649962004811
-0.007628919969493704,0.03047615768242884,-1.3243573129858488
-0.007627129969493703,0.026777932829845037,-1.3169426110237734
-0.007625339969493703,0.026777932829845037,-1.320649962004811
-0.0076235499694937035,0.03047615768242884,-1.320649962004811
-0.007621759969493704,0.03047615768242884,-1.320649962004811
-0.007619969969493703,0.026777932829845037,-1.320649962004811
-0.007618179969493703,0.026777932829845037,-1.3169426110237734
-0.0076163899694937035,0.026777932829845037,-1.3169426110237734
-0.007614599969493704,0.03047615768242884,-1.3243573129858488
-0.007612809969493703,0.03047615768242884,-1.3243573129858488
-0.007611019969493703,0.026777932829845037,-1.3243573129858488
-0.0076092299694937035,0.03047615768242884,-1.3169426110237734
-0.007607439969493704,0.03047615768242884,-1.3169426110237734
-0.007605649969493703,0.034174382535012635,-1.3169426110237734
-0.007603859969493703,0.03047615768242884,-1.3132352600427357
-0.0076020699694937036,0.034174382535012635,-1.3169426110237734
-0.007600279969493704,0.03047615768242884,-1.320649962004811
-0.007598489969493703,0.026777932829845037,-1.320649962004811
-0.007596699969493703,0.03047615768242884,-1.3169426110237734
-0.007594909969493704,0.026777932829845037,-1.3169426110237734
-0.007593119969493704,0.02307970797726292,-1.3169426110237734
-0.007591329969493703,0.026777932829845037,-1.320649962004811
-0.007589539969493703,0.02307970797726124,-1.3243573129858488
-0.007587749969493704,0.026777932829845037,-1.3169426110237734
-0.007585959969493703,0.026777932829843355,-1.3206499620048129
-0.007584169969493703,0.02307970797726124,-1.3243573129858488
-0.007582379969493703,0.026777932829845037,-1.3169426110237734
-0.007580589969493704,0.01938148312467744,-1.320649962004811
-0.007578799969493703,0.01938148312467744,-1.320649962004811
-0.007577009969493703,0.026777932829845037,-1.320649962004811
-0.007575219969493703,0.026777932829845037,-1.320649962004811
-0.007573429969493704,0.015683258272093638,-1.320649962004811
-0.007571639969493703,0.01938148312467744,-1.3169426110237734
-0.007569849969493703,0.01938148312467744,-1.320649962004811
-0.0075680599694937034,0.01938148312467744,-1.320649962004811
-0.007566269969493704,0.02307970797726124,-1.3169426110237734
-0.007564479969493703,0.01938148312467744,-1.320649962004811
-0.007562689969493703,0.01938148312467744,-1.320649962004811
-0.0075608999694937035,0.026777932829845037,-1.320649962004811
-0.007559109969493704,0.02307970797726124,-1.3243573129858488
-0.007557319969493703,0.02307970797726124,-1.3243573129858488
-0.007555529969493703,0.01938148312467744,-1.3169426110237734
-0.0075537399694937035,0.015683258272093638,-1.320649962004811
-0.007551949969493704,0.015683258272093638,-1.3169426110237734
-0.007550159969493703,0.01938148312467744,-1.320649962004811
-0.007548369969493703,0.015683258272093638,-1.3243573129858488
-0.0075465799694937035,0.015683258272093638,-1.320649962004811
-0.007544789969493704,0.015683258272093638,-1.3243573129858488
-0.007542999969493703,0.01938148312467744,-1.3243573129858488
-0.007541209969493703,0.02307970797726124,-1.3169426110237734
-0.0075394199694937035,0.01938148312467744,-1.320649962004811
-0.007537629969493704,0.02307970797726124,-1.3169426110237734
-0.007535839969493703,0.01938148312467744,-1.3169426110237734
-0.007534049969493703,0.01938148312467744,-1.320649962004811
-0.0075322599694937035,0.015683258272093638,-1.320649962004811
-0.007530469969493704,0.01198503341950984,-1.3243573129858488
-0.007528679969493703,0.01198503341950984,-1.320649962004811
-0.007526889969493703,0.015683258272093638,-1.320649962004811
-0.007525099969493704,0.015683258272093638,-1.320649962004811
-0.007523309969493704,0.011985033419511522,-1.320649962004811
-0.007521519969493703,0.015683258272093638,-1.320649962004811
-0.007519729969493703,0.00828680856692604,-1.320649962004811
-0.007517939969493704,0.01198503341950984,-1.320649962004811
-0.007516149969493704,0.015683258272091955,-1.320649962004811
-0.007514359969493703,0.01198503341950984,-1.3132352600427357
-0.007512569969493703,0.015683258272093638,-1.3169426110237734
-0.007510779969493704,0.015683258272093638,-1.3169426110237734
-0.007508989969493703,0.01198503341951152,-1.313235260042739
-0.007507199969493703,0.015683258272093638,-1.320649962004811
-0.007505409969493703,0.01198503341950984,-1.320649962004811
-0.007503619969493704,0.01938148312467744,-1.3169426110237734
-0.007501829969493703,0.01198503341950984,-1.3169426110237734
-0.007500039969493703,-2.1107960319635914,0.5367328794950741
-0.007498249969493703,-3.1721865646551417,1.3375206913992161
-0.007496459969493704,-3.1536954403922226,1.3301059894371408
-0.007494669969493703,-3.146298990687055,1.3226912874750654
-0.007492879969493703,-3.1389025409818876,1.326398638456103
-0.0074910899694937035,-3.127807866424136,1.3226912874750654
-0.007489299969493704,-3.1204114167189685,1.3226912874750654
-0.007487509969493703,-3.1056185173086335,1.3189839364940277
-0.007485719969493703,-3.094523842750882,1.31527658551299
-0.0074839299694937035,-3.0834291681931303,1.3189839364940277
-0.007482139969493704,-3.0686362687827953,1.3189839364940277
-0.007480349969493703,-3.0612398190776275,1.3189839364940277
-0.007478559969493703,-3.050145144519876,1.31527658551299
-0.0074767699694937035,-3.042748694814709,1.3189839364940277
-0.007474979969493704,-3.0279557954043734,1.3078618835509146
-0.007473189969493703,-3.0094646711414543,1.31527658551299
-0.007471399969493703,-3.002068221436287,1.31527658551299
-0.0074696099694937035,-2.9909735468785357,1.3078618835509146
-0.007467819969493704,-2.9798788723207843,1.3078618835509146
-0.007466029969493703,-2.965085972910449,1.3115692345319523
-0.007464239969493703,-2.950293073500114,1.3078618835509146
-0.0074624499694937035,-2.9355001740897784,1.304154532569877
-0.007460659969493704,-2.924405499532027,1.304154532569877
-0.007458869969493703,-2.9133108249742756,1.3004471815888392
-0.007457079969493703,-2.9022161504165243,1.2930324796267638
-0.0074552899694937036,-2.891121475858773,1.2930324796267638
-0.007453499969493704,-2.876328576448438,1.2930324796267638
-0.007451709969493703,-2.86893212674327,1.2930324796267638
-0.007449919969493703,-2.854139227332935,1.2893251286457261
-0.007448129969493704,-2.8430445527751838,1.2893251286457261
-0.007446339969493704,-2.8356481030700196,1.2893251286457261
-0.007444549969493703,-2.8245534285122647,1.2856177776646884
-0.007442759969493703,-2.817156978807097,1.2893251286457261
-0.007440969969493704,-2.809760529101929,1.2856177776646884
-0.007439179969493703,-2.798665854544171,1.2856177776646867
-0.007437389969493703,-2.783872955133843,1.2819104266836507
-0.007435599969493703,-2.776476505428675,1.2819104266836507
-0.007433809969493704,-2.757985381165756,1.2856177776646884
-0.007432019969493703,-2.7542871563131723,1.2893251286457261
-0.007430229969493703,-2.7505889314605887,1.2819104266836507
-0.007428439969493703,-2.743192481755421,1.2819104266836507
-0.007426649969493704,-2.724701357492502,1.2819104266836507
-0.007424859969493703,-2.717304907787334,1.278203075702613
-0.007423069969493703,-2.7136066829347505,1.2819104266836507
-0.0074212799694937034,-2.702512008376999,1.2744957247215754
-0.007419489969493704,-2.687719108966664,1.2744957247215754
-0.007417699969493703,-2.6803226592614964,1.2744957247215754
-0.007415909969493703,-2.6655297598511614,1.2707883737405377
-0.0074141199694937035,-2.6544350852934095,1.2707883737405377
-0.007412329969493704,-2.6470386355882423,1.2707883737405377
-0.007410539969493703,-2.635943961030491,1.2707883737405377
-0.007408749969493703,-2.635943961030491,1.2744957247215754
-0.0074069599694937035,-2.628547511325323,1.2707883737405377
-0.007405169969493704,-2.617452836767572,1.2744957247215754
-0.007403379969493703,-2.6063581622098204,1.2707883737405377
-0.007401589969493703,-2.5989617125046527,1.2744957247215754
-0.0073997999694937035,-2.591565262799485,1.2744957247215754
-0.007398009969493704,-2.5878670379469013,1.2707883737405377
-0.007396219969493703,-2.5841688130943177,1.2707883737405377
-0.007394429969493703,-2.5730741385365663,1.2744957247215754
-0.0073926399694937035,-2.561979463978815,1.2744957247215754
-0.007390849969493704,-2.5508847894210636,1.2744957247215754
-0.007389059969493703,-2.543488339715896,1.2707883737405377
-0.007387269969493703,-2.536091890010728,1.2707883737405377
-0.0073854799694937035,-2.5286954403055604,1.2670810227595
-0.007383689969493704,-2.5139025408952254,1.2707883737405377
-0.007381899969493703,-2.5102043160426417,1.2707883737405377
-0.007380109969493703,-2.502807866337474,1.2670810227595
-0.007378319969493704,-2.502807866337474,1.2707883737405377
-0.007376529969493704,-2.4917131917797226,1.2670810227595
-0.007374739969493703,-2.484316742074555,1.2744957247215754
-0.007372949969493703,-2.4806185172219712,1.2670810227595
-0.007371159969493704,-2.4732220675168035,1.2670810227595
-0.007369369969493704,-2.462127392959057,1.2670810227595
-0.007367579969493703,-2.4510327184013008,1.2744957247215754
-0.007365789969493703,-2.447334493548717,1.278203075702613
-0.007363999969493704,-2.447334493548717,1.2744957247215754
-0.007362209969493703,-2.4436362686961264,1.2744957247215787
-0.007360419969493703,-2.428843369285798,1.2819104266836507
-0.007358629969493703,-2.4251451444332144,1.2744957247215754
-0.007356839969493704,-2.4177486947280467,1.278203075702613
-0.007355049969493703,-2.4066540201702953,1.2633736717784623
-0.007353259969493703,-2.402955795317711,1.2670810227595
-0.007351469969493703,-2.395559345612544,1.2670810227595
-0.007349679969493704,-2.3844646710547925,1.2670810227595
-0.007347889969493703,-2.369671771644457,1.2633736717784623
-0.007346099969493703,-2.369671771644457,1.2633736717784623
-0.0073443099694937035,-2.3585770970867057,1.2670810227595
-0.007342519969493704,-2.354878872234122,1.2707883737405377
-0.007340729969493703,-2.351180647381538,1.2707883737405377
-0.007338939969493703,-2.3400859728237866,1.2707883737405377
-0.0073371499694937035,-2.3326895231186193,1.2670810227595
-0.007335359969493704,-2.3289912982660352,1.2670810227595
-0.007333569969493703,-2.3289912982660352,1.2707883737405377
-0.007331779969493703,-2.317896623708284,1.2633736717784623
-0.0073299899694937035,-2.3105001740031166,1.2670810227595
-0.007328199969493704,-2.303103724297949,1.2707883737405377
-0.007326409969493703,-2.295707274592781,1.2744957247215754
-0.007324619969493703,-2.2846126000350298,1.2707883737405377
-0.0073228299694937035,-2.280914375182446,1.2707883737405377
-0.007321039969493704,-2.2735179254772784,1.2670810227595
-0.007319249969493703,-2.2661214757721106,1.2744957247215754
-0.007317459969493703,-2.2587250260669434,1.2707883737405377
-0.0073156699694937035,-2.2550268012143593,1.2633736717784623
-0.007313879969493704,-2.2513285763617756,1.2670810227595
-0.007312089969493703,-2.2513285763617756,1.2707883737405377
-0.007310299969493703,-2.2402339018040243,1.2670810227595
-0.0073085099694937036,-2.2328374520988565,1.2670810227595
-0.007306719969493704,-2.225441002393689,1.2670810227595
-0.007304929969493703,-2.2180445526885215,1.2633736717784623
-0.007303139969493703,-2.210648102983354,1.2707883737405377
-0.007301349969493704,-2.203251653278186,1.2707883737405377
-0.007299559969493704,-2.203251653278186,1.2744957247215736
-0.007297769969493703,-2.1958552035730188,1.278203075702613
-0.007295979969493703,-2.188458753867851,1.2744957247215754
-0.007294189969493704,-2.1773640793100997,1.2707883737405377
-0.007292399969493703,-2.173665854457516,1.274495724721572
-0.007290609969493703,-2.173665854457516,1.2670810227595
-0.007288819969493703,-2.1588729550471806,1.2670810227595
-0.007287029969493704,-2.1588729550471806,1.2670810227595
-0.007285239969493703,-2.1477782804894274,1.2707883737405377
-0.007283449969493703,-2.1440800556368456,1.2707883737405377
-0.007281659969493703,-2.1403818307842615,1.2670810227595
-0.007279869969493704,-2.1403818307842615,1.2670810227595
-0.007278079969493703,-2.132985381079094,1.2670810227595
-0.007276289969493703,-2.1255889313739265,1.2670810227595
-0.0072744999694937034,-2.1181924816687587,1.2670810227595
-0.007272709969493704,-2.1107960319635914,1.2707883737405377
-0.007270919969493703,-2.1107960319635914,1.2670810227595
-0.007269129969493703,-2.096003132553256,1.2670810227595
-0.0072673399694937035,-2.096003132553256,1.2707883737405377
-0.007265549969493704,-2.0886066828480883,1.2670810227595
-0.007263759969493703,-2.0886066828480883,1.2707883737405377
-0.007261969969493703,-2.081210233142921,1.2744957247215754
-0.0072601799694937035,-2.077512008290337,1.2707883737405377
-0.007258389969493704,-2.062719108880002,1.2670810227595
-0.007256599969493703,-2.0590208840274182,1.2670810227595
-0.007254809969493703,-2.055322659174834,1.2670810227595
-0.0072530199694937035,-2.0516244343222505,1.2633736717784623
-0.007251229969493704,-2.040529759764499,1.2670810227595
-0.007249439969493703,-2.036831534911915,1.2633736717784623
-0.007247649969493703,-2.0294350852067478,1.2670810227595
-0.0072458599694937035,-2.0257368603541637,1.2670810227595
-0.007244069969493704,-2.0257368603541637,1.2707883737405377
-0.007242279969493703,-2.0146421857964123,1.2707883737405377
-0.007240489969493703,-2.0109439609438287,1.2707883737405377
-0.0072386999694937035,-1.999849286386077,1.2670810227595
-0.007236909969493704,-1.999849286386077,1.2707883737405377
-0.007235119969493703,-1.999849286386077,1.2707883737405377
-0.007233329969493703,-1.9961510615334932,1.2707883737405377
-0.007231539969493704,-1.9887546118283257,1.2707883737405377
-0.007229749969493704,-1.9887546118283257,1.2744957247215754
-0.007227959969493703,-1.981358162123158,1.278203075702613
-0.007226169969493703,-1.9739617124179905,1.2707883737405377
-0.007224379969493704,-1.962867037860239,1.2670810227595
-0.007222589969493704,-1.959168813007657,1.2670810227595
-0.007220799969493703,-1.9517723633024877,1.2707883737405377
-0.007219009969493703,-1.9406776887447361,1.2633736717784623
-0.007217219969493704,-1.9406776887447361,1.2670810227595
-0.007215429969493703,-1.9332812390395686,1.263373671778464
-0.007213639969493703,-1.9332812390395686,1.2670810227595
-0.007211849969493703,-1.9221865644818172,1.2670810227595
-0.007210059969493704,-1.9221865644818172,1.2670810227595
-0.007208269969493703,-1.9184883396292334,1.2670810227595
-0.007206479969493703,-1.9036954402188981,1.2670810227595
-0.007204689969493703,-1.9036954402188981,1.2670810227595
-0.007202899969493704,-1.8999972153663145,1.2707883737405377
-0.007201109969493703,-1.8962989905137306,1.2707883737405377
-0.007199319969493703,-1.8926007656611468,1.2707883737405377
-0.0071975299694937035,-1.8852043159559793,1.2707883737405377
-0.007195739969493704,-1.8889025408085631,1.2707883737405377
-0.007193949969493703,-1.8741096413982279,1.2670810227595
-0.007192159969493703,-1.8741096413982279,1.2707883737405377
-0.0071903699694937035,-1.8593167419878927,1.2670810227595
-0.007188579969493704,-1.8593167419878927,1.2707883737405377
-0.007186789969493703,-1.8519202922827251,1.2707883737405377
-0.007184999969493703,-1.8482220674301413,1.2670810227595
-0.0071832099694937035,-1.8408256177249736,1.2670810227595
-0.007181419969493704,-1.83712739287239,1.2707883737405377
-0.007179629969493703,-1.833429168019806,1.2670810227595
-0.007177839969493703,-1.8297309431672222,1.2707883737405377
-0.0071760499694937035,-1.8223344934620547,1.2670810227595
-0.007174259969493704,-1.8223344934620547,1.2670810227595
-0.007172469969493703,-1.8112398189043033,1.2707883737405377
-0.007170679969493703,-1.8075415940517194,1.2633736717784623
-0.0071688899694937035,-1.800145144346552,1.2670810227595
