200Hz/acq0061.csv

#Digilent WaveForms Oscilloscope Acquisition
#Device Name: Discovery2
#Serial Number: SN:210321AA28BE
#Date Time: 2023-05-24 14:48:05.669
#Sample rate: 558659Hz
#Samples: 8192
#Trigger: Source: Channel 1 Type: Edge Condition: Rising Level: 800 mV Hyst.: Auto HoldOff: 100 ns
#Channel 1: Range: 1 V/div Offset: 0 V Attenuation: 1 X Sample Mode: Average
#Channel 2: Range: 1 V/div Offset: 0 V Attenuation: 1 X Sample Mode: Average

Time (s),Channel 1 (V),Channel 2 (V)
-0.007742319299702757,0.07115663106085063,-1.3169426110237734
-0.007740529299702757,0.07115663106085063,-1.3169426110237734
-0.007738739299702756,0.06376018135568304,-1.320649962004811
-0.0077369492997027564,0.06376018135568304,-1.3169426110237734
-0.007735159299702757,0.06376018135568304,-1.3169426110237734
-0.007733369299702756,0.0637601813556864,-1.320649962004811
-0.007731579299702756,0.07115663106085063,-1.320649962004811
-0.0077297892997027565,0.06745840620826683,-1.3169426110237734
-0.007727999299702757,0.06376018135568304,-1.3169426110237734
-0.007726209299702756,0.06376018135568304,-1.3169426110237734
-0.007724419299702756,0.06006195650309923,-1.320649962004811
-0.0077226292997027565,0.06745840620826683,-1.3169426110237734
-0.007720839299702757,0.06745840620826683,-1.320649962004811
-0.007719049299702756,0.06745840620826683,-1.3169426110237734
-0.007717259299702756,0.06006195650309923,-1.320649962004811
-0.0077154692997027565,0.06006195650309923,-1.320649962004811
-0.007713679299702757,0.06006195650309923,-1.3243573129858488
-0.007711889299702756,0.06006195650309923,-1.320649962004811
-0.007710099299702756,0.06006195650309923,-1.3169426110237734
-0.0077083092997027565,0.06006195650309923,-1.320649962004811
-0.007706519299702757,0.05636373165051543,-1.3243573129858488
-0.007704729299702756,0.05636373165051543,-1.320649962004811
-0.007702939299702756,0.05636373165051543,-1.3169426110237734
-0.0077011492997027566,0.06006195650309923,-1.3169426110237734
-0.007699359299702757,0.06006195650309923,-1.3132352600427357
-0.007697569299702756,0.06006195650309923,-1.3132352600427357
-0.007695779299702756,0.05636373165051543,-1.320649962004811
-0.007693989299702757,0.05636373165051543,-1.3169426110237734
-0.007692199299702757,0.06006195650309923,-1.3169426110237734
-0.007690409299702756,0.05636373165051543,-1.3169426110237734
-0.007688619299702756,0.05636373165051543,-1.3169426110237734
-0.007686829299702757,0.05636373165051543,-1.3243573129858488
-0.007685039299702757,0.06006195650309923,-1.3169426110237734
-0.007683249299702756,0.06006195650309923,-1.3169426110237734
-0.007681459299702756,0.05636373165051543,-1.3169426110237734
-0.007679669299702757,0.05636373165051543,-1.3169426110237734
-0.007677879299702757,0.06376018135568304,-1.3132352600427357
-0.007676089299702756,0.05266550679793163,-1.3132352600427357
-0.007674299299702756,0.06006195650309923,-1.3132352600427357
-0.007672509299702757,0.05636373165051543,-1.320649962004811
-0.007670719299702757,0.05266550679793331,-1.320649962004811
-0.007668929299702756,0.05266550679793163,-1.320649962004811
-0.0076671392997027564,0.05266550679793163,-1.3243573129858488
-0.007665349299702757,0.05636373165051543,-1.3169426110237734
-0.007663559299702756,0.05266550679792995,-1.3169426110237734
-0.007661769299702756,0.048967281945347836,-1.3169426110237734
-0.0076599792997027565,0.05636373165051543,-1.3169426110237734
-0.007658189299702757,0.05636373165051543,-1.3169426110237734
-0.007656399299702756,0.05636373165051207,-1.320649962004811
-0.007654609299702756,0.048967281945347836,-1.320649962004811
-0.0076528192997027565,0.048967281945347836,-1.320649962004811
-0.007651029299702757,0.05266550679793163,-1.3169426110237734
-0.007649239299702756,0.048967281945347836,-1.320649962004811
-0.007647449299702756,0.048967281945347836,-1.3169426110237734
-0.0076456592997027565,0.05266550679793163,-1.320649962004811
-0.007643869299702757,0.05266550679793163,-1.3169426110237734
-0.007642079299702756,0.048967281945347836,-1.3169426110237734
-0.007640289299702756,0.045269057092764034,-1.3169426110237734
-0.0076384992997027565,0.045269057092764034,-1.320649962004811
-0.007636709299702757,0.048967281945347836,-1.3169426110237734
-0.007634919299702756,0.048967281945347836,-1.3169426110237734
-0.007633129299702756,0.045269057092764034,-1.320649962004811
-0.0076313392997027565,0.048967281945347836,-1.3169426110237734
-0.007629549299702757,0.048967281945347836,-1.3169426110237734
-0.007627759299702756,0.045269057092764034,-1.3169426110237734
-0.007625969299702756,0.048967281945347836,-1.320649962004811
-0.0076241792997027566,0.048967281945347836,-1.3169426110237734
-0.007622389299702757,0.04157083224018024,-1.3169426110237734
-0.007620599299702756,0.03787260738759644,-1.3169426110237734
-0.007618809299702756,0.048967281945347836,-1.3132352600427357
-0.007617019299702757,0.045269057092764034,-1.3169426110237734
-0.007615229299702757,0.045269057092764034,-1.320649962004811
-0.007613439299702756,0.04157083224018024,-1.3169426110237734
-0.007611649299702756,0.045269057092764034,-1.3169426110237734
-0.007609859299702757,0.045269057092764034,-1.3169426110237734
-0.007608069299702757,0.048967281945347836,-1.3169426110237734
-0.007606279299702756,0.048967281945347836,-1.3132352600427357
-0.007604489299702756,0.04157083224018024,-1.3169426110237734
-0.007602699299702757,0.045269057092764034,-1.320649962004811
-0.007600909299702757,0.04157083224018024,-1.320649962004811
-0.007599119299702756,0.045269057092764034,-1.3132352600427357
-0.007597329299702756,0.04157083224018024,-1.320649962004811
-0.007595539299702757,0.03787260738759644,-1.3132352600427357
-0.007593749299702757,0.03787260738759644,-1.3132352600427357
-0.007591959299702756,0.04157083224018024,-1.320649962004811
-0.0075901692997027564,0.04157083224018024,-1.320649962004811
-0.007588379299702757,0.04157083224018024,-1.3169426110237734
-0.007586589299702756,0.045269057092762355,-1.3243573129858455
-0.007584799299702756,0.04157083224018024,-1.3169426110237734
-0.0075830092997027565,0.045269057092764034,-1.3169426110237734
-0.007581219299702757,0.045269057092764034,-1.3132352600427357
-0.007579429299702756,0.045269057092764034,-1.3169426110237734
-0.007577639299702756,0.04157083224018024,-1.3169426110237734
-0.0075758492997027565,0.045269057092764034,-1.320649962004811
-0.007574059299702757,0.04157083224018024,-1.3169426110237734
-0.007572269299702756,0.04157083224018024,-1.3169426110237734
-0.007570479299702756,0.04157083224018024,-1.3132352600427357
-0.0075686892997027565,0.03787260738759644,-1.320649962004811
-0.007566899299702757,0.03787260738759644,-1.3169426110237734
-0.007565109299702756,0.034174382535012635,-1.3169426110237734
-0.007563319299702756,0.04157083224018024,-1.3169426110237734
-0.0075615292997027565,0.04157083224018024,-1.3169426110237734
-0.007559739299702757,0.03787260738759644,-1.3169426110237734
-0.007557949299702756,0.03787260738759644,-1.320649962004811
-0.007556159299702756,0.03787260738759644,-1.3169426110237734
-0.0075543692997027566,0.034174382535012635,-1.309527909061698
-0.007552579299702757,0.034174382535012635,-1.309527909061698
-0.007550789299702756,0.034174382535012635,-1.3132352600427357
-0.007548999299702756,0.03047615768242884,-1.3132352600427357
-0.007547209299702757,0.03787260738759644,-1.3169426110237734
-0.007545419299702757,0.03047615768242884,-1.3243573129858488
-0.007543629299702756,0.034174382535012635,-1.320649962004811
-0.007541839299702756,0.03787260738759644,-1.320649962004811
-0.007540049299702757,0.03787260738759644,-1.3169426110237734
-0.007538259299702757,0.034174382535012635,-1.3243573129858488
-0.007536469299702756,0.03047615768242884,-1.3169426110237734
-0.007534679299702756,0.034174382535012635,-1.3169426110237734
-0.007532889299702757,0.034174382535012635,-1.3132352600427357
-0.007531099299702757,0.03787260738759644,-1.3169426110237734
-0.007529309299702756,0.03047615768242884,-1.3169426110237734
-0.007527519299702756,0.03047615768242884,-1.3132352600427357
-0.007525729299702757,0.03047615768242884,-1.3169426110237734
-0.007523939299702757,0.03047615768242884,-1.3169426110237734
-0.007522149299702756,0.03047615768242884,-1.3169426110237734
-0.0075203592997027564,0.03047615768242884,-1.3169426110237734
-0.007518569299702757,0.03047615768242884,-1.3132352600427357
-0.007516779299702757,0.03047615768242884,-1.3132352600427357
-0.007514989299702756,0.03047615768242884,-1.3169426110237734
-0.0075131992997027565,0.03047615768242884,-1.3169426110237734
-0.007511409299702757,0.03047615768242884,-1.3169426110237734
-0.007509619299702756,0.02677793282984672,-1.3169426110237734
-0.007507829299702756,0.03047615768242884,-1.3169426110237734
-0.0075060392997027565,0.03047615768242884,-1.3169426110237734
-0.007504249299702757,0.03047615768242884,-1.320649962004811
-0.007502459299702756,0.026777932829845037,-1.320649962004811
-0.007500669299702756,-1.2010327182279763,-0.21585936965557803
-0.0074988792997027565,-3.164790114949974,1.3375206913992161
-0.007497089299702757,-3.149997215539639,1.3338133404181785
-0.007495299299702756,-3.1426007658344712,1.3301059894371408
-0.007493509299702756,-3.13150609127672,1.3301059894371408
-0.0074917192997027565,-3.116713191866385,1.3338133404181785
-0.007489929299702757,-3.1130149670138008,1.3375206913992161
-0.007488139299702756,-3.1019202924560494,1.326398638456103
-0.007486349299702756,-3.094523842750882,1.326398638456103
-0.0074845592997027565,-3.0797309433405466,1.3226912874750654
-0.007482769299702757,-3.0612398190776275,1.3226912874750654
-0.007480979299702756,-3.0538433693724603,1.31527658551299
-0.007479189299702756,-3.035352245109541,1.3189839364940277
-0.0074773992997027566,-3.0279557954043734,1.31527658551299
-0.007475609299702757,-3.0131628959940384,1.31527658551299
-0.007473819299702756,-3.002068221436287,1.31527658551299
-0.007472029299702756,-2.9872753220259516,1.31527658551299
-0.007470239299702757,-2.968784197763033,1.3078618835509146
-0.007468449299702757,-2.961387748057865,1.3078618835509146
-0.007466659299702756,-2.9465948486475297,1.304154532569877
-0.007464869299702756,-2.942896623794946,1.3004471815888392
-0.007463079299702757,-2.9355001740897784,1.304154532569877
-0.007461289299702757,-2.9207072746794434,1.3004471815888392
-0.007459499299702756,-2.9059143752691083,1.304154532569877
-0.007457709299702756,-2.9022161504165243,1.304154532569877
-0.007455919299702757,-2.891121475858773,1.3004471815888392
-0.007454129299702757,-2.8800268013010215,1.2930324796267638
-0.007452339299702756,-2.8615356770381024,1.2893251286457261
-0.007450549299702756,-2.8467427776277674,1.2930324796267638
-0.007448759299702757,-2.831949878217432,1.2930324796267638
-0.007446969299702757,-2.824553428512268,1.289325128645728
-0.007445179299702756,-2.8134587539545133,1.2893251286457261
-0.0074433892997027564,-2.8060623042493456,1.2893251286457261
-0.007441599299702757,-2.794967629691594,1.2856177776646884
-0.007439809299702756,-2.787571179986423,1.2856177776646884
-0.007438019299702756,-2.7801747302812587,1.2856177776646884
-0.0074362292997027565,-2.76168360601834,1.2856177776646884
-0.007434439299702757,-2.7542871563131723,1.2856177776646884
-0.007432649299702756,-2.7468907066080046,1.2856177776646884
-0.007430859299702756,-2.7357960320502532,1.2819104266836507
-0.0074290692997027565,-2.724701357492502,1.2819104266836507
-0.007427279299702757,-2.717304907787334,1.2856177776646884
-0.007425489299702756,-2.7136066829347505,1.2856177776646884
-0.007423699299702756,-2.702512008376999,1.2856177776646884
-0.0074219092997027565,-2.6914173338192477,1.2819104266836507
-0.007420119299702757,-2.6729262095563286,1.2819104266836507
-0.007418329299702756,-2.6655297598511614,1.278203075702613
-0.007416539299702756,-2.6544350852934095,1.2744957247215754
-0.0074147492997027565,-2.650736860440826,1.2744957247215754
-0.007412959299702757,-2.6396421858830745,1.2744957247215754
-0.007411169299702756,-2.628547511325323,1.278203075702613
-0.007409379299702756,-2.617452836767572,1.2707883737405377
-0.0074075892997027565,-2.613754611914988,1.278203075702613
-0.007405799299702757,-2.6026599373572368,1.2707883737405377
-0.007404009299702756,-2.591565262799485,1.2744957247215754
-0.007402219299702756,-2.5878670379469013,1.278203075702613
-0.007400429299702757,-2.5841688130943177,1.2707883737405377
-0.007398639299702757,-2.5730741385365663,1.2744957247215754
-0.007396849299702756,-2.561979463978815,1.278203075702613
-0.007395059299702756,-2.558281239126231,1.2744957247215754
-0.007393269299702757,-2.5508847894210636,1.278203075702613
-0.007391479299702757,-2.5471865645684795,1.2744957247215754
-0.007389689299702756,-2.539790114863312,1.278203075702613
-0.007387899299702756,-2.5286954403055604,1.2744957247215754
-0.007386109299702757,-2.521298990600393,1.2707883737405377
-0.007384319299702757,-2.5102043160426417,1.2744957247215754
-0.007382529299702756,-2.5065060911900576,1.2707883737405377
-0.007380739299702756,-2.4917131917797226,1.2670810227595
-0.007378949299702757,-2.4806185172219712,1.2670810227595
-0.007377159299702757,-2.4732220675168035,1.2670810227595
-0.007375369299702756,-2.465825617811636,1.2633736717784623
-0.007373579299702756,-2.465825617811636,1.2744957247215754
-0.007371789299702757,-2.462127392959052,1.2670810227595
-0.007369999299702757,-2.454730943253888,1.2670810227595
-0.007368209299702756,-2.447334493548717,1.2744957247215754
-0.0073664192997027565,-2.4362398189909658,1.2744957247215754
-0.007364629299702757,-2.428843369285798,1.2707883737405377
-0.007362839299702756,-2.4214469195806267,1.2707883737405377
-0.007361049299702756,-2.4140504698754626,1.2707883737405377
-0.0073592592997027565,-2.410352245022879,1.2670810227595
-0.007357469299702757,-2.410352245022879,1.2744957247215754
-0.007355679299702756,-2.3992575704651276,1.278203075702613
-0.007353889299702756,-2.395559345612544,1.2707883737405377
-0.0073520992997027565,-2.3844646710547925,1.2744957247215754
-0.007350309299702757,-2.369671771644457,1.2744957247215754
-0.007348519299702756,-2.3659735467918734,1.2670810227595
-0.007346729299702756,-2.3585770970867057,1.2670810227595
-0.0073449392997027565,-2.3474824225289543,1.2670810227595
-0.007343149299702757,-2.336387747971203,1.2633736717784623
-0.007341359299702756,-2.3289912982660352,1.2670810227595
-0.007339569299702756,-2.3289912982660352,1.2670810227595
-0.0073377792997027565,-2.321594848560868,1.2707883737405377
-0.007335989299702757,-2.3141983988557002,1.2707883737405377
-0.007334199299702756,-2.3141983988557002,1.2670810227595
-0.007332409299702756,-2.3068019491505325,1.2744957247215754
-0.0073306192997027566,-2.295707274592781,1.2744957247215754
-0.007328829299702757,-2.2920090497401975,1.2707883737405377
-0.007327039299702756,-2.2883108248876134,1.2707883737405377
-0.007325249299702756,-2.280914375182446,1.2744957247215754
-0.007323459299702757,-2.277216150329862,1.2707883737405377
-0.007321669299702757,-2.2698197006246947,1.2707883737405377
-0.007319879299702756,-2.262423250919527,1.2707883737405377
-0.007318089299702756,-2.2550268012143593,1.2707883737405377
-0.007316299299702757,-2.2513285763617756,1.2707883737405377
-0.007314509299702757,-2.2402339018040243,1.2670810227595
-0.007312719299702756,-2.2365356769514406,1.2670810227595
-0.007310929299702756,-2.225441002393689,1.2707883737405377
-0.007309139299702757,-2.221742777541105,1.2707883737405377
-0.007307349299702757,-2.2143463278359374,1.2670810227595
-0.007305559299702756,-2.210648102983354,1.2707883737405377
-0.007303769299702756,-2.203251653278186,1.2707883737405377
-0.007301979299702757,-2.1958552035730188,1.2744957247215754
-0.007300189299702757,-2.1921569787204365,1.2707883737405394
-0.007298399299702756,-2.188458753867851,1.2707883737405377
-0.0072966092997027564,-2.1773640793100997,1.2744957247215754
-0.007294819299702757,-2.1773640793100997,1.2670810227595
-0.007293029299702756,-2.16996762960493,1.270788373740541
-0.007291239299702756,-2.1662694047523483,1.278203075702613
-0.0072894492997027565,-2.1588729550471806,1.278203075702613
-0.007287659299702757,-2.151476505342013,1.2707883737405377
-0.007285869299702756,-2.144080055636844,1.2670810227595017
-0.007284079299702756,-2.1403818307842615,1.2707883737405377
-0.0072822892997027565,-2.132985381079094,1.2670810227595
-0.007280499299702757,-2.1255889313739265,1.2670810227595
-0.007278709299702756,-2.114494256816175,1.2670810227595
-0.007276919299702756,-2.1107960319635914,1.2707883737405377
-0.0072751292997027565,-2.1070978071110074,1.2670810227595
-0.007273339299702757,-2.1033995822584237,1.2707883737405377
-0.007271549299702756,-2.096003132553256,1.2670810227595
-0.007269759299702756,-2.0886066828480883,1.2670810227595
-0.0072679692997027565,-2.0886066828480883,1.2670810227595
-0.007266179299702757,-2.077512008290337,1.2670810227595
-0.007264389299702756,-2.0701155585851696,1.2670810227595
-0.007262599299702756,-2.0664173337325855,1.2707883737405377
-0.0072608092997027565,-2.062719108880002,1.2707883737405377
-0.007259019299702757,-2.055322659174834,1.2744957247215754
-0.007257229299702756,-2.055322659174834,1.2707883737405377
-0.007255439299702756,-2.0442279846170828,1.2670810227595
-0.007253649299702757,-2.040529759764499,1.2707883737405377
-0.007251859299702757,-2.0294350852067478,1.2670810227595
-0.007250069299702756,-2.0294350852067478,1.2670810227595
-0.007248279299702756,-2.02203863550158,1.2670810227595
-0.007246489299702757,-2.0146421857964123,1.2707883737405377
-0.007244699299702757,-2.007245736091245,1.2670810227595
-0.007242909299702756,-2.003547511238661,1.2596663207974246
-0.007241119299702756,-2.003547511238661,1.2670810227595
-0.007239329299702757,-1.9961510615334932,1.2707883737405377
-0.007237539299702757,-1.9887546118283257,1.2670810227595
-0.007235749299702756,-1.981358162123158,1.2670810227595
-0.007233959299702756,-1.9776599372705743,1.2707883737405377
-0.007232169299702757,-1.9702634875654066,1.2744957247215754
-0.007230379299702757,-1.9702634875654066,1.2707883737405377
-0.007228589299702756,-1.9702634875654066,1.2744957247215754
-0.007226799299702756,-1.9665652627128227,1.2744957247215754
-0.007225009299702757,-1.9554705881550714,1.2707883737405377
-0.007223219299702757,-1.9554705881550714,1.2744957247215736
-0.007221429299702756,-1.9480741384499038,1.2744957247215754
-0.0072196392997027565,-1.94437591359732,1.2670810227595
-0.007217849299702757,-1.9295830141869847,1.2744957247215754
-0.007216059299702756,-1.9258847893343978,1.2707883737405343
-0.007214269299702756,-1.9184883396292334,1.2633736717784623
-0.0072124792997027565,-1.9147901147766497,1.2670810227595
-0.007210689299702757,-1.9036954402188981,1.2670810227595
-0.007208899299702756,-1.8999972153663145,1.2670810227595
-0.007207109299702756,-1.8962989905137306,1.2670810227595
-0.0072053192997027565,-1.8962989905137306,1.2707883737405377
-0.007203529299702757,-1.8926007656611468,1.2670810227595
-0.007201739299702756,-1.8852043159559793,1.2670810227595
-0.007199949299702756,-1.8778078662508115,1.2670810227595
-0.0071981592997027565,-1.8741096413982279,1.2633736717784623
-0.007196369299702757,-1.870411416545644,1.2670810227595
-0.007194579299702756,-1.8593167419878927,1.2707883737405377
-0.007192789299702756,-1.8667131916930602,1.2744957247215754
-0.0071909992997027565,-1.8556185171353088,1.2744957247215754
-0.007189209299702757,-1.8519202922827251,1.2707883737405377
-0.007187419299702756,-1.8482220674301413,1.2670810227595
-0.007185629299702756,-1.833429168019806,1.2707883737405377
-0.0071838392997027566,-1.8297309431672222,1.2670810227595
-0.007182049299702757,-1.8297309431672222,1.2670810227595
-0.007180259299702756,-1.8223344934620547,1.2707883737405377
-0.007178469299702756,-1.814938043756887,1.2633736717784623
-0.007176679299702757,-1.814938043756887,1.2670810227595
-0.007174889299702757,-1.8075415940517194,1.2633736717784623
-0.007173099299702756,-1.800145144346552,1.2633736717784623
-0.007171309299702756,-1.800145144346552,1.2670810227595
-0.007169519299702757,-1.7927486946413842,1.2670810227595
