200Hz/acq0046.csv

#Digilent WaveForms Oscilloscope Acquisition
#Device Name: Discovery2
#Serial Number: SN:210321AA28BE
#Date Time: 2023-05-24 14:48:05.260
#Sample rate: 558659Hz
#Samples: 8192
#Trigger: Source: Channel 1 Type: Edge Condition: Rising Level: 800 mV Hyst.: Auto HoldOff: 100 ns
#Channel 1: Range: 1 V/div Offset: 0 V Attenuation: 1 X Sample Mode: Average
#Channel 2: Range: 1 V/div Offset: 0 V Attenuation: 1 X Sample Mode: Average

Time (s),Channel 1 (V),Channel 2 (V)
-0.00774163759296875,0.06745840620826683,-1.3169426110237734
-0.00773984759296875,0.06745840620826683,-1.3206499620048093
-0.007738057592968749,0.06376018135568304,-1.3169426110237734
-0.007736267592968749,0.06006195650309923,-1.3169426110237734
-0.00773447759296875,0.06376018135568304,-1.320649962004811
-0.007732687592968749,0.06745840620826683,-1.3169426110237752
-0.007730897592968749,0.06745840620826683,-1.320649962004811
-0.0077291075929687494,0.06745840620826683,-1.3169426110237734
-0.00772731759296875,0.06745840620826683,-1.3169426110237734
-0.007725527592968749,0.06745840620826683,-1.320649962004811
-0.007723737592968749,0.06745840620826683,-1.320649962004811
-0.0077219475929687495,0.05636373165051543,-1.3169426110237734
-0.00772015759296875,0.06006195650309923,-1.3243573129858488
-0.007718367592968749,0.06376018135568304,-1.3243573129858488
-0.007716577592968749,0.06006195650309923,-1.3169426110237734
-0.0077147875929687495,0.06376018135568304,-1.3169426110237734
-0.00771299759296875,0.06006195650309923,-1.3169426110237734
-0.007711207592968749,0.06006195650309923,-1.3169426110237734
-0.007709417592968749,0.05636373165051543,-1.3169426110237734
-0.0077076275929687495,0.06376018135568304,-1.320649962004811
-0.00770583759296875,0.06006195650309923,-1.3169426110237734
-0.007704047592968749,0.06745840620826683,-1.3169426110237734
-0.007702257592968749,0.05636373165051543,-1.320649962004811
-0.0077004675929687495,0.06006195650309923,-1.3169426110237734
-0.00769867759296875,0.06006195650309923,-1.320649962004811
-0.007696887592968749,0.06006195650309923,-1.3243573129858488
-0.007695097592968749,0.06006195650309923,-1.320649962004811
-0.0076933075929687495,0.06006195650309923,-1.3132352600427357
-0.00769151759296875,0.05636373165051543,-1.320649962004811
-0.007689727592968749,0.05636373165051543,-1.3169426110237734
-0.007687937592968749,0.06006195650309923,-1.3169426110237734
-0.00768614759296875,0.06006195650309923,-1.320649962004811
-0.00768435759296875,0.06006195650309923,-1.3169426110237734
-0.007682567592968749,0.06006195650309923,-1.320649962004811
-0.007680777592968749,0.06006195650309923,-1.3169426110237734
-0.00767898759296875,0.06006195650309923,-1.320649962004811
-0.00767719759296875,0.05636373165051543,-1.3169426110237734
-0.007675407592968749,0.05636373165051543,-1.3169426110237734
-0.007673617592968749,0.05266550679793163,-1.3243573129858488
-0.00767182759296875,0.05266550679793163,-1.3169426110237734
-0.00767003759296875,0.05266550679793163,-1.3206499620048093
-0.007668247592968749,0.05266550679793163,-1.3243573129858488
-0.007666457592968749,0.05266550679793163,-1.3169426110237734
-0.00766466759296875,0.05636373165051543,-1.320649962004811
-0.007662877592968749,0.05266550679793163,-1.3206499620048093
-0.007661087592968749,0.05266550679793163,-1.3169426110237734
-0.007659297592968749,0.05266550679793163,-1.320649962004811
-0.00765750759296875,0.048967281945347836,-1.3169426110237734
-0.007655717592968749,0.048967281945349515,-1.3169426110237734
-0.007653927592968749,0.05266550679793163,-1.3169426110237734
-0.0076521375929687495,0.05266550679793163,-1.3169426110237734
-0.00765034759296875,0.045269057092764034,-1.3169426110237734
-0.007648557592968749,0.045269057092764034,-1.3169426110237734
-0.007646767592968749,0.05266550679793163,-1.3169426110237734
-0.0076449775929687495,0.048967281945347836,-1.3169426110237734
-0.00764318759296875,0.045269057092764034,-1.3169426110237734
-0.007641397592968749,0.048967281945347836,-1.3132352600427357
-0.007639607592968749,0.05636373165051543,-1.320649962004811
-0.0076378175929687495,0.048967281945347836,-1.320649962004811
-0.00763602759296875,0.048967281945347836,-1.320649962004811
-0.007634237592968749,0.05636373165051543,-1.320649962004811
-0.007632447592968749,0.05266550679793163,-1.320649962004811
-0.0076306575929687495,0.05266550679793163,-1.3169426110237734
-0.00762886759296875,0.048967281945347836,-1.320649962004811
-0.007627077592968749,0.048967281945347836,-1.3169426110237734
-0.007625287592968749,0.048967281945347836,-1.3169426110237734
-0.0076234975929687495,0.048967281945347836,-1.3169426110237734
-0.00762170759296875,0.048967281945347836,-1.320649962004811
-0.007619917592968749,0.048967281945347836,-1.3169426110237734
-0.007618127592968749,0.045269057092764034,-1.3169426110237734
-0.0076163375929687496,0.045269057092764034,-1.320649962004811
-0.00761454759296875,0.048967281945347836,-1.3243573129858488
-0.007612757592968749,0.048967281945347836,-1.320649962004811
-0.007610967592968749,0.045269057092764034,-1.3132352600427357
-0.00760917759296875,0.048967281945347836,-1.3132352600427357
-0.00760738759296875,0.04157083224018024,-1.320649962004811
-0.007605597592968749,0.048967281945347836,-1.3169426110237734
-0.007603807592968749,0.045269057092764034,-1.320649962004811
-0.00760201759296875,0.04157083224018024,-1.3169426110237734
-0.00760022759296875,0.04157083224018024,-1.320649962004811
-0.007598437592968749,0.04157083224018024,-1.3243573129858488
-0.007596647592968749,0.045269057092764034,-1.320649962004811
-0.00759485759296875,0.048967281945347836,-1.320649962004811
-0.00759306759296875,0.048967281945347836,-1.3169426110237752
-0.007591277592968749,0.045269057092764034,-1.3169426110237734
-0.007589487592968749,0.04157083224018024,-1.320649962004811
-0.00758769759296875,0.04157083224018024,-1.320649962004811
-0.007585907592968749,0.04157083224018192,-1.3206499620048093
-0.007584117592968749,0.045269057092764034,-1.3169426110237734
-0.0075823275929687494,0.045269057092764034,-1.3169426110237734
-0.00758053759296875,0.045269057092764034,-1.3169426110237734
-0.007578747592968749,0.045269057092764034,-1.3243573129858488
-0.007576957592968749,0.03787260738759644,-1.3169426110237734
-0.0075751675929687495,0.04157083224018024,-1.3169426110237734
-0.00757337759296875,0.04157083224018024,-1.3169426110237734
-0.007571587592968749,0.034174382535012635,-1.320649962004811
-0.007569797592968749,0.03787260738759644,-1.3243573129858488
-0.0075680075929687495,0.03787260738759644,-1.320649962004811
-0.00756621759296875,0.04157083224018024,-1.3169426110237734
-0.007564427592968749,0.03787260738759644,-1.320649962004811
-0.007562637592968749,0.04157083224018024,-1.320649962004811
-0.0075608475929687495,0.03787260738759644,-1.320649962004811
-0.00755905759296875,0.03787260738759644,-1.320649962004811
-0.007557267592968749,0.03787260738759644,-1.320649962004811
-0.007555477592968749,0.03787260738759644,-1.320649962004811
-0.0075536875929687495,0.03787260738759644,-1.320649962004811
-0.00755189759296875,0.03787260738759644,-1.3169426110237734
-0.007550107592968749,0.03787260738759644,-1.3169426110237734
-0.007548317592968749,0.03787260738759644,-1.3169426110237734
-0.0075465275929687495,0.03787260738759644,-1.3132352600427357
-0.00754473759296875,0.03787260738759644,-1.3169426110237734
-0.007542947592968749,0.034174382535012635,-1.3243573129858488
-0.007541157592968749,0.03787260738759644,-1.3169426110237734
-0.00753936759296875,0.034174382535012635,-1.3169426110237734
-0.00753757759296875,0.034174382535012635,-1.3169426110237734
-0.007535787592968749,0.03047615768242884,-1.3169426110237734
-0.007533997592968749,0.026777932829845037,-1.3169426110237734
-0.00753220759296875,0.03047615768242884,-1.320649962004811
-0.00753041759296875,0.034174382535012635,-1.3243573129858488
-0.007528627592968749,0.034174382535012635,-1.3169426110237734
-0.007526837592968749,0.034174382535012635,-1.3169426110237734
-0.00752504759296875,0.03787260738759644,-1.3169426110237734
-0.00752325759296875,0.034174382535014314,-1.3169426110237734
-0.007521467592968749,0.034174382535012635,-1.3169426110237734
-0.007519677592968749,0.03047615768242884,-1.320649962004811
-0.00751788759296875,0.034174382535012635,-1.3243573129858488
-0.00751609759296875,0.034174382535012635,-1.3206499620048129
-0.007514307592968749,0.02307970797726124,-1.3169426110237734
-0.007512517592968749,0.03047615768242884,-1.3169426110237734
-0.00751072759296875,0.034174382535012635,-1.3169426110237734
-0.007508937592968749,0.03047615768242884,-1.3169426110237734
-0.007507147592968749,0.03047615768242884,-1.3169426110237734
-0.0075053575929687495,0.03047615768242884,-1.3169426110237734
-0.00750356759296875,0.026777932829845037,-1.3169426110237734
-0.007501777592968749,0.03047615768242884,-1.320649962004811
-0.007499987592968749,-2.295707274592781,0.6961489716796949
-0.0074981975929687495,-3.1573936652448067,1.3338133404181785
-0.00749640759296875,-3.146298990687055,1.3226912874750654
-0.007494617592968749,-3.1352043161293035,1.3226912874750654
-0.007492827592968749,-3.124109641571552,1.3226912874750654
-0.0074910375929687495,-3.1204114167189685,1.326398638456103
-0.00748924759296875,-3.1056185173086335,1.326398638456103
-0.007487457592968749,-3.094523842750882,1.326398638456103
-0.007485667592968749,-3.094523842750882,1.326398638456103
-0.0074838775929687495,-3.0797309433405466,1.326398638456103
-0.00748208759296875,-3.0686362687827953,1.326398638456103
-0.007480297592968749,-3.0538433693724603,1.326398638456103
-0.007478507592968749,-3.039050469962125,1.3226912874750654
-0.0074767175929687495,-3.0316540202569575,1.326398638456103
-0.00747492759296875,-3.0131628959940384,1.3189839364940277
-0.007473137592968749,-2.9946717717311193,1.31527658551299
-0.007471347592968749,-2.9798788723207843,1.3078618835509146
-0.0074695575929687496,-2.968784197763033,1.3078618835509146
-0.00746776759296875,-2.950293073500114,1.3004471815888392
-0.007465977592968749,-2.942896623794946,1.304154532569877
-0.007464187592968749,-2.9355001740897784,1.3004471815888392
-0.00746239759296875,-2.9207072746794434,1.2967398306078015
-0.00746060759296875,-2.9170090498268597,1.304154532569877
-0.007458817592968749,-2.8948197007113565,1.2967398306078015
-0.007457027592968749,-2.8874232510061892,1.2930324796267638
-0.00745523759296875,-2.8800268013010215,1.2930324796267638
-0.00745344759296875,-2.86893212674327,1.2893251286457261
-0.007451657592968749,-2.8578374521855188,1.2893251286457261
-0.007449867592968749,-2.8467427776277674,1.2893251286457261
-0.00744807759296875,-2.835648103070016,1.2930324796267638
-0.00744628759296875,-2.8208552036596872,1.2930324796267638
-0.007444497592968749,-2.817156978807097,1.2893251286457261
-0.007442707592968749,-2.798665854544178,1.2893251286457261
-0.00744091759296875,-2.783872955133843,1.2893251286457261
-0.007439127592968749,-2.780174730281252,1.2856177776646867
-0.007437337592968749,-2.7653818308709237,1.2819104266836507
-0.0074355475929687494,-2.7505889314605887,1.278203075702613
-0.00743375759296875,-2.743192481755421,1.2819104266836507
-0.007431967592968749,-2.7320978071976696,1.2707883737405377
-0.007430177592968749,-2.724701357492502,1.2819104266836507
-0.0074283875929687495,-2.717304907787334,1.2744957247215754
-0.00742659759296875,-2.709908458082167,1.2819104266836507
-0.007424807592968749,-2.6988137835244155,1.2819104266836507
-0.007423017592968749,-2.6914173338192477,1.2819104266836507
-0.0074212275929687495,-2.6803226592614964,1.278203075702613
-0.00741943759296875,-2.6766244344089127,1.278203075702613
-0.007417647592968749,-2.6655297598511614,1.278203075702613
-0.007415857592968749,-2.6581333101459936,1.2819104266836507
-0.0074140675929687495,-2.650736860440826,1.2856177776646884
-0.00741227759296875,-2.6396421858830745,1.278203075702613
-0.007410487592968749,-2.628547511325323,1.278203075702613
-0.007408697592968749,-2.6248492864727395,1.2707883737405377
-0.0074069075929687495,-2.610056387062404,1.2744957247215754
-0.00740511759296875,-2.6026599373572368,1.2707883737405377
-0.007403327592968749,-2.595263487652069,1.2707883737405377
-0.007401537592968749,-2.5804705882417336,1.2707883737405377
-0.0073997475929687495,-2.569375913683982,1.2707883737405377
-0.00739795759296875,-2.5656776888313986,1.2744957247215754
-0.007396167592968749,-2.558281239126231,1.2707883737405377
-0.007394377592968749,-2.5471865645684795,1.2707883737405377
-0.0073925875929687496,-2.543488339715896,1.2707883737405377
-0.00739079759296875,-2.5323936651581445,1.2707883737405377
-0.007389007592968749,-2.5249972154529767,1.2670810227595
-0.007387217592968749,-2.521298990600393,1.2707883737405377
-0.00738542759296875,-2.5139025408952254,1.2744957247215754
-0.00738363759296875,-2.5102043160426417,1.2707883737405377
-0.007381847592968749,-2.4991096414848903,1.2744957247215754
-0.007380057592968749,-2.4917131917797226,1.2744957247215754
-0.00737826759296875,-2.484316742074555,1.2707883737405377
-0.00737647759296875,-2.4732220675168035,1.2744957247215754
-0.007374687592968749,-2.46952384266422,1.2707883737405377
-0.007372897592968749,-2.462127392959052,1.2707883737405377
-0.00737110759296875,-2.4584291681064685,1.2707883737405377
-0.00736931759296875,-2.454730943253886,1.2744957247215736
-0.007367527592968749,-2.4362398189909658,1.2670810227595
-0.007365737592968749,-2.428843369285798,1.2633736717784623
-0.00736394759296875,-2.4214469195806303,1.2670810227595
-0.007362157592968749,-2.417748694728043,1.2670810227595
-0.007360367592968749,-2.410352245022879,1.2670810227595
-0.0073585775929687494,-2.402955795317711,1.2744957247215754
-0.00735678759296875,-2.395559345612544,1.2744957247215754
-0.007354997592968749,-2.395559345612544,1.2707883737405377
-0.007353207592968749,-2.3844646710547925,1.2670810227595
-0.0073514175929687495,-2.3844646710547925,1.2670810227595
-0.00734962759296875,-2.373369996497041,1.2707883737405377
-0.007347837592968749,-2.3659735467918734,1.2744957247215754
-0.007346047592968749,-2.36227532193929,1.2744957247215754
-0.0073442575929687495,-2.351180647381538,1.2707883737405377
-0.00734246759296875,-2.3474824225289543,1.2707883737405377
-0.007340677592968749,-2.336387747971203,1.2744957247215754
-0.007338887592968749,-2.3289912982660352,1.2707883737405377
-0.0073370975929687495,-2.317896623708284,1.2707883737405377
-0.00733530759296875,-2.3141983988557002,1.2744957247215754
-0.007333517592968749,-2.3068019491505325,1.2670810227595
-0.007331727592968749,-2.295707274592781,1.2670810227595
-0.0073299375929687495,-2.2920090497401975,1.2670810227595
-0.00732814759296875,-2.2883108248876134,1.2670810227595
-0.007326357592968749,-2.2846126000350298,1.2670810227595
-0.007324567592968749,-2.277216150329862,1.2633736717784623
-0.0073227775929687496,-2.2698197006246947,1.2670810227595
-0.00732098759296875,-2.262423250919527,1.2707883737405377
-0.007319197592968749,-2.2587250260669434,1.2707883737405377
-0.007317407592968749,-2.2550268012143593,1.2707883737405377
-0.00731561759296875,-2.243932126656608,1.2744957247215754
-0.00731382759296875,-2.2365356769514406,1.2744957247215754
-0.007312037592968749,-2.2328374520988565,1.2707883737405377
-0.007310247592968749,-2.221742777541105,1.2707883737405377
-0.00730845759296875,-2.2180445526885215,1.2707883737405377
-0.00730666759296875,-2.210648102983354,1.2670810227595
-0.007304877592968749,-2.203251653278186,1.2633736717784623
-0.007303087592968749,-2.1958552035730188,1.2670810227595
-0.00730129759296875,-2.1921569787204347,1.2707883737405377
-0.00729950759296875,-2.188458753867853,1.2670810227595017
-0.007297717592968749,-2.1773640793100997,1.2670810227595
-0.007295927592968749,-2.173665854457516,1.2707883737405377
-0.00729413759296875,-2.1662694047523483,1.2707883737405377
-0.007292347592968749,-2.1662694047523448,1.2670810227595017
-0.007290557592968749,-2.1588729550471806,1.2707883737405377
-0.0072887675929687494,-2.151476505342013,1.2670810227595
-0.00728697759296875,-2.151476505342013,1.2670810227595
-0.007285187592968749,-2.1440800556368456,1.2707883737405359
-0.007283397592968749,-2.1440800556368456,1.2670810227595
-0.0072816075929687495,-2.132985381079094,1.2707883737405377
-0.00727981759296875,-2.1255889313739265,1.2707883737405377
-0.007278027592968749,-2.121890706521343,1.2744957247215754
-0.007276237592968749,-2.114494256816175,1.2744957247215754
-0.0072744475929687495,-2.1107960319635914,1.2707883737405377
-0.00727265759296875,-2.0923049077006723,1.2707883737405377
-0.007270867592968749,-2.0849084579955046,1.2707883737405377
-0.007269077592968749,-2.0849084579955046,1.2670810227595
-0.0072672875929687495,-2.081210233142921,1.2744957247215754
-0.00726549759296875,-2.0738137834377532,1.2707883737405377
-0.007263707592968749,-2.0664173337325855,1.2707883737405377
-0.007261917592968749,-2.062719108880002,1.2670810227595
-0.0072601275929687495,-2.055322659174834,1.2707883737405377
-0.00725833759296875,-2.0479262094696664,1.2707883737405377
-0.007256547592968749,-2.0516244343222505,1.2707883737405377
-0.007254757592968749,-2.036831534911915,1.2670810227595
-0.0072529675929687495,-2.036831534911915,1.2670810227595
-0.00725117759296875,-2.036831534911915,1.2707883737405377
-0.007249387592968749,-2.02203863550158,1.2707883737405377
-0.007247597592968749,-2.02203863550158,1.2707883737405377
-0.0072458075929687496,-2.02203863550158,1.2707883737405377
-0.00724401759296875,-2.0146421857964123,1.2707883737405377
-0.007242227592968749,-2.003547511238661,1.2744957247215754
-0.007240437592968749,-1.999849286386077,1.2707883737405377
-0.00723864759296875,-1.9887546118283257,1.2670810227595
-0.00723685759296875,-1.9850563869757418,1.2670810227595
-0.007235067592968749,-1.9776599372705743,1.2633736717784623
-0.007233277592968749,-1.9702634875654066,1.2670810227595
-0.00723148759296875,-1.962867037860239,1.2633736717784623
-0.00722969759296875,-1.9591688130076552,1.2670810227595
-0.007227907592968749,-1.9554705881550714,1.2670810227595
-0.007226117592968749,-1.9554705881550714,1.2670810227595
-0.00722432759296875,-1.9517723633024877,1.2670810227595
-0.00722253759296875,-1.9443759135973233,1.2670810227595
-0.007220747592968749,-1.9406776887447361,1.2707883737405377
-0.007218957592968749,-1.925884789334401,1.2707883737405377
-0.00721716759296875,-1.9295830141869847,1.2744957247215754
-0.007215377592968749,-1.925884789334401,1.2707883737405394
-0.007213587592968749,-1.925884789334401,1.2744957247215754
-0.0072117975929687494,-1.9221865644818172,1.278203075702613
-0.00721000759296875,-1.9147901147766497,1.2670810227595
-0.007208217592968749,-1.907393665071482,1.2707883737405377
-0.007206427592968749,-1.9036954402188981,1.2633736717784623
-0.0072046375929687495,-1.8926007656611468,1.2633736717784623
-0.00720284759296875,-1.8815060911033954,1.2670810227595
-0.007201057592968749,-1.8778078662508115,1.2670810227595
-0.007199267592968749,-1.8741096413982279,1.2633736717784623
-0.0071974775929687495,-1.870411416545644,1.2633736717784623
-0.00719568759296875,-1.8593167419878927,1.2670810227595
-0.007193897592968749,-1.8556185171353088,1.2707883737405377
-0.007192107592968749,-1.8482220674301413,1.2707883737405377
-0.0071903175929687495,-1.8482220674301413,1.2670810227595
-0.00718852759296875,-1.8408256177249736,1.2670810227595
-0.007186737592968749,-1.83712739287239,1.2670810227595
-0.007184947592968749,-1.833429168019806,1.2670810227595
-0.0071831575929687495,-1.8297309431672222,1.2707883737405377
-0.00718136759296875,-1.8297309431672222,1.2670810227595
-0.007179577592968749,-1.8260327183146385,1.2707883737405377
-0.007177787592968749,-1.814938043756887,1.2707883737405377
-0.0071759975929687496,-1.8075415940517194,1.2707883737405377
-0.00717420759296875,-1.8075415940517194,1.2670810227595
-0.007172417592968749,-1.800145144346552,1.2670810227595
-0.007170627592968749,-1.7890504697888003,1.2670810227595
-0.00716883759296875,-1.7927486946413842,1.2670810227595
-0.00716704759296875,-1.7853522449362167,1.2633736717784623
