200Hz/acq0093.csv

#Digilent WaveForms Oscilloscope Acquisition
#Device Name: Discovery2
#Serial Number: SN:210321AA28BE
#Date Time: 2023-05-24 14:48:06.557
#Sample rate: 558659Hz
#Samples: 8192
#Trigger: Source: Channel 1 Type: Edge Condition: Rising Level: 800 mV Hyst.: Auto HoldOff: 100 ns
#Channel 1: Range: 1 V/div Offset: 0 V Attenuation: 1 X Sample Mode: Average
#Channel 2: Range: 1 V/div Offset: 0 V Attenuation: 1 X Sample Mode: Average

Time (s),Channel 1 (V),Channel 2 (V)
-0.007741695816434454,0.06745840620826683,-1.3169426110237734
-0.007739905816434454,0.06745840620826683,-1.3206499620048093
-0.007738115816434453,0.07115663106085063,-1.3169426110237734
-0.0077363258164344535,0.07115663106085063,-1.3169426110237734
-0.007734535816434454,0.06745840620826683,-1.320649962004811
-0.007732745816434453,0.06376018135568304,-1.3169426110237734
-0.007730955816434453,0.06376018135568304,-1.3169426110237734
-0.0077291658164344535,0.06376018135568304,-1.3169426110237734
-0.007727375816434454,0.06745840620826683,-1.3169426110237734
-0.007725585816434453,0.06376018135568304,-1.3169426110237734
-0.007723795816434453,0.06376018135568304,-1.3169426110237734
-0.0077220058164344536,0.06006195650309923,-1.3169426110237734
-0.007720215816434454,0.06745840620826683,-1.3169426110237734
-0.007718425816434453,0.06745840620826683,-1.3243573129858488
-0.007716635816434453,0.06376018135568304,-1.320649962004811
-0.007714845816434454,0.06376018135568304,-1.320649962004811
-0.007713055816434454,0.06006195650309923,-1.320649962004811
-0.007711265816434453,0.06376018135568304,-1.320649962004811
-0.007709475816434453,0.06006195650309923,-1.3169426110237734
-0.007707685816434454,0.06006195650309923,-1.3169426110237734
-0.007705895816434454,0.06376018135568304,-1.3169426110237734
-0.007704105816434453,0.06006195650309923,-1.3169426110237734
-0.007702315816434453,0.05266550679793163,-1.320649962004811
-0.007700525816434454,0.05636373165051543,-1.320649962004811
-0.007698735816434454,0.06006195650309923,-1.3243573129858488
-0.007696945816434453,0.05636373165051543,-1.320649962004811
-0.007695155816434453,0.06376018135568304,-1.3243573129858488
-0.007693365816434454,0.05636373165051543,-1.3169426110237734
-0.007691575816434454,0.05636373165051543,-1.320649962004811
-0.007689785816434453,0.06376018135568304,-1.320649962004811
-0.0076879958164344534,0.06006195650309923,-1.320649962004811
-0.007686205816434454,0.06006195650309923,-1.3169426110237734
-0.007684415816434454,0.05266550679793163,-1.3169426110237734
-0.007682625816434453,0.05636373165051543,-1.320649962004811
-0.0076808358164344535,0.05636373165051543,-1.320649962004811
-0.007679045816434454,0.06006195650309923,-1.3169426110237734
-0.007677255816434454,0.06006195650309923,-1.3169426110237734
-0.007675465816434453,0.05636373165051543,-1.3169426110237734
-0.0076736758164344535,0.05636373165051543,-1.320649962004811
-0.007671885816434454,0.05266550679793163,-1.320649962004811
-0.007670095816434454,0.05266550679793163,-1.320649962004811
-0.007668305816434453,0.05266550679793163,-1.3243573129858488
-0.0076665158164344535,0.05266550679793163,-1.320649962004811
-0.007664725816434454,0.05266550679793163,-1.320649962004811
-0.007662935816434453,0.05266550679793163,-1.320649962004811
-0.007661145816434453,0.05266550679793163,-1.320649962004811
-0.0076593558164344535,0.05266550679793163,-1.320649962004811
-0.007657565816434454,0.048967281945347836,-1.320649962004811
-0.007655775816434453,0.05266550679792995,-1.3169426110237734
-0.007653985816434453,0.048967281945347836,-1.3169426110237734
-0.0076521958164344536,0.05266550679793163,-1.3169426110237734
-0.007650405816434454,0.05636373165051543,-1.320649962004811
-0.007648615816434453,0.045269057092764034,-1.3169426110237734
-0.007646825816434453,0.05266550679793163,-1.3169426110237734
-0.007645035816434454,0.048967281945347836,-1.3132352600427357
-0.007643245816434454,0.05636373165051543,-1.3169426110237734
-0.007641455816434453,0.048967281945347836,-1.320649962004811
-0.007639665816434453,0.048967281945347836,-1.3169426110237734
-0.007637875816434454,0.048967281945347836,-1.3169426110237734
-0.007636085816434454,0.05266550679793163,-1.3169426110237734
-0.007634295816434453,0.045269057092764034,-1.3243573129858488
-0.007632505816434453,0.05266550679793163,-1.320649962004811
-0.007630715816434454,0.048967281945347836,-1.3169426110237734
-0.007628925816434454,0.045269057092764034,-1.3169426110237734
-0.007627135816434453,0.05266550679793163,-1.3169426110237734
-0.007625345816434453,0.045269057092764034,-1.3169426110237734
-0.007623555816434454,0.05266550679793163,-1.3169426110237734
-0.007621765816434454,0.045269057092764034,-1.320649962004811
-0.007619975816434453,0.045269057092764034,-1.320649962004811
-0.0076181858164344534,0.045269057092764034,-1.3169426110237734
-0.007616395816434454,0.04157083224018024,-1.3243573129858488
-0.007614605816434454,0.04157083224018024,-1.3243573129858488
-0.007612815816434453,0.045269057092764034,-1.320649962004811
-0.0076110258164344535,0.048967281945347836,-1.3169426110237734
-0.007609235816434454,0.045269057092764034,-1.3132352600427357
-0.007607445816434454,0.045269057092764034,-1.3132352600427357
-0.007605655816434453,0.045269057092764034,-1.3169426110237734
-0.0076038658164344535,0.045269057092764034,-1.3169426110237734
-0.007602075816434454,0.045269057092764034,-1.320649962004811
-0.007600285816434454,0.045269057092764034,-1.320649962004811
-0.007598495816434453,0.045269057092764034,-1.3169426110237734
-0.0075967058164344535,0.045269057092764034,-1.3169426110237734
-0.007594915816434454,0.045269057092764034,-1.3169426110237734
-0.007593125816434454,0.04157083224018192,-1.3206499620048093
-0.007591335816434453,0.04157083224018024,-1.320649962004811
-0.0075895458164344535,0.045269057092764034,-1.3169426110237734
-0.007587755816434454,0.045269057092764034,-1.3169426110237734
-0.007585965816434453,0.045269057092762355,-1.3132352600427375
-0.007584175816434453,0.04157083224018024,-1.3169426110237734
-0.0075823858164344535,0.03787260738759644,-1.3169426110237734
-0.007580595816434454,0.04157083224018024,-1.3169426110237734
-0.007578805816434453,0.034174382535012635,-1.3169426110237734
-0.007577015816434453,0.04157083224018024,-1.3169426110237734
-0.0075752258164344536,0.04157083224018024,-1.320649962004811
-0.007573435816434454,0.04157083224018024,-1.3169426110237734
-0.007571645816434453,0.04157083224018024,-1.3169426110237734
-0.007569855816434453,0.03787260738759644,-1.320649962004811
-0.007568065816434454,0.045269057092764034,-1.3243573129858488
-0.007566275816434454,0.03787260738759644,-1.320649962004811
-0.007564485816434453,0.03787260738759644,-1.320649962004811
-0.007562695816434453,0.03787260738759644,-1.320649962004811
-0.007560905816434454,0.03787260738759644,-1.320649962004811
-0.007559115816434454,0.034174382535012635,-1.3169426110237734
-0.007557325816434453,0.034174382535012635,-1.3169426110237734
-0.007555535816434453,0.034174382535012635,-1.320649962004811
-0.007553745816434454,0.034174382535012635,-1.3169426110237734
-0.007551955816434454,0.034174382535012635,-1.3169426110237734
-0.007550165816434453,0.03787260738759644,-1.3169426110237734
-0.007548375816434453,0.034174382535012635,-1.320649962004811
-0.007546585816434454,0.034174382535012635,-1.3169426110237734
-0.007544795816434454,0.03787260738759644,-1.3132352600427357
-0.007543005816434453,0.03787260738759644,-1.3169426110237734
-0.0075412158164344534,0.034174382535012635,-1.3169426110237734
-0.007539425816434454,0.034174382535012635,-1.320649962004811
-0.007537635816434454,0.034174382535012635,-1.3169426110237734
-0.007535845816434453,0.034174382535012635,-1.320649962004811
-0.0075340558164344535,0.03787260738759644,-1.3169426110237734
-0.007532265816434454,0.034174382535012635,-1.320649962004811
-0.007530475816434454,0.034174382535012635,-1.3243573129858488
-0.007528685816434453,0.034174382535012635,-1.320649962004811
-0.0075268958164344535,0.034174382535012635,-1.320649962004811
-0.007525105816434454,0.03047615768242884,-1.3169426110237734
-0.007523315816434454,0.03787260738759307,-1.3132352600427375
-0.007521525816434453,0.026777932829845037,-1.3169426110237734
-0.0075197358164344535,0.034174382535012635,-1.320649962004811
-0.007517945816434454,0.034174382535012635,-1.320649962004811
-0.007516155816434454,0.030476157682430522,-1.3169426110237752
-0.007514365816434453,0.034174382535012635,-1.3243573129858488
-0.0075125758164344535,0.03047615768242884,-1.320649962004811
-0.007510785816434454,0.034174382535012635,-1.320649962004811
-0.007508995816434453,0.034174382535010955,-1.320649962004811
-0.007507205816434453,0.03047615768242884,-1.320649962004811
-0.0075054158164344536,0.03047615768242884,-1.3169426110237734
-0.007503625816434454,0.026777932829845037,-1.3169426110237734
-0.007501835816434453,0.026777932829845037,-1.3169426110237734
-0.007500045816434453,-2.1440800556368456,0.562684336362338
-0.007498255816434454,-3.1610918900973903,1.3301059894371408
-0.007496465816434454,-3.146298990687055,1.3301059894371408
-0.007494675816434453,-3.1352043161293035,1.326398638456103
-0.007492885816434453,-3.124109641571552,1.3226912874750654
-0.007491095816434454,-3.116713191866385,1.3226912874750654
-0.007489305816434454,-3.109316742161217,1.3226912874750654
-0.007487515816434453,-3.0982220676034657,1.3189839364940277
-0.007485725816434453,-3.090825617898298,1.3226912874750654
-0.007483935816434454,-3.076032718487963,1.3226912874750654
-0.007482145816434454,-3.0612398190776275,1.3226912874750654
-0.007480355816434453,-3.0538433693724603,1.3189839364940277
-0.007478565816434453,-3.042748694814709,1.31527658551299
-0.007476775816434454,-3.02425757055179,1.3115692345319523
-0.007474985816434454,-3.0131628959940384,1.31527658551299
-0.007473195816434453,-2.9946717717311193,1.3115692345319523
-0.0074714058164344534,-2.983577097173368,1.304154532569877
-0.007469615816434454,-2.968784197763033,1.3078618835509146
-0.007467825816434454,-2.9539912983526975,1.3004471815888392
-0.007466035816434453,-2.9465948486475297,1.3004471815888392
-0.0074642458164344535,-2.9391983989423625,1.3078618835509146
-0.007462455816434454,-2.924405499532027,1.3004471815888392
-0.007460665816434454,-2.9059143752691083,1.3004471815888392
-0.007458875816434453,-2.8985179255639406,1.2967398306078015
-0.0074570858164344535,-2.8948197007113565,1.2967398306078015
-0.007455295816434454,-2.883725026153605,1.2967398306078015
-0.007453505816434454,-2.872630351595854,1.2930324796267638
-0.007451715816434453,-2.8578374521855188,1.2930324796267638
-0.0074499258164344535,-2.8467427776277674,1.2930324796267638
-0.007448135816434454,-2.831949878217432,1.2967398306078015
-0.007446345816434454,-2.82825165336485,1.2930324796267656
-0.007444555816434453,-2.8134587539545133,1.2893251286457261
-0.0074427658164344535,-2.802364079396762,1.2893251286457261
-0.007440975816434454,-2.7912694048390105,1.2893251286457261
-0.007439185816434453,-2.780174730281254,1.2893251286457243
-0.007437395816434453,-2.7690800557235073,1.2856177776646884
-0.0074356058164344535,-2.7542871563131723,1.2819104266836507
-0.007433815816434454,-2.743192481755421,1.278203075702613
-0.007432025816434453,-2.7357960320502532,1.278203075702613
-0.007430235816434453,-2.728399582345086,1.2819104266836507
-0.0074284458164344536,-2.721003132639918,1.278203075702613
-0.007426655816434454,-2.709908458082167,1.278203075702613
-0.007424865816434453,-2.6988137835244155,1.2744957247215754
-0.007423075816434453,-2.6951155586718314,1.278203075702613
-0.007421285816434454,-2.68402088411408,1.2819104266836507
-0.007419495816434454,-2.6766244344089127,1.278203075702613
-0.007417705816434453,-2.669227984703745,1.278203075702613
-0.007415915816434453,-2.6581333101459936,1.2819104266836507
-0.007414125816434454,-2.643340410735658,1.278203075702613
-0.007412335816434454,-2.635943961030491,1.278203075702613
-0.007410545816434453,-2.628547511325323,1.2707883737405377
-0.007408755816434453,-2.6248492864727395,1.2744957247215754
-0.007406965816434454,-2.610056387062404,1.2744957247215754
-0.007405175816434454,-2.6026599373572368,1.2744957247215754
-0.007403385816434453,-2.595263487652069,1.2707883737405377
-0.007401595816434453,-2.5804705882417336,1.278203075702613
-0.007399805816434454,-2.5730741385365663,1.2744957247215754
-0.007398015816434454,-2.561979463978815,1.2670810227595
-0.007396225816434453,-2.554583014273647,1.2707883737405377
-0.0073944358164344534,-2.5471865645684795,1.2707883737405377
-0.007392645816434454,-2.543488339715896,1.2707883737405377
-0.007390855816434454,-2.539790114863312,1.2744957247215754
-0.007389065816434453,-2.5323936651581445,1.2744957247215754
-0.0073872758164344535,-2.5286954403055604,1.2707883737405377
-0.007385485816434454,-2.517600765747809,1.2707883737405377
-0.007383695816434454,-2.5102043160426417,1.2707883737405377
-0.007381905816434453,-2.502807866337474,1.2744957247215754
-0.0073801158164344535,-2.4991096414848903,1.2744957247215754
-0.007378325816434454,-2.4917131917797226,1.278203075702613
-0.007376535816434454,-2.4769202923693876,1.2744957247215754
-0.007374745816434453,-2.46952384266422,1.2744957247215754
-0.0073729558164344535,-2.462127392959052,1.2707883737405377
-0.007371165816434454,-2.4510327184013008,1.2744957247215754
-0.007369375816434454,-2.4436362686961366,1.2670810227595033
-0.007367585816434453,-2.4362398189909658,1.2744957247215754
-0.0073657958164344535,-2.4251451444332144,1.2707883737405377
-0.007364005816434454,-2.4251451444332144,1.2670810227595
-0.007362215816434453,-2.414050469875459,1.2633736717784656
-0.007360425816434453,-2.4066540201702953,1.2707883737405377
-0.0073586358164344536,-2.4066540201702953,1.2707883737405377
-0.007356845816434454,-2.402955795317711,1.2670810227595
-0.007355055816434453,-2.388162895907376,1.2670810227595
-0.007353265816434453,-2.3844646710547925,1.2670810227595
-0.007351475816434454,-2.377068221349625,1.2707883737405377
-0.007349685816434454,-2.369671771644457,1.2707883737405377
-0.007347895816434453,-2.36227532193929,1.2707883737405377
-0.007346105816434453,-2.3585770970867057,1.2707883737405377
-0.007344315816434454,-2.351180647381538,1.2707883737405377
-0.007342525816434454,-2.3474824225289543,1.2707883737405377
-0.007340735816434453,-2.336387747971203,1.2707883737405377
-0.007338945816434453,-2.3289912982660352,1.2670810227595
-0.007337155816434454,-2.321594848560868,1.2633736717784623
-0.007335365816434454,-2.3141983988557002,1.2670810227595
-0.007333575816434453,-2.3068019491505325,1.2633736717784623
-0.007331785816434453,-2.295707274592781,1.2707883737405377
-0.007329995816434454,-2.295707274592781,1.2707883737405377
-0.007328205816434454,-2.2883108248876134,1.2670810227595
-0.007326415816434453,-2.280914375182446,1.2670810227595
-0.0073246258164344534,-2.2698197006246947,1.2707883737405377
-0.007322835816434454,-2.2661214757721106,1.2707883737405377
-0.007321045816434454,-2.262423250919527,1.2707883737405377
-0.007319255816434453,-2.2587250260669434,1.2707883737405377
-0.0073174658164344535,-2.2513285763617756,1.2744957247215754
-0.007315675816434454,-2.247630351509192,1.2744957247215754
-0.007313885816434454,-2.243932126656608,1.278203075702613
-0.007312095816434453,-2.2402339018040243,1.2707883737405377
-0.0073103058164344535,-2.225441002393689,1.2707883737405377
-0.007308515816434454,-2.2180445526885215,1.2707883737405377
-0.007306725816434454,-2.210648102983354,1.2707883737405377
-0.007304935816434453,-2.203251653278186,1.2670810227595
-0.0073031458164344535,-2.1958552035730188,1.2670810227595
-0.007301355816434454,-2.1921569787204347,1.2707883737405377
-0.007299565816434454,-2.181062304162688,1.2670810227595017
-0.007297775816434453,-2.1810623041626833,1.2707883737405377
-0.0072959858164344535,-2.173665854457516,1.2670810227595
-0.007294195816434454,-2.169967629604932,1.2670810227595
-0.007292405816434453,-2.1662694047523434,1.2670810227595017
-0.007290615816434453,-2.155174730194597,1.2707883737405377
-0.0072888258164344535,-2.151476505342013,1.2707883737405377
-0.007287035816434454,-2.147778280489429,1.2670810227595
-0.007285245816434453,-2.1403818307842597,1.2670810227595
-0.007283455816434453,-2.136683605931678,1.2670810227595
-0.0072816658164344536,-2.132985381079094,1.2707883737405377
-0.007279875816434454,-2.1255889313739265,1.2707883737405377
-0.007278085816434453,-2.121890706521343,1.2670810227595
-0.007276295816434453,-2.1107960319635914,1.2707883737405377
-0.007274505816434454,-2.1070978071110074,1.2633736717784623
-0.007272715816434454,-2.0997013574058396,1.2670810227595
-0.007270925816434453,-2.0849084579955046,1.2707883737405377
-0.007269135816434453,-2.0849084579955046,1.2707883737405377
-0.007267345816434454,-2.081210233142921,1.2670810227595
-0.007265555816434454,-2.077512008290337,1.2670810227595
-0.007263765816434453,-2.0664173337325855,1.2670810227595
-0.007261975816434453,-2.062719108880002,1.2633736717784623
-0.007260185816434454,-2.055322659174834,1.2707883737405377
-0.007258395816434454,-2.055322659174834,1.2670810227595
-0.007256605816434453,-2.0516244343222505,1.2707883737405377
-0.007254815816434453,-2.0442279846170828,1.2670810227595
-0.007253025816434454,-2.036831534911915,1.2707883737405377
-0.007251235816434454,-2.0294350852067478,1.2744957247215754
-0.007249445816434453,-2.0294350852067478,1.278203075702613
-0.0072476558164344534,-2.0294350852067478,1.2707883737405377
-0.007245865816434454,-2.02203863550158,1.278203075702613
-0.007244075816434454,-2.0109439609438287,1.2744957247215754
-0.007242285816434453,-2.007245736091245,1.2707883737405377
-0.0072404958164344535,-2.003547511238661,1.2744957247215754
-0.007238705816434454,-1.9924528366809093,1.2744957247215754
-0.007236915816434454,-1.9850563869757418,1.2633736717784623
-0.007235125816434453,-1.9739617124179905,1.2707883737405377
-0.0072333358164344535,-1.9739617124179905,1.2670810227595
-0.007231545816434454,-1.9665652627128227,1.2670810227595
-0.007229755816434454,-1.9554705881550714,1.2670810227595
-0.007227965816434453,-1.9554705881550714,1.2670810227595
-0.0072261758164344535,-1.9554705881550714,1.2670810227595
-0.007224385816434454,-1.9517723633024877,1.2670810227595
-0.007222595816434454,-1.9443759135973233,1.2670810227595
-0.007220805816434453,-1.94437591359732,1.2670810227595
-0.0072190158164344535,-1.9369794638921525,1.2707883737405377
-0.007217225816434454,-1.925884789334401,1.2707883737405377
-0.007215435816434453,-1.9295830141869796,1.2670810227595017
-0.007213645816434453,-1.9184883396292334,1.2707883737405377
-0.0072118558164344536,-1.9110918899240659,1.2707883737405377
-0.007210065816434454,-1.9110918899240659,1.2707883737405377
-0.007208275816434453,-1.9036954402188981,1.2707883737405377
-0.007206485816434453,-1.8962989905137306,1.2707883737405377
-0.007204695816434454,-1.8926007656611468,1.2670810227595
-0.007202905816434454,-1.8852043159559793,1.2596663207974246
-0.007201115816434453,-1.8778078662508115,1.2633736717784623
-0.007199325816434453,-1.8741096413982279,1.2633736717784623
-0.007197535816434454,-1.870411416545644,1.2707883737405377
-0.007195745816434454,-1.870411416545644,1.2633736717784623
-0.007193955816434453,-1.8630149668404765,1.2670810227595
-0.007192165816434453,-1.8630149668404765,1.2707883737405377
-0.007190375816434454,-1.8556185171353088,1.2670810227595
-0.007188585816434454,-1.8482220674301413,1.2670810227595
-0.007186795816434453,-1.8408256177249736,1.2670810227595
-0.007185005816434453,-1.83712739287239,1.2670810227595
-0.007183215816434454,-1.833429168019806,1.2707883737405377
-0.007181425816434454,-1.833429168019806,1.2744957247215754
-0.007179635816434453,-1.8297309431672222,1.2744957247215754
-0.0071778458164344534,-1.8186362686094708,1.2707883737405377
-0.007176055816434454,-1.814938043756887,1.2744957247215754
-0.007174265816434454,-1.8112398189043033,1.2707883737405377
-0.007172475816434453,-1.8075415940517194,1.2670810227595
-0.0071706858164344535,-1.8038433691991356,1.2670810227595
