200Hz/acq0044.csv

#Digilent WaveForms Oscilloscope Acquisition
#Device Name: Discovery2
#Serial Number: SN:210321AA28BE
#Date Time: 2023-05-24 14:48:05.203
#Sample rate: 558659Hz
#Samples: 8192
#Trigger: Source: Channel 1 Type: Edge Condition: Rising Level: 800 mV Hyst.: Auto HoldOff: 100 ns
#Channel 1: Range: 1 V/div Offset: 0 V Attenuation: 1 X Sample Mode: Average
#Channel 2: Range: 1 V/div Offset: 0 V Attenuation: 1 X Sample Mode: Average

Time (s),Channel 1 (V),Channel 2 (V)
-0.007741588426085633,0.045269057092762355,-1.3169426110237734
-0.007739798426085633,0.04157083224017687,-1.3169426110237752
-0.007738008426085633,0.034174382535012635,-1.320649962004811
-0.007736218426085633,0.03047615768242884,-1.309527909061698
-0.007734428426085634,0.03787260738759644,-1.320649962004811
-0.007732638426085632,0.0378726073875998,-1.313235260042739
-0.007730848426085632,0.04157083224018024,-1.3169426110237767
-0.0077290584260856325,0.04157083224018024,-1.324357312985847
-0.007727268426085633,0.04157083224018024,-1.3206499620048093
-0.007725478426085633,0.04157083224018024,-1.3169426110237734
-0.007723688426085633,0.03787260738759644,-1.320649962004811
-0.007721898426085633,0.03787260738759644,-1.3243573129858488
-0.007720108426085634,0.03787260738759644,-1.320649962004811
-0.007718318426085632,0.03787260738759307,-1.31694261102377
-0.007716528426085632,0.034174382535014314,-1.313235260042739
-0.0077147384260856326,0.03787260738759644,-1.3206499620048093
-0.007712948426085633,0.03787260738759644,-1.3169426110237752
-0.007711158426085633,0.03787260738759644,-1.320649962004811
-0.007709368426085633,0.04157083224018024,-1.320649962004811
-0.0077075784260856334,0.03047615768242884,-1.3169426110237734
-0.007705788426085634,0.034174382535012635,-1.3169426110237734
-0.007703998426085632,0.034174382535012635,-1.320649962004811
-0.007702208426085632,0.034174382535012635,-1.320649962004811
-0.007700418426085633,0.034174382535012635,-1.320649962004811
-0.007698628426085633,0.034174382535014314,-1.320649962004811
-0.007696838426085633,0.03787260738759644,-1.320649962004811
-0.007695048426085633,0.034174382535012635,-1.3169426110237734
-0.0076932584260856335,0.034174382535012635,-1.3169426110237734
-0.007691468426085634,0.034174382535012635,-1.3169426110237734
-0.007689678426085632,0.02677793282984672,-1.3169426110237734
-0.007687888426085632,0.030476157682427157,-1.3169426110237734
-0.007686098426085633,0.026777932829843355,-1.3169426110237752
-0.007684308426085633,0.02307970797726292,-1.3206499620048129
-0.007682518426085633,0.026777932829845037,-1.3243573129858488
-0.007680728426085633,0.03047615768242884,-1.3169426110237734
-0.0076789384260856335,0.03047615768242884,-1.320649962004811
-0.007677148426085634,0.03047615768242884,-1.320649962004811
-0.007675358426085632,0.02677793282984672,-1.3206499620048093
-0.0076735684260856325,0.030476157682427157,-1.3169426110237734
-0.007671778426085633,0.0267779328298484,-1.3169426110237734
-0.007669988426085633,0.03417438253500927,-1.3169426110237734
-0.007668198426085633,0.026777932829845037,-1.3169426110237734
-0.007666408426085633,0.02307970797726124,-1.3169426110237734
-0.007664618426085634,0.03047615768242884,-1.3132352600427357
-0.007662828426085632,0.03047615768242884,-1.3206499620048078
-0.007661038426085632,0.030476157682423795,-1.3169426110237752
-0.0076592484260856325,0.019381483124680802,-1.320649962004811
-0.007657458426085633,0.026777932829845037,-1.3206499620048093
-0.007655668426085633,0.026777932829843355,-1.3169426110237716
-0.007653878426085633,0.02307970797726124,-1.3132352600427357
-0.007652088426085633,0.026777932829845037,-1.3132352600427357
-0.007650298426085634,0.01938148312467744,-1.3132352600427357
-0.007648508426085632,0.02307970797726124,-1.3169426110237767
-0.007646718426085632,0.023079707977259556,-1.320649962004811
-0.0076449284260856325,0.019381483124679123,-1.3206499620048093
-0.007643138426085633,0.02307970797726124,-1.3169426110237752
-0.007641348426085633,0.02307970797726124,-1.320649962004811
-0.007639558426085633,0.01938148312467744,-1.3243573129858488
-0.007637768426085633,0.01938148312467744,-1.320649962004811
-0.007635978426085634,0.01938148312467744,-1.3169426110237734
-0.007634188426085632,0.02307970797726124,-1.3169426110237734
-0.007632398426085632,0.02307970797726292,-1.3169426110237716
-0.007630608426085633,0.026777932829843355,-1.3132352600427375
-0.007628818426085633,0.023079707977259556,-1.3169426110237752
-0.007627028426085633,0.01938148312467744,-1.320649962004811
-0.007625238426085633,0.01938148312467744,-1.3243573129858488
-0.0076234484260856335,0.015683258272093638,-1.320649962004811
-0.007621658426085634,0.015683258272093638,-1.320649962004811
-0.007619868426085632,0.01568325827209532,-1.3169426110237734
-0.007618078426085632,0.01938148312467744,-1.3169426110237752
-0.007616288426085633,0.01938148312467744,-1.320649962004811
-0.007614498426085633,0.019381483124675757,-1.3206499620048093
-0.007612708426085633,0.015683258272093638,-1.3169426110237734
-0.007610918426085633,0.01938148312467744,-1.3169426110237734
-0.0076091284260856335,0.01198503341950984,-1.3169426110237734
-0.007607338426085634,0.015683258272093638,-1.320649962004811
-0.007605548426085632,0.01938148312467744,-1.3243573129858455
-0.0076037584260856324,0.019381483124675757,-1.3169426110237767
-0.007601968426085633,0.015683258272093638,-1.324357312985847
-0.007600178426085633,0.01568325827209532,-1.3206499620048129
-0.007598388426085633,0.01938148312467744,-1.3243573129858488
-0.007596598426085633,0.01198503341950984,-1.3243573129858488
-0.0075948084260856336,0.015683258272093638,-1.320649962004811
-0.007593018426085634,0.015683258272093638,-1.3169426110237752
-0.007591228426085632,0.015683258272093638,-1.3169426110237734
-0.0075894384260856325,0.015683258272093638,-1.3169426110237734
-0.007587648426085633,0.015683258272093638,-1.3169426110237734
-0.007585858426085633,0.01568325827209532,-1.3169426110237734
-0.007584068426085633,0.01938148312467744,-1.3169426110237734
-0.007582278426085633,0.00828680856692604,-1.320649962004811
-0.007580488426085634,0.01198503341950984,-1.3243573129858488
-0.007578698426085632,0.011985033419506476,-1.3243573129858455
-0.007576908426085632,0.00828680856692604,-1.320649962004811
-0.0075751184260856325,0.008286808566927721,-1.3206499620048093
-0.007573328426085633,0.01198503341950984,-1.3169426110237716
-0.007571538426085633,0.01198503341950984,-1.3132352600427357
-0.007569748426085633,0.00828680856692604,-1.320649962004811
-0.007567958426085633,0.01198503341950984,-1.3169426110237734
-0.007566168426085634,0.00828680856692604,-1.3169426110237734
-0.007564378426085632,0.011985033419506476,-1.31694261102378
-0.007562588426085632,0.00828680856692604,-1.324357312985847
-0.007560798426085633,0.00828680856692436,-1.3206499620048093
-0.007559008426085633,0.00458858371434224,-1.3169426110237752
-0.007557218426085633,0.00458858371434224,-1.320649962004811
-0.007555428426085633,0.00828680856692604,-1.3169426110237734
-0.0075536384260856335,0.00458858371434224,-1.3169426110237734
-0.007551848426085634,0.00828680856692604,-1.3169426110237734
-0.007550058426085632,0.00458858371434224,-1.3206499620048093
-0.007548268426085632,0.00458858371434224,-1.3169426110237734
-0.007546478426085633,0.004588583714340558,-1.3169426110237752
-0.007544688426085633,0.0008903588617601223,-1.3206499620048093
-0.007542898426085633,0.00458858371434224,-1.3169426110237734
-0.007541108426085633,0.00458858371434224,-1.3169426110237734
-0.0075393184260856335,0.00828680856692604,-1.3169426110237734
-0.007537528426085634,0.00828680856692604,-1.3243573129858488
-0.007535738426085632,0.00828680856692436,-1.3169426110237734
-0.0075339484260856324,0.00458858371434224,-1.3169426110237752
-0.007532158426085633,0.004588583714343922,-1.320649962004811
-0.007530368426085633,0.008286808566922677,-1.320649962004811
-0.007528578426085633,0.0008903588617584406,-1.320649962004811
-0.007526788426085633,0.00828680856692604,-1.320649962004811
-0.0075249984260856335,0.0008903588617584406,-1.320649962004811
-0.007523208426085634,0.0008903588617584406,-1.320649962004811
-0.007521418426085632,-0.0028078659908219953,-1.313235260042739
-0.0075196284260856325,0.00458858371434224,-1.3206499620048093
-0.007517838426085633,0.00458858371434224,-1.3169426110237752
-0.007516048426085633,0.0045885837143388765,-1.320649962004811
-0.007514258426085633,-0.002807865990825359,-1.320649962004811
-0.007512468426085633,-0.002807865990825359,-1.3169426110237734
-0.007510678426085634,0.0008903588617584406,-1.3132352600427357
-0.007508888426085632,-0.002807865990825359,-1.3169426110237734
-0.007507098426085632,-0.002807865990825359,-1.3169426110237752
-0.0075053084260856325,-0.002807865990825359,-1.3206499620048093
-0.007503518426085633,-0.002807865990823677,-1.3169426110237752
-0.007501728426085633,0.0008903588617584406,-1.320649962004811
-0.007499938426085633,-2.3807664462022085,0.7480518854142226
-0.007498148426085633,-3.168488339802558,1.326398638456103
-0.007496358426085634,-3.1536954403922226,1.3226912874750654
-0.007494568426085632,-3.1426007658344712,1.326398638456103
-0.007492778426085632,-3.1426007658344677,1.326398638456103
-0.0074909884260856326,-3.135204316129297,1.3263986384560997
-0.007489198426085633,-3.1204114167189685,1.3189839364940295
-0.007487408426085633,-3.1204114167189685,1.3226912874750654
-0.007485618426085633,-3.109316742161217,1.3226912874750654
-0.0074838284260856335,-3.0982220676034657,1.326398638456103
-0.007482038426085634,-3.0871273930457144,1.326398638456103
-0.007480248426085632,-3.0834291681931236,1.3263986384561013
-0.007478458426085632,-3.0686362687827886,1.322691287475062
-0.007476668426085633,-3.0538433693724536,1.3152765855129918
-0.007474878426085633,-3.039050469962118,1.3189839364940243
-0.007473088426085633,-3.02425757055179,1.3115692345319523
-0.007471298426085633,-3.0094646711414543,1.31527658551299
-0.0074695084260856335,-3.002068221436287,1.3078618835509146
-0.007467718426085634,-2.9872753220259516,1.3078618835509146
-0.007465928426085632,-2.972482422615613,1.3004471815888425
-0.007464138426085632,-2.965085972910444,1.3078618835509113
-0.007462348426085633,-2.953991298352691,1.3004471815888374
-0.007460558426085633,-2.9391983989423576,1.2967398306078015
-0.007458768426085633,-2.928103724384611,1.2967398306078015
-0.007456978426085633,-2.9170090498268597,1.2930324796267638
-0.0074551884260856335,-2.9059143752691083,1.2930324796267638
-0.007453398426085634,-2.891121475858773,1.2930324796267638
-0.007451608426085632,-2.8837250261536003,1.2893251286457261
-0.0074498184260856325,-2.872630351595849,1.2893251286457261
-0.007448028426085633,-2.861535677038099,1.289325128645728
-0.007446238426085633,-2.8541392273329316,1.293032479626762
-0.007444448426085633,-2.8467427776277674,1.2893251286457261
-0.007442658426085633,-2.8245534285122647,1.2893251286457261
-0.007440868426085634,-2.8208552036596806,1.2856177776646884
-0.007439078426085632,-2.8060623042493353,1.2819104266836474
-0.007437288426085632,-2.7949676296915906,1.2782030757026164
-0.0074354984260856325,-2.7875711799864216,1.2856177776646884
-0.007433708426085633,-2.7764765054286715,1.285617777664685
-0.007431918426085633,-2.7690800557235073,1.278203075702613
-0.007430128426085633,-2.757985381165756,1.2819104266836507
-0.007428338426085633,-2.7468907066080046,1.2856177776646884
-0.007426548426085634,-2.7394942569028373,1.2819104266836507
-0.007424758426085632,-2.7283995823450793,1.2782030757026164
-0.007422968426085632,-2.7210031326399133,1.2819104266836507
-0.0074211784260856326,-2.7099084580821633,1.2819104266836507
-0.007419388426085633,-2.7025120083769956,1.2819104266836507
-0.007417598426085633,-2.6951155586718314,1.2819104266836507
-0.007415808426085633,-2.6951155586718314,1.278203075702613
-0.0074140184260856334,-2.6766244344089127,1.278203075702613
-0.007412228426085634,-2.6729262095563286,1.2819104266836507
-0.007410438426085632,-2.65813331014599,1.2819104266836507
-0.007408648426085632,-2.650736860440821,1.281910426683649
-0.007406858426085633,-2.6396421858830728,1.2782030757026113
-0.007405068426085633,-2.6359439610304842,1.2744957247215736
-0.007403278426085633,-2.6211510616201554,1.2707883737405377
-0.007401488426085633,-2.610056387062404,1.2707883737405377
-0.0073996984260856335,-2.6063581622098204,1.2707883737405377
-0.007397908426085634,-2.5989617125046527,1.2707883737405377
-0.007396118426085632,-2.5878670379468978,1.2744957247215754
-0.007394328426085632,-2.580470588241732,1.2744957247215736
-0.007392538426085633,-2.576772363389145,1.2707883737405377
-0.007390748426085633,-2.5656776888313937,1.2707883737405377
-0.007388958426085633,-2.554583014273647,1.2707883737405377
-0.007387168426085633,-2.5508847894210636,1.2707883737405377
-0.0073853784260856335,-2.543488339715896,1.2707883737405377
-0.007383588426085634,-2.536091890010728,1.2744957247215754
-0.007381798426085632,-2.5286954403055555,1.2670810227595017
-0.0073800084260856325,-2.5176007657478072,1.2707883737405394
-0.007378218426085633,-2.5139025408952236,1.2744957247215771
-0.007376428426085633,-2.510204316042638,1.2782030757026097
-0.007374638426085633,-2.502807866337474,1.2707883737405377
-0.007372848426085633,-2.488014966927139,1.2707883737405377
-0.007371058426085634,-2.4806185172219712,1.2707883737405377
-0.007369268426085634,-2.4769202923693894,1.2670810227595017
-0.007367478426085632,-2.4658256178116322,1.2670810227595017
-0.0073656884260856325,-2.4584291681064667,1.2707883737405359
-0.007363898426085633,-2.4547309432538795,1.2670810227595
-0.007362108426085633,-2.4436362686961313,1.2670810227595017
-0.007360318426085633,-2.4399380438435494,1.2707883737405377
-0.007358528426085633,-2.428843369285798,1.2670810227595
-0.007356738426085634,-2.4214469195806303,1.2707883737405377
-0.007354948426085632,-2.417748694728043,1.2670810227595
-0.007353158426085632,-2.414050469875459,1.2670810227595017
-0.0073513684260856325,-2.4066540201702935,1.2707883737405394
-0.007349578426085633,-2.4029557953177094,1.2744957247215736
-0.007347788426085633,-2.3992575704651276,1.2707883737405377
-0.007345998426085633,-2.39186112075996,1.2744957247215754
-0.007344208426085633,-2.3807664462022085,1.2744957247215754
-0.007342418426085634,-2.369671771644457,1.2744957247215754
-0.007340628426085632,-2.3659735467918632,1.2707883737405377
-0.007338838426085632,-2.3548788722341185,1.2707883737405377
-0.007337048426085633,-2.347482422528951,1.2707883737405359
-0.007335258426085633,-2.340085972823783,1.2670810227595017
-0.007333468426085633,-2.3326895231186193,1.2707883737405377
-0.007331678426085633,-2.3289912982660352,1.2707883737405377
-0.0073298884260856335,-2.3252930734134516,1.2707883737405377
-0.007328098426085634,-2.317896623708284,1.2670810227595
-0.007326308426085632,-2.3141983988556967,1.2707883737405377
-0.007324518426085632,-2.3068019491505276,1.2707883737405359
-0.007322728426085633,-2.2957072745927776,1.2670810227595017
-0.007320938426085633,-2.2883108248876134,1.2707883737405359
-0.007319148426085633,-2.2883108248876134,1.2670810227595
-0.007317358426085633,-2.280914375182446,1.2670810227595
-0.0073155684260856335,-2.2698197006246947,1.2707883737405377
-0.007313778426085634,-2.262423250919527,1.2744957247215754
-0.007311988426085632,-2.2624232509195235,1.2707883737405377
-0.0073101984260856324,-2.2550268012143544,1.2707883737405359
-0.007308408426085633,-2.243932126656606,1.2670810227595017
-0.007306618426085633,-2.2402339018040225,1.2707883737405359
-0.007304828426085633,-2.2365356769514406,1.2670810227595
-0.007303038426085633,-2.221742777541105,1.2633736717784623
-0.0073012484260856336,-2.221742777541105,1.2670810227595
-0.007299458426085634,-2.214346327835941,1.2707883737405359
-0.007297668426085632,-2.203251653278188,1.2707883737405377
-0.0072958784260856325,-2.2069498781307635,1.2707883737405377
-0.007294088426085633,-2.1921569787204347,1.2707883737405359
-0.007292298426085633,-2.192156978720431,1.2670810227595017
-0.007290508426085633,-2.1847605290152674,1.2707883737405377
-0.007288718426085633,-2.1847605290152674,1.2670810227595
-0.007286928426085634,-2.173665854457516,1.2670810227595
-0.007285138426085632,-2.1662694047523448,1.2707883737405377
-0.007283348426085632,-2.162571179899764,1.2707883737405394
-0.0072815584260856325,-2.1625711798997607,1.2744957247215771
-0.007279768426085633,-2.1551747301945934,1.2782030757026113
-0.007277978426085633,-2.147778280489429,1.2744957247215754
-0.007276188426085633,-2.147778280489429,1.2744957247215754
-0.007274398426085633,-2.136683605931678,1.2707883737405377
-0.007272608426085634,-2.12928715622651,1.2670810227595
-0.007270818426085632,-2.1218907065213393,1.2633736717784623
-0.007269028426085632,-2.118192481668757,1.263373671778464
-0.007267238426085633,-2.11449425681617,1.2670810227595
-0.007265448426085633,-2.103399582258419,1.2670810227595
-0.007263658426085633,-2.0923049077006723,1.2670810227595
-0.007261868426085633,-2.0923049077006723,1.2707883737405377
-0.0072600784260856335,-2.0849084579955046,1.2670810227595
-0.007258288426085634,-2.081210233142921,1.2707883737405377
-0.007256498426085632,-2.0775120082903333,1.2670810227595
-0.007254708426085632,-2.070115558585168,1.2670810227595
-0.007252918426085633,-2.066417333732582,1.2670810227595
-0.007251128426085633,-2.0590208840274165,1.2670810227595017
-0.007249338426085633,-2.055322659174834,1.2707883737405377
-0.007247548426085633,-2.0479262094696664,1.2707883737405377
-0.0072457584260856335,-2.0442279846170828,1.2707883737405377
-0.007243968426085634,-2.036831534911915,1.2819104266836507
-0.007242178426085632,-2.0368315349119115,1.2744957247215754
-0.0072403884260856324,-2.029435085206743,1.274495724721572
-0.007238598426085633,-2.0183404106489946,1.2670810227595017
-0.007236808426085633,-2.0146421857964105,1.2707883737405359
-0.007235018426085633,-2.0109439609438287,1.2670810227595
-0.007233228426085633,-2.003547511238661,1.2670810227595
-0.0072314384260856335,-1.9961510615334932,1.2633736717784623
-0.007229648426085634,-1.9887546118283257,1.2670810227595
-0.007227858426085632,-1.9887546118283224,1.2670810227595017
-0.0072260684260856325,-1.9813581621231562,1.2707883737405377
-0.007224278426085633,-1.9776599372705725,1.2707883737405377
-0.007222488426085633,-1.9739617124179871,1.2707883737405377
-0.007220698426085633,-1.9665652627128227,1.2707883737405377
-0.007218908426085633,-1.962867037860239,1.2819104266836507
-0.007217118426085634,-1.9591688130076552,1.2744957247215754
-0.007215328426085632,-1.9554705881550714,1.270788373740541
-0.007213538426085632,-1.955470588155068,1.2744957247215736
-0.0072117484260856325,-1.9480741384499005,1.2707883737405359
-0.007209958426085633,-1.9406776887447343,1.2670810227595033
-0.007208168426085633,-1.9369794638921525,1.2744957247215754
-0.007206378426085633,-1.9332812390395686,1.2707883737405377
-0.007204588426085633,-1.9184883396292334,1.2707883737405377
-0.007202798426085634,-1.9110918899240659,1.2707883737405377
-0.007201008426085632,-1.9073936650714787,1.2670810227595033
-0.007199218426085632,-1.9036954402188981,1.2707883737405359
-0.0071974284260856326,-1.9036954402188948,1.2670810227595
-0.007195638426085633,-1.8962989905137255,1.2670810227595
-0.007193848426085633,-1.8852043159559793,1.2670810227595
-0.007192058426085633,-1.8815060911033954,1.2707883737405377
-0.0071902684260856334,-1.8778078662508115,1.2670810227595
-0.007188478426085634,-1.8741096413982279,1.2670810227595
-0.007186688426085632,-1.866713191693062,1.2670810227594982
-0.007184898426085632,-1.8704114165456407,1.2633736717784656
-0.007183108426085633,-1.8630149668404732,1.2707883737405377
-0.007181318426085633,-1.8556185171353037,1.270788373740541
-0.007179528426085633,-1.8445238425775574,1.278203075702613
-0.007177738426085633,-1.8260327183146385,1.2744957247215754
-0.0071759484260856335,-1.814938043756887,1.2707883737405377
-0.007174158426085634,-1.8112398189043033,1.2707883737405377
-0.007172368426085632,-1.803843369199139,1.2670810227594982
