200Hz/acq0009.csv

#Digilent WaveForms Oscilloscope Acquisition
#Device Name: Discovery2
#Serial Number: SN:210321AA28BE
#Date Time: 2023-05-24 14:48:04.236
#Sample rate: 558659Hz
#Samples: 8192
#Trigger: Source: Channel 1 Type: Edge Condition: Rising Level: 800 mV Hyst.: Auto HoldOff: 100 ns
#Channel 1: Range: 1 V/div Offset: 0 V Attenuation: 1 X Sample Mode: Average
#Channel 2: Range: 1 V/div Offset: 0 V Attenuation: 1 X Sample Mode: Average

Time (s),Channel 1 (V),Channel 2 (V)
-0.007742671493842113,0.05266550679793163,-1.320649962004811
-0.007740881493842113,0.056363731650513754,-1.3169426110237752
-0.007739091493842112,0.05266550679793163,-1.320649962004811
-0.007737301493842112,0.048967281945347836,-1.320649962004811
-0.007735511493842113,0.05266550679793163,-1.3169426110237734
-0.007733721493842112,0.048967281945349515,-1.320649962004811
-0.007731931493842112,0.05266550679793163,-1.320649962004811
-0.0077301414938421124,0.045269057092764034,-1.3169426110237734
-0.007728351493842113,0.048967281945347836,-1.3132352600427357
-0.007726561493842112,0.045269057092764034,-1.3132352600427357
-0.007724771493842112,0.048967281945347836,-1.3132352600427357
-0.0077229814938421125,0.048967281945347836,-1.3169426110237734
-0.007721191493842113,0.048967281945347836,-1.320649962004811
-0.007719401493842112,0.048967281945347836,-1.320649962004811
-0.007717611493842112,0.045269057092764034,-1.320649962004811
-0.0077158214938421125,0.048967281945347836,-1.3169426110237734
-0.007714031493842113,0.045269057092764034,-1.3169426110237734
-0.007712241493842112,0.04157083224018024,-1.3169426110237734
-0.007710451493842112,0.045269057092764034,-1.320649962004811
-0.0077086614938421125,0.04157083224018024,-1.3132352600427357
-0.007706871493842113,0.045269057092764034,-1.320649962004811
-0.007705081493842112,0.04157083224018024,-1.3169426110237734
-0.007703291493842112,0.045269057092764034,-1.3169426110237734
-0.0077015014938421125,0.048967281945347836,-1.320649962004811
-0.007699711493842113,0.045269057092764034,-1.320649962004811
-0.007697921493842112,0.04157083224018024,-1.3169426110237734
-0.007696131493842112,0.04157083224018024,-1.320649962004811
-0.0076943414938421125,0.045269057092764034,-1.320649962004811
-0.007692551493842113,0.04157083224018024,-1.320649962004811
-0.007690761493842112,0.04157083224018024,-1.320649962004811
-0.007688971493842112,0.04157083224018024,-1.320649962004811
-0.0076871814938421126,0.04157083224018024,-1.3169426110237734
-0.007685391493842113,0.04157083224018024,-1.3169426110237734
-0.007683601493842112,0.04157083224018024,-1.320649962004811
-0.007681811493842112,0.045269057092764034,-1.3132352600427357
-0.007680021493842113,0.04157083224018024,-1.3169426110237734
-0.007678231493842113,0.04157083224018024,-1.320649962004811
-0.007676441493842112,0.04157083224018024,-1.3169426110237734
-0.007674651493842112,0.045269057092764034,-1.3169426110237734
-0.007672861493842113,0.034174382535012635,-1.320649962004811
-0.007671071493842113,0.04157083224017687,-1.320649962004811
-0.007669281493842112,0.03787260738759644,-1.3169426110237734
-0.007667491493842112,0.034174382535012635,-1.320649962004811
-0.007665701493842113,0.03787260738759644,-1.3169426110237734
-0.007663911493842112,0.034174382535014314,-1.3169426110237752
-0.007662121493842112,0.03787260738759644,-1.320649962004811
-0.007660331493842112,0.03047615768242884,-1.320649962004811
-0.007658541493842113,0.03787260738759644,-1.3132352600427357
-0.007656751493842112,0.04157083224018024,-1.3169426110237734
-0.007654961493842112,0.04157083224018024,-1.3169426110237734
-0.0076531714938421124,0.04157083224018024,-1.3132352600427357
-0.007651381493842113,0.03787260738759644,-1.3169426110237734
-0.007649591493842112,0.04157083224018024,-1.3169426110237734
-0.007647801493842112,0.034174382535012635,-1.3132352600427357
-0.0076460114938421125,0.03047615768242884,-1.3132352600427357
-0.007644221493842113,0.03787260738759644,-1.3169426110237734
-0.007642431493842112,0.03787260738759644,-1.3169426110237734
-0.007640641493842112,0.034174382535012635,-1.320649962004811
-0.0076388514938421125,0.026777932829845037,-1.320649962004811
-0.007637061493842113,0.034174382535012635,-1.3169426110237734
-0.007635271493842112,0.034174382535012635,-1.3169426110237734
-0.007633481493842112,0.034174382535012635,-1.3169426110237734
-0.0076316914938421125,0.034174382535012635,-1.3169426110237734
-0.007629901493842113,0.026777932829845037,-1.3169426110237734
-0.007628111493842112,0.03047615768242884,-1.3169426110237734
-0.007626321493842112,0.03047615768242884,-1.320649962004811
-0.0076245314938421125,0.026777932829845037,-1.3132352600427357
-0.007622741493842113,0.03047615768242884,-1.3132352600427357
-0.007620951493842112,0.03047615768242884,-1.309527909061698
-0.007619161493842112,0.034174382535012635,-1.3132352600427357
-0.0076173714938421126,0.034174382535012635,-1.3132352600427357
-0.007615581493842113,0.03047615768242884,-1.3243573129858488
-0.007613791493842112,0.034174382535012635,-1.3243573129858488
-0.007612001493842112,0.034174382535012635,-1.3243573129858488
-0.007610211493842113,0.03047615768242884,-1.320649962004811
-0.007608421493842113,0.026777932829845037,-1.3169426110237734
-0.007606631493842112,0.026777932829845037,-1.3169426110237734
-0.007604841493842112,0.034174382535012635,-1.3169426110237734
-0.007603051493842113,0.034174382535012635,-1.3169426110237734
-0.007601261493842113,0.026777932829845037,-1.3169426110237734
-0.007599471493842112,0.026777932829845037,-1.3169426110237734
-0.007597681493842112,0.03047615768242884,-1.3169426110237734
-0.007595891493842113,0.026777932829845037,-1.3169426110237734
-0.007594101493842113,0.02307970797726292,-1.3169426110237734
-0.007592311493842112,0.01938148312467744,-1.3169426110237734
-0.007590521493842112,0.02307970797726124,-1.320649962004811
-0.007588731493842113,0.026777932829845037,-1.3132352600427357
-0.007586941493842112,0.026777932829845037,-1.320649962004811
-0.007585151493842112,0.026777932829845037,-1.320649962004811
-0.0075833614938421124,0.026777932829845037,-1.320649962004811
-0.007581571493842113,0.02307970797726124,-1.320649962004811
-0.007579781493842112,0.01938148312467744,-1.3169426110237734
-0.007577991493842112,0.02307970797726124,-1.3169426110237734
-0.0075762014938421125,0.02307970797726124,-1.3169426110237734
-0.007574411493842113,0.026777932829845037,-1.3169426110237734
-0.007572621493842112,0.02307970797726124,-1.3169426110237734
-0.007570831493842112,0.02307970797726124,-1.320649962004811
-0.0075690414938421125,0.02307970797726124,-1.3169426110237734
-0.007567251493842113,0.026777932829845037,-1.3169426110237734
-0.007565461493842112,0.02307970797726124,-1.320649962004811
-0.007563671493842112,0.026777932829845037,-1.3169426110237734
-0.0075618814938421125,0.02307970797726124,-1.3169426110237734
-0.007560091493842113,0.015683258272093638,-1.3169426110237734
-0.007558301493842112,0.015683258272093638,-1.3243573129858488
-0.007556511493842112,0.02307970797726124,-1.3169426110237734
-0.0075547214938421125,0.01938148312467744,-1.3169426110237734
-0.007552931493842113,0.01938148312467744,-1.320649962004811
-0.007551141493842112,0.02307970797726124,-1.3169426110237734
-0.007549351493842112,0.01938148312467744,-1.320649962004811
-0.0075475614938421125,0.02307970797726124,-1.320649962004811
-0.007545771493842113,0.01938148312467744,-1.320649962004811
-0.007543981493842112,0.015683258272093638,-1.3169426110237734
-0.007542191493842112,0.01938148312467744,-1.3169426110237734
-0.0075404014938421126,0.02307970797726124,-1.3169426110237734
-0.007538611493842113,0.02307970797726124,-1.320649962004811
-0.007536821493842112,0.02307970797726124,-1.3169426110237734
-0.007535031493842112,0.015683258272093638,-1.3169426110237734
-0.007533241493842113,0.01938148312467744,-1.3169426110237734
-0.007531451493842113,0.01938148312467744,-1.320649962004811
-0.007529661493842112,0.01938148312467744,-1.320649962004811
-0.007527871493842112,0.015683258272093638,-1.3169426110237734
-0.007526081493842113,0.01938148312467744,-1.320649962004811
-0.007524291493842113,0.011985033419513203,-1.320649962004811
-0.007522501493842112,0.01938148312467744,-1.3169426110237734
-0.007520711493842112,0.01198503341950984,-1.3169426110237734
-0.007518921493842113,0.01198503341950984,-1.320649962004811
-0.007517131493842113,0.01198503341950984,-1.3169426110237752
-0.007515341493842112,0.00828680856692604,-1.320649962004811
-0.007513551493842112,0.01938148312467744,-1.3169426110237734
-0.007511761493842113,0.015683258272093638,-1.320649962004811
-0.007509971493842112,0.015683258272093638,-1.3243573129858488
-0.007508181493842112,0.015683258272093638,-1.3243573129858488
-0.0075063914938421124,0.01198503341950984,-1.3169426110237734
-0.007504601493842113,0.015683258272093638,-1.3169426110237734
-0.007502811493842112,0.015683258272093638,-1.3169426110237734
-0.007501021493842112,-0.9643463276626133,-0.41976367361265127
-0.0074992314938421125,-3.1721865646551417,1.3338133404181785
-0.007497441493842113,-3.1536954403922226,1.3301059894371408
-0.007495651493842112,-3.1426007658344712,1.326398638456103
-0.007493861493842112,-3.1389025409818876,1.326398638456103
-0.0074920714938421125,-3.127807866424136,1.326398638456103
-0.007490281493842113,-3.1204114167189685,1.326398638456103
-0.007488491493842112,-3.1130149670138008,1.3226912874750654
-0.007486701493842112,-3.1056185173086335,1.3226912874750654
-0.0074849114938421125,-3.0982220676034657,1.3226912874750654
-0.007483121493842113,-3.0871273930457144,1.326398638456103
-0.007481331493842112,-3.0686362687827953,1.3226912874750654
-0.007479541493842112,-3.057541594225044,1.3189839364940277
-0.0074777514938421125,-3.042748694814709,1.31527658551299
-0.007475961493842113,-3.0279557954043734,1.31527658551299
-0.007474171493842112,-3.0094646711414543,1.31527658551299
-0.007472381493842112,-2.998369996583703,1.304154532569877
-0.0074705914938421126,-2.9946717717311193,1.3078618835509146
-0.007468801493842113,-2.983577097173368,1.3004471815888392
-0.007467011493842112,-2.9724824226156166,1.3078618835509146
-0.007465221493842112,-2.961387748057865,1.3078618835509146
-0.007463431493842113,-2.9465948486475297,1.3004471815888392
-0.007461641493842113,-2.9355001740897784,1.3004471815888392
-0.007459851493842112,-2.924405499532027,1.2967398306078015
-0.007458061493842112,-2.9133108249742756,1.304154532569877
-0.007456271493842113,-2.9022161504165243,1.3004471815888392
-0.007454481493842113,-2.8948197007113565,1.3004471815888392
-0.007452691493842112,-2.8800268013010215,1.3004471815888392
-0.007450901493842112,-2.8652339018906865,1.2967398306078015
-0.007449111493842113,-2.854139227332935,1.2930324796267638
-0.007447321493842113,-2.8430445527751886,1.2930324796267638
-0.007445531493842112,-2.831949878217432,1.2893251286457261
-0.007443741493842112,-2.8134587539545133,1.2893251286457261
-0.007441951493842113,-2.8060623042493456,1.2856177776646884
-0.007440161493842112,-2.7949676296915924,1.2856177776646884
-0.007438371493842112,-2.7912694048390105,1.2856177776646884
-0.0074365814938421124,-2.7801747302812587,1.2856177776646884
-0.007434791493842113,-2.7727782805760914,1.2819104266836507
-0.007433001493842112,-2.76168360601834,1.278203075702613
-0.007431211493842112,-2.7468907066080046,1.278203075702613
-0.0074294214938421125,-2.743192481755421,1.2819104266836507
-0.007427631493842113,-2.7357960320502532,1.2819104266836507
-0.007425841493842112,-2.724701357492502,1.278203075702613
-0.007424051493842112,-2.7136066829347505,1.2819104266836507
-0.0074222614938421125,-2.702512008376999,1.2856177776646884
-0.007420471493842113,-2.6951155586718314,1.2856177776646884
-0.007418681493842112,-2.687719108966664,1.2819104266836507
-0.007416891493842112,-2.6803226592614964,1.2819104266836507
-0.0074151014938421125,-2.6655297598511614,1.2744957247215754
-0.007413311493842113,-2.650736860440826,1.2744957247215754
-0.007411521493842112,-2.635943961030491,1.2744957247215754
-0.007409731493842112,-2.632245736177907,1.2707883737405377
-0.0074079414938421125,-2.628547511325323,1.2707883737405377
-0.007406151493842113,-2.6211510616201554,1.2707883737405377
-0.007404361493842112,-2.613754611914988,1.2707883737405377
-0.007402571493842112,-2.6026599373572368,1.2707883737405377
-0.0074007814938421125,-2.595263487652069,1.2707883737405377
-0.007398991493842113,-2.591565262799485,1.2707883737405377
-0.007397201493842112,-2.5878670379469013,1.2707883737405377
-0.007395411493842112,-2.57677236338915,1.2744957247215754
-0.0073936214938421126,-2.5656776888313986,1.278203075702613
-0.007391831493842113,-2.554583014273647,1.2744957247215754
-0.007390041493842112,-2.543488339715896,1.2744957247215754
-0.007388251493842112,-2.543488339715896,1.2819104266836507
-0.007386461493842113,-2.5323936651581445,1.278203075702613
-0.007384671493842113,-2.5286954403055604,1.2744957247215754
-0.007382881493842112,-2.517600765747809,1.2744957247215754
-0.007381091493842112,-2.5065060911900576,1.2744957247215754
-0.007379301493842113,-2.4917131917797226,1.2670810227595
-0.007377511493842113,-2.4917131917797226,1.2707883737405377
-0.007375721493842112,-2.488014966927139,1.2670810227595
-0.007373931493842112,-2.4732220675168035,1.2670810227595
-0.007372141493842113,-2.465825617811636,1.2707883737405377
-0.007370351493842113,-2.465825617811636,1.2707883737405377
-0.007368561493842112,-2.4547309432538844,1.2670810227595
-0.007366771493842112,-2.4510327184013008,1.2670810227595
-0.007364981493842113,-2.443636268696133,1.2670810227595
-0.007363191493842112,-2.4399380438435427,1.2670810227595017
-0.007361401493842112,-2.4251451444332144,1.2707883737405377
-0.0073596114938421124,-2.4214469195806303,1.2670810227595
-0.007357821493842113,-2.410352245022879,1.2707883737405377
-0.007356031493842112,-2.3992575704651276,1.2670810227595
-0.007354241493842112,-2.402955795317711,1.2707883737405377
-0.0073524514938421125,-2.395559345612544,1.2707883737405377
-0.007350661493842113,-2.388162895907376,1.2707883737405377
-0.007348871493842112,-2.3807664462022085,1.2670810227595
-0.007347081493842112,-2.369671771644457,1.2670810227595
-0.0073452914938421125,-2.3659735467918734,1.2633736717784623
-0.007343501493842113,-2.354878872234122,1.2633736717784623
-0.007341711493842112,-2.3474824225289543,1.2633736717784623
-0.007339921493842112,-2.3437841976763707,1.2670810227595
-0.0073381314938421125,-2.336387747971203,1.2670810227595
-0.007336341493842113,-2.3252930734134516,1.2707883737405377
-0.007334551493842112,-2.317896623708284,1.2707883737405377
-0.007332761493842112,-2.317896623708284,1.2670810227595
-0.0073309714938421125,-2.3141983988557002,1.2707883737405377
-0.007329181493842113,-2.3068019491505325,1.2707883737405377
-0.007327391493842112,-2.303103724297949,1.2744957247215754
-0.007325601493842112,-2.2920090497401975,1.2744957247215754
-0.0073238114938421126,-2.2883108248876134,1.278203075702613
-0.007322021493842113,-2.280914375182446,1.2744957247215754
-0.007320231493842112,-2.2735179254772784,1.2744957247215754
-0.007318441493842112,-2.2698197006246947,1.2744957247215754
-0.007316651493842113,-2.262423250919527,1.2670810227595
-0.007314861493842113,-2.262423250919527,1.2707883737405377
-0.007313071493842112,-2.247630351509192,1.2670810227595
-0.007311281493842112,-2.2365356769514406,1.2670810227595
-0.007309491493842113,-2.229139227246273,1.2670810227595
-0.007307701493842113,-2.2180445526885215,1.2670810227595
-0.007305911493842112,-2.221742777541105,1.2707883737405377
-0.007304121493842112,-2.210648102983354,1.2707883737405377
-0.007302331493842113,-2.20694987813077,1.2670810227595
-0.007300541493842113,-2.203251653278188,1.2707883737405359
-0.007298751493842112,-2.1958552035730188,1.2670810227595
-0.007296961493842112,-2.1921569787204347,1.2707883737405377
-0.007295171493842113,-2.1847605290152674,1.2707883737405377
-0.007293381493842112,-2.1847605290152625,1.2707883737405343
-0.007291591493842112,-2.173665854457516,1.2633736717784623
-0.0072898014938421124,-2.1662694047523483,1.2670810227595
-0.007288011493842113,-2.162571179899764,1.2707883737405377
-0.007286221493842112,-2.1588729550471757,1.2670810227595017
-0.007284431493842112,-2.147778280489429,1.2707883737405377
-0.0072826414938421125,-2.147778280489429,1.2744957247215754
-0.007280851493842113,-2.136683605931678,1.2633736717784623
-0.007279061493842112,-2.12928715622651,1.2633736717784623
-0.007277271493842112,-2.12928715622651,1.2670810227595
-0.0072754814938421125,-2.1181924816687587,1.2670810227595
-0.007273691493842113,-2.114494256816175,1.2707883737405377
-0.007271901493842112,-2.1033995822584237,1.2707883737405377
-0.007270111493842112,-2.0997013574058396,1.2670810227595
-0.0072683214938421125,-2.0923049077006723,1.2744957247215754
-0.007266531493842113,-2.0886066828480883,1.2744957247215754
-0.007264741493842112,-2.0849084579955046,1.2707883737405377
-0.007262951493842112,-2.0849084579955046,1.2670810227595
-0.0072611614938421125,-2.081210233142921,1.2670810227595
-0.007259371493842113,-2.0664173337325855,1.2707883737405377
-0.007257581493842112,-2.062719108880002,1.2744957247215754
-0.007255791493842112,-2.062719108880002,1.2744957247215754
-0.0072540014938421125,-2.0590208840274182,1.278203075702613
-0.007252211493842113,-2.0516244343222505,1.2744957247215754
-0.007250421493842112,-2.0442279846170828,1.2707883737405377
-0.007248631493842112,-2.036831534911915,1.2707883737405377
-0.0072468414938421126,-2.0294350852067478,1.2707883737405377
-0.007245051493842113,-2.02203863550158,1.2707883737405377
-0.007243261493842112,-2.0146421857964123,1.2633736717784623
-0.007241471493842112,-2.003547511238661,1.2633736717784623
-0.007239681493842113,-1.999849286386077,1.2633736717784623
-0.007237891493842113,-1.9961510615334932,1.2707883737405377
-0.007236101493842112,-1.9924528366809093,1.2670810227595
-0.007234311493842112,-1.9887546118283257,1.2670810227595
-0.007232521493842113,-1.9776599372705743,1.2707883737405377
-0.007230731493842113,-1.9776599372705743,1.2670810227595
-0.007228941493842112,-1.9776599372705743,1.2670810227595
-0.007227151493842112,-1.9702634875654066,1.2707883737405377
-0.007225361493842113,-1.9702634875654066,1.2707883737405377
-0.007223571493842113,-1.9591688130076603,1.2707883737405377
-0.007221781493842112,-1.9554705881550714,1.2707883737405377
-0.007219991493842112,-1.9517723633024877,1.2707883737405377
-0.007218201493842113,-1.9406776887447361,1.2670810227595
-0.007216411493842112,-1.9443759135973149,1.2707883737405377
-0.007214621493842112,-1.9332812390395686,1.2707883737405377
-0.0072128314938421124,-1.925884789334401,1.2670810227595
-0.007211041493842113,-1.9184883396292334,1.2707883737405377
-0.007209251493842112,-1.9184883396292334,1.2670810227595
-0.007207461493842112,-1.9036954402188981,1.2670810227595
-0.0072056714938421125,-1.907393665071482,1.2670810227595
-0.007203881493842113,-1.907393665071482,1.2670810227595
-0.007202091493842112,-1.8999972153663145,1.2670810227595
-0.007200301493842112,-1.8962989905137306,1.2670810227595
-0.0071985114938421125,-1.8889025408085631,1.2670810227595
-0.007196721493842113,-1.8778078662508115,1.2707883737405377
-0.007194931493842112,-1.8778078662508115,1.2744957247215754
-0.007193141493842112,-1.8741096413982279,1.2707883737405377
-0.0071913514938421125,-1.870411416545644,1.2670810227595
-0.007189561493842113,-1.8630149668404765,1.2744957247215754
-0.007187771493842112,-1.8630149668404765,1.2744957247215754
-0.007185981493842112,-1.8556185171353088,1.2707883737405377
-0.0071841914938421125,-1.8482220674301413,1.2744957247215754
-0.007182401493842113,-1.8482220674301413,1.2707883737405377
-0.007180611493842112,-1.833429168019806,1.2707883737405377
-0.007178821493842112,-1.8260327183146385,1.2670810227595
-0.0071770314938421126,-1.8260327183146385,1.2670810227595
-0.007175241493842113,-1.8186362686094708,1.2670810227595
-0.007173451493842112,-1.8112398189043033,1.2670810227595
-0.007171661493842112,-1.8075415940517194,1.2670810227595
