200Hz/acq0095.csv

#Digilent WaveForms Oscilloscope Acquisition
#Device Name: Discovery2
#Serial Number: SN:210321AA28BE
#Date Time: 2023-05-24 14:48:06.615
#Sample rate: 558659Hz
#Samples: 8192
#Trigger: Source: Channel 1 Type: Edge Condition: Rising Level: 800 mV Hyst.: Auto HoldOff: 100 ns
#Channel 1: Range: 1 V/div Offset: 0 V Attenuation: 1 X Sample Mode: Average
#Channel 2: Range: 1 V/div Offset: 0 V Attenuation: 1 X Sample Mode: Average

Time (s),Channel 1 (V),Channel 2 (V)
-0.007741697984557535,0.034174382535012635,-1.320649962004811
-0.007739907984557535,0.03787260738759476,-1.3169426110237752
-0.0077381179845575345,0.04157083224018024,-1.320649962004811
-0.007736327984557535,0.04157083224018024,-1.3169426110237734
-0.007734537984557535,0.04157083224018024,-1.3132352600427357
-0.007732747984557534,0.04157083224018024,-1.3169426110237752
-0.0077309579845575346,0.04157083224018024,-1.320649962004811
-0.007729167984557535,0.03047615768242884,-1.320649962004811
-0.007727377984557535,0.034174382535012635,-1.3132352600427357
-0.007725587984557534,0.034174382535012635,-1.3169426110237734
-0.007723797984557535,0.034174382535012635,-1.3132352600427357
-0.007722007984557535,0.034174382535012635,-1.3132352600427357
-0.007720217984557535,0.034174382535012635,-1.3169426110237734
-0.007718427984557534,0.03787260738759644,-1.3132352600427357
-0.007716637984557535,0.03047615768242884,-1.3132352600427357
-0.007714847984557535,0.03047615768242884,-1.3169426110237734
-0.007713057984557535,0.034174382535012635,-1.3132352600427357
-0.007711267984557534,0.034174382535012635,-1.3169426110237734
-0.007709477984557535,0.03047615768242884,-1.3169426110237734
-0.007707687984557535,0.034174382535012635,-1.3132352600427357
-0.007705897984557535,0.03047615768242884,-1.3132352600427357
-0.007704107984557534,0.03787260738759644,-1.3169426110237734
-0.007702317984557535,0.034174382535012635,-1.3132352600427357
-0.007700527984557535,0.03047615768242884,-1.3169426110237734
-0.007698737984557535,0.034174382535012635,-1.3169426110237734
-0.0076969479845575344,0.03047615768242884,-1.3132352600427357
-0.007695157984557535,0.026777932829845037,-1.3169426110237734
-0.007693367984557535,0.03047615768242884,-1.3169426110237734
-0.007691577984557535,0.03047615768242884,-1.3169426110237734
-0.0076897879845575345,0.03047615768242884,-1.3132352600427357
-0.007687997984557535,0.03047615768242884,-1.3169426110237734
-0.007686207984557535,0.026777932829845037,-1.320649962004811
-0.007684417984557535,0.03047615768242884,-1.3243573129858488
-0.0076826279845575345,0.03047615768242884,-1.320649962004811
-0.007680837984557535,0.02307970797726124,-1.320649962004811
-0.007679047984557535,0.01938148312467744,-1.3169426110237734
-0.007677257984557535,0.02307970797726124,-1.3169426110237734
-0.0076754679845575345,0.026777932829845037,-1.3132352600427357
-0.007673677984557535,0.02307970797726124,-1.3169426110237734
-0.007671887984557535,0.02307970797726124,-1.320649962004811
-0.007670097984557535,0.019381483124679123,-1.3169426110237752
-0.0076683079845575345,0.02307970797726124,-1.3132352600427357
-0.007666517984557535,0.02307970797726124,-1.320649962004811
-0.007664727984557535,0.026777932829845037,-1.320649962004811
-0.007662937984557534,0.026777932829843355,-1.3169426110237734
-0.0076611479845575346,0.02307970797726124,-1.3169426110237734
-0.007659357984557535,0.02307970797726124,-1.309527909061698
-0.007657567984557535,0.026777932829845037,-1.3132352600427357
-0.007655777984557534,0.01938148312467744,-1.3132352600427357
-0.007653987984557535,0.01938148312467744,-1.3132352600427357
-0.007652197984557535,0.01938148312467744,-1.3132352600427357
-0.007650407984557535,0.01938148312467744,-1.320649962004811
-0.007648617984557534,0.02307970797726124,-1.320649962004811
-0.007646827984557535,0.01938148312467744,-1.320649962004811
-0.007645037984557535,0.01938148312467744,-1.320649962004811
-0.007643247984557535,0.015683258272093638,-1.3169426110237734
-0.007641457984557534,0.015683258272093638,-1.3169426110237734
-0.007639667984557535,0.015683258272093638,-1.3169426110237734
-0.007637877984557535,0.01938148312467744,-1.320649962004811
-0.007636087984557535,0.02307970797726124,-1.3169426110237734
-0.007634297984557534,0.02307970797726124,-1.3169426110237734
-0.007632507984557535,0.015683258272093638,-1.3169426110237734
-0.007630717984557535,0.015683258272093638,-1.3169426110237734
-0.007628927984557535,0.02307970797726124,-1.3169426110237734
-0.0076271379845575344,0.01938148312467744,-1.3169426110237734
-0.007625347984557535,0.015683258272093638,-1.320649962004811
-0.007623557984557535,0.01938148312467744,-1.3243573129858488
-0.007621767984557535,0.01938148312467744,-1.320649962004811
-0.0076199779845575345,0.01938148312467744,-1.3169426110237734
-0.007618187984557535,0.015683258272093638,-1.3132352600427357
-0.007616397984557535,0.015683258272093638,-1.3169426110237734
-0.007614607984557535,0.015683258272093638,-1.3169426110237734
-0.0076128179845575345,0.015683258272093638,-1.3132352600427357
-0.007611027984557535,0.01198503341950984,-1.3132352600427357
-0.007609237984557535,0.01198503341950984,-1.320649962004811
-0.007607447984557535,0.01198503341950984,-1.3169426110237734
-0.0076056579845575345,0.01198503341950984,-1.320649962004811
-0.007603867984557535,0.00458858371434224,-1.3169426110237734
-0.007602077984557535,0.01198503341950984,-1.320649962004811
-0.007600287984557535,0.01198503341950984,-1.320649962004811
-0.0075984979845575345,0.00828680856692604,-1.3169426110237734
-0.007596707984557535,0.01198503341950984,-1.3169426110237734
-0.007594917984557535,0.01198503341950984,-1.320649962004811
-0.007593127984557535,0.008286808566927723,-1.3169426110237752
-0.0075913379845575345,0.00828680856692604,-1.3132352600427357
-0.007589547984557535,0.00458858371434224,-1.320649962004811
-0.007587757984557535,0.00458858371434224,-1.3169426110237734
-0.007585967984557534,0.00828680856692604,-1.3169426110237734
-0.0075841779845575346,0.00828680856692604,-1.3169426110237734
-0.007582387984557535,0.00458858371434224,-1.320649962004811
-0.007580597984557535,0.01198503341950984,-1.320649962004811
-0.007578807984557534,0.00458858371434224,-1.3169426110237734
-0.007577017984557535,0.00828680856692604,-1.3132352600427357
-0.007575227984557535,0.00458858371434224,-1.3169426110237734
-0.007573437984557535,0.00828680856692604,-1.320649962004811
-0.007571647984557534,0.00828680856692604,-1.3169426110237734
-0.007569857984557535,0.00458858371434224,-1.3169426110237734
-0.007568067984557535,0.00828680856692604,-1.3169426110237734
-0.007566277984557535,0.00458858371434224,-1.3169426110237734
-0.007564487984557534,0.00828680856692604,-1.320649962004811
-0.007562697984557535,0.00828680856692604,-1.3169426110237734
-0.007560907984557535,0.00458858371434224,-1.320649962004811
-0.007559117984557535,0.00458858371434224,-1.320649962004811
-0.007557327984557534,-0.002807865990825359,-1.3169426110237734
-0.007555537984557535,0.0008903588617584406,-1.3169426110237734
-0.007553747984557535,-0.002807865990825359,-1.3132352600427357
-0.007551957984557535,0.0008903588617584406,-1.3169426110237734
-0.0075501679845575344,0.00458858371434224,-1.3169426110237734
-0.007548377984557535,0.00458858371434224,-1.3169426110237734
-0.007546587984557535,0.00458858371434224,-1.320649962004811
-0.007544797984557535,0.00458858371434224,-1.3169426110237734
-0.0075430079845575345,0.00458858371434224,-1.320649962004811
-0.007541217984557535,0.0008903588617584406,-1.320649962004811
-0.007539427984557535,0.0008903588617584406,-1.320649962004811
-0.007537637984557535,0.0008903588617584406,-1.3169426110237734
-0.0075358479845575345,0.0008903588617584406,-1.3169426110237734
-0.007534057984557535,0.0008903588617584406,-1.3169426110237734
-0.007532267984557535,0.0008903588617584406,-1.3132352600427357
-0.007530477984557535,0.00458858371434224,-1.320649962004811
-0.0075286879845575345,-0.002807865990825359,-1.320649962004811
-0.007526897984557535,0.0008903588617584406,-1.320649962004811
-0.007525107984557535,-0.002807865990825359,-1.3169426110237734
-0.007523317984557535,-0.002807865990825359,-1.3206499620048093
-0.0075215279845575345,-0.002807865990825359,-1.3132352600427357
-0.007519737984557535,-0.002807865990825359,-1.3169426110237734
-0.007517947984557535,-0.002807865990825359,-1.3169426110237734
-0.007516157984557535,-0.002807865990825359,-1.3169426110237734
-0.0075143679845575346,-0.0065060908434091584,-1.320649962004811
-0.007512577984557535,0.0008903588617584406,-1.3169426110237734
-0.007510787984557535,-0.0065060908434091584,-1.3169426110237734
-0.007508997984557534,-0.0065060908434091584,-1.3206499620048093
-0.007507207984557535,-0.0065060908434091584,-1.3169426110237734
-0.007505417984557535,-0.0065060908434091584,-1.320649962004811
-0.007503627984557535,-0.002807865990825359,-1.320649962004811
-0.007501837984557534,0.00458858371434224,-1.3169426110237734
-0.007500047984557535,-2.0849084579955046,0.5070740716467725
-0.007498257984557535,-3.1721865646551417,1.3338133404181785
-0.007496467984557535,-3.1573936652448067,1.3301059894371408
-0.007494677984557534,-3.149997215539639,1.326398638456103
-0.007492887984557535,-3.146298990687055,1.326398638456103
-0.007491097984557535,-3.1352043161293035,1.326398638456103
-0.007489307984557535,-3.127807866424136,1.3226912874750654
-0.007487517984557534,-3.1204114167189685,1.3189839364940277
-0.007485727984557535,-3.1130149670138008,1.3226912874750654
-0.007483937984557535,-3.1019202924560494,1.326398638456103
-0.007482147984557535,-3.094523842750882,1.326398638456103
-0.0074803579845575344,-3.0797309433405466,1.3226912874750654
-0.007478567984557535,-3.072334493635379,1.3189839364940277
-0.007476777984557535,-3.057541594225044,1.3189839364940277
-0.007474987984557535,-3.042748694814709,1.31527658551299
-0.0074731979845575345,-3.0316540202569575,1.31527658551299
-0.007471407984557535,-3.0131628959940384,1.3115692345319523
-0.007469617984557535,-2.998369996583703,1.3078618835509146
-0.007467827984557535,-2.9909735468785357,1.3078618835509146
-0.0074660379845575345,-2.9761806474682,1.3078618835509146
-0.007464247984557535,-2.968784197763033,1.3078618835509146
-0.007462457984557535,-2.9539912983526975,1.304154532569877
-0.007460667984557535,-2.9465948486475297,1.3004471815888392
-0.0074588779845575345,-2.9355001740897784,1.304154532569877
-0.007457087984557535,-2.9207072746794434,1.3004471815888392
-0.007455297984557535,-2.909612600121692,1.3004471815888392
-0.007453507984557535,-2.9022161504165243,1.3004471815888392
-0.0074517179845575345,-2.891121475858773,1.3004471815888392
-0.007449927984557535,-2.8800268013010215,1.2967398306078015
-0.007448137984557535,-2.872630351595854,1.2967398306078015
-0.007446347984557535,-2.86523390189069,1.2967398306078015
-0.0074445579845575345,-2.850441002480351,1.2967398306078015
-0.007442767984557535,-2.835648103070016,1.2930324796267638
-0.007440977984557535,-2.8208552036596806,1.2856177776646884
-0.007439187984557534,-2.8060623042493407,1.2819104266836525
-0.0074373979845575346,-2.794967629691594,1.2856177776646884
-0.007435607984557535,-2.7875711799864265,1.2819104266836507
-0.007433817984557535,-2.783872955133843,1.2744957247215754
-0.007432027984557534,-2.7727782805760914,1.2819104266836507
-0.007430237984557535,-2.757985381165756,1.2856177776646884
-0.007428447984557535,-2.7542871563131723,1.2819104266836507
-0.007426657984557535,-2.7468907066080046,1.278203075702613
-0.007424867984557534,-2.7320978071976696,1.278203075702613
-0.007423077984557535,-2.728399582345086,1.278203075702613
-0.007421287984557535,-2.721003132639918,1.2819104266836507
-0.007419497984557535,-2.7062102332295828,1.278203075702613
-0.007417707984557534,-2.6988137835244155,1.278203075702613
-0.007415917984557535,-2.6914173338192477,1.278203075702613
-0.007414127984557535,-2.687719108966664,1.2819104266836507
-0.007412337984557535,-2.6766244344089127,1.278203075702613
-0.007410547984557534,-2.6618315349985773,1.278203075702613
-0.007408757984557535,-2.6581333101459936,1.2744957247215754
-0.007406967984557535,-2.6470386355882423,1.2819104266836507
-0.007405177984557535,-2.635943961030491,1.2744957247215754
-0.0074033879845575344,-2.628547511325323,1.2744957247215754
-0.007401597984557535,-2.617452836767572,1.2707883737405377
-0.007399807984557535,-2.613754611914988,1.2707883737405377
-0.007398017984557535,-2.6063581622098204,1.2744957247215754
-0.0073962279845575345,-2.595263487652069,1.2707883737405377
-0.007394437984557535,-2.5878670379469013,1.2707883737405377
-0.007392647984557535,-2.5804705882417336,1.2744957247215754
-0.007390857984557535,-2.569375913683982,1.2707883737405377
-0.0073890679845575345,-2.5656776888313986,1.2744957247215754
-0.007387277984557535,-2.558281239126231,1.278203075702613
-0.007385487984557535,-2.5508847894210636,1.2744957247215754
-0.007383697984557535,-2.539790114863312,1.278203075702613
-0.0073819079845575345,-2.539790114863312,1.278203075702613
-0.007380117984557535,-2.536091890010728,1.2707883737405377
-0.007378327984557535,-2.5286954403055604,1.2744957247215754
-0.007376537984557535,-2.5139025408952254,1.2744957247215754
-0.0073747479845575345,-2.5102043160426417,1.2670810227595
-0.007372957984557535,-2.4954114166323063,1.2670810227595
-0.007371167984557535,-2.484316742074555,1.2707883737405377
-0.007369377984557535,-2.480618517221973,1.2744957247215736
-0.0073675879845575346,-2.4732220675168035,1.2670810227595
-0.007365797984557535,-2.46952384266422,1.2744957247215754
-0.007364007984557535,-2.4584291681064685,1.2744957247215754
-0.007362217984557534,-2.4547309432538795,1.2707883737405377
-0.007360427984557535,-2.443636268696133,1.2707883737405377
-0.007358637984557535,-2.4399380438435494,1.2707883737405377
-0.007356847984557535,-2.4325415941383817,1.2744957247215754
-0.007355057984557534,-2.428843369285798,1.2707883737405377
-0.007353267984557535,-2.4177486947280467,1.2707883737405377
-0.007351477984557535,-2.410352245022879,1.2744957247215754
-0.007349687984557535,-2.4066540201702953,1.2744957247215754
-0.007347897984557534,-2.395559345612544,1.278203075702613
-0.007346107984557535,-2.395559345612544,1.278203075702613
-0.007344317984557535,-2.3844646710547925,1.2670810227595
-0.007342527984557535,-2.373369996497041,1.2670810227595
-0.007340737984557534,-2.369671771644457,1.2707883737405377
-0.007338947984557535,-2.36227532193929,1.2670810227595
-0.007337157984557535,-2.354878872234122,1.2670810227595
-0.007335367984557535,-2.3474824225289543,1.2633736717784623
-0.0073335779845575344,-2.3400859728237866,1.2707883737405377
-0.007331787984557535,-2.336387747971203,1.2707883737405377
-0.007329997984557535,-2.336387747971203,1.2707883737405377
-0.007328207984557535,-2.3252930734134516,1.2744957247215754
-0.0073264179845575345,-2.317896623708284,1.2707883737405377
-0.007324627984557535,-2.3068019491505325,1.2707883737405377
-0.007322837984557535,-2.303103724297949,1.2744957247215754
-0.007321047984557535,-2.295707274592781,1.2707883737405377
-0.0073192579845575345,-2.295707274592781,1.278203075702613
-0.007317467984557535,-2.280914375182446,1.2744957247215754
-0.007315677984557535,-2.280914375182446,1.2707883737405377
-0.007313887984557535,-2.280914375182446,1.278203075702613
-0.0073120979845575345,-2.2698197006246947,1.2744957247215754
-0.007310307984557535,-2.262423250919527,1.2707883737405377
-0.007308517984557535,-2.2513285763617756,1.2707883737405377
-0.007306727984557535,-2.243932126656608,1.2744957247215754
-0.0073049379845575345,-2.2402339018040243,1.2744957247215754
-0.007303147984557535,-2.2328374520988565,1.2670810227595
-0.007301357984557535,-2.2328374520988565,1.2670810227595
-0.007299567984557535,-2.218044552688528,1.2670810227595
-0.0072977779845575345,-2.2143463278359374,1.2707883737405377
-0.007295987984557535,-2.2143463278359374,1.2670810227595
-0.007294197984557535,-2.1995534284256024,1.2707883737405377
-0.007292407984557534,-2.195855203573017,1.2707883737405377
-0.0072906179845575346,-2.1921569787204347,1.2707883737405377
-0.007288827984557535,-2.188458753867851,1.2744957247215754
-0.007287037984557535,-2.1810623041626833,1.2744957247215754
-0.007285247984557534,-2.177364079310096,1.2744957247215736
-0.007283457984557535,-2.169967629604932,1.2707883737405377
-0.007281667984557535,-2.169967629604932,1.2744957247215754
-0.007279877984557535,-2.162571179899764,1.2744957247215754
-0.007278087984557534,-2.155174730194597,1.2744957247215754
-0.007276297984557535,-2.147778280489429,1.2707883737405377
-0.007274507984557535,-2.1403818307842615,1.2707883737405377
-0.007272717984557535,-2.132985381079094,1.2670810227595
-0.007270927984557534,-2.132985381079094,1.2670810227595
-0.007269137984557535,-2.121890706521343,1.2707883737405377
-0.007267347984557535,-2.114494256816175,1.2670810227595
-0.007265557984557535,-2.1070978071110074,1.2670810227595
-0.007263767984557534,-2.1033995822584237,1.2707883737405377
-0.007261977984557535,-2.096003132553256,1.2707883737405377
-0.007260187984557535,-2.096003132553256,1.2670810227595
-0.007258397984557535,-2.0923049077006723,1.2707883737405377
-0.0072566079845575344,-2.0849084579955046,1.2707883737405377
-0.007254817984557535,-2.081210233142921,1.2707883737405377
-0.007253027984557535,-2.0738137834377532,1.2744957247215754
-0.007251237984557535,-2.0664173337325855,1.2707883737405377
-0.0072494479845575345,-2.062719108880002,1.2744957247215754
-0.007247657984557535,-2.055322659174834,1.278203075702613
-0.007245867984557535,-2.055322659174834,1.2744957247215754
-0.007244077984557535,-2.0516244343222505,1.278203075702613
-0.0072422879845575345,-2.040529759764499,1.2744957247215754
-0.007240497984557535,-2.0331333100593314,1.2707883737405377
-0.007238707984557535,-2.0257368603541637,1.2670810227595
-0.007236917984557535,-2.02203863550158,1.2670810227595
-0.0072351279845575345,-2.0183404106489964,1.2670810227595
-0.007233337984557535,-2.007245736091245,1.2633736717784623
-0.007231547984557535,-1.999849286386077,1.2670810227595
-0.007229757984557535,-1.9961510615334932,1.2707883737405377
-0.0072279679845575345,-1.9924528366809093,1.2707883737405377
-0.007226177984557535,-1.9924528366809093,1.2707883737405377
-0.007224387984557535,-1.9850563869757418,1.2670810227595
-0.007222597984557535,-1.9813581621231597,1.2707883737405359
-0.0072208079845575346,-1.9776599372705743,1.2670810227595
-0.007219017984557535,-1.9702634875654066,1.2707883737405377
-0.007217227984557535,-1.9665652627128227,1.2707883737405377
-0.007215437984557534,-1.966565262712821,1.2707883737405394
-0.007213647984557535,-1.962867037860239,1.2744957247215754
-0.007211857984557535,-1.9517723633024877,1.2744957247215754
-0.007210067984557535,-1.9480741384499038,1.2707883737405377
-0.007208277984557534,-1.9406776887447361,1.2707883737405377
-0.007206487984557535,-1.9295830141869847,1.2633736717784623
-0.007204697984557535,-1.925884789334401,1.2670810227595
-0.007202907984557535,-1.9184883396292334,1.2633736717784623
-0.007201117984557534,-1.9184883396292334,1.2633736717784623
-0.007199327984557535,-1.907393665071482,1.2670810227595
-0.007197537984557535,-1.907393665071482,1.2670810227595
-0.007195747984557535,-1.907393665071482,1.2670810227595
-0.007193957984557534,-1.9036954402188981,1.2670810227595
-0.007192167984557535,-1.8962989905137306,1.2670810227595
-0.007190377984557535,-1.8889025408085631,1.2707883737405377
-0.007188587984557535,-1.8852043159559793,1.2744957247215754
-0.0071867979845575344,-1.8741096413982279,1.2670810227595
-0.007185007984557535,-1.8741096413982279,1.2707883737405377
-0.007183217984557535,-1.8741096413982279,1.2707883737405377
-0.007181427984557535,-1.870411416545644,1.2744957247215754
-0.0071796379845575345,-1.8667131916930602,1.2707883737405377
-0.007177847984557535,-1.8593167419878927,1.2707883737405377
-0.007176057984557535,-1.8519202922827251,1.2707883737405377
-0.007174267984557535,-1.8445238425775574,1.2670810227595
-0.0071724779845575345,-1.83712739287239,1.2670810227595
-0.007170687984557535,-1.833429168019806,1.2670810227595
