200Hz/acq0050.csv

#Digilent WaveForms Oscilloscope Acquisition
#Device Name: Discovery2
#Serial Number: SN:210321AA28BE
#Date Time: 2023-05-24 14:48:05.369
#Sample rate: 558659Hz
#Samples: 8192
#Trigger: Source: Channel 1 Type: Edge Condition: Rising Level: 800 mV Hyst.: Auto HoldOff: 100 ns
#Channel 1: Range: 1 V/div Offset: 0 V Attenuation: 1 X Sample Mode: Average
#Channel 2: Range: 1 V/div Offset: 0 V Attenuation: 1 X Sample Mode: Average

Time (s),Channel 1 (V),Channel 2 (V)
-0.007741641339480378,0.01938148312467744,-1.3206499620048144
-0.0077398513394803786,0.01938148312467744,-1.3169426110237767
-0.007738061339480377,0.01938148312467744,-1.320649962004811
-0.007736271339480377,0.01938148312467744,-1.320649962004811
-0.0077344813394803775,0.01938148312467744,-1.3132352600427357
-0.007732691339480378,0.023079707977259556,-1.3206499620048078
-0.007730901339480378,0.02307970797726124,-1.320649962004811
-0.007729111339480378,0.019381483124679123,-1.313235260042739
-0.007727321339480378,0.01938148312467744,-1.3169426110237716
-0.007725531339480377,0.02307970797726124,-1.3169426110237734
-0.007723741339480377,0.02307970797726124,-1.3169426110237734
-0.007721951339480377,0.01938148312467744,-1.3169426110237734
-0.0077201613394803775,0.02307970797726124,-1.320649962004811
-0.007718371339480378,0.015683258272097003,-1.320649962004811
-0.007716581339480378,0.015683258272093638,-1.320649962004811
-0.007714791339480378,0.015683258272093638,-1.320649962004811
-0.007713001339480378,0.015683258272093638,-1.3169426110237752
-0.007711211339480377,0.015683258272093638,-1.3132352600427357
-0.007709421339480377,0.015683258272093638,-1.3169426110237734
-0.007707631339480377,0.00828680856692604,-1.3169426110237734
-0.007705841339480378,0.015683258272093638,-1.3169426110237734
-0.007704051339480378,0.015683258272093638,-1.3169426110237734
-0.007702261339480378,0.015683258272093638,-1.3206499620048093
-0.007700471339480378,0.011985033419511522,-1.320649962004811
-0.0076986813394803785,0.008286808566927723,-1.3169426110237752
-0.007696891339480377,0.015683258272093638,-1.320649962004811
-0.007695101339480377,0.01198503341950984,-1.320649962004811
-0.007693311339480377,0.00458858371434224,-1.320649962004811
-0.007691521339480378,0.01198503341950984,-1.320649962004811
-0.007689731339480378,0.01198503341950984,-1.320649962004811
-0.007687941339480378,0.015683258272091955,-1.3169426110237752
-0.007686151339480378,0.011985033419511522,-1.3132352600427375
-0.0076843613394803785,0.015683258272090272,-1.3243573129858386
-0.007682571339480377,0.01198503341950984,-1.320649962004811
-0.007680781339480377,0.00828680856692604,-1.3169426110237734
-0.007678991339480377,0.00458858371434224,-1.3169426110237734
-0.007677201339480378,0.00828680856692604,-1.3132352600427357
-0.007675411339480378,0.011985033419508156,-1.3132352600427357
-0.007673621339480378,0.008286808566927723,-1.3206499620048078
-0.007671831339480378,0.011985033419508156,-1.320649962004811
-0.0076700413394803785,0.008286808566929404,-1.3132352600427424
-0.007668251339480377,0.01198503341950984,-1.3169426110237734
-0.007666461339480377,0.00458858371434224,-1.320649962004811
-0.0076646713394803775,0.00828680856692604,-1.3169426110237734
-0.007662881339480378,0.00828680856692604,-1.3132352600427375
-0.007661091339480378,0.00828680856692604,-1.3132352600427357
-0.007659301339480378,0.004588583714343922,-1.3206499620048078
-0.007657511339480378,0.00458858371434224,-1.3169426110237752
-0.007655721339480377,0.00828680856692436,-1.3169426110237734
-0.007653931339480377,0.00458858371434224,-1.3169426110237734
-0.007652141339480377,0.00458858371434224,-1.320649962004811
-0.0076503513394803775,0.0008903588617584406,-1.320649962004811
-0.007648561339480378,-0.002807865990823677,-1.320649962004811
-0.007646771339480378,0.0008903588617567588,-1.320649962004811
-0.007644981339480378,0.004588583714340558,-1.320649962004811
-0.007643191339480378,-0.0028078659908219953,-1.320649962004811
-0.007641401339480377,0.00458858371434224,-1.3169426110237734
-0.007639611339480377,0.00458858371434224,-1.3169426110237734
-0.007637821339480377,0.0008903588617584406,-1.3243573129858488
-0.0076360313394803776,0.0008903588617584406,-1.3169426110237734
-0.007634241339480378,-0.002807865990823677,-1.3169426110237734
-0.007632451339480378,0.0008903588617567588,-1.3206499620048093
-0.007630661339480378,-0.002807865990823677,-1.3169426110237752
-0.0076288713394803784,0.0008903588617567588,-1.3132352600427375
-0.007627081339480377,0.0008903588617584406,-1.3169426110237734
-0.007625291339480377,-0.002807865990825359,-1.3169426110237734
-0.007623501339480377,-0.0065060908434091584,-1.3169426110237734
-0.007621711339480378,0.0008903588617584406,-1.3169426110237734
-0.007619921339480378,-0.002807865990823677,-1.3132352600427375
-0.007618131339480378,-0.002807865990825359,-1.3206499620048078
-0.007616341339480378,-0.002807865990825359,-1.324357312985847
-0.0076145513394803785,-0.002807865990825359,-1.3243573129858488
-0.007612761339480377,0.0008903588617584406,-1.3169426110237734
-0.007610971339480377,-0.0065060908434091584,-1.3169426110237734
-0.007609181339480377,-0.0065060908434091584,-1.3169426110237734
-0.007607391339480378,0.00458858371434224,-1.320649962004811
-0.007605601339480378,-0.0028078659908219953,-1.3169426110237752
-0.007603811339480378,-0.006506090843407477,-1.3169426110237734
-0.007602021339480378,-0.0065060908434091584,-1.3169426110237734
-0.0076002313394803785,-0.0065060908434091584,-1.3206499620048078
-0.007598441339480377,-0.002807865990825359,-1.320649962004811
-0.007596651339480377,-0.0065060908434091584,-1.3169426110237734
-0.0075948613394803775,-0.0065060908434091584,-1.3169426110237734
-0.007593071339480378,-0.0065060908434091584,-1.3169426110237734
-0.007591281339480378,-0.010204315695991277,-1.3169426110237734
-0.007589491339480378,-0.00650609084341084,-1.3206499620048093
-0.007587701339480378,-0.0065060908434091584,-1.320649962004811
-0.007585911339480377,-0.00650609084341084,-1.3132352600427375
-0.007584121339480377,-0.010204315695992958,-1.3169426110237734
-0.007582331339480377,-0.0065060908434091584,-1.320649962004811
-0.0075805413394803775,-0.0065060908434091584,-1.320649962004811
-0.007578751339480378,-0.0065060908434091584,-1.3169426110237752
-0.007576961339480378,-0.0065060908434091584,-1.3206499620048093
-0.007575171339480378,-0.010204315695991277,-1.3169426110237752
-0.007573381339480378,-0.00650609084341084,-1.3206499620048093
-0.007571591339480377,-0.002807865990825359,-1.3169426110237734
-0.007569801339480377,0.0008903588617584406,-1.3169426110237734
-0.007568011339480377,-0.0065060908434091584,-1.3169426110237734
-0.0075662213394803775,-0.002807865990825359,-1.3243573129858488
-0.007564431339480378,-0.010204315695989594,-1.3169426110237767
-0.007562641339480378,-0.0028078659908287226,-1.3206499620048093
-0.007560851339480378,-0.006506090843407477,-1.320649962004811
-0.0075590613394803784,-0.013902540548573395,-1.3169426110237752
-0.007557271339480377,-0.010204315695992958,-1.3169426110237734
-0.007555481339480377,-0.013902540548576758,-1.320649962004811
-0.007553691339480377,-0.013902540548576758,-1.3169426110237734
-0.007551901339480378,-0.0065060908434091584,-1.3169426110237734
-0.007550111339480378,-0.013902540548573395,-1.3206499620048093
-0.007548321339480378,-0.017600765401158874,-1.3169426110237752
-0.007546531339480378,-0.013902540548578441,-1.3169426110237734
-0.0075447413394803785,-0.013902540548576758,-1.3169426110237734
-0.007542951339480377,-0.0065060908434091584,-1.3169426110237734
-0.007541161339480377,-0.010204315695992958,-1.3169426110237734
-0.007539371339480377,-0.017600765401160557,-1.3169426110237734
-0.007537581339480378,-0.013902540548576758,-1.3169426110237734
-0.007535791339480378,-0.013902540548576758,-1.3169426110237734
-0.007534001339480378,-0.013902540548576758,-1.3169426110237734
-0.007532211339480378,-0.013902540548576758,-1.3169426110237734
-0.0075304213394803785,-0.013902540548576758,-1.3206499620048078
-0.007528631339480377,-0.017600765401160557,-1.320649962004811
-0.007526841339480377,-0.013902540548576758,-1.320649962004811
-0.0075250513394803775,-0.017600765401160557,-1.320649962004811
-0.007523261339480378,-0.010204315695996322,-1.3169426110237752
-0.007521471339480378,-0.010204315695992958,-1.3169426110237734
-0.007519681339480378,-0.013902540548575076,-1.3169426110237734
-0.007517891339480378,-0.017600765401158874,-1.3169426110237734
-0.0075161013394803786,-0.013902540548580122,-1.3169426110237734
-0.007514311339480377,-0.021298990253744356,-1.3169426110237734
-0.007512521339480377,-0.017600765401160557,-1.320649962004811
-0.0075107313394803775,-0.017600765401160557,-1.3169426110237734
-0.007508941339480378,-0.017600765401160557,-1.3169426110237734
-0.007507151339480378,-0.017600765401160557,-1.3206499620048093
-0.007505361339480378,-0.024997215106324792,-1.320649962004811
-0.007503571339480378,-0.01760076540116392,-1.324357312985847
-0.007501781339480377,-0.017600765401160557,-1.320649962004811
-0.007499991339480377,-2.1810623041626833,0.5812210912675264
-0.007498201339480377,-3.1758847895077253,1.3301059894371408
-0.0074964113394803775,-3.1610918900973903,1.326398638456103
-0.007494621339480378,-3.153695440392226,1.326398638456103
-0.007492831339480378,-3.1499972155396407,1.3226912874750671
-0.007491041339480378,-3.149997215539639,1.3226912874750654
-0.007489251339480378,-3.1389025409818925,1.3263986384561013
-0.007487461339480377,-3.13150609127672,1.326398638456103
-0.007485671339480377,-3.127807866424136,1.3226912874750654
-0.007483881339480377,-3.1204114167189685,1.3226912874750654
-0.007482091339480378,-3.1056185173086335,1.326398638456103
-0.007480301339480378,-3.0982220676034693,1.3226912874750671
-0.007478511339480378,-3.079730943340555,1.3226912874750654
-0.007476721339480378,-3.0649380439302183,1.3189839364940295
-0.0074749313394803785,-3.050145144519883,1.3152765855129918
-0.007473141339480377,-3.035352245109541,1.31527658551299
-0.007471351339480377,-3.02425757055179,1.3078618835509146
-0.007469561339480377,-3.016861120846622,1.3078618835509146
-0.007467771339480378,-3.002068221436287,1.304154532569877
-0.007465981339480378,-2.9909735468785406,1.304154532569877
-0.007464191339480378,-2.979878872320789,1.304154532569877
-0.007462401339480378,-2.968784197763038,1.304154532569877
-0.0074606113394803785,-2.9576895232052913,1.3004471815888425
-0.007458821339480377,-2.942896623794946,1.2967398306078015
-0.007457031339480377,-2.9318019492371947,1.3004471815888392
-0.0074552413394803774,-2.9207072746794434,1.2967398306078015
-0.007453451339480378,-2.909612600121692,1.2967398306078015
-0.007451661339480378,-2.90591437526911,1.3004471815888374
-0.007449871339480378,-2.8874232510061977,1.3004471815888392
-0.007448081339480378,-2.8763285764484428,1.2930324796267672
-0.0074462913394803786,-2.8652339018906967,1.2893251286457295
-0.007444501339480377,-2.854139227332935,1.2893251286457261
-0.007442711339480377,-2.8467427776277674,1.2893251286457261
-0.0074409213394803775,-2.835648103070016,1.2856177776646884
-0.007439131339480378,-2.8134587539545235,1.2782030757026164
-0.007437341339480378,-2.809760529101931,1.281910426683649
-0.007435551339480378,-2.8023640793967655,1.2819104266836507
-0.007433761339480378,-2.787571179986433,1.2819104266836507
-0.007431971339480377,-2.783872955133843,1.2819104266836507
-0.007430181339480377,-2.776476505428675,1.2819104266836507
-0.007428391339480377,-2.76168360601834,1.2819104266836507
-0.0074266013394803775,-2.7542871563131723,1.2819104266836507
-0.007424811339480378,-2.743192481755426,1.2744957247215787
-0.007423021339480378,-2.739494256902839,1.2782030757026113
-0.007421231339480378,-2.728399582345091,1.278203075702613
-0.007419441339480378,-2.7210031326399218,1.278203075702613
-0.007417651339480377,-2.7136066829347505,1.278203075702613
-0.007415861339480377,-2.709908458082167,1.2819104266836507
-0.007414071339480377,-2.6988137835244155,1.278203075702613
-0.007412281339480378,-2.687719108966664,1.2819104266836507
-0.007410491339480378,-2.6766244344089176,1.2782030757026148
-0.007408701339480378,-2.6692279847037486,1.278203075702613
-0.007406911339480378,-2.6507368604408343,1.2744957247215771
-0.0074051213394803785,-2.6433404107356617,1.2744957247215754
-0.007403331339480377,-2.635943961030491,1.2744957247215754
-0.007401541339480377,-2.628547511325323,1.2707883737405377
-0.007399751339480377,-2.6248492864727395,1.2744957247215754
-0.007397961339480378,-2.617452836767572,1.2707883737405377
-0.007396171339480378,-2.6100563870624076,1.2707883737405377
-0.007394381339480378,-2.5989617125046576,1.2707883737405377
-0.007392591339480378,-2.5989617125046527,1.2707883737405377
-0.0073908013394803785,-2.584168813094331,1.2707883737405377
-0.007389011339480377,-2.569375913683982,1.2707883737405377
-0.007387221339480377,-2.5656776888313986,1.2707883737405377
-0.007385431339480377,-2.558281239126231,1.2670810227595
-0.007383641339480378,-2.554583014273647,1.2744957247215754
-0.007381851339480378,-2.5508847894210653,1.2744957247215754
-0.007380061339480378,-2.5360918900107348,1.2707883737405394
-0.007378271339480378,-2.5323936651581462,1.2670810227595017
-0.0073764813394803785,-2.5176007657478223,1.2670810227595
-0.007374691339480377,-2.5139025408952254,1.2670810227595
-0.007372901339480377,-2.502807866337474,1.2670810227595
-0.0073711113394803775,-2.4991096414848903,1.2670810227595
-0.007369321339480378,-2.495411416632308,1.2670810227595
-0.007367531339480378,-2.480618517221978,1.2707883737405359
-0.007365741339480378,-2.473222067516807,1.2707883737405377
-0.007363951339480378,-2.4732220675168035,1.2744957247215736
-0.007362161339480377,-2.4621273929590486,1.2707883737405377
-0.007360371339480377,-2.4547309432538844,1.2707883737405377
-0.007358581339480377,-2.447334493548717,1.2707883737405377
-0.0073567913394803775,-2.4362398189909658,1.2707883737405377
-0.007355001339480378,-2.4325415941383834,1.2744957247215736
-0.007353211339480378,-2.436239818990964,1.2744957247215754
-0.007351421339480378,-2.4288433692858016,1.2707883737405394
-0.007349631339480378,-2.421446919580634,1.2744957247215736
-0.007347841339480377,-2.4140504698754626,1.2744957247215754
-0.007346051339480377,-2.4066540201702953,1.2707883737405377
-0.007344261339480377,-2.3992575704651276,1.2670810227595
-0.0073424713394803776,-2.39186112075996,1.2670810227595
-0.007340681339480378,-2.3770682213496315,1.2670810227595
-0.007338891339480378,-2.373369996497043,1.2707883737405359
-0.007337101339480378,-2.369671771644459,1.2670810227595017
-0.0073353113394803784,-2.3585770970867106,1.2670810227595
-0.007333521339480377,-2.354878872234122,1.2670810227595
-0.007331731339480377,-2.3474824225289543,1.2670810227595
-0.007329941339480377,-2.3437841976763707,1.2744957247215754
-0.007328151339480378,-2.3400859728237866,1.2670810227595
-0.007326361339480378,-2.332689523118623,1.2707883737405359
-0.007324571339480378,-2.321594848560873,1.2707883737405377
-0.007322781339480378,-2.3141983988557038,1.2707883737405377
-0.0073209913394803785,-2.306801949150536,1.2670810227595017
-0.007319201339480377,-2.303103724297949,1.2707883737405377
-0.007317411339480377,-2.299405499445365,1.2707883737405377
-0.007315621339480377,-2.2920090497401975,1.2707883737405377
-0.007313831339480378,-2.277216150329862,1.2707883737405377
-0.007312041339480378,-2.277216150329862,1.2670810227595017
-0.007310251339480378,-2.2698197006246983,1.274495724721572
-0.007308461339480378,-2.2587250260669482,1.2670810227595033
-0.0073066713394803785,-2.2587250260669434,1.2707883737405343
-0.007304881339480377,-2.2513285763617756,1.2670810227595
-0.007303091339480377,-2.243932126656608,1.2670810227595
-0.0073013013394803775,-2.2365356769514406,1.2633736717784623
-0.007299511339480378,-2.2328374520988583,1.2633736717784623
-0.007297721339480378,-2.2291392272462747,1.2670810227594982
-0.007295931339480378,-2.2180445526885264,1.2707883737405359
-0.007294141339480378,-2.214346327835939,1.2707883737405377
-0.007292351339480377,-2.2106481029833502,1.2707883737405377
-0.007290561339480377,-2.203251653278186,1.2707883737405377
-0.007288771339480377,-2.1995534284256024,1.2670810227595
-0.0072869813394803775,-2.1921569787204347,1.2707883737405377
-0.007285191339480378,-2.188458753867853,1.2707883737405377
-0.007283401339480378,-2.192156978720433,1.2782030757026097
-0.007281611339480378,-2.181062304162688,1.270788373740541
-0.007279821339480378,-2.1736658544575196,1.2707883737405377
-0.007278031339480377,-2.162571179899764,1.2707883737405377
-0.007276241339480377,-2.1588729550471806,1.2707883737405377
-0.007274451339480377,-2.151476505342013,1.2670810227595
-0.0072726613394803775,-2.147778280489429,1.2670810227595
-0.007270871339480378,-2.1366836059316827,1.2670810227595
-0.007269081339480378,-2.1292871562265137,1.2670810227595
-0.007267291339480378,-2.1255889313739282,1.2670810227595
-0.0072655013394803784,-2.1218907065213446,1.2707883737405359
-0.007263711339480377,-2.114494256816175,1.2707883737405377
-0.007261921339480377,-2.1107960319635914,1.2670810227595
-0.007260131339480377,-2.1070978071110074,1.2670810227595
-0.007258341339480378,-2.0997013574058396,1.2633736717784623
-0.007256551339480378,-2.0960031325532578,1.2707883737405343
-0.007254761339480378,-2.0849084579955095,1.2707883737405377
-0.007252971339480378,-2.0812102331429227,1.2707883737405377
-0.0072511813394803785,-2.0775120082903387,1.2670810227595017
-0.007249391339480377,-2.0738137834377532,1.2744957247215754
-0.007247601339480377,-2.0664173337325855,1.2707883737405377
-0.007245811339480377,-2.0590208840274182,1.2670810227595
-0.007244021339480378,-2.0516244343222505,1.2670810227595
-0.007242231339480378,-2.047926209469668,1.2670810227595
-0.007240441339480378,-2.0405297597645027,1.2670810227595
-0.007238651339480378,-2.036831534911917,1.2707883737405359
-0.0072368613394803785,-2.0294350852067544,1.2670810227595033
-0.007235071339480377,-2.0257368603541637,1.2670810227595
-0.007233281339480377,-2.02203863550158,1.2670810227595
-0.0072314913394803775,-2.0146421857964123,1.2670810227595
-0.007229701339480378,-2.007245736091245,1.2670810227595
-0.007227911339480378,-2.0035475112386627,1.2707883737405359
-0.007226121339480378,-2.003547511238661,1.2707883737405377
-0.007224331339480378,-1.9961510615334965,1.2707883737405377
-0.0072225413394803786,-1.9924528366809127,1.274495724721572
-0.007220751339480377,-1.9887546118283257,1.2670810227595
-0.007218961339480377,-1.9776599372705743,1.2707883737405377
-0.0072171713394803775,-1.981358162123158,1.2707883737405377
-0.007215381339480378,-1.981358162123158,1.2707883737405377
-0.007213591339480378,-1.9665652627128294,1.2744957247215736
-0.007211801339480378,-1.9591688130076585,1.2707883737405394
-0.007210011339480378,-1.9554705881550731,1.2707883737405377
-0.007208221339480377,-1.94437591359732,1.2744957247215754
-0.007206431339480377,-1.94437591359732,1.2707883737405377
-0.007204641339480377,-1.9332812390395686,1.2670810227595
-0.0072028513394803775,-1.9295830141869847,1.2670810227595
-0.007201061339480378,-1.9221865644818206,1.263373671778464
-0.007199271339480378,-1.914790114776653,1.2707883737405343
-0.007197481339480378,-1.9147901147766497,1.2670810227595017
-0.007195691339480378,-1.9073936650714853,1.2670810227595
-0.007193901339480377,-1.9036954402188981,1.2670810227595
-0.007192111339480377,-1.907393665071482,1.2670810227595
-0.007190321339480377,-1.8962989905137306,1.2670810227595
-0.007188531339480378,-1.8962989905137306,1.2707883737405377
-0.007186741339480378,-1.8889025408085665,1.2707883737405377
-0.007184951339480378,-1.8889025408085631,1.2707883737405377
-0.007183161339480378,-1.8778078662508166,1.2744957247215736
-0.0071813713394803785,-1.8741096413982297,1.2707883737405394
-0.007179581339480377,-1.870411416545644,1.2707883737405377
-0.007177791339480377,-1.8593167419878927,1.2707883737405377
-0.007176001339480377,-1.8519202922827251,1.2707883737405377
-0.007174211339480378,-1.8482220674301413,1.2670810227595
