200Hz/acq0017.csv

#Digilent WaveForms Oscilloscope Acquisition
#Device Name: Discovery2
#Serial Number: SN:210321AA28BE
#Date Time: 2023-05-24 14:48:04.454
#Sample rate: 558659Hz
#Samples: 8192
#Trigger: Source: Channel 1 Type: Edge Condition: Rising Level: 800 mV Hyst.: Auto HoldOff: 100 ns
#Channel 1: Range: 1 V/div Offset: 0 V Attenuation: 1 X Sample Mode: Average
#Channel 2: Range: 1 V/div Offset: 0 V Attenuation: 1 X Sample Mode: Average

Time (s),Channel 1 (V),Channel 2 (V)
-0.007741783436428665,0.03787260738759644,-1.3169426110237734
-0.0077399934364286655,0.03787260738759644,-1.3243573129858455
-0.007738203436428665,0.03047615768242884,-1.3169426110237734
-0.007736413436428665,0.03787260738759644,-1.3169426110237734
-0.007734623436428665,0.03787260738759644,-1.320649962004811
-0.007732833436428665,0.034174382535012635,-1.3169426110237734
-0.007731043436428665,0.034174382535012635,-1.3169426110237734
-0.007729253436428665,0.034174382535012635,-1.3169426110237734
-0.007727463436428665,0.03047615768242884,-1.320649962004811
-0.007725673436428665,0.03787260738759644,-1.3169426110237734
-0.007723883436428665,0.034174382535012635,-1.320649962004811
-0.007722093436428665,0.034174382535012635,-1.320649962004811
-0.007720303436428665,0.03047615768242884,-1.320649962004811
-0.007718513436428665,0.03047615768242884,-1.320649962004811
-0.007716723436428665,0.034174382535012635,-1.3169426110237734
-0.007714933436428665,0.03047615768242884,-1.320649962004811
-0.007713143436428665,0.026777932829845037,-1.3169426110237734
-0.007711353436428665,0.03047615768242884,-1.3169426110237734
-0.007709563436428665,0.034174382535012635,-1.3169426110237734
-0.007707773436428665,0.03047615768242884,-1.320649962004811
-0.007705983436428665,0.03047615768242884,-1.3169426110237734
-0.007704193436428665,0.034174382535012635,-1.320649962004811
-0.007702403436428665,0.026777932829845037,-1.3243573129858488
-0.007700613436428665,0.03047615768242884,-1.3169426110237734
-0.007698823436428665,0.02307970797726124,-1.3169426110237734
-0.007697033436428665,0.02307970797726124,-1.3169426110237734
-0.007695243436428665,0.03047615768242884,-1.3132352600427357
-0.007693453436428665,0.026777932829845037,-1.320649962004811
-0.007691663436428665,0.026777932829845037,-1.3243573129858488
-0.007689873436428665,0.02307970797726124,-1.3243573129858488
-0.007688083436428665,0.02307970797726124,-1.3243573129858488
-0.007686293436428665,0.02307970797726124,-1.3243573129858488
-0.007684503436428665,0.026777932829845037,-1.3169426110237734
-0.007682713436428665,0.026777932829845037,-1.3169426110237734
-0.007680923436428665,0.026777932829845037,-1.3169426110237734
-0.007679133436428665,0.026777932829845037,-1.3169426110237734
-0.0076773434364286654,0.03047615768242884,-1.320649962004811
-0.007675553436428665,0.026777932829845037,-1.320649962004811
-0.007673763436428665,0.02307970797726124,-1.320649962004811
-0.007671973436428665,0.02307970797726124,-1.320649962004811
-0.0076701834364286655,0.02307970797726124,-1.320649962004811
-0.007668393436428665,0.01938148312467744,-1.3169426110237734
-0.007666603436428665,0.02307970797726124,-1.3169426110237734
-0.007664813436428665,0.02307970797726124,-1.3169426110237734
-0.007663023436428665,0.023079707977259556,-1.320649962004811
-0.007661233436428665,0.01938148312467744,-1.320649962004811
-0.007659443436428665,0.02307970797726124,-1.3169426110237734
-0.007657653436428665,0.02307970797726124,-1.3169426110237734
-0.007655863436428665,0.019381483124675757,-1.3206499620048093
-0.007654073436428665,0.015683258272093638,-1.3169426110237734
-0.007652283436428665,0.015683258272093638,-1.3132352600427357
-0.007650493436428665,0.015683258272093638,-1.3169426110237734
-0.007648703436428665,0.01938148312467744,-1.320649962004811
-0.007646913436428665,0.01938148312467744,-1.3169426110237734
-0.007645123436428665,0.01938148312467744,-1.3169426110237734
-0.007643333436428665,0.02307970797726124,-1.320649962004811
-0.007641543436428665,0.01938148312467744,-1.320649962004811
-0.007639753436428665,0.02307970797726124,-1.320649962004811
-0.007637963436428665,0.02307970797726124,-1.3132352600427357
-0.007636173436428665,0.015683258272093638,-1.3169426110237734
-0.007634383436428665,0.015683258272093638,-1.320649962004811
-0.007632593436428665,0.015683258272093638,-1.3243573129858488
-0.007630803436428665,0.02307970797726124,-1.320649962004811
-0.007629013436428665,0.01938148312467744,-1.3169426110237734
-0.007627223436428665,0.015683258272093638,-1.3132352600427357
-0.007625433436428665,0.01938148312467744,-1.3169426110237734
-0.007623643436428665,0.015683258272093638,-1.320649962004811
-0.007621853436428665,0.015683258272093638,-1.320649962004811
-0.007620063436428665,0.01198503341950984,-1.320649962004811
-0.007618273436428665,0.01198503341950984,-1.320649962004811
-0.007616483436428665,0.015683258272093638,-1.3243573129858488
-0.007614693436428665,0.015683258272093638,-1.320649962004811
-0.007612903436428665,0.015683258272093638,-1.320649962004811
-0.007611113436428665,0.015683258272093638,-1.320649962004811
-0.007609323436428665,0.01198503341950984,-1.3169426110237734
-0.007607533436428665,0.01198503341950984,-1.3169426110237734
-0.007605743436428665,0.01198503341950984,-1.3169426110237734
-0.007603953436428665,0.00828680856692604,-1.320649962004811
-0.007602163436428665,0.01198503341950984,-1.320649962004811
-0.0076003734364286655,0.01198503341950984,-1.3169426110237734
-0.007598583436428665,0.00828680856692604,-1.3132352600427357
-0.007596793436428665,0.00828680856692604,-1.3169426110237734
-0.007595003436428665,0.00828680856692604,-1.3169426110237734
-0.0075932134364286655,0.011985033419508156,-1.3206499620048093
-0.007591423436428665,0.01198503341950984,-1.3169426110237734
-0.007589633436428665,0.01198503341950984,-1.320649962004811
-0.007587843436428665,0.00828680856692604,-1.3169426110237734
-0.007586053436428665,0.00828680856692436,-1.320649962004811
-0.007584263436428665,0.00458858371434224,-1.320649962004811
-0.007582473436428665,0.00828680856692604,-1.3243573129858488
-0.007580683436428665,0.015683258272093638,-1.3243573129858488
-0.007578893436428665,0.01198503341950984,-1.3243573129858488
-0.007577103436428665,0.015683258272093638,-1.3243573129858488
-0.007575313436428665,0.00828680856692604,-1.3243573129858488
-0.007573523436428665,0.00828680856692604,-1.320649962004811
-0.007571733436428665,0.00828680856692604,-1.3169426110237734
-0.007569943436428665,0.00458858371434224,-1.3169426110237734
-0.007568153436428665,0.00828680856692604,-1.309527909061698
-0.007566363436428665,0.00828680856692604,-1.3132352600427357
-0.007564573436428665,0.00458858371434224,-1.3169426110237734
-0.007562783436428665,0.00458858371434224,-1.3243573129858488
-0.007560993436428665,0.00458858371434224,-1.320649962004811
-0.007559203436428665,0.00828680856692604,-1.3243573129858488
-0.007557413436428665,0.00458858371434224,-1.320649962004811
-0.007555623436428665,0.0008903588617584406,-1.3169426110237734
-0.007553833436428665,0.0008903588617584406,-1.3169426110237734
-0.007552043436428665,0.00828680856692604,-1.320649962004811
-0.007550253436428665,0.00828680856692604,-1.3169426110237734
-0.007548463436428665,0.01198503341950984,-1.320649962004811
-0.007546673436428665,0.01198503341950984,-1.320649962004811
-0.007544883436428665,0.00828680856692604,-1.3169426110237734
-0.007543093436428665,0.0008903588617584406,-1.3132352600427357
-0.007541303436428665,0.0008903588617584406,-1.320649962004811
-0.007539513436428665,0.0008903588617584406,-1.320649962004811
-0.007537723436428665,0.00458858371434224,-1.320649962004811
-0.007535933436428665,0.0008903588617584406,-1.320649962004811
-0.007534143436428665,0.00458858371434224,-1.3169426110237734
-0.007532353436428665,0.00458858371434224,-1.3243573129858488
-0.0075305634364286654,0.00458858371434224,-1.320649962004811
-0.007528773436428665,-0.002807865990825359,-1.3132352600427357
-0.007526983436428665,-0.002807865990825359,-1.3169426110237734
-0.007525193436428665,-0.002807865990825359,-1.3132352600427357
-0.0075234034364286655,0.0045885837143388765,-1.3169426110237716
-0.007521613436428665,0.0008903588617584406,-1.320649962004811
-0.007519823436428665,0.0008903588617584406,-1.3169426110237734
-0.007518033436428665,-0.002807865990825359,-1.3132352600427357
-0.0075162434364286655,0.0008903588617567588,-1.3206499620048078
-0.007514453436428665,0.0008903588617584406,-1.320649962004811
-0.007512663436428665,-0.002807865990825359,-1.320649962004811
-0.007510873436428665,0.00458858371434224,-1.3243573129858488
-0.007509083436428665,0.0045885837143388765,-1.3243573129858455
-0.007507293436428665,-0.002807865990825359,-1.3169426110237734
-0.007505503436428665,-0.0065060908434091584,-1.320649962004811
-0.007503713436428665,0.0008903588617584406,-1.320649962004811
-0.007501923436428665,-0.002807865990825359,-1.320649962004811
-0.007500133436428665,-1.8630149668404765,0.31799917161385005
-0.007498343436428665,-3.1721865646551417,1.3375206913992161
-0.007496553436428665,-3.1610918900973903,1.326398638456103
-0.007494763436428665,-3.149997215539639,1.326398638456103
-0.007492973436428665,-3.146298990687055,1.326398638456103
-0.007491183436428665,-3.1389025409818876,1.3226912874750654
-0.007489393436428665,-3.127807866424136,1.3301059894371408
-0.007487603436428665,-3.124109641571552,1.3226912874750654
-0.007485813436428665,-3.109316742161217,1.3226912874750654
-0.007484023436428665,-3.1019202924560494,1.31527658551299
-0.007482233436428665,-3.090825617898298,1.3189839364940277
-0.007480443436428665,-3.076032718487963,1.31527658551299
-0.007478653436428665,-3.0612398190776275,1.3115692345319523
-0.007476863436428665,-3.0538433693724603,1.31527658551299
-0.007475073436428665,-3.042748694814709,1.3189839364940277
-0.007473283436428665,-3.0316540202569575,1.31527658551299
-0.007471493436428665,-3.016861120846622,1.3115692345319523
-0.007469703436428665,-3.002068221436287,1.3115692345319523
-0.007467913436428665,-2.998369996583703,1.3078618835509146
-0.007466123436428665,-2.9798788723207843,1.3078618835509146
-0.007464333436428665,-2.968784197763033,1.304154532569877
-0.007462543436428665,-2.961387748057865,1.304154532569877
-0.007460753436428665,-2.950293073500114,1.304154532569877
-0.007458963436428665,-2.9355001740897784,1.304154532569877
-0.007457173436428665,-2.9207072746794434,1.304154532569877
-0.007455383436428665,-2.9133108249742756,1.2967398306078015
-0.0074535934364286655,-2.9022161504165243,1.2930324796267638
-0.007451803436428665,-2.8874232510061892,1.2856177776646884
-0.007450013436428665,-2.86893212674327,1.2893251286457261
-0.007448223436428665,-2.8578374521855188,1.2893251286457261
-0.0074464334364286655,-2.8504410024803546,1.2893251286457261
-0.007444643436428665,-2.835648103070016,1.2856177776646884
-0.007442853436428665,-2.8282516533648483,1.2856177776646884
-0.007441063436428665,-2.8208552036596806,1.2856177776646884
-0.007439273436428665,-2.8134587539545097,1.2819104266836525
-0.007437483436428665,-2.8060623042493456,1.2856177776646884
-0.007435693436428665,-2.7912694048390105,1.2856177776646884
-0.007433903436428665,-2.7801747302812587,1.2856177776646884
-0.007432113436428665,-2.7653818308709237,1.2856177776646884
-0.007430323436428665,-2.7542871563131723,1.2819104266836507
-0.007428533436428665,-2.7505889314605887,1.2856177776646884
-0.007426743436428665,-2.7468907066080046,1.2819104266836507
-0.007424953436428665,-2.7357960320502532,1.2819104266836507
-0.007423163436428665,-2.728399582345086,1.2819104266836507
-0.007421373436428665,-2.717304907787334,1.278203075702613
-0.007419583436428665,-2.6988137835244155,1.278203075702613
-0.007417793436428665,-2.6914173338192477,1.278203075702613
-0.007416003436428665,-2.6803226592614964,1.278203075702613
-0.007414213436428665,-2.6729262095563286,1.2670810227595
-0.007412423436428665,-2.6655297598511614,1.2707883737405377
-0.007410633436428665,-2.6581333101459936,1.2707883737405377
-0.007408843436428665,-2.6470386355882423,1.2744957247215754
-0.007407053436428665,-2.6396421858830745,1.2744957247215754
-0.007405263436428665,-2.632245736177907,1.2744957247215754
-0.007403473436428665,-2.6248492864727395,1.2744957247215754
-0.007401683436428665,-2.617452836767572,1.278203075702613
-0.007399893436428665,-2.6063581622098204,1.2744957247215754
-0.007398103436428665,-2.6026599373572368,1.2744957247215754
-0.007396313436428665,-2.5989617125046527,1.278203075702613
-0.007394523436428665,-2.5878670379469013,1.2744957247215754
-0.007392733436428665,-2.57677236338915,1.2744957247215754
-0.007390943436428665,-2.569375913683982,1.2744957247215754
-0.007389153436428665,-2.561979463978815,1.278203075702613
-0.007387363436428665,-2.5471865645684795,1.278203075702613
-0.007385573436428665,-2.543488339715896,1.2707883737405377
-0.0073837834364286654,-2.5249972154529767,1.2744957247215754
-0.007381993436428665,-2.521298990600393,1.2707883737405377
-0.007380203436428665,-2.5102043160426417,1.2670810227595
-0.007378413436428665,-2.5102043160426417,1.2670810227595
-0.0073766234364286655,-2.5065060911900576,1.2707883737405377
-0.007374833436428665,-2.4991096414848903,1.2707883737405377
-0.007373043436428665,-2.4954114166323063,1.2707883737405377
-0.007371253436428665,-2.484316742074555,1.2707883737405377
-0.0073694634364286655,-2.476920292369391,1.2670810227595017
-0.007367673436428665,-2.4732220675168035,1.2707883737405377
-0.007365883436428665,-2.4584291681064685,1.2707883737405377
-0.007364093436428665,-2.4510327184013008,1.2707883737405377
-0.007362303436428665,-2.451032718401296,1.2744957247215754
-0.007360513436428665,-2.4399380438435494,1.2744957247215754
-0.007358723436428665,-2.4362398189909658,1.2744957247215754
-0.007356933436428665,-2.4325415941383817,1.2744957247215754
-0.007355143436428665,-2.4251451444332144,1.2670810227595
-0.007353353436428665,-2.410352245022879,1.2670810227595
-0.007351563436428665,-2.402955795317711,1.2707883737405377
-0.007349773436428665,-2.395559345612544,1.2707883737405377
-0.007347983436428665,-2.39186112075996,1.2707883737405377
-0.007346193436428665,-2.3807664462022085,1.2670810227595
-0.007344403436428665,-2.377068221349625,1.2670810227595
-0.007342613436428665,-2.369671771644457,1.2670810227595
-0.007340823436428665,-2.3659735467918734,1.2707883737405377
-0.007339033436428665,-2.3585770970867057,1.2707883737405377
-0.007337243436428665,-2.3474824225289543,1.2744957247215754
-0.007335453436428665,-2.3474824225289543,1.278203075702613
-0.007333663436428665,-2.3400859728237866,1.2670810227595
-0.007331873436428665,-2.3326895231186193,1.2670810227595
-0.007330083436428665,-2.3252930734134516,1.2744957247215754
-0.007328293436428665,-2.3289912982660352,1.2744957247215754
-0.007326503436428665,-2.321594848560868,1.2744957247215754
-0.007324713436428665,-2.3141983988557002,1.278203075702613
-0.007322923436428665,-2.3068019491505325,1.2744957247215754
-0.007321133436428665,-2.2920090497401975,1.2707883737405377
-0.007319343436428665,-2.2883108248876134,1.2707883737405377
-0.007317553436428665,-2.280914375182446,1.2670810227595
-0.007315763436428665,-2.2735179254772784,1.2670810227595
-0.007313973436428665,-2.2698197006246947,1.2707883737405377
-0.007312183436428665,-2.2587250260669434,1.2670810227595
-0.007310393436428665,-2.2550268012143593,1.2670810227595
-0.007308603436428665,-2.247630351509192,1.2707883737405377
-0.0073068134364286655,-2.243932126656608,1.2670810227595
-0.007305023436428665,-2.2402339018040243,1.2707883737405377
-0.007303233436428665,-2.2328374520988565,1.2670810227595
-0.007301443436428665,-2.221742777541105,1.2707883737405377
-0.0072996534364286655,-2.2180445526885233,1.2707883737405377
-0.007297863436428665,-2.210648102983354,1.2707883737405377
-0.007296073436428665,-2.203251653278186,1.2707883737405377
-0.007294283436428665,-2.1995534284256024,1.2744957247215754
-0.007292493436428665,-2.195855203573017,1.274495724721572
-0.007290703436428665,-2.1921569787204347,1.2670810227595
-0.007288913436428665,-2.188458753867851,1.2670810227595
-0.007287123436428665,-2.1773640793100997,1.2670810227595
-0.007285333436428665,-2.16996762960493,1.2707883737405359
-0.007283543436428665,-2.1662694047523483,1.2670810227595
-0.007281753436428665,-2.151476505342013,1.2670810227595
-0.007279963436428665,-2.151476505342013,1.2670810227595
-0.007278173436428665,-2.147778280489429,1.2670810227595
-0.007276383436428665,-2.1403818307842615,1.2670810227595
-0.007274593436428665,-2.12928715622651,1.2670810227595
-0.007272803436428665,-2.132985381079094,1.2633736717784623
-0.007271013436428665,-2.1255889313739265,1.2670810227595
-0.007269223436428665,-2.121890706521343,1.2707883737405377
-0.007267433436428665,-2.114494256816175,1.2707883737405377
-0.007265643436428665,-2.1070978071110074,1.2744957247215754
-0.007263853436428665,-2.1033995822584237,1.2744957247215754
-0.007262063436428665,-2.096003132553256,1.2744957247215754
-0.007260273436428665,-2.096003132553256,1.278203075702613
-0.007258483436428665,-2.0923049077006723,1.2744957247215754
-0.007256693436428665,-2.081210233142921,1.2744957247215754
-0.007254903436428665,-2.0701155585851696,1.2707883737405377
-0.007253113436428665,-2.0664173337325855,1.2707883737405377
-0.007251323436428665,-2.0590208840274182,1.2744957247215754
-0.007249533436428665,-2.0516244343222505,1.2670810227595
-0.007247743436428665,-2.0442279846170828,1.2633736717784623
-0.007245953436428665,-2.036831534911915,1.2633736717784623
-0.007244163436428665,-2.036831534911915,1.2707883737405377
-0.007242373436428665,-2.0294350852067478,1.2707883737405377
-0.007240583436428665,-2.0257368603541637,1.2670810227595
-0.007238793436428665,-2.0257368603541637,1.2670810227595
-0.0072370034364286654,-2.02203863550158,1.2707883737405377
-0.007235213436428665,-2.0109439609438287,1.2707883737405377
-0.007233423436428665,-2.003547511238661,1.2707883737405377
-0.007231633436428665,-1.9961510615334932,1.2707883737405377
-0.0072298434364286655,-1.999849286386077,1.2670810227595
-0.007228053436428665,-1.9887546118283257,1.2744957247215754
-0.007226263436428665,-1.9887546118283257,1.2744957247215754
-0.007224473436428665,-1.9850563869757418,1.2707883737405377
-0.0072226834364286655,-1.9776599372705777,1.2744957247215736
-0.007220893436428665,-1.9739617124179905,1.2744957247215754
-0.007219103436428665,-1.9702634875654066,1.2707883737405377
-0.007217313436428665,-1.962867037860239,1.2670810227595
-0.007215523436428665,-1.955470588155068,1.263373671778464
-0.007213733436428665,-1.9480741384499038,1.2670810227595
-0.007211943436428665,-1.9369794638921525,1.2596663207974246
-0.007210153436428665,-1.9332812390395686,1.2633736717784623
-0.007208363436428665,-1.9295830141869847,1.2670810227595
-0.007206573436428665,-1.9221865644818172,1.2670810227595
-0.007204783436428665,-1.925884789334401,1.2670810227595
-0.007202993436428665,-1.9184883396292334,1.2744957247215754
-0.007201203436428665,-1.907393665071482,1.2707883737405377
-0.007199413436428665,-1.9036954402188981,1.2707883737405377
-0.007197623436428665,-1.8999972153663145,1.2707883737405377
-0.007195833436428665,-1.8999972153663145,1.2670810227595
-0.007194043436428665,-1.8926007656611468,1.2744957247215754
-0.007192253436428665,-1.8852043159559793,1.2707883737405377
-0.007190463436428665,-1.8852043159559793,1.2707883737405377
-0.007188673436428665,-1.8741096413982279,1.2744957247215754
-0.007186883436428665,-1.870411416545644,1.2670810227595
-0.007185093436428665,-1.8667131916930602,1.2670810227595
-0.007183303436428665,-1.8630149668404765,1.2707883737405377
-0.007181513436428665,-1.8482220674301413,1.2707883737405377
-0.007179723436428665,-1.8482220674301413,1.2670810227595
-0.007177933436428665,-1.83712739287239,1.2707883737405377
-0.007176143436428665,-1.83712739287239,1.2670810227595
-0.007174353436428665,-1.83712739287239,1.2707883737405377
-0.007172563436428665,-1.833429168019806,1.2670810227595
-0.007170773436428665,-1.8260327183146385,1.2707883737405377
-0.007168983436428665,-1.8260327183146385,1.2707883737405377
