200Hz/acq0065.csv

#Digilent WaveForms Oscilloscope Acquisition
#Device Name: Discovery2
#Serial Number: SN:210321AA28BE
#Date Time: 2023-05-24 14:48:05.778
#Sample rate: 558659Hz
#Samples: 8192
#Trigger: Source: Channel 1 Type: Edge Condition: Rising Level: 800 mV Hyst.: Auto HoldOff: 100 ns
#Channel 1: Range: 1 V/div Offset: 0 V Attenuation: 1 X Sample Mode: Average
#Channel 2: Range: 1 V/div Offset: 0 V Attenuation: 1 X Sample Mode: Average

Time (s),Channel 1 (V),Channel 2 (V)
-0.00774165500087253,0.05636373165051543,-1.3243573129858488
-0.007739865000872531,0.05266550679793331,-1.3169426110237767
-0.00773807500087253,0.048967281945347836,-1.3169426110237734
-0.00773628500087253,0.05266550679793163,-1.3132352600427357
-0.00773449500087253,0.05266550679793163,-1.320649962004811
-0.00773270500087253,0.048967281945347836,-1.3169426110237734
-0.00773091500087253,0.048967281945347836,-1.3169426110237734
-0.00772912500087253,0.045269057092764034,-1.3169426110237734
-0.0077273350008725305,0.048967281945347836,-1.3169426110237734
-0.00772554500087253,0.048967281945347836,-1.320649962004811
-0.00772375500087253,0.045269057092764034,-1.3169426110237734
-0.00772196500087253,0.045269057092764034,-1.320649962004811
-0.0077201750008725305,0.045269057092764034,-1.320649962004811
-0.00771838500087253,0.045269057092764034,-1.3169426110237734
-0.00771659500087253,0.045269057092764034,-1.3169426110237734
-0.00771480500087253,0.05266550679793163,-1.320649962004811
-0.0077130150008725305,0.048967281945347836,-1.320649962004811
-0.00771122500087253,0.048967281945347836,-1.320649962004811
-0.00770943500087253,0.048967281945347836,-1.320649962004811
-0.00770764500087253,0.04157083224018024,-1.3169426110237734
-0.0077058550008725305,0.045269057092764034,-1.3132352600427357
-0.00770406500087253,0.048967281945347836,-1.3169426110237734
-0.00770227500087253,0.04157083224018024,-1.3169426110237734
-0.00770048500087253,0.045269057092764034,-1.3132352600427357
-0.0076986950008725305,0.04157083224018024,-1.320649962004811
-0.00769690500087253,0.045269057092764034,-1.3169426110237734
-0.00769511500087253,0.04157083224018024,-1.320649962004811
-0.00769332500087253,0.04157083224018024,-1.3169426110237734
-0.0076915350008725306,0.03787260738759644,-1.3169426110237734
-0.00768974500087253,0.03787260738759644,-1.3132352600427357
-0.00768795500087253,0.034174382535012635,-1.3169426110237734
-0.00768616500087253,0.04157083224018024,-1.320649962004811
-0.007684375000872531,0.04157083224018024,-1.320649962004811
-0.00768258500087253,0.03787260738759644,-1.320649962004811
-0.00768079500087253,0.03787260738759644,-1.320649962004811
-0.00767900500087253,0.034174382535012635,-1.320649962004811
-0.007677215000872531,0.03787260738759644,-1.3132352600427357
-0.00767542500087253,0.04157083224018024,-1.3169426110237734
-0.00767363500087253,0.034174382535012635,-1.3132352600427357
-0.00767184500087253,0.03787260738759644,-1.3169426110237734
-0.007670055000872531,0.03787260738759644,-1.3169426110237734
-0.00766826500087253,0.03787260738759644,-1.3132352600427357
-0.00766647500087253,0.03787260738759644,-1.3169426110237734
-0.00766468500087253,0.03787260738759644,-1.320649962004811
-0.00766289500087253,0.03787260738759476,-1.3206499620048093
-0.00766110500087253,0.034174382535012635,-1.3169426110237734
-0.00765931500087253,0.03047615768242884,-1.3132352600427357
-0.0076575250008725304,0.034174382535012635,-1.3132352600427357
-0.00765573500087253,0.03047615768242884,-1.3169426110237752
-0.00765394500087253,0.03047615768242884,-1.320649962004811
-0.00765215500087253,0.034174382535012635,-1.320649962004811
-0.0076503650008725305,0.034174382535012635,-1.3169426110237734
-0.00764857500087253,0.03787260738759644,-1.3132352600427357
-0.00764678500087253,0.03787260738759644,-1.3169426110237734
-0.00764499500087253,0.03047615768242884,-1.3169426110237734
-0.0076432050008725305,0.026777932829845037,-1.320649962004811
-0.00764141500087253,0.03047615768242884,-1.3169426110237734
-0.00763962500087253,0.03047615768242884,-1.3169426110237734
-0.00763783500087253,0.03047615768242884,-1.3169426110237734
-0.0076360450008725305,0.026777932829845037,-1.3169426110237734
-0.00763425500087253,0.026777932829845037,-1.3169426110237734
-0.00763246500087253,0.026777932829845037,-1.3132352600427357
-0.00763067500087253,0.03047615768242884,-1.3132352600427357
-0.0076288850008725305,0.02307970797726124,-1.3169426110237734
-0.00762709500087253,0.026777932829845037,-1.3169426110237734
-0.00762530500087253,0.02307970797726124,-1.3169426110237734
-0.00762351500087253,0.02307970797726124,-1.3132352600427357
-0.0076217250008725305,0.026777932829845037,-1.3169426110237734
-0.00761993500087253,0.02307970797726124,-1.3169426110237734
-0.00761814500087253,0.026777932829845037,-1.320649962004811
-0.00761635500087253,0.026777932829845037,-1.3132352600427357
-0.007614565000872531,0.03047615768242884,-1.320649962004811
-0.00761277500087253,0.03047615768242884,-1.320649962004811
-0.00761098500087253,0.03047615768242884,-1.320649962004811
-0.00760919500087253,0.026777932829845037,-1.320649962004811
-0.007607405000872531,0.026777932829845037,-1.320649962004811
-0.00760561500087253,0.02307970797726124,-1.320649962004811
-0.00760382500087253,0.02307970797726124,-1.3243573129858488
-0.00760203500087253,0.026777932829845037,-1.3132352600427357
-0.007600245000872531,0.01938148312467744,-1.320649962004811
-0.00759845500087253,0.026777932829845037,-1.3132352600427357
-0.00759666500087253,0.02307970797726124,-1.320649962004811
-0.00759487500087253,0.02307970797726124,-1.3132352600427357
-0.007593085000872531,0.019381483124679123,-1.3169426110237716
-0.00759129500087253,0.015683258272093638,-1.3169426110237734
-0.00758950500087253,0.02307970797726124,-1.3132352600427357
-0.00758771500087253,0.02307970797726124,-1.3169426110237734
-0.00758592500087253,0.015683258272098682,-1.3169426110237752
-0.00758413500087253,0.026777932829845037,-1.320649962004811
-0.00758234500087253,0.02307970797726124,-1.320649962004811
-0.0075805550008725305,0.015683258272093638,-1.3243573129858488
-0.00757876500087253,0.015683258272093638,-1.320649962004811
-0.00757697500087253,0.01938148312467744,-1.3169426110237734
-0.00757518500087253,0.01938148312467744,-1.320649962004811
-0.0075733950008725305,0.015683258272093638,-1.3169426110237734
-0.00757160500087253,0.015683258272093638,-1.320649962004811
-0.00756981500087253,0.015683258272093638,-1.320649962004811
-0.00756802500087253,0.015683258272093638,-1.3169426110237734
-0.0075662350008725305,0.02307970797726124,-1.3132352600427357
-0.00756444500087253,0.01938148312467744,-1.3132352600427357
-0.00756265500087253,0.015683258272093638,-1.320649962004811
-0.00756086500087253,0.01198503341950984,-1.320649962004811
-0.0075590750008725305,0.00828680856692604,-1.320649962004811
-0.00755728500087253,0.01938148312467744,-1.3169426110237734
-0.00755549500087253,0.01938148312467744,-1.3169426110237734
-0.00755370500087253,0.015683258272093638,-1.3243573129858488
-0.0075519150008725305,0.01938148312467744,-1.3169426110237734
-0.00755012500087253,0.00828680856692604,-1.3169426110237734
-0.00754833500087253,0.01938148312467744,-1.320649962004811
-0.00754654500087253,0.01938148312467744,-1.3169426110237734
-0.0075447550008725306,0.01198503341950984,-1.320649962004811
-0.00754296500087253,0.015683258272093638,-1.3169426110237734
-0.00754117500087253,0.00828680856692604,-1.3243573129858488
-0.00753938500087253,0.015683258272093638,-1.3243573129858488
-0.007537595000872531,0.01198503341950984,-1.320649962004811
-0.00753580500087253,0.01198503341950984,-1.320649962004811
-0.00753401500087253,0.01198503341950984,-1.320649962004811
-0.00753222500087253,0.01198503341950984,-1.3169426110237734
-0.007530435000872531,0.01198503341950984,-1.3169426110237734
-0.00752864500087253,0.015683258272093638,-1.320649962004811
-0.00752685500087253,0.01198503341950984,-1.320649962004811
-0.00752506500087253,0.00828680856692604,-1.3169426110237734
-0.007523275000872531,0.015683258272090272,-1.3169426110237734
-0.00752148500087253,0.01198503341950984,-1.320649962004811
-0.00751969500087253,0.00828680856692604,-1.3243573129858488
-0.00751790500087253,0.01198503341950984,-1.3169426110237734
-0.007516115000872531,0.01198503341950984,-1.3206499620048093
-0.00751432500087253,0.01198503341950984,-1.3243573129858488
-0.00751253500087253,0.01198503341950984,-1.320649962004811
-0.0075107450008725304,0.01198503341950984,-1.3169426110237734
-0.00750895500087253,0.00828680856692604,-1.3169426110237752
-0.00750716500087253,0.00828680856692604,-1.320649962004811
-0.00750537500087253,0.01198503341950984,-1.3169426110237734
-0.0075035850008725305,0.015683258272093638,-1.320649962004811
-0.00750179500087253,0.01198503341950984,-1.3169426110237734
-0.00750000500087253,-2.2402339018040243,0.6405387069641295
-0.00749821500087253,-3.164790114949974,1.3338133404181785
-0.0074964250008725305,-3.1610918900973903,1.3301059894371408
-0.00749463500087253,-3.149997215539639,1.3301059894371408
-0.00749284500087253,-3.1426007658344712,1.326398638456103
-0.00749105500087253,-3.13150609127672,1.3226912874750654
-0.0074892650008725305,-3.127807866424136,1.326398638456103
-0.00748747500087253,-3.116713191866385,1.3301059894371408
-0.00748568500087253,-3.1056185173086335,1.3226912874750654
-0.00748389500087253,-3.0982220676034657,1.3226912874750654
-0.0074821050008725305,-3.0797309433405466,1.3226912874750654
-0.00748031500087253,-3.0649380439302116,1.3226912874750654
-0.00747852500087253,-3.057541594225044,1.31527658551299
-0.00747673500087253,-3.042748694814709,1.31527658551299
-0.0074749450008725305,-3.0279557954043734,1.3115692345319523
-0.00747315500087253,-3.0131628959940384,1.31527658551299
-0.00747136500087253,-3.0057664462888707,1.3115692345319523
-0.00746957500087253,-2.9946717717311193,1.3115692345319523
-0.007467785000872531,-2.983577097173368,1.3078618835509146
-0.00746599500087253,-2.968784197763033,1.3078618835509146
-0.00746420500087253,-2.965085972910449,1.304154532569877
-0.00746241500087253,-2.950293073500114,1.3078618835509146
-0.007460625000872531,-2.9355001740897784,1.3004471815888392
-0.00745883500087253,-2.928103724384611,1.3004471815888392
-0.00745704500087253,-2.9133108249742756,1.2930324796267638
-0.00745525500087253,-2.8985179255639406,1.2967398306078015
-0.007453465000872531,-2.8874232510061892,1.2930324796267638
-0.00745167500087253,-2.876328576448438,1.2930324796267638
-0.00744988500087253,-2.8615356770381024,1.2930324796267638
-0.00744809500087253,-2.850441002480351,1.2893251286457261
-0.007446305000872531,-2.8393463279226046,1.2893251286457261
-0.00744451500087253,-2.831949878217432,1.2893251286457261
-0.00744272500087253,-2.8208552036596806,1.2856177776646884
-0.00744093500087253,-2.809760529101929,1.2856177776646884
-0.00743914500087253,-2.798665854544173,1.285617777664685
-0.00743735500087253,-2.7875711799864265,1.278203075702613
-0.00743556500087253,-2.783872955133843,1.278203075702613
-0.0074337750008725305,-2.7727782805760914,1.278203075702613
-0.00743198500087253,-2.76168360601834,1.2819104266836507
-0.00743019500087253,-2.7542871563131723,1.2856177776646884
-0.00742840500087253,-2.7468907066080046,1.2856177776646884
-0.0074266150008725305,-2.7394942569028373,1.2856177776646884
-0.00742482500087253,-2.7357960320502532,1.2819104266836507
-0.00742303500087253,-2.721003132639918,1.2856177776646884
-0.00742124500087253,-2.7062102332295828,1.278203075702613
-0.0074194550008725305,-2.6951155586718314,1.2744957247215754
-0.00741766500087253,-2.68402088411408,1.2744957247215754
-0.00741587500087253,-2.6766244344089127,1.278203075702613
-0.00741408500087253,-2.6655297598511614,1.2744957247215754
-0.0074122950008725305,-2.6581333101459936,1.2744957247215754
-0.00741050500087253,-2.650736860440826,1.2670810227595
-0.00740871500087253,-2.643340410735658,1.2744957247215754
-0.00740692500087253,-2.635943961030491,1.2744957247215754
-0.0074051350008725305,-2.628547511325323,1.2744957247215754
-0.00740334500087253,-2.6211510616201554,1.2744957247215754
-0.00740155500087253,-2.6063581622098204,1.2744957247215754
-0.00739976500087253,-2.5989617125046527,1.2707883737405377
-0.0073979750008725306,-2.595263487652069,1.2744957247215754
-0.00739618500087253,-2.5878670379469013,1.2707883737405377
-0.00739439500087253,-2.5841688130943177,1.2707883737405377
-0.00739260500087253,-2.5730741385365663,1.2707883737405377
-0.007390815000872531,-2.5656776888313986,1.2707883737405377
-0.00738902500087253,-2.558281239126231,1.2744957247215754
-0.00738723500087253,-2.543488339715896,1.2744957247215754
-0.00738544500087253,-2.536091890010728,1.278203075702613
-0.007383655000872531,-2.5286954403055604,1.2707883737405377
-0.00738186500087253,-2.521298990600393,1.2744957247215754
-0.00738007500087253,-2.5102043160426417,1.2744957247215754
-0.00737828500087253,-2.5102043160426417,1.2707883737405377
-0.007376495000872531,-2.502807866337474,1.278203075702613
-0.00737470500087253,-2.4917131917797226,1.2670810227595
-0.00737291500087253,-2.484316742074555,1.2707883737405377
-0.00737112500087253,-2.4769202923693876,1.2707883737405377
-0.007369335000872531,-2.4695238426642234,1.2707883737405377
-0.00736754500087253,-2.462127392959052,1.2744957247215754
-0.00736575500087253,-2.4547309432538844,1.2744957247215754
-0.0073639650008725304,-2.4584291681064685,1.2744957247215754
-0.00736217500087253,-2.4473344935487154,1.2744957247215771
-0.00736038500087253,-2.443636268696133,1.278203075702613
-0.00735859500087253,-2.4362398189909658,1.2744957247215754
-0.0073568050008725305,-2.4251451444332144,1.278203075702613
-0.00735501500087253,-2.4140504698754626,1.2744957247215754
-0.00735322500087253,-2.4066540201702953,1.2670810227595
-0.00735143500087253,-2.395559345612544,1.2670810227595
-0.0073496450008725305,-2.388162895907376,1.2670810227595
-0.00734785500087253,-2.388162895907376,1.2670810227595
-0.00734606500087253,-2.377068221349625,1.2670810227595
-0.00734427500087253,-2.369671771644457,1.2670810227595
-0.0073424850008725305,-2.36227532193929,1.2707883737405377
-0.00734069500087253,-2.3585770970867057,1.2707883737405377
-0.00733890500087253,-2.3585770970867057,1.2707883737405377
-0.00733711500087253,-2.3437841976763707,1.2707883737405377
-0.0073353250008725305,-2.3400859728237866,1.2670810227595
-0.00733353500087253,-2.336387747971203,1.2670810227595
-0.00733174500087253,-2.3252930734134516,1.2707883737405377
-0.00732995500087253,-2.321594848560868,1.2744957247215754
-0.0073281650008725305,-2.317896623708284,1.2744957247215754
-0.00732637500087253,-2.3068019491505325,1.2744957247215754
-0.00732458500087253,-2.299405499445365,1.2707883737405377
-0.00732279500087253,-2.295707274592781,1.2707883737405377
-0.007321005000872531,-2.2883108248876134,1.2670810227595
-0.00731921500087253,-2.2735179254772784,1.2670810227595
-0.00731742500087253,-2.2698197006246947,1.2633736717784623
-0.00731563500087253,-2.2661214757721106,1.2670810227595
-0.007313845000872531,-2.2587250260669434,1.2670810227595
-0.00731205500087253,-2.2513285763617756,1.2670810227595
-0.00731026500087253,-2.247630351509192,1.2670810227595
-0.00730847500087253,-2.2402339018040243,1.2707883737405377
-0.007306685000872531,-2.2328374520988565,1.2670810227595
-0.00730489500087253,-2.225441002393689,1.2744957247215754
-0.00730310500087253,-2.2180445526885215,1.2744957247215754
-0.00730131500087253,-2.221742777541105,1.2744957247215754
-0.007299525000872531,-2.2106481029833587,1.2744957247215754
-0.00729773500087253,-2.203251653278186,1.2744957247215754
-0.00729594500087253,-2.1995534284256024,1.2707883737405377
-0.00729415500087253,-2.1958552035730188,1.2744957247215754
-0.00729236500087253,-2.192156978720431,1.2744957247215771
-0.00729057500087253,-2.1847605290152674,1.278203075702613
-0.00728878500087253,-2.1773640793100997,1.2707883737405377
-0.0072869950008725305,-2.173665854457516,1.2707883737405377
-0.00728520500087253,-2.1588729550471806,1.2707883737405377
-0.00728341500087253,-2.1588729550471806,1.2707883737405377
-0.00728162500087253,-2.1440800556368456,1.2707883737405377
-0.0072798350008725305,-2.1403818307842615,1.2670810227595
-0.00727804500087253,-2.136683605931678,1.2707883737405377
-0.00727625500087253,-2.132985381079094,1.2670810227595
-0.00727446500087253,-2.1255889313739265,1.2707883737405377
-0.0072726750008725305,-2.1181924816687587,1.2707883737405377
-0.00727088500087253,-2.1181924816687587,1.2633736717784623
-0.00726909500087253,-2.114494256816175,1.2670810227595
-0.00726730500087253,-2.1107960319635914,1.2633736717784623
-0.0072655150008725305,-2.1033995822584237,1.2707883737405377
-0.00726372500087253,-2.096003132553256,1.2707883737405377
-0.00726193500087253,-2.096003132553256,1.2707883737405377
-0.00726014500087253,-2.0849084579955046,1.278203075702613
-0.0072583550008725305,-2.0738137834377532,1.2707883737405377
-0.00725656500087253,-2.0738137834377532,1.2670810227595
-0.00725477500087253,-2.0701155585851696,1.2670810227595
-0.00725298500087253,-2.0590208840274182,1.2670810227595
-0.0072511950008725306,-2.055322659174834,1.2670810227595
-0.00724940500087253,-2.0479262094696664,1.2670810227595
-0.00724761500087253,-2.040529759764499,1.2670810227595
-0.00724582500087253,-2.036831534911915,1.2633736717784623
-0.007244035000872531,-2.0331333100593314,1.2707883737405377
-0.00724224500087253,-2.0294350852067478,1.2707883737405377
-0.00724045500087253,-2.02203863550158,1.2670810227595
-0.00723866500087253,-2.0183404106489964,1.2670810227595
-0.007236875000872531,-2.0109439609438287,1.2707883737405377
-0.00723508500087253,-2.0109439609438287,1.2707883737405377
-0.00723329500087253,-2.003547511238661,1.2707883737405377
-0.00723150500087253,-1.9961510615334932,1.2670810227595
-0.007229715000872531,-1.9961510615334932,1.2707883737405377
-0.00722792500087253,-1.9924528366809093,1.2707883737405377
-0.00722613500087253,-1.9887546118283257,1.2707883737405377
-0.00722434500087253,-1.981358162123158,1.2707883737405377
-0.007222555000872531,-1.9739617124179938,1.2707883737405377
-0.00722076500087253,-1.9665652627128227,1.2707883737405377
-0.00721897500087253,-1.962867037860239,1.2707883737405377
-0.0072171850008725304,-1.9554705881550714,1.2670810227595
-0.00721539500087253,-1.951772363302481,1.2633736717784656
-0.00721360500087253,-1.9369794638921525,1.2707883737405377
-0.00721181500087253,-1.9332812390395686,1.2670810227595
-0.0072100250008725305,-1.9369794638921525,1.2670810227595
-0.00720823500087253,-1.9295830141869847,1.2670810227595
-0.00720644500087253,-1.9221865644818172,1.2670810227595
-0.00720465500087253,-1.9184883396292334,1.2707883737405377
-0.0072028650008725305,-1.9110918899240659,1.2670810227595
-0.00720107500087253,-1.907393665071482,1.2744957247215754
-0.00719928500087253,-1.8999972153663145,1.2707883737405377
-0.00719749500087253,-1.8962989905137306,1.2707883737405377
-0.0071957050008725305,-1.8926007656611468,1.2633736717784623
-0.00719391500087253,-1.8889025408085631,1.2744957247215754
-0.00719212500087253,-1.8778078662508115,1.2707883737405377
-0.00719033500087253,-1.870411416545644,1.2707883737405377
-0.0071885450008725305,-1.870411416545644,1.2670810227595
-0.00718675500087253,-1.8630149668404765,1.2670810227595
-0.00718496500087253,-1.8556185171353088,1.2707883737405377
-0.00718317500087253,-1.8556185171353088,1.2670810227595
-0.0071813850008725305,-1.8482220674301413,1.2670810227595
-0.00717959500087253,-1.8408256177249736,1.2633736717784623
-0.00717780500087253,-1.833429168019806,1.2707883737405377
-0.00717601500087253,-1.833429168019806,1.2707883737405377
-0.007174225000872531,-1.8297309431672222,1.2707883737405377
-0.00717243500087253,-1.8260327183146385,1.2670810227595
-0.00717064500087253,-1.8223344934620547,1.2707883737405377
-0.00716885500087253,-1.814938043756887,1.278203075702613
-0.007167065000872531,-1.814938043756887,1.2744957247215754
-0.00716527500087253,-1.814938043756887,1.2744957247215754
-0.00716348500087253,-1.8075415940517194,1.2707883737405377
