200Hz/acq0032.csv

#Digilent WaveForms Oscilloscope Acquisition
#Device Name: Discovery2
#Serial Number: SN:210321AA28BE
#Date Time: 2023-05-24 14:48:04.863
#Sample rate: 558659Hz
#Samples: 8192
#Trigger: Source: Channel 1 Type: Edge Condition: Rising Level: 800 mV Hyst.: Auto HoldOff: 100 ns
#Channel 1: Range: 1 V/div Offset: 0 V Attenuation: 1 X Sample Mode: Average
#Channel 2: Range: 1 V/div Offset: 0 V Attenuation: 1 X Sample Mode: Average

Time (s),Channel 1 (V),Channel 2 (V)
-0.007741768835478871,0.034174382535012635,-1.320649962004811
-0.007739978835478872,0.03787260738759476,-1.313235260042739
-0.007738188835478871,0.034174382535012635,-1.3169426110237734
-0.007736398835478871,0.03787260738759644,-1.3169426110237734
-0.0077346088354788714,0.03787260738759644,-1.3132352600427357
-0.007732818835478871,0.034174382535012635,-1.3169426110237752
-0.007731028835478871,0.034174382535012635,-1.320649962004811
-0.007729238835478871,0.03787260738759644,-1.3169426110237734
-0.0077274488354788715,0.034174382535012635,-1.3169426110237734
-0.007725658835478871,0.03047615768242884,-1.320649962004811
-0.007723868835478871,0.034174382535012635,-1.320649962004811
-0.007722078835478871,0.034174382535012635,-1.320649962004811
-0.0077202888354788715,0.03047615768242884,-1.3169426110237734
-0.007718498835478871,0.03787260738759644,-1.3169426110237734
-0.007716708835478871,0.034174382535012635,-1.3169426110237734
-0.007714918835478871,0.034174382535012635,-1.320649962004811
-0.0077131288354788715,0.03047615768242884,-1.3169426110237734
-0.007711338835478871,0.03787260738759644,-1.3169426110237734
-0.007709548835478871,0.026777932829845037,-1.3169426110237734
-0.007707758835478871,0.03047615768242884,-1.320649962004811
-0.0077059688354788715,0.03047615768242884,-1.320649962004811
-0.007704178835478871,0.026777932829845037,-1.3169426110237734
-0.007702388835478871,0.034174382535012635,-1.3169426110237734
-0.007700598835478871,0.034174382535012635,-1.3169426110237734
-0.0076988088354788715,0.034174382535012635,-1.320649962004811
-0.007697018835478871,0.026777932829845037,-1.320649962004811
-0.007695228835478871,0.026777932829845037,-1.3169426110237734
-0.007693438835478871,0.02307970797726124,-1.3169426110237734
-0.0076916488354788716,0.02307970797726124,-1.3132352600427357
-0.007689858835478871,0.02307970797726124,-1.320649962004811
-0.007688068835478871,0.026777932829845037,-1.320649962004811
-0.007686278835478871,0.026777932829845037,-1.3243573129858488
-0.007684488835478872,0.026777932829845037,-1.320649962004811
-0.007682698835478871,0.026777932829845037,-1.320649962004811
-0.007680908835478871,0.03047615768242884,-1.3169426110237734
-0.007679118835478871,0.01938148312467744,-1.320649962004811
-0.007677328835478872,0.02307970797726124,-1.3169426110237734
-0.007675538835478871,0.01938148312467744,-1.3132352600427357
-0.007673748835478871,0.026777932829845037,-1.3169426110237734
-0.007671958835478871,0.02307970797726124,-1.3132352600427357
-0.007670168835478872,0.02307970797726124,-1.3169426110237716
-0.007668378835478871,0.01938148312467744,-1.3169426110237734
-0.007666588835478871,0.026777932829845037,-1.3169426110237734
-0.007664798835478871,0.02307970797726124,-1.320649962004811
-0.007663008835478871,0.023079707977259556,-1.3206499620048093
-0.007661218835478871,0.01938148312467744,-1.3169426110237734
-0.007659428835478871,0.015683258272093638,-1.320649962004811
-0.0076576388354788714,0.015683258272093638,-1.320649962004811
-0.007655848835478871,0.02307970797726124,-1.3169426110237734
-0.007654058835478871,0.02307970797726124,-1.3169426110237734
-0.007652268835478871,0.02307970797726124,-1.320649962004811
-0.0076504788354788715,0.01938148312467744,-1.320649962004811
-0.007648688835478871,0.01198503341950984,-1.320649962004811
-0.007646898835478871,0.01198503341950984,-1.320649962004811
-0.007645108835478871,0.015683258272093638,-1.3169426110237734
-0.0076433188354788715,0.01938148312467744,-1.320649962004811
-0.007641528835478871,0.015683258272093638,-1.320649962004811
-0.007639738835478871,0.02307970797726124,-1.3169426110237734
-0.007637948835478871,0.01198503341950984,-1.320649962004811
-0.0076361588354788715,0.015683258272093638,-1.3169426110237734
-0.007634368835478871,0.015683258272093638,-1.3132352600427357
-0.007632578835478871,0.01938148312467744,-1.320649962004811
-0.007630788835478871,0.01198503341950984,-1.3169426110237734
-0.0076289988354788715,0.01198503341950984,-1.3169426110237734
-0.007627208835478871,0.01938148312467744,-1.3169426110237734
-0.007625418835478871,0.015683258272093638,-1.320649962004811
-0.007623628835478871,0.015683258272093638,-1.320649962004811
-0.0076218388354788716,0.01198503341950984,-1.320649962004811
-0.007620048835478871,0.01198503341950984,-1.3169426110237734
-0.007618258835478871,0.01198503341950984,-1.320649962004811
-0.007616468835478871,0.015683258272093638,-1.320649962004811
-0.007614678835478872,0.01198503341950984,-1.3169426110237734
-0.007612888835478871,0.01198503341950984,-1.320649962004811
-0.007611098835478871,0.00828680856692604,-1.3169426110237734
-0.007609308835478871,0.00828680856692604,-1.3132352600427357
-0.007607518835478872,0.01198503341950984,-1.320649962004811
-0.007605728835478871,0.00828680856692604,-1.320649962004811
-0.007603938835478871,0.01198503341950984,-1.320649962004811
-0.007602148835478871,0.00828680856692604,-1.3169426110237734
-0.007600358835478872,0.00458858371434224,-1.3169426110237734
-0.007598568835478871,0.00458858371434224,-1.3132352600427357
-0.007596778835478871,0.01198503341950984,-1.3169426110237734
-0.007594988835478871,0.00828680856692604,-1.3169426110237734
-0.007593198835478872,0.00828680856692604,-1.3206499620048093
-0.007591408835478871,0.01198503341950984,-1.3132352600427357
-0.007589618835478871,0.00458858371434224,-1.3169426110237734
-0.0075878288354788714,0.00458858371434224,-1.3169426110237734
-0.007586038835478871,0.00828680856692436,-1.320649962004811
-0.007584248835478871,0.00458858371434224,-1.320649962004811
-0.007582458835478871,0.00458858371434224,-1.3169426110237734
-0.0075806688354788715,0.00458858371434224,-1.3169426110237734
-0.007578878835478871,0.00828680856692604,-1.3132352600427357
-0.007577088835478871,0.00828680856692604,-1.3169426110237734
-0.007575298835478871,0.00458858371434224,-1.320649962004811
-0.0075735088354788715,0.0008903588617584406,-1.320649962004811
-0.007571718835478871,0.00458858371434224,-1.320649962004811
-0.007569928835478871,0.0008903588617584406,-1.3169426110237734
-0.007568138835478871,0.00458858371434224,-1.3169426110237734
-0.0075663488354788715,0.00458858371434224,-1.3169426110237734
-0.007564558835478871,0.0008903588617584406,-1.3169426110237734
-0.007562768835478871,0.00458858371434224,-1.3169426110237734
-0.007560978835478871,0.00458858371434224,-1.3169426110237734
-0.0075591888354788715,0.0008903588617584406,-1.320649962004811
-0.007557398835478871,-0.002807865990825359,-1.320649962004811
-0.007555608835478871,0.00828680856692604,-1.3169426110237734
-0.007553818835478871,-0.002807865990825359,-1.3243573129858488
-0.0075520288354788715,-0.002807865990825359,-1.3132352600427357
-0.007550238835478871,0.0008903588617584406,-1.320649962004811
-0.007548448835478871,0.0008903588617584406,-1.3169426110237734
-0.007546658835478871,0.00458858371434224,-1.320649962004811
-0.0075448688354788716,0.0008903588617584406,-1.320649962004811
-0.007543078835478871,0.0008903588617584406,-1.3169426110237734
-0.007541288835478871,-0.002807865990825359,-1.3169426110237734
-0.007539498835478871,-0.002807865990825359,-1.3132352600427357
-0.007537708835478872,-0.002807865990825359,-1.3169426110237734
-0.007535918835478871,-0.002807865990825359,-1.3169426110237734
-0.007534128835478871,-0.002807865990825359,-1.320649962004811
-0.007532338835478871,-0.002807865990825359,-1.3132352600427357
-0.007530548835478872,-0.002807865990825359,-1.320649962004811
-0.007528758835478871,0.0008903588617584406,-1.320649962004811
-0.007526968835478871,0.0008903588617584406,-1.320649962004811
-0.007525178835478871,-0.0065060908434091584,-1.3169426110237734
-0.007523388835478872,-0.0065060908434091584,-1.3206499620048093
-0.007521598835478871,-0.0065060908434091584,-1.320649962004811
-0.007519808835478871,-0.002807865990825359,-1.3243573129858488
-0.007518018835478871,0.0008903588617584406,-1.320649962004811
-0.007516228835478872,-0.002807865990823677,-1.3169426110237752
-0.007514438835478871,-0.002807865990825359,-1.320649962004811
-0.007512648835478871,-0.002807865990825359,-1.3169426110237734
-0.0075108588354788714,-0.002807865990825359,-1.3169426110237734
-0.007509068835478871,-0.0065060908434091584,-1.3169426110237716
-0.007507278835478871,-0.0065060908434091584,-1.3132352600427357
-0.007505488835478871,0.0008903588617584406,-1.3169426110237734
-0.0075036988354788715,-0.010204315695992958,-1.320649962004811
-0.007501908835478871,-0.0065060908434091584,-1.320649962004811
-0.007500118835478871,-1.94437591359732,0.38102413829149084
-0.007498328835478871,-3.1758847895077253,1.3412280423802538
-0.0074965388354788715,-3.164790114949974,1.326398638456103
-0.007494748835478871,-3.1536954403922226,1.326398638456103
-0.007492958835478871,-3.146298990687055,1.326398638456103
-0.007491168835478871,-3.1389025409818876,1.3226912874750654
-0.0074893788354788715,-3.127807866424136,1.326398638456103
-0.007487588835478871,-3.124109641571552,1.3226912874750654
-0.007485798835478871,-3.116713191866385,1.326398638456103
-0.007484008835478871,-3.1056185173086335,1.3226912874750654
-0.0074822188354788715,-3.094523842750882,1.3226912874750654
-0.007480428835478871,-3.0797309433405466,1.3189839364940277
-0.007478638835478871,-3.072334493635379,1.31527658551299
-0.007476848835478871,-3.0612398190776275,1.31527658551299
-0.0074750588354788716,-3.0464469196672925,1.3189839364940277
-0.007473268835478871,-3.035352245109541,1.3189839364940277
-0.007471478835478871,-3.0205593456992057,1.31527658551299
-0.007469688835478871,-3.0094646711414543,1.31527658551299
-0.007467898835478872,-2.9946717717311193,1.3115692345319523
-0.007466108835478871,-2.9909735468785357,1.3115692345319523
-0.007464318835478871,-2.9724824226156166,1.3078618835509146
-0.007462528835478871,-2.957689523205281,1.3004471815888392
-0.007460738835478872,-2.942896623794946,1.2967398306078015
-0.007458948835478871,-2.9355001740897784,1.2967398306078015
-0.007457158835478871,-2.9170090498268597,1.3004471815888392
-0.007455368835478871,-2.9133108249742756,1.2930324796267638
-0.007453578835478872,-2.9022161504165243,1.2930324796267638
-0.007451788835478871,-2.8874232510061892,1.2893251286457261
-0.007449998835478871,-2.8800268013010215,1.2930324796267638
-0.007448208835478871,-2.86893212674327,1.2893251286457261
-0.007446418835478872,-2.8578374521855237,1.293032479626762
-0.007444628835478871,-2.850441002480351,1.2930324796267638
-0.007442838835478871,-2.835648103070016,1.2930324796267638
-0.0074410488354788714,-2.8245534285122647,1.2893251286457261
-0.007439258835478871,-2.8171569788070934,1.289325128645728
-0.007437468835478871,-2.809760529101929,1.2930324796267638
-0.007435678835478871,-2.7912694048390105,1.2893251286457261
-0.0074338888354788715,-2.783872955133843,1.2856177776646884
-0.007432098835478871,-2.776476505428675,1.2819104266836507
-0.007430308835478871,-2.7653818308709237,1.2819104266836507
-0.007428518835478871,-2.7542871563131723,1.2819104266836507
-0.0074267288354788715,-2.743192481755421,1.278203075702613
-0.007424938835478871,-2.7357960320502532,1.278203075702613
-0.007423148835478871,-2.724701357492502,1.2744957247215754
-0.007421358835478871,-2.7136066829347505,1.2744957247215754
-0.0074195688354788715,-2.7136066829347505,1.2744957247215754
-0.007417778835478871,-2.6951155586718314,1.278203075702613
-0.007415988835478871,-2.6914173338192477,1.278203075702613
-0.007414198835478871,-2.68402088411408,1.2744957247215754
-0.0074124088354788715,-2.6803226592614964,1.2744957247215754
-0.007410618835478871,-2.6655297598511614,1.2744957247215754
-0.007408828835478871,-2.6581333101459936,1.2819104266836507
-0.007407038835478871,-2.6544350852934095,1.2744957247215754
-0.0074052488354788715,-2.643340410735658,1.2744957247215754
-0.007403458835478871,-2.6396421858830745,1.278203075702613
-0.007401668835478871,-2.6248492864727395,1.278203075702613
-0.007399878835478871,-2.6211510616201554,1.278203075702613
-0.0073980888354788716,-2.610056387062404,1.278203075702613
-0.007396298835478871,-2.5989617125046527,1.2707883737405377
-0.007394508835478871,-2.5804705882417336,1.2707883737405377
-0.007392718835478871,-2.5730741385365663,1.2707883737405377
-0.007390928835478872,-2.569375913683982,1.2707883737405377
-0.007389138835478871,-2.5656776888313986,1.2744957247215754
-0.007387348835478871,-2.558281239126231,1.2707883737405377
-0.007385558835478871,-2.543488339715896,1.2744957247215754
-0.007383768835478872,-2.543488339715896,1.2744957247215754
-0.007381978835478871,-2.536091890010728,1.2744957247215754
-0.007380188835478871,-2.5249972154529767,1.2744957247215754
-0.007378398835478871,-2.521298990600393,1.2744957247215754
-0.007376608835478872,-2.517600765747809,1.2707883737405377
-0.007374818835478871,-2.5102043160426417,1.2670810227595
-0.007373028835478871,-2.5065060911900576,1.2707883737405377
-0.007371238835478871,-2.4917131917797226,1.2707883737405377
-0.007369448835478872,-2.4917131917797226,1.2782030757026097
-0.007367658835478871,-2.4769202923693876,1.2744957247215754
-0.007365868835478871,-2.46952384266422,1.2707883737405377
-0.0073640788354788714,-2.465825617811636,1.2670810227595
-0.007362288835478871,-2.458429168106465,1.2670810227595
-0.007360498835478871,-2.4510327184013008,1.2670810227595
-0.007358708835478871,-2.4362398189909658,1.2707883737405377
-0.0073569188354788715,-2.4325415941383817,1.2670810227595
-0.007355128835478871,-2.4214469195806303,1.2633736717784623
-0.007353338835478871,-2.4214469195806303,1.2707883737405377
-0.007351548835478871,-2.4140504698754626,1.2670810227595
-0.0073497588354788715,-2.410352245022879,1.2707883737405377
-0.007347968835478871,-2.3992575704651276,1.2744957247215754
-0.007346178835478871,-2.395559345612544,1.2744957247215754
-0.007344388835478871,-2.388162895907376,1.278203075702613
-0.0073425988354788715,-2.3807664462022085,1.2744957247215754
-0.007340808835478871,-2.377068221349625,1.2744957247215754
-0.007339018835478871,-2.377068221349625,1.2744957247215754
-0.007337228835478871,-2.3659735467918734,1.2744957247215754
-0.0073354388354788715,-2.36227532193929,1.2707883737405377
-0.007333648835478871,-2.351180647381538,1.2707883737405377
-0.007331858835478871,-2.3400859728237866,1.2744957247215754
-0.007330068835478871,-2.336387747971203,1.2670810227595
-0.0073282788354788716,-2.321594848560868,1.2707883737405377
-0.007326488835478871,-2.321594848560868,1.2707883737405377
-0.007324698835478871,-2.317896623708284,1.2670810227595
-0.007322908835478871,-2.303103724297949,1.2670810227595
-0.007321118835478872,-2.303103724297949,1.2707883737405377
-0.007319328835478871,-2.2920090497401975,1.2707883737405377
-0.007317538835478871,-2.2883108248876134,1.2707883737405377
-0.007315748835478871,-2.280914375182446,1.2670810227595
-0.007313958835478872,-2.280914375182446,1.2670810227595
-0.007312168835478871,-2.2735179254772784,1.2633736717784623
-0.007310378835478871,-2.2661214757721106,1.2670810227595
-0.007308588835478871,-2.2587250260669434,1.2707883737405377
-0.007306798835478872,-2.2513285763617756,1.2707883737405377
-0.007305008835478871,-2.243932126656608,1.2707883737405377
-0.007303218835478871,-2.2402339018040243,1.2744957247215754
-0.007301428835478871,-2.2365356769514406,1.2744957247215754
-0.007299638835478872,-2.2291392272462764,1.2744957247215754
-0.007297848835478871,-2.2180445526885215,1.2670810227595
-0.007296058835478871,-2.2143463278359374,1.2670810227595
-0.0072942688354788714,-2.20694987813077,1.2670810227595
-0.007292478835478871,-2.199553428425599,1.2670810227594982
-0.007290688835478871,-2.1921569787204347,1.2633736717784623
-0.007288898835478871,-2.188458753867851,1.2633736717784623
-0.0072871088354788715,-2.1810623041626833,1.2707883737405377
-0.007285318835478871,-2.1810623041626815,1.2670810227595017
-0.007283528835478871,-2.1773640793100997,1.2707883737405377
-0.007281738835478871,-2.169967629604932,1.2707883737405377
-0.0072799488354788715,-2.162571179899764,1.2744957247215754
-0.007278158835478871,-2.1588729550471806,1.2744957247215754
-0.007276368835478871,-2.155174730194597,1.2744957247215754
-0.007274578835478871,-2.1440800556368456,1.2707883737405377
-0.0072727888354788715,-2.1440800556368456,1.2707883737405377
-0.007270998835478871,-2.136683605931678,1.2707883737405377
-0.007269208835478871,-2.136683605931678,1.2744957247215754
-0.007267418835478871,-2.12928715622651,1.278203075702613
-0.0072656288354788715,-2.1181924816687587,1.278203075702613
-0.007263838835478871,-2.1107960319635914,1.2670810227595
-0.007262048835478871,-2.0997013574058396,1.2633736717784623
-0.007260258835478871,-2.0997013574058396,1.2744957247215754
-0.0072584688354788715,-2.0923049077006723,1.2707883737405377
-0.007256678835478871,-2.0886066828480883,1.2707883737405377
-0.007254888835478871,-2.077512008290337,1.2707883737405377
-0.007253098835478871,-2.0701155585851696,1.2670810227595
-0.0072513088354788716,-2.0701155585851696,1.2670810227595
-0.007249518835478871,-2.062719108880002,1.2707883737405377
-0.007247728835478871,-2.055322659174834,1.2707883737405377
-0.007245938835478871,-2.0516244343222505,1.2670810227595
-0.007244148835478872,-2.0479262094696664,1.2707883737405377
-0.007242358835478871,-2.040529759764499,1.2670810227595
-0.007240568835478871,-2.036831534911915,1.2744957247215754
-0.007238778835478871,-2.0294350852067478,1.2707883737405377
-0.007236988835478872,-2.0331333100593314,1.2670810227595
-0.007235198835478871,-2.0257368603541637,1.2707883737405377
-0.007233408835478871,-2.02203863550158,1.2707883737405377
-0.007231618835478871,-2.0146421857964123,1.2670810227595
-0.007229828835478872,-2.003547511238661,1.2670810227595
-0.007228038835478871,-1.9961510615334932,1.2633736717784623
-0.007226248835478871,-1.9887546118283257,1.2670810227595
-0.007224458835478871,-1.9924528366809093,1.2670810227595
-0.007222668835478872,-1.981358162123163,1.2707883737405359
-0.007220878835478871,-1.9776599372705743,1.2707883737405377
-0.007219088835478871,-1.9739617124179905,1.2707883737405377
-0.0072172988354788714,-1.962867037860239,1.2707883737405377
-0.007215508835478871,-1.9628670378602358,1.2707883737405359
-0.007213718835478871,-1.9554705881550714,1.2670810227595
-0.007211928835478871,-1.9554705881550714,1.2707883737405377
-0.0072101388354788715,-1.9517723633024877,1.2707883737405377
-0.007208348835478871,-1.94437591359732,1.2707883737405377
-0.007206558835478871,-1.94437591359732,1.2707883737405377
-0.007204768835478871,-1.9369794638921525,1.2707883737405377
-0.0072029788354788715,-1.9332812390395686,1.278203075702613
-0.007201188835478871,-1.9295830141869847,1.278203075702613
-0.007199398835478871,-1.9147901147766497,1.2670810227595
-0.007197608835478871,-1.9147901147766497,1.2744957247215754
-0.0071958188354788715,-1.907393665071482,1.2707883737405377
-0.007194028835478871,-1.8962989905137306,1.2670810227595
-0.007192238835478871,-1.8962989905137306,1.2707883737405377
-0.007190448835478871,-1.8926007656611468,1.2670810227595
-0.0071886588354788715,-1.8889025408085631,1.2670810227595
-0.007186868835478871,-1.8778078662508115,1.2707883737405377
-0.007185078835478871,-1.870411416545644,1.2633736717784623
-0.007183288835478871,-1.8667131916930602,1.2670810227595
-0.0071814988354788716,-1.8667131916930602,1.2707883737405377
-0.007179708835478871,-1.8593167419878927,1.2707883737405377
-0.007177918835478871,-1.8556185171353088,1.2744957247215754
-0.007176128835478871,-1.8556185171353088,1.2707883737405377
-0.007174338835478872,-1.8519202922827251,1.278203075702613
-0.007172548835478871,-1.8445238425775574,1.2744957247215754
