200Hz/acq0057.csv

#Digilent WaveForms Oscilloscope Acquisition
#Device Name: Discovery2
#Serial Number: SN:210321AA28BE
#Date Time: 2023-05-24 14:48:05.559
#Sample rate: 558659Hz
#Samples: 8192
#Trigger: Source: Channel 1 Type: Edge Condition: Rising Level: 800 mV Hyst.: Auto HoldOff: 100 ns
#Channel 1: Range: 1 V/div Offset: 0 V Attenuation: 1 X Sample Mode: Average
#Channel 2: Range: 1 V/div Offset: 0 V Attenuation: 1 X Sample Mode: Average

Time (s),Channel 1 (V),Channel 2 (V)
-0.007741583783822409,0.07855308076601823,-1.3169426110237734
-0.007739793783822409,0.07485485591343612,-1.3169426110237734
-0.007738003783822408,0.06745840620826683,-1.3169426110237734
-0.0077362137838224085,0.07115663106085063,-1.3169426110237734
-0.007734423783822409,0.07485485591343444,-1.320649962004811
-0.007732633783822408,0.07115663106084895,-1.320649962004811
-0.007730843783822408,0.06745840620826683,-1.320649962004811
-0.0077290537838224085,0.07115663106085063,-1.3169426110237734
-0.007727263783822409,0.07115663106085063,-1.3169426110237734
-0.007725473783822408,0.06376018135568304,-1.320649962004811
-0.007723683783822408,0.06745840620826683,-1.3169426110237734
-0.0077218937838224085,0.06745840620826683,-1.3169426110237734
-0.007720103783822409,0.06745840620826683,-1.320649962004811
-0.007718313783822408,0.06745840620826683,-1.3169426110237734
-0.007716523783822408,0.06745840620826683,-1.3169426110237734
-0.0077147337838224085,0.06745840620826683,-1.3169426110237734
-0.007712943783822409,0.06745840620826683,-1.3132352600427357
-0.007711153783822408,0.06376018135568304,-1.3132352600427357
-0.007709363783822408,0.07115663106085063,-1.3169426110237734
-0.007707573783822409,0.06376018135568304,-1.3169426110237734
-0.007705783783822409,0.06376018135568304,-1.3169426110237734
-0.007703993783822408,0.06376018135568304,-1.3132352600427357
-0.007702203783822408,0.06376018135568304,-1.320649962004811
-0.007700413783822409,0.06376018135568304,-1.320649962004811
-0.007698623783822409,0.05636373165051543,-1.320649962004811
-0.007696833783822408,0.06376018135568304,-1.3132352600427357
-0.007695043783822408,0.06006195650309923,-1.3132352600427357
-0.007693253783822409,0.06006195650309923,-1.3132352600427357
-0.007691463783822409,0.06006195650309923,-1.320649962004811
-0.007689673783822408,0.06376018135568304,-1.3169426110237734
-0.007687883783822408,0.06376018135568304,-1.3169426110237734
-0.007686093783822409,0.06376018135568304,-1.320649962004811
-0.007684303783822409,0.05636373165051543,-1.320649962004811
-0.007682513783822408,0.05636373165051543,-1.3243573129858488
-0.007680723783822408,0.06006195650309923,-1.320649962004811
-0.007678933783822409,0.06376018135568304,-1.3169426110237734
-0.007677143783822409,0.05636373165051543,-1.3243573129858488
-0.007675353783822408,0.05636373165051543,-1.320649962004811
-0.0076735637838224085,0.06006195650309923,-1.3169426110237734
-0.007671773783822409,0.05266550679793163,-1.320649962004811
-0.007669983783822409,0.056363731650513754,-1.3169426110237752
-0.007668193783822408,0.05266550679793163,-1.3169426110237734
-0.0076664037838224085,0.05636373165051543,-1.3169426110237734
-0.007664613783822409,0.05266550679793163,-1.3132352600427357
-0.007662823783822408,0.05266550679793331,-1.3169426110237752
-0.007661033783822408,0.05636373165051543,-1.320649962004811
-0.0076592437838224085,0.048967281945347836,-1.320649962004811
-0.007657453783822409,0.05636373165051543,-1.3132352600427357
-0.007655663783822408,0.05266550679793163,-1.313235260042739
-0.007653873783822408,0.05266550679793163,-1.320649962004811
-0.0076520837838224085,0.05636373165051543,-1.3169426110237734
-0.007650293783822409,0.05266550679793163,-1.3169426110237734
-0.007648503783822408,0.05636373165051543,-1.3169426110237734
-0.007646713783822408,0.05636373165051543,-1.320649962004811
-0.0076449237838224085,0.05636373165051543,-1.320649962004811
-0.007643133783822409,0.05266550679793163,-1.320649962004811
-0.007641343783822408,0.05266550679793163,-1.320649962004811
-0.007639553783822408,0.048967281945347836,-1.3169426110237734
-0.0076377637838224086,0.05266550679793163,-1.3169426110237734
-0.007635973783822409,0.048967281945347836,-1.3169426110237734
-0.007634183783822408,0.048967281945347836,-1.3169426110237734
-0.007632393783822408,0.048967281945347836,-1.3132352600427357
-0.007630603783822409,0.05266550679793163,-1.3169426110237734
-0.007628813783822409,0.05266550679793163,-1.3132352600427357
-0.007627023783822408,0.045269057092764034,-1.3132352600427357
-0.007625233783822408,0.048967281945347836,-1.3132352600427357
-0.007623443783822409,0.048967281945347836,-1.3169426110237734
-0.007621653783822409,0.05266550679793163,-1.3169426110237734
-0.007619863783822408,0.048967281945347836,-1.320649962004811
-0.007618073783822408,0.045269057092764034,-1.320649962004811
-0.007616283783822409,0.045269057092764034,-1.3169426110237734
-0.007614493783822409,0.045269057092764034,-1.320649962004811
-0.007612703783822408,0.045269057092764034,-1.3169426110237734
-0.007610913783822408,0.048967281945347836,-1.3169426110237734
-0.007609123783822409,0.045269057092764034,-1.3169426110237734
-0.007607333783822409,0.04157083224018024,-1.3169426110237734
-0.007605543783822408,0.045269057092764034,-1.320649962004811
-0.0076037537838224084,0.045269057092764034,-1.320649962004811
-0.007601963783822409,0.045269057092764034,-1.3132352600427357
-0.007600173783822409,0.045269057092764034,-1.3169426110237734
-0.007598383783822408,0.045269057092764034,-1.3132352600427357
-0.0075965937838224085,0.045269057092764034,-1.3169426110237734
-0.007594803783822409,0.04157083224018024,-1.320649962004811
-0.007593013783822409,0.045269057092762355,-1.3169426110237752
-0.007591223783822408,0.04157083224018024,-1.3169426110237734
-0.0075894337838224085,0.04157083224018024,-1.3132352600427357
-0.007587643783822409,0.04157083224018024,-1.3169426110237734
-0.007585853783822408,0.04157083224017856,-1.3169426110237734
-0.007584063783822408,0.03787260738759644,-1.3169426110237734
-0.0075822737838224085,0.03787260738759644,-1.3132352600427357
-0.007580483783822409,0.04157083224018024,-1.3132352600427357
-0.007578693783822408,0.04157083224018024,-1.3132352600427357
-0.007576903783822408,0.045269057092764034,-1.3132352600427357
-0.0075751137838224085,0.045269057092764034,-1.320649962004811
-0.007573323783822409,0.03787260738759644,-1.3169426110237734
-0.007571533783822408,0.04157083224018024,-1.3169426110237734
-0.007569743783822408,0.04157083224018024,-1.3169426110237734
-0.0075679537838224085,0.03787260738759644,-1.309527909061698
-0.007566163783822409,0.04157083224018024,-1.3169426110237734
-0.007564373783822408,0.034174382535012635,-1.3169426110237734
-0.007562583783822408,0.03787260738759644,-1.3169426110237734
-0.007560793783822409,0.03047615768242884,-1.3169426110237734
-0.007559003783822409,0.03787260738759644,-1.3169426110237734
-0.007557213783822408,0.03787260738759644,-1.3169426110237734
-0.007555423783822408,0.04157083224018024,-1.3169426110237734
-0.007553633783822409,0.03787260738759644,-1.3169426110237734
-0.007551843783822409,0.03787260738759644,-1.3169426110237734
-0.007550053783822408,0.034174382535012635,-1.3132352600427357
-0.007548263783822408,0.034174382535012635,-1.3169426110237734
-0.007546473783822409,0.03787260738759644,-1.3132352600427357
-0.007544683783822409,0.03787260738759644,-1.320649962004811
-0.007542893783822408,0.034174382535012635,-1.3169426110237734
-0.007541103783822408,0.03787260738759644,-1.3169426110237734
-0.007539313783822409,0.034174382535012635,-1.320649962004811
-0.007537523783822409,0.03787260738759644,-1.3169426110237734
-0.007535733783822408,0.03787260738759644,-1.3169426110237734
-0.007533943783822408,0.04157083224018024,-1.3169426110237734
-0.007532153783822409,0.03787260738759644,-1.3169426110237734
-0.007530363783822409,0.04157083224018024,-1.320649962004811
-0.007528573783822408,0.034174382535012635,-1.320649962004811
-0.0075267837838224085,0.034174382535012635,-1.3169426110237734
-0.007524993783822409,0.034174382535012635,-1.3132352600427357
-0.007523203783822409,0.034174382535012635,-1.3169426110237716
-0.007521413783822408,0.03047615768242884,-1.320649962004811
-0.0075196237838224085,0.034174382535012635,-1.320649962004811
-0.007517833783822409,0.034174382535012635,-1.320649962004811
-0.007516043783822409,0.034174382535012635,-1.320649962004811
-0.007514253783822408,0.03787260738759644,-1.3169426110237734
-0.0075124637838224085,0.03047615768242884,-1.3169426110237734
-0.007510673783822409,0.034174382535012635,-1.3169426110237734
-0.007508883783822408,0.034174382535014314,-1.3132352600427375
-0.007507093783822408,0.03787260738759644,-1.3169426110237734
-0.0075053037838224085,0.03787260738759644,-1.320649962004811
-0.007503513783822409,0.03047615768242884,-1.320649962004811
-0.007501723783822408,0.03047615768242884,-1.3169426110237734
-0.007499933783822408,-2.5065060911900576,0.8703944677884666
-0.0074981437838224085,-3.164790114949974,1.3338133404181785
-0.007496353783822409,-3.149997215539639,1.3301059894371408
-0.007494563783822408,-3.1426007658344712,1.3301059894371408
-0.007492773783822408,-3.13150609127672,1.3301059894371408
-0.0074909837838224086,-3.1204114167189685,1.326398638456103
-0.007489193783822409,-3.1130149670138008,1.3301059894371408
-0.007487403783822408,-3.1019202924560494,1.326398638456103
-0.007485613783822408,-3.090825617898298,1.3301059894371408
-0.007483823783822409,-3.0797309433405466,1.326398638456103
-0.007482033783822409,-3.057541594225044,1.326398638456103
-0.007480243783822408,-3.0538433693724603,1.31527658551299
-0.007478453783822408,-3.035352245109541,1.31527658551299
-0.007476663783822409,-3.02425757055179,1.31527658551299
-0.007474873783822409,-3.002068221436287,1.31527658551299
-0.007473083783822408,-2.9909735468785357,1.31527658551299
-0.007471293783822408,-2.9798788723207843,1.3115692345319523
-0.007469503783822409,-2.9724824226156166,1.3115692345319523
-0.007467713783822409,-2.957689523205281,1.3078618835509146
-0.007465923783822408,-2.9465948486475297,1.3078618835509146
-0.007464133783822408,-2.9318019492371947,1.3078618835509146
-0.007462343783822409,-2.9207072746794434,1.304154532569877
-0.007460553783822409,-2.9022161504165243,1.3004471815888392
-0.007458763783822408,-2.8948197007113565,1.2930324796267638
-0.0074569737838224084,-2.891121475858773,1.3004471815888392
-0.007455183783822409,-2.8800268013010215,1.3004471815888392
-0.007453393783822409,-2.8652339018906865,1.2967398306078015
-0.007451603783822408,-2.854139227332935,1.2967398306078015
-0.0074498137838224085,-2.8430445527751838,1.2893251286457261
-0.007448023783822409,-2.831949878217432,1.2930324796267638
-0.007446233783822409,-2.8171569788071036,1.289325128645728
-0.007444443783822408,-2.809760529101929,1.2856177776646884
-0.0074426537838224085,-2.7912694048390105,1.2856177776646884
-0.007440863783822409,-2.7875711799864265,1.2893251286457261
-0.007439073783822408,-2.780174730281252,1.2819104266836507
-0.007437283783822408,-2.7653818308709237,1.2819104266836507
-0.0074354937838224085,-2.757985381165756,1.2819104266836507
-0.007433703783822409,-2.7468907066080046,1.2856177776646884
-0.007431913783822408,-2.743192481755421,1.2856177776646884
-0.007430123783822408,-2.7320978071976696,1.2819104266836507
-0.0074283337838224085,-2.721003132639918,1.2819104266836507
-0.007426543783822409,-2.709908458082167,1.2819104266836507
-0.007424753783822408,-2.709908458082167,1.2819104266836507
-0.007422963783822408,-2.6988137835244155,1.278203075702613
-0.0074211737838224085,-2.687719108966664,1.2819104266836507
-0.007419383783822409,-2.68402088411408,1.2856177776646884
-0.007417593783822408,-2.6655297598511614,1.278203075702613
-0.007415803783822408,-2.6581333101459936,1.2819104266836507
-0.007414013783822409,-2.643340410735658,1.278203075702613
-0.007412223783822409,-2.6396421858830745,1.2744957247215754
-0.007410433783822408,-2.628547511325323,1.2744957247215754
-0.007408643783822408,-2.617452836767572,1.2707883737405377
-0.007406853783822409,-2.6063581622098204,1.278203075702613
-0.007405063783822409,-2.6026599373572368,1.2707883737405377
-0.007403273783822408,-2.591565262799485,1.2744957247215754
-0.007401483783822408,-2.5841688130943177,1.2744957247215754
-0.007399693783822409,-2.5804705882417336,1.2707883737405377
-0.007397903783822409,-2.569375913683982,1.2707883737405377
-0.007396113783822408,-2.561979463978815,1.2744957247215754
-0.007394323783822408,-2.5508847894210636,1.2707883737405377
-0.007392533783822409,-2.5471865645684795,1.2707883737405377
-0.007390743783822409,-2.543488339715896,1.2744957247215754
-0.007388953783822408,-2.5323936651581445,1.2744957247215754
-0.007387163783822408,-2.5286954403055604,1.2670810227595
-0.007385373783822409,-2.517600765747809,1.2707883737405377
-0.007383583783822409,-2.5139025408952254,1.2744957247215754
-0.007381793783822408,-2.4991096414848903,1.2707883737405377
-0.0073800037838224085,-2.488014966927139,1.2707883737405377
-0.007378213783822409,-2.4806185172219712,1.2707883737405377
-0.007376423783822409,-2.4769202923693876,1.2707883737405377
-0.007374633783822408,-2.465825617811636,1.2633736717784623
-0.0073728437838224085,-2.4547309432538844,1.2670810227595
-0.007371053783822409,-2.4510327184013008,1.2670810227595
-0.007369263783822409,-2.447334493548719,1.2670810227595
-0.007367473783822408,-2.4399380438435494,1.2707883737405377
-0.0073656837838224085,-2.4325415941383817,1.2707883737405377
-0.007363893783822409,-2.4251451444332144,1.2670810227595
-0.007362103783822408,-2.4251451444332095,1.2782030757026097
-0.007360313783822408,-2.4140504698754626,1.2707883737405377
-0.0073585237838224085,-2.4066540201702953,1.2707883737405377
-0.007356733783822409,-2.402955795317711,1.2744957247215754
-0.007354943783822408,-2.395559345612544,1.2707883737405377
-0.007353153783822408,-2.388162895907376,1.2707883737405377
-0.0073513637838224085,-2.3807664462022085,1.2744957247215754
-0.007349573783822409,-2.369671771644457,1.2744957247215754
-0.007347783783822408,-2.36227532193929,1.2707883737405377
-0.007345993783822408,-2.351180647381538,1.2707883737405377
-0.0073442037838224086,-2.3474824225289543,1.2633736717784623
-0.007342413783822409,-2.3400859728237866,1.2633736717784623
-0.007340623783822408,-2.3326895231186193,1.2670810227595
-0.007338833783822408,-2.3252930734134516,1.2670810227595
-0.007337043783822409,-2.317896623708284,1.2670810227595
-0.007335253783822409,-2.3141983988557002,1.2744957247215754
-0.007333463783822408,-2.3105001740031166,1.2707883737405377
-0.007331673783822408,-2.303103724297949,1.2670810227595
-0.007329883783822409,-2.2920090497401975,1.2670810227595
-0.007328093783822409,-2.2846126000350298,1.2707883737405377
-0.007326303783822408,-2.280914375182446,1.2707883737405377
-0.007324513783822408,-2.277216150329862,1.2707883737405377
-0.007322723783822409,-2.2698197006246947,1.2670810227595
-0.007320933783822409,-2.262423250919527,1.2744957247215754
-0.007319143783822408,-2.2550268012143593,1.2707883737405377
-0.007317353783822408,-2.247630351509192,1.2670810227595
-0.007315563783822409,-2.2402339018040243,1.2707883737405377
-0.007313773783822409,-2.2365356769514406,1.2670810227595
-0.007311983783822408,-2.229139227246273,1.2707883737405377
-0.0073101937838224084,-2.225441002393689,1.2707883737405377
-0.007308403783822409,-2.2143463278359374,1.2670810227595
-0.007306613783822409,-2.20694987813077,1.2707883737405377
-0.007304823783822408,-2.203251653278186,1.2670810227595
-0.0073030337838224085,-2.203251653278186,1.2744957247215754
-0.007301243783822409,-2.1921569787204347,1.2744957247215754
-0.007299453783822409,-2.188458753867853,1.2744957247215754
-0.007297663783822408,-2.1810623041626833,1.2707883737405377
-0.0072958737838224085,-2.1810623041626833,1.2707883737405377
-0.007294083783822409,-2.173665854457516,1.2707883737405377
-0.007292293783822408,-2.169967629604927,1.2744957247215736
-0.007290503783822408,-2.1588729550471806,1.2707883737405377
-0.0072887137838224085,-2.1588729550471806,1.2707883737405377
-0.007286923783822409,-2.1588729550471806,1.2707883737405377
-0.007285133783822408,-2.1403818307842633,1.2670810227595017
-0.007283343783822408,-2.1440800556368456,1.2707883737405377
-0.0072815537838224085,-2.132985381079094,1.2707883737405377
-0.007279763783822409,-2.1255889313739265,1.2707883737405377
-0.007277973783822408,-2.1181924816687587,1.2670810227595
-0.007276183783822408,-2.1107960319635914,1.2707883737405377
-0.0072743937838224085,-2.0997013574058396,1.2670810227595
-0.007272603783822409,-2.0923049077006723,1.2670810227595
-0.007270813783822408,-2.0923049077006723,1.2670810227595
-0.007269023783822408,-2.0886066828480883,1.2670810227595
-0.007267233783822409,-2.0886066828480883,1.2707883737405377
-0.007265443783822409,-2.081210233142921,1.2707883737405377
-0.007263653783822408,-2.0738137834377532,1.2707883737405377
-0.007261863783822408,-2.0738137834377532,1.2707883737405377
-0.007260073783822409,-2.062719108880002,1.2744957247215754
-0.007258283783822409,-2.055322659174834,1.2707883737405377
-0.007256493783822408,-2.0516244343222505,1.2707883737405377
-0.007254703783822408,-2.0479262094696664,1.2744957247215754
-0.007252913783822409,-2.040529759764499,1.2707883737405377
-0.007251123783822409,-2.0294350852067478,1.2670810227595
-0.007249333783822408,-2.02203863550158,1.2707883737405377
-0.007247543783822408,-2.0257368603541637,1.2633736717784623
-0.007245753783822409,-2.0146421857964123,1.2670810227595
-0.007243963783822409,-2.007245736091245,1.2707883737405377
-0.007242173783822408,-2.003547511238661,1.2670810227595
-0.007240383783822408,-1.9961510615334932,1.2670810227595
-0.007238593783822409,-1.9961510615334932,1.2707883737405377
-0.007236803783822409,-1.9924528366809093,1.2670810227595
-0.007235013783822408,-1.9850563869757418,1.2670810227595
-0.0072332237838224085,-1.9776599372705743,1.2707883737405377
-0.007231433783822409,-1.9739617124179905,1.2670810227595
-0.007229643783822409,-1.9665652627128227,1.2670810227595
-0.007227853783822408,-1.9665652627128227,1.2670810227595
-0.0072260637838224085,-1.9591688130076552,1.2707883737405377
-0.007224273783822409,-1.9591688130076552,1.2707883737405377
-0.007222483783822409,-1.948074138449909,1.2782030757026097
-0.007220693783822408,-1.94437591359732,1.2744957247215754
-0.0072189037838224085,-1.94437591359732,1.2670810227595
-0.007217113783822409,-1.9369794638921525,1.2707883737405377
-0.007215323783822408,-1.9332812390395635,1.2707883737405359
-0.007213533783822408,-1.9221865644818172,1.2670810227595
-0.0072117437838224085,-1.9147901147766497,1.2670810227595
-0.007209953783822409,-1.9110918899240659,1.2670810227595
-0.007208163783822408,-1.9036954402188981,1.2707883737405377
-0.007206373783822408,-1.8999972153663145,1.2670810227595
-0.0072045837838224085,-1.8889025408085631,1.2670810227595
-0.007202793783822409,-1.8852043159559793,1.2707883737405377
-0.007201003783822408,-1.8778078662508115,1.2707883737405377
-0.007199213783822408,-1.8778078662508115,1.2707883737405377
-0.0071974237838224086,-1.8741096413982279,1.2707883737405377
-0.007195633783822409,-1.8667131916930602,1.2707883737405377
-0.007193843783822408,-1.8593167419878927,1.2744957247215754
-0.007192053783822408,-1.8593167419878927,1.2707883737405377
-0.007190263783822409,-1.8556185171353088,1.2707883737405377
-0.007188473783822409,-1.8519202922827251,1.2707883737405377
-0.007186683783822408,-1.8445238425775574,1.2670810227595
-0.007184893783822408,-1.83712739287239,1.2633736717784623
-0.007183103783822409,-1.8297309431672222,1.2670810227595
-0.007181313783822409,-1.8223344934620547,1.2707883737405377
-0.007179523783822408,-1.8223344934620547,1.2670810227595
-0.007177733783822408,-1.814938043756887,1.2670810227595
-0.007175943783822409,-1.8038433691991356,1.2707883737405377
-0.007174153783822409,-1.8075415940517194,1.2707883737405377
-0.007172363783822408,-1.800145144346552,1.2707883737405377
-0.007170573783822408,-1.7927486946413842,1.2633736717784623
