200Hz/acq0085.csv

#Digilent WaveForms Oscilloscope Acquisition
#Device Name: Discovery2
#Serial Number: SN:210321AA28BE
#Date Time: 2023-05-24 14:48:06.336
#Sample rate: 558659Hz
#Samples: 8192
#Trigger: Source: Channel 1 Type: Edge Condition: Rising Level: 800 mV Hyst.: Auto HoldOff: 100 ns
#Channel 1: Range: 1 V/div Offset: 0 V Attenuation: 1 X Sample Mode: Average
#Channel 2: Range: 1 V/div Offset: 0 V Attenuation: 1 X Sample Mode: Average

Time (s),Channel 1 (V),Channel 2 (V)
-0.007741286885561343,0.0230797079772646,-1.3169426110237767
-0.007739496885561343,0.019381483124680805,-1.313235260042739
-0.007737706885561342,0.015683258272093638,-1.3169426110237734
-0.007735916885561342,0.01198503341950984,-1.320649962004811
-0.007734126885561342,0.015683258272093638,-1.3243573129858488
-0.007732336885561342,0.015683258272093638,-1.3206499620048129
-0.007730546885561343,0.015683258272093638,-1.3169426110237752
-0.007728756885561343,0.023079707977257877,-1.3206499620048093
-0.007726966885561343,0.019381483124679123,-1.3169426110237752
-0.0077251768855613415,0.02307970797726124,-1.320649962004811
-0.007723386885561342,0.015683258272093638,-1.320649962004811
-0.007721596885561342,0.015683258272093638,-1.320649962004811
-0.007719806885561342,0.01198503341950984,-1.320649962004811
-0.007718016885561342,0.015683258272091955,-1.320649962004811
-0.007716226885561343,0.015683258272093638,-1.320649962004811
-0.007714436885561343,0.015683258272093638,-1.3169426110237752
-0.007712646885561343,0.015683258272093638,-1.3169426110237734
-0.007710856885561342,0.015683258272093638,-1.3169426110237734
-0.007709066885561342,0.01198503341950984,-1.3169426110237734
-0.007707276885561342,0.01198503341950984,-1.320649962004811
-0.007705486885561342,0.015683258272093638,-1.3169426110237734
-0.0077036968855613425,0.011985033419511522,-1.3169426110237734
-0.007701906885561343,0.008286808566927723,-1.3206499620048093
-0.007700116885561343,0.011985033419508156,-1.3169426110237752
-0.007698326885561343,0.008286808566927723,-1.3206499620048093
-0.007696536885561342,0.015683258272093638,-1.3169426110237734
-0.007694746885561342,0.01198503341950984,-1.3169426110237734
-0.007692956885561342,0.00828680856692604,-1.3243573129858488
-0.007691166885561342,0.015683258272093638,-1.320649962004811
-0.0076893768855613425,0.011985033419511522,-1.3169426110237752
-0.007687586885561343,0.008286808566927723,-1.3169426110237734
-0.007685796885561343,0.00828680856692604,-1.3169426110237734
-0.007684006885561343,0.00828680856692604,-1.3169426110237734
-0.007682216885561342,0.01198503341950984,-1.320649962004811
-0.007680426885561342,0.00828680856692604,-1.3169426110237734
-0.007678636885561342,0.00458858371434224,-1.3169426110237734
-0.007676846885561342,0.015683258272093638,-1.3169426110237734
-0.0076750568855613426,0.008286808566929404,-1.3132352600427375
-0.007673266885561343,0.00828680856692604,-1.3169426110237716
-0.007671476885561343,0.004588583714343922,-1.3169426110237734
-0.007669686885561343,0.008286808566922677,-1.313235260042739
-0.007667896885561342,0.0008903588617584406,-1.3132352600427357
-0.007666106885561342,0.00458858371434224,-1.3169426110237734
-0.007664316885561342,-0.002807865990825359,-1.320649962004811
-0.007662526885561342,-0.002807865990825359,-1.320649962004811
-0.007660736885561343,0.0008903588617567588,-1.3169426110237752
-0.007658946885561343,0.004588583714340558,-1.3169426110237734
-0.007657156885561343,-0.0028078659908219953,-1.3169426110237734
-0.0076553668855613415,0.004588583714340558,-1.3206499620048093
-0.007653576885561342,0.0008903588617584406,-1.3169426110237734
-0.007651786885561342,0.0008903588617584406,-1.3169426110237734
-0.007649996885561342,0.0008903588617584406,-1.3169426110237734
-0.007648206885561342,-0.002807865990823677,-1.3206499620048093
-0.007646416885561343,-0.002807865990825359,-1.320649962004811
-0.007644626885561343,0.0008903588617567588,-1.3169426110237752
-0.007642836885561343,0.0008903588617584406,-1.3132352600427375
-0.007641046885561342,0.0008903588617584406,-1.3169426110237734
-0.007639256885561342,0.0008903588617584406,-1.3169426110237734
-0.007637466885561342,-0.0065060908434091584,-1.309527909061698
-0.007635676885561342,-0.002807865990825359,-1.3132352600427357
-0.0076338868855613425,0.0008903588617567588,-1.3169426110237716
-0.007632096885561343,0.0008903588617584406,-1.3206499620048093
-0.007630306885561343,-0.002807865990823677,-1.320649962004811
-0.007628516885561343,-0.002807865990825359,-1.313235260042739
-0.007626726885561342,-0.002807865990825359,-1.3243573129858488
-0.007624936885561342,0.0008903588617584406,-1.320649962004811
-0.007623146885561342,0.0008903588617584406,-1.320649962004811
-0.007621356885561342,-0.002807865990825359,-1.320649962004811
-0.0076195668855613425,-0.006506090843407477,-1.313235260042739
-0.007617776885561343,-0.0065060908434091584,-1.3169426110237716
-0.007615986885561343,-0.010204315695991277,-1.3169426110237734
-0.007614196885561343,-0.006506090843412522,-1.3169426110237734
-0.007612406885561342,-0.0065060908434091584,-1.3169426110237734
-0.007610616885561342,-0.002807865990825359,-1.320649962004811
-0.007608826885561342,-0.002807865990825359,-1.3243573129858488
-0.007607036885561342,-0.002807865990825359,-1.3243573129858488
-0.0076052468855613425,0.0008903588617567588,-1.3206499620048129
-0.007603456885561343,-0.002807865990823677,-1.3169426110237752
-0.007601666885561343,-0.006506090843407477,-1.3169426110237734
-0.007599876885561343,-0.0028078659908287226,-1.3206499620048078
-0.007598086885561342,-0.0065060908434091584,-1.3169426110237734
-0.007596296885561342,-0.0065060908434091584,-1.320649962004811
-0.007594506885561342,-0.0065060908434091584,-1.320649962004811
-0.007592716885561342,-0.0065060908434091584,-1.320649962004811
-0.007590926885561343,-0.010204315695991277,-1.324357312985847
-0.007589136885561343,-0.0028078659908287226,-1.3169426110237767
-0.007587346885561343,-0.010204315695989594,-1.3169426110237734
-0.0075855568855613415,-0.0065060908434091584,-1.320649962004811
-0.007583766885561342,-0.0065060908434091584,-1.320649962004811
-0.007581976885561342,-0.013902540548576758,-1.320649962004811
-0.007580186885561342,-0.0065060908434091584,-1.3169426110237734
-0.007578396885561342,-0.013902540548573395,-1.3132352600427375
-0.007576606885561343,-0.010204315695994639,-1.3132352600427357
-0.007574816885561343,-0.013902540548575076,-1.3169426110237716
-0.007573026885561343,-0.013902540548576758,-1.3132352600427375
-0.0075712368855613416,-0.013902540548576758,-1.3169426110237734
-0.007569446885561342,-0.013902540548576758,-1.320649962004811
-0.007567656885561342,-0.010204315695992958,-1.3169426110237734
-0.007565866885561342,-0.017600765401160557,-1.3169426110237734
-0.0075640768855613424,-0.017600765401160557,-1.3169426110237734
-0.007562286885561343,-0.010204315695996322,-1.3206499620048093
-0.007560496885561343,-0.00650609084341084,-1.320649962004811
-0.007558706885561343,-0.013902540548573395,-1.320649962004811
-0.007556916885561342,-0.013902540548576758,-1.320649962004811
-0.007555126885561342,-0.013902540548576758,-1.3169426110237734
-0.007553336885561342,-0.017600765401160557,-1.320649962004811
-0.007551546885561342,-0.017600765401160557,-1.320649962004811
-0.0075497568855613425,-0.017600765401160557,-1.3169426110237752
-0.007547966885561343,-0.021298990253742673,-1.3243573129858455
-0.007546176885561343,-0.01760076540116224,-1.3206499620048129
-0.007544386885561343,-0.017600765401160557,-1.320649962004811
-0.007542596885561342,-0.021298990253744356,-1.3169426110237734
-0.007540806885561342,-0.013902540548576758,-1.3132352600427357
-0.007539016885561342,-0.017600765401160557,-1.320649962004811
-0.007537226885561342,-0.021298990253744356,-1.320649962004811
-0.0075354368855613425,-0.013902540548580122,-1.3169426110237752
-0.007533646885561343,-0.013902540548576758,-1.3206499620048093
-0.007531856885561343,-0.013902540548576758,-1.3169426110237752
-0.007530066885561343,-0.017600765401157195,-1.3169426110237734
-0.007528276885561342,-0.013902540548576758,-1.3169426110237734
-0.007526486885561342,-0.017600765401160557,-1.320649962004811
-0.007524696885561342,-0.021298990253744356,-1.320649962004811
-0.007522906885561342,-0.021298990253744356,-1.3169426110237752
-0.007521116885561343,-0.01760076540116224,-1.3206499620048093
-0.007519326885561343,-0.017600765401160557,-1.3169426110237752
-0.007517536885561343,-0.021298990253742673,-1.3169426110237734
-0.007515746885561343,-0.021298990253744356,-1.3169426110237734
-0.007513956885561342,-0.021298990253744356,-1.3169426110237734
-0.007512166885561342,-0.017600765401160557,-1.3169426110237734
-0.007510376885561342,-0.021298990253744356,-1.3169426110237734
-0.007508586885561342,-0.021298990253744356,-1.3206499620048093
-0.007506796885561343,-0.021298990253744356,-1.3169426110237752
-0.007505006885561343,-0.021298990253744356,-1.3132352600427375
-0.007503216885561343,-0.024997215106326475,-1.3169426110237716
-0.0075014268855613415,-0.43180194889054613,-0.8943045991854762
-0.007499636885561342,-3.1795830143603094,1.3375206913992161
-0.007497846885561342,-3.168488339802558,1.3338133404181785
-0.007496056885561342,-3.164790114949974,1.326398638456103
-0.0074942668855613424,-3.1499972155396456,1.3226912874750671
-0.007492476885561343,-3.142600765834475,1.3189839364940295
-0.007490686885561343,-3.146298990687053,1.3263986384560997
-0.007488896885561343,-3.1315060912767265,1.3226912874750671
-0.007487106885561342,-3.124109641571552,1.3226912874750654
-0.007485316885561342,-3.1204114167189685,1.3226912874750654
-0.007483526885561342,-3.1130149670138008,1.3226912874750654
-0.007481736885561342,-3.1019202924560494,1.3226912874750654
-0.0074799468855613425,-3.087127393045721,1.3189839364940295
-0.007478156885561343,-3.083429168193132,1.3189839364940277
-0.007476366885561343,-3.06493804393022,1.3189839364940277
-0.007474576885561343,-3.053843369372465,1.3226912874750636
-0.007472786885561342,-3.0464469196672925,1.31527658551299
-0.007470996885561342,-3.0279557954043734,1.3115692345319523
-0.007469206885561342,-3.0131628959940384,1.3115692345319523
-0.007467416885561342,-2.998369996583703,1.3078618835509146
-0.0074656268855613425,-2.9872753220259565,1.3041545325698787
-0.007463836885561343,-2.976180647468205,1.300447181588841
-0.007462046885561343,-2.9650859729104537,1.2967398306078033
-0.007460256885561343,-2.9539912983527077,1.2967398306078015
-0.007458466885561342,-2.942896623794946,1.3004471815888392
-0.007456676885561342,-2.9355001740897784,1.2967398306078015
-0.007454886885561342,-2.924405499532027,1.2930324796267638
-0.007453096885561342,-2.9170090498268597,1.2930324796267638
-0.0074513068855613426,-2.898517925563949,1.2967398306077997
-0.007449516885561343,-2.8911214758587764,1.2930324796267656
-0.007447726885561343,-2.8837250261536087,1.2930324796267638
-0.007445936885561343,-2.8689321267432835,1.2930324796267638
-0.007444146885561342,-2.8578374521855188,1.2930324796267638
-0.007442356885561342,-2.850441002480351,1.2893251286457261
-0.007440566885561342,-2.8393463279225997,1.2856177776646884
-0.007438776885561342,-2.8319498782174355,1.2930324796267605
-0.007436986885561343,-2.8171569788071036,1.289325128645728
-0.007435196885561343,-2.8060623042493504,1.2893251286457261
-0.007433406885561343,-2.787571179986435,1.2856177776646902
-0.0074316168855613415,-2.7801747302812587,1.2819104266836507
-0.007429826885561342,-2.776476505428675,1.2819104266836507
-0.007428036885561342,-2.76168360601834,1.2856177776646884
-0.007426246885561342,-2.7542871563131723,1.278203075702613
-0.007424456885561342,-2.743192481755426,1.278203075702613
-0.007422666885561343,-2.735796032050257,1.281910426683649
-0.007420876885561343,-2.7283995823450895,1.2782030757026148
-0.007419086885561343,-2.717304907787339,1.2744957247215771
-0.007417296885561342,-2.709908458082167,1.2744957247215754
-0.007415506885561342,-2.6988137835244155,1.278203075702613
-0.007413716885561342,-2.6951155586718314,1.2744957247215754
-0.007411926885561342,-2.6914173338192477,1.2744957247215754
-0.0074101368855613425,-2.6766244344089194,1.2782030757026113
-0.007408346885561343,-2.6692279847037486,1.278203075702613
-0.007406556885561343,-2.6581333101459985,1.270788373740541
-0.007404766885561343,-2.647038635588247,1.2744957247215736
-0.007402976885561342,-2.643340410735658,1.2707883737405377
-0.007401186885561342,-2.628547511325323,1.2707883737405377
-0.007399396885561342,-2.6211510616201554,1.2707883737405377
-0.007397606885561342,-2.617452836767572,1.2744957247215754
-0.0073958168855613425,-2.6063581622098253,1.2707883737405394
-0.007394026885561343,-2.5989617125046562,1.2707883737405377
-0.007392236885561343,-2.587867037946906,1.2744957247215736
-0.007390446885561343,-2.5878670379469013,1.270788373740541
-0.007388656885561342,-2.57677236338915,1.2707883737405377
-0.007386866885561342,-2.5656776888313986,1.2707883737405377
-0.007385076885561342,-2.561979463978815,1.2744957247215754
-0.007383286885561342,-2.554583014273647,1.2707883737405377
-0.0073814968855613425,-2.5508847894210653,1.2707883737405377
-0.007379706885561343,-2.5434883397158994,1.2707883737405377
-0.007377916885561343,-2.5360918900107317,1.2744957247215736
-0.007376126885561343,-2.528695440305567,1.2782030757026097
-0.007374336885561342,-2.5249972154529767,1.278203075702613
-0.007372546885561342,-2.517600765747809,1.2744957247215754
-0.007370756885561342,-2.5139025408952254,1.2744957247215754
-0.007368966885561342,-2.502807866337479,1.2782030757026113
-0.007367176885561343,-2.4880149669271456,1.270788373740541
-0.007365386885561343,-2.488014966927139,1.2707883737405377
-0.007363596885561343,-2.47322206751681,1.2670810227595017
-0.0073618068855613415,-2.469523842664215,1.263373671778464
-0.007360016885561342,-2.4584291681064685,1.2670810227595
-0.007358226885561342,-2.4510327184013008,1.2707883737405377
-0.007356436885561342,-2.447334493548717,1.2707883737405377
-0.007354646885561342,-2.443636268696135,1.2670810227595017
-0.007352856885561343,-2.4325415941383866,1.2670810227595
-0.007351066885561343,-2.425145144433218,1.2707883737405359
-0.007349276885561343,-2.4140504698754675,1.2744957247215736
-0.0073474868855613416,-2.4140504698754626,1.2744957247215754
-0.007345696885561342,-2.402955795317711,1.2707883737405377
-0.007343906885561342,-2.395559345612544,1.2707883737405377
-0.007342116885561342,-2.395559345612544,1.2670810227595
-0.0073403268855613425,-2.3918611207599616,1.2670810227595
-0.007338536885561343,-2.3807664462022133,1.2670810227595
-0.007336746885561343,-2.3733699964970447,1.2707883737405359
-0.007334956885561343,-2.3622753219392947,1.2670810227595017
-0.007333166885561342,-2.3585770970867057,1.2707883737405377
-0.007331376885561342,-2.351180647381538,1.2670810227595
-0.007329586885561342,-2.3474824225289543,1.2670810227595
-0.007327796885561342,-2.336387747971203,1.2633736717784623
-0.0073260068855613425,-2.328991298266039,1.2707883737405343
-0.007324216885561343,-2.3252930734134534,1.2744957247215736
-0.007322426885561343,-2.3178966237082874,1.2670810227595033
-0.007320636885561343,-2.31050017400312,1.2670810227595
-0.007318846885561342,-2.3068019491505325,1.2707883737405377
-0.007317056885561342,-2.303103724297949,1.2670810227595
-0.007315266885561342,-2.2920090497401975,1.2707883737405377
-0.007313476885561342,-2.2920090497401975,1.2707883737405377
-0.0073116868855613425,-2.288310824887615,1.2707883737405377
-0.007309896885561343,-2.2809143751824497,1.2670810227595017
-0.007308106885561343,-2.280914375182446,1.2707883737405359
-0.007306316885561343,-2.269819700624705,1.2707883737405377
-0.007304526885561342,-2.262423250919527,1.2744957247215754
-0.007302736885561342,-2.2550268012143593,1.2707883737405377
-0.007300946885561342,-2.247630351509192,1.2707883737405377
-0.007299156885561342,-2.2439321266566097,1.2670810227595017
-0.007297366885561343,-2.2291392272462796,1.263373671778464
-0.007295576885561343,-2.2180445526885264,1.2670810227594982
-0.007293786885561343,-2.2217427775411034,1.2670810227595
-0.0072919968855613415,-2.2143463278359325,1.263373671778464
-0.007290206885561342,-2.203251653278186,1.2670810227595
-0.007288416885561342,-2.1995534284256024,1.2633736717784623
-0.007286626885561342,-2.1958552035730188,1.2670810227595
-0.007284836885561342,-2.1921569787204365,1.263373671778464
-0.007283046885561343,-2.184760529015271,1.2707883737405343
-0.007281256885561343,-2.173665854457521,1.2707883737405377
-0.007279466885561343,-2.173665854457516,1.2670810227595017
-0.0072776768855613416,-2.169967629604932,1.2670810227595
-0.007275886885561342,-2.162571179899764,1.2744957247215754
-0.007274096885561342,-2.1588729550471806,1.2744957247215754
-0.007272306885561342,-2.155174730194597,1.2744957247215754
-0.0072705168855613424,-2.1440800556368504,1.2707883737405394
-0.007268726885561343,-2.1403818307842633,1.2707883737405377
-0.007266936885561343,-2.1366836059316796,1.2670810227595017
-0.007265146885561343,-2.1255889313739313,1.263373671778464
-0.007263356885561342,-2.114494256816175,1.2633736717784623
-0.007261566885561342,-2.1107960319635914,1.2670810227595
-0.007259776885561342,-2.1107960319635914,1.2633736717784623
-0.007257986885561342,-2.1033995822584237,1.2670810227595
-0.0072561968855613425,-2.0997013574058414,1.2670810227595
-0.007254406885561343,-2.092304907700676,1.2670810227595
-0.007252616885561343,-2.08860668284809,1.2670810227595
-0.007250826885561343,-2.0923049077006706,1.2670810227595
-0.007249036885561342,-2.0849084579955046,1.2707883737405377
-0.007247246885561342,-2.0738137834377532,1.2707883737405377
-0.007245456885561342,-2.0664173337325855,1.2707883737405377
-0.007243666885561342,-2.062719108880002,1.2670810227595
-0.0072418768855613425,-2.062719108880002,1.2670810227595
-0.007240086885561343,-2.05902088402742,1.2707883737405359
-0.007238296885561343,-2.0479262094696713,1.2670810227595017
-0.007236506885561343,-2.0442279846170863,1.2707883737405343
-0.007234716885561342,-2.0331333100593314,1.2707883737405377
-0.007232926885561342,-2.0294350852067478,1.2670810227595
-0.007231136885561342,-2.02203863550158,1.2670810227595
-0.007229346885561342,-2.0109439609438287,1.2670810227595
-0.007227556885561343,-2.007245736091247,1.2670810227595
-0.007225766885561343,-2.0035475112386627,1.2670810227595
-0.007223976885561343,-1.9961510615334965,1.2670810227595
-0.007222186885561343,-1.9924528366809127,1.2707883737405343
-0.007220396885561342,-1.9850563869757418,1.2633736717784623
-0.007218606885561342,-1.9850563869757418,1.2707883737405377
-0.007216816885561342,-1.9776599372705743,1.2707883737405377
-0.007215026885561342,-1.9665652627128278,1.2707883737405377
-0.007213236885561343,-1.9628670378602409,1.2707883737405377
-0.007211446885561343,-1.966565262712821,1.2670810227595017
-0.007209656885561343,-1.9628670378602409,1.2670810227595
-0.0072078668855613415,-1.9591688130076552,1.2707883737405377
-0.007206076885561342,-1.9517723633024877,1.2744957247215754
-0.007204286885561342,-1.9480741384499038,1.2707883737405377
-0.007202496885561342,-1.9406776887447361,1.2744957247215754
-0.007200706885561342,-1.933281239039572,1.2670810227595033
-0.007198916885561343,-1.9295830141869865,1.2707883737405359
-0.007197126885561343,-1.9295830141869847,1.2670810227595017
-0.007195336885561343,-1.9147901147766564,1.2670810227595
-0.007193546885561342,-1.9110918899240659,1.2670810227595
-0.007191756885561342,-1.9036954402188981,1.2707883737405377
-0.007189966885561342,-1.9036954402188981,1.2670810227595
-0.007188176885561342,-1.9036954402188981,1.2670810227595
-0.0071863868855613425,-1.896298990513734,1.274495724721572
-0.007184596885561343,-1.8889025408085665,1.2707883737405394
-0.007182806885561343,-1.885204315955981,1.2670810227595017
-0.007181016885561343,-1.8815060911033972,1.2670810227595
-0.007179226885561342,-1.8778078662508115,1.2670810227595
-0.007177436885561342,-1.870411416545644,1.2707883737405377
-0.007175646885561342,-1.8667131916930602,1.2744957247215754
