200Hz/acq0091.csv

#Digilent WaveForms Oscilloscope Acquisition
#Device Name: Discovery2
#Serial Number: SN:210321AA28BE
#Date Time: 2023-05-24 14:48:06.501
#Sample rate: 558659Hz
#Samples: 8192
#Trigger: Source: Channel 1 Type: Edge Condition: Rising Level: 800 mV Hyst.: Auto HoldOff: 100 ns
#Channel 1: Range: 1 V/div Offset: 0 V Attenuation: 1 X Sample Mode: Average
#Channel 2: Range: 1 V/div Offset: 0 V Attenuation: 1 X Sample Mode: Average

Time (s),Channel 1 (V),Channel 2 (V)
-0.0077416379070038375,0.03787260738759644,-1.320649962004811
-0.007739847907003838,0.03787260738759644,-1.320649962004811
-0.007738057907003837,0.03787260738759644,-1.320649962004811
-0.007736267907003837,0.034174382535012635,-1.3169426110237734
-0.0077344779070038375,0.03787260738759644,-1.320649962004811
-0.007732687907003837,0.03787260738759644,-1.324357312985847
-0.007730897907003837,0.03787260738759644,-1.320649962004811
-0.007729107907003837,0.04157083224018024,-1.320649962004811
-0.0077273179070038375,0.04157083224018024,-1.3243573129858488
-0.007725527907003837,0.04157083224018024,-1.320649962004811
-0.007723737907003837,0.04157083224018024,-1.3243573129858488
-0.007721947907003837,0.03787260738759644,-1.320649962004811
-0.0077201579070038375,0.034174382535012635,-1.3169426110237734
-0.007718367907003837,0.03047615768242884,-1.3169426110237734
-0.007716577907003837,0.034174382535012635,-1.320649962004811
-0.007714787907003837,0.026777932829845037,-1.3169426110237734
-0.007712997907003838,0.03047615768242884,-1.3169426110237734
-0.007711207907003837,0.03047615768242884,-1.320649962004811
-0.007709417907003837,0.03787260738759644,-1.320649962004811
-0.007707627907003837,0.03047615768242884,-1.320649962004811
-0.007705837907003838,0.034174382535012635,-1.3243573129858488
-0.007704047907003837,0.03047615768242884,-1.320649962004811
-0.007702257907003837,0.03047615768242884,-1.320649962004811
-0.007700467907003837,0.034174382535012635,-1.3243573129858488
-0.007698677907003838,0.034174382535012635,-1.320649962004811
-0.007696887907003837,0.03047615768242884,-1.320649962004811
-0.007695097907003837,0.03787260738759644,-1.3169426110237734
-0.007693307907003837,0.03047615768242884,-1.320649962004811
-0.007691517907003838,0.03047615768242884,-1.320649962004811
-0.007689727907003837,0.026777932829845037,-1.320649962004811
-0.007687937907003837,0.026777932829845037,-1.3243573129858488
-0.007686147907003837,0.026777932829845037,-1.320649962004811
-0.007684357907003838,0.026777932829845037,-1.3169426110237734
-0.007682567907003837,0.026777932829845037,-1.3243573129858488
-0.007680777907003837,0.026777932829845037,-1.320649962004811
-0.0076789879070038375,0.026777932829845037,-1.320649962004811
-0.007677197907003838,0.02307970797726124,-1.320649962004811
-0.007675407907003837,0.03047615768242884,-1.3132352600427357
-0.007673617907003837,0.026777932829845037,-1.320649962004811
-0.0076718279070038375,0.026777932829845037,-1.320649962004811
-0.007670037907003838,0.02307970797726292,-1.3169426110237752
-0.007668247907003837,0.026777932829845037,-1.3169426110237734
-0.007666457907003837,0.026777932829845037,-1.320649962004811
-0.0076646679070038375,0.02307970797726124,-1.3169426110237734
-0.007662877907003837,0.02307970797726292,-1.320649962004811
-0.007661087907003837,0.026777932829845037,-1.320649962004811
-0.007659297907003837,0.01938148312467744,-1.3169426110237734
-0.0076575079070038375,0.02307970797726124,-1.3243573129858488
-0.007655717907003837,0.015683258272093638,-1.3206499620048129
-0.007653927907003837,0.015683258272093638,-1.3243573129858488
-0.007652137907003837,0.01938148312467744,-1.320649962004811
-0.0076503479070038375,0.01938148312467744,-1.320649962004811
-0.007648557907003837,0.026777932829845037,-1.320649962004811
-0.007646767907003837,0.026777932829845037,-1.320649962004811
-0.007644977907003837,0.01938148312467744,-1.320649962004811
-0.0076431879070038376,0.01938148312467744,-1.3243573129858488
-0.007641397907003837,0.01938148312467744,-1.320649962004811
-0.007639607907003837,0.01938148312467744,-1.320649962004811
-0.007637817907003837,0.01938148312467744,-1.3243573129858488
-0.007636027907003838,0.015683258272093638,-1.3169426110237734
-0.007634237907003837,0.02307970797726124,-1.3169426110237734
-0.007632447907003837,0.01938148312467744,-1.320649962004811
-0.007630657907003837,0.01938148312467744,-1.320649962004811
-0.007628867907003838,0.02307970797726124,-1.3243573129858488
-0.007627077907003837,0.01938148312467744,-1.320649962004811
-0.007625287907003837,0.02307970797726124,-1.320649962004811
-0.007623497907003837,0.015683258272093638,-1.3169426110237734
-0.007621707907003838,0.015683258272093638,-1.320649962004811
-0.007619917907003837,0.01198503341950984,-1.3243573129858488
-0.007618127907003837,0.015683258272093638,-1.320649962004811
-0.007616337907003837,0.02307970797726124,-1.320649962004811
-0.007614547907003838,0.01938148312467744,-1.3243573129858488
-0.007612757907003837,0.01938148312467744,-1.320649962004811
-0.007610967907003837,0.01198503341950984,-1.320649962004811
-0.0076091779070038374,0.015683258272093638,-1.3243573129858488
-0.007607387907003838,0.01198503341950984,-1.3243573129858488
-0.007605597907003837,0.015683258272093638,-1.3280646639668865
-0.007603807907003837,0.01938148312467744,-1.3243573129858488
-0.0076020179070038375,0.015683258272093638,-1.3280646639668865
-0.007600227907003838,0.015683258272093638,-1.320649962004811
-0.007598437907003837,0.01198503341950984,-1.3243573129858488
-0.007596647907003837,0.015683258272093638,-1.3243573129858488
-0.0075948579070038375,0.015683258272093638,-1.320649962004811
-0.007593067907003838,0.008286808566929404,-1.3169426110237752
-0.007591277907003837,0.01198503341950984,-1.3169426110237734
-0.007589487907003837,0.01198503341950984,-1.320649962004811
-0.0075876979070038375,0.00828680856692604,-1.320649962004811
-0.007585907907003837,0.008286808566927721,-1.3206499620048093
-0.007584117907003837,0.01198503341950984,-1.3169426110237734
-0.007582327907003837,0.01198503341950984,-1.320649962004811
-0.0075805379070038375,0.00828680856692604,-1.320649962004811
-0.007578747907003837,0.00828680856692604,-1.320649962004811
-0.007576957907003837,0.015683258272093638,-1.320649962004811
-0.007575167907003837,0.01198503341950984,-1.3243573129858488
-0.0075733779070038375,0.00828680856692604,-1.3243573129858488
-0.007571587907003837,0.00828680856692604,-1.3169426110237734
-0.007569797907003837,0.00828680856692604,-1.3169426110237734
-0.007568007907003837,0.01198503341950984,-1.3169426110237734
-0.007566217907003838,0.00828680856692604,-1.320649962004811
-0.007564427907003837,0.01198503341950984,-1.320649962004811
-0.007562637907003837,0.01198503341950984,-1.3243573129858488
-0.007560847907003837,0.00828680856692604,-1.3243573129858488
-0.007559057907003838,0.01198503341950984,-1.320649962004811
-0.007557267907003837,0.0008903588617584406,-1.3243573129858488
-0.007555477907003837,0.00458858371434224,-1.3169426110237734
-0.007553687907003837,0.00458858371434224,-1.3169426110237734
-0.007551897907003838,0.00458858371434224,-1.3132352600427357
-0.007550107907003837,0.00458858371434224,-1.3169426110237734
-0.007548317907003837,0.00828680856692604,-1.320649962004811
-0.007546527907003837,0.00828680856692604,-1.320649962004811
-0.007544737907003838,0.00828680856692604,-1.320649962004811
-0.007542947907003837,0.0008903588617584406,-1.320649962004811
-0.007541157907003837,0.0008903588617584406,-1.3169426110237734
-0.007539367907003837,0.00458858371434224,-1.320649962004811
-0.007537577907003838,0.00828680856692604,-1.320649962004811
-0.007535787907003837,0.00458858371434224,-1.320649962004811
-0.007533997907003837,0.0008903588617584406,-1.320649962004811
-0.0075322079070038375,0.00458858371434224,-1.3169426110237734
-0.007530417907003838,0.0008903588617584406,-1.320649962004811
-0.007528627907003837,0.0008903588617584406,-1.3169426110237734
-0.007526837907003837,0.00458858371434224,-1.3243573129858488
-0.0075250479070038375,0.0008903588617584406,-1.3243573129858488
-0.007523257907003838,0.0008903588617584406,-1.3169426110237767
-0.007521467907003837,-0.002807865990825359,-1.3169426110237734
-0.007519677907003837,0.0008903588617584406,-1.320649962004811
-0.0075178879070038375,0.0008903588617584406,-1.320649962004811
-0.007516097907003838,0.008286808566922677,-1.324357312985847
-0.007514307907003837,0.00458858371434224,-1.3243573129858488
-0.007512517907003837,0.0008903588617584406,-1.3243573129858488
-0.0075107279070038375,-0.0065060908434091584,-1.3243573129858488
-0.007508937907003837,-0.002807865990825359,-1.3206499620048093
-0.007507147907003837,-0.002807865990825359,-1.3169426110237734
-0.007505357907003837,-0.002807865990825359,-1.3169426110237734
-0.0075035679070038375,-0.0065060908434091584,-1.320649962004811
-0.007501777907003837,0.0008903588617584406,-1.3243573129858488
-0.007499987907003837,-2.2143463278359374,0.6071725481347903
-0.007498197907003837,-3.168488339802558,1.3338133404181785
-0.0074964079070038376,-3.1573936652448067,1.3226912874750654
-0.007494617907003837,-3.146298990687055,1.3226912874750654
-0.007492827907003837,-3.1389025409818876,1.3226912874750654
-0.007491037907003837,-3.1389025409818876,1.3226912874750654
-0.007489247907003838,-3.13150609127672,1.3189839364940277
-0.007487457907003837,-3.1204114167189685,1.326398638456103
-0.007485667907003837,-3.1130149670138008,1.326398638456103
-0.007483877907003837,-3.1019202924560494,1.326398638456103
-0.007482087907003838,-3.094523842750882,1.31527658551299
-0.007480297907003837,-3.0797309433405466,1.3189839364940277
-0.007478507907003837,-3.0686362687827953,1.3189839364940277
-0.007476717907003837,-3.057541594225044,1.31527658551299
-0.007474927907003838,-3.042748694814709,1.31527658551299
-0.007473137907003837,-3.02425757055179,1.31527658551299
-0.007471347907003837,-3.0131628959940384,1.3115692345319523
-0.007469557907003837,-2.9946717717311193,1.3078618835509146
-0.007467767907003838,-2.9798788723207843,1.3004471815888392
-0.007465977907003837,-2.9724824226156166,1.304154532569877
-0.007464187907003837,-2.961387748057865,1.3004471815888392
-0.0074623979070038374,-2.950293073500114,1.3004471815888392
-0.007460607907003838,-2.9391983989423625,1.2967398306078015
-0.007458817907003837,-2.928103724384611,1.3004471815888392
-0.007457027907003837,-2.9207072746794434,1.2967398306078015
-0.0074552379070038375,-2.9059143752691083,1.2930324796267638
-0.007453447907003838,-2.8948197007113565,1.2930324796267638
-0.007451657907003837,-2.883725026153605,1.2930324796267638
-0.007449867907003837,-2.872630351595854,1.2930324796267638
-0.0074480779070038375,-2.8652339018906865,1.2967398306078015
-0.007446287907003838,-2.8578374521855223,1.2930324796267656
-0.007444497907003837,-2.8430445527751838,1.2930324796267638
-0.007442707907003837,-2.835648103070016,1.2930324796267638
-0.0074409179070038375,-2.817156978807097,1.2893251286457261
-0.007439127907003837,-2.813458753954505,1.2893251286457243
-0.007437337907003837,-2.794967629691594,1.2856177776646884
-0.007435547907003837,-2.783872955133843,1.2856177776646884
-0.0074337579070038375,-2.776476505428675,1.2819104266836507
-0.007431967907003837,-2.76168360601834,1.2744957247215754
-0.007430177907003837,-2.757985381165756,1.2744957247215754
-0.007428387907003837,-2.7468907066080046,1.2819104266836507
-0.0074265979070038375,-2.7357960320502532,1.2819104266836507
-0.007424807907003837,-2.7320978071976696,1.278203075702613
-0.007423017907003837,-2.721003132639918,1.2707883737405377
-0.007421227907003837,-2.709908458082167,1.278203075702613
-0.007419437907003838,-2.6988137835244155,1.278203075702613
-0.007417647907003837,-2.687719108966664,1.278203075702613
-0.007415857907003837,-2.687719108966664,1.278203075702613
-0.007414067907003837,-2.68402088411408,1.2744957247215754
-0.007412277907003838,-2.6729262095563286,1.2744957247215754
-0.007410487907003837,-2.6581333101459936,1.2744957247215754
-0.007408697907003837,-2.650736860440826,1.2744957247215754
-0.007406907907003837,-2.6470386355882423,1.2744957247215754
-0.007405117907003838,-2.628547511325323,1.2744957247215754
-0.007403327907003837,-2.6211510616201554,1.2707883737405377
-0.007401537907003837,-2.613754611914988,1.2707883737405377
-0.007399747907003837,-2.6026599373572368,1.2707883737405377
-0.007397957907003838,-2.5989617125046527,1.2707883737405377
-0.007396167907003837,-2.591565262799485,1.2670810227595
-0.007394377907003837,-2.5841688130943177,1.2670810227595
-0.007392587907003837,-2.5730741385365663,1.2670810227595
-0.007390797907003838,-2.5656776888313986,1.2670810227595
-0.007389007907003837,-2.558281239126231,1.2707883737405377
-0.007387217907003837,-2.5508847894210636,1.2670810227595
-0.0073854279070038375,-2.543488339715896,1.2707883737405377
-0.007383637907003838,-2.5323936651581445,1.2744957247215754
-0.007381847907003837,-2.5249972154529767,1.2707883737405377
-0.007380057907003837,-2.521298990600393,1.2707883737405377
-0.0073782679070038375,-2.517600765747809,1.2707883737405377
-0.007376477907003838,-2.5102043160426417,1.2744957247215754
-0.007374687907003837,-2.5065060911900576,1.2744957247215754
-0.007372897907003837,-2.4954114166323063,1.2707883737405377
-0.0073711079070038375,-2.484316742074555,1.2744957247215754
-0.007369317907003838,-2.476920292369391,1.2670810227595033
-0.007367527907003837,-2.4732220675168035,1.2670810227595
-0.007365737907003837,-2.4584291681064685,1.2670810227595
-0.0073639479070038375,-2.4510327184013008,1.2670810227595
-0.007362157907003837,-2.4399380438435476,1.2670810227595
-0.007360367907003837,-2.4362398189909658,1.2670810227595
-0.007358577907003837,-2.4325415941383817,1.2670810227595
-0.0073567879070038375,-2.428843369285798,1.2670810227595
-0.007354997907003837,-2.4214469195806303,1.2670810227595
-0.007353207907003837,-2.4140504698754626,1.2670810227595
-0.007351417907003837,-2.410352245022879,1.2670810227595
-0.0073496279070038376,-2.3992575704651276,1.2670810227595
-0.007347837907003837,-2.39186112075996,1.2670810227595
-0.007346047907003837,-2.39186112075996,1.2744957247215754
-0.007344257907003837,-2.3807664462022085,1.2707883737405377
-0.007342467907003838,-2.377068221349625,1.2707883737405377
-0.007340677907003837,-2.369671771644457,1.2670810227595
-0.007338887907003837,-2.3585770970867057,1.2744957247215754
-0.007337097907003837,-2.351180647381538,1.2670810227595
-0.007335307907003838,-2.3400859728237866,1.2670810227595
-0.007333517907003837,-2.336387747971203,1.2633736717784623
-0.007331727907003837,-2.3289912982660352,1.2633736717784623
-0.007329937907003837,-2.3252930734134516,1.2633736717784623
-0.007328147907003838,-2.3141983988557002,1.2707883737405377
-0.007326357907003837,-2.3105001740031166,1.2707883737405377
-0.007324567907003837,-2.303103724297949,1.2707883737405377
-0.007322777907003837,-2.299405499445365,1.2707883737405377
-0.007320987907003838,-2.2883108248876134,1.2707883737405377
-0.007319197907003837,-2.280914375182446,1.2670810227595
-0.007317407907003837,-2.280914375182446,1.2633736717784623
-0.0073156179070038374,-2.2735179254772784,1.2633736717784623
-0.007313827907003838,-2.2661214757721106,1.2707883737405377
-0.007312037907003837,-2.2661214757721106,1.2707883737405377
-0.007310247907003837,-2.2587250260669434,1.2707883737405377
-0.0073084579070038375,-2.2513285763617756,1.2707883737405377
-0.007306667907003838,-2.2402339018040243,1.2707883737405377
-0.007304877907003837,-2.2328374520988565,1.2707883737405377
-0.007303087907003837,-2.225441002393689,1.2670810227595
-0.0073012979070038375,-2.229139227246273,1.2670810227595
-0.007299507907003838,-2.2180445526885264,1.263373671778464
-0.007297717907003837,-2.210648102983354,1.2670810227595
-0.007295927907003837,-2.20694987813077,1.2670810227595
-0.0072941379070038375,-2.203251653278186,1.2670810227595
-0.007292347907003837,-2.192156978720433,1.2633736717784623
-0.007290557907003837,-2.188458753867851,1.2633736717784623
-0.007288767907003837,-2.1810623041626833,1.2670810227595
-0.0072869779070038375,-2.1773640793100997,1.2633736717784623
-0.007285187907003837,-2.16996762960493,1.2707883737405359
-0.007283397907003837,-2.1662694047523483,1.2670810227595
-0.007281607907003837,-2.1588729550471806,1.2707883737405377
-0.0072798179070038375,-2.151476505342013,1.2707883737405377
-0.007278027907003837,-2.147778280489429,1.2707883737405377
-0.007276237907003837,-2.147778280489429,1.2707883737405377
-0.007274447907003837,-2.136683605931678,1.2707883737405377
-0.007272657907003838,-2.132985381079094,1.2707883737405377
-0.007270867907003837,-2.1255889313739265,1.2670810227595
-0.007269077907003837,-2.114494256816175,1.2633736717784623
-0.007267287907003837,-2.1107960319635914,1.2670810227595
-0.007265497907003838,-2.096003132553256,1.2670810227595
-0.007263707907003837,-2.096003132553256,1.2670810227595
-0.007261917907003837,-2.1033995822584237,1.2633736717784623
-0.007260127907003837,-2.0886066828480883,1.2670810227595
-0.007258337907003838,-2.081210233142921,1.2670810227595
-0.007256547907003837,-2.0738137834377532,1.2633736717784623
-0.007254757907003837,-2.077512008290337,1.2670810227595
-0.007252967907003837,-2.0701155585851696,1.2670810227595
-0.007251177907003838,-2.062719108880002,1.2707883737405377
-0.007249387907003837,-2.0516244343222505,1.2707883737405377
-0.007247597907003837,-2.055322659174834,1.2707883737405377
-0.007245807907003837,-2.0516244343222505,1.2744957247215754
-0.007244017907003838,-2.0442279846170828,1.2744957247215754
-0.007242227907003837,-2.0331333100593314,1.2707883737405377
-0.007240437907003837,-2.0294350852067478,1.2707883737405377
-0.0072386479070038375,-2.0183404106489964,1.2670810227595
-0.007236857907003838,-2.0183404106489964,1.2633736717784623
-0.007235067907003837,-2.0109439609438287,1.2633736717784623
-0.007233277907003837,-2.007245736091245,1.2633736717784623
-0.0072314879070038375,-1.999849286386077,1.2633736717784623
-0.007229697907003838,-1.9924528366809093,1.2670810227595
-0.007227907907003837,-1.9850563869757418,1.2670810227595
-0.007226117907003837,-1.9850563869757418,1.2670810227595
-0.0072243279070038375,-1.9776599372705743,1.2633736717784623
-0.007222537907003838,-1.9739617124179922,1.2633736717784623
-0.007220747907003837,-1.9665652627128227,1.2670810227595
-0.007218957907003837,-1.962867037860239,1.2670810227595
-0.0072171679070038375,-1.9554705881550714,1.2670810227595
-0.007215377907003837,-1.9480741384499038,1.2670810227595
-0.007213587907003837,-1.9480741384499038,1.2670810227595
-0.007211797907003837,-1.9480741384499038,1.2744957247215754
-0.0072100079070038375,-1.94437591359732,1.2670810227595
-0.007208217907003837,-1.9369794638921525,1.2670810227595
-0.007206427907003837,-1.925884789334401,1.2670810227595
-0.007204637907003837,-1.9221865644818172,1.2670810227595
-0.0072028479070038376,-1.9110918899240659,1.2670810227595
-0.007201057907003837,-1.9036954402188981,1.2744957247215754
-0.007199267907003837,-1.9036954402188981,1.2670810227595
-0.007197477907003837,-1.8962989905137306,1.2633736717784623
-0.007195687907003838,-1.8926007656611468,1.2633736717784623
-0.007193897907003837,-1.8926007656611468,1.2633736717784623
-0.007192107907003837,-1.8852043159559793,1.2670810227595
-0.007190317907003837,-1.8889025408085631,1.2633736717784623
-0.007188527907003838,-1.8778078662508115,1.2670810227595
-0.007186737907003837,-1.8741096413982279,1.2670810227595
-0.007184947907003837,-1.870411416545644,1.2633736717784623
-0.007183157907003837,-1.8630149668404765,1.2707883737405377
-0.007181367907003838,-1.8593167419878927,1.278203075702613
-0.007179577907003837,-1.8519202922827251,1.2744957247215754
-0.007177787907003837,-1.8482220674301413,1.2744957247215754
-0.007175997907003837,-1.8445238425775574,1.2707883737405377
-0.007174207907003838,-1.83712739287239,1.2707883737405377
-0.007172417907003837,-1.8297309431672222,1.2707883737405377
-0.007170627907003837,-1.8223344934620547,1.2707883737405377
-0.0071688379070038374,-1.8186362686094708,1.2670810227595
