200Hz/acq0015.csv

#Digilent WaveForms Oscilloscope Acquisition
#Device Name: Discovery2
#Serial Number: SN:210321AA28BE
#Date Time: 2023-05-24 14:48:04.400
#Sample rate: 558659Hz
#Samples: 8192
#Trigger: Source: Channel 1 Type: Edge Condition: Rising Level: 800 mV Hyst.: Auto HoldOff: 100 ns
#Channel 1: Range: 1 V/div Offset: 0 V Attenuation: 1 X Sample Mode: Average
#Channel 2: Range: 1 V/div Offset: 0 V Attenuation: 1 X Sample Mode: Average

Time (s),Channel 1 (V),Channel 2 (V)
-0.007741746593781758,0.02307970797726124,-1.3132352600427357
-0.007739956593781758,0.019381483124679123,-1.3169426110237716
-0.007738166593781758,0.01938148312467744,-1.3243573129858488
-0.007736376593781758,0.02307970797726124,-1.320649962004811
-0.007734586593781758,0.026777932829845037,-1.320649962004811
-0.007732796593781757,0.019381483124675757,-1.3169426110237752
-0.007731006593781758,0.015683258272093638,-1.320649962004811
-0.007729216593781758,0.01198503341950984,-1.320649962004811
-0.007727426593781758,0.01198503341950984,-1.3169426110237734
-0.007725636593781757,0.01938148312467744,-1.3169426110237734
-0.007723846593781758,0.02307970797726124,-1.320649962004811
-0.007722056593781758,0.026777932829845037,-1.3243573129858488
-0.007720266593781758,0.015683258272093638,-1.320649962004811
-0.007718476593781757,0.01938148312467744,-1.3169426110237734
-0.007716686593781758,0.015683258272093638,-1.320649962004811
-0.007714896593781758,0.015683258272093638,-1.320649962004811
-0.007713106593781758,0.01938148312467744,-1.3169426110237734
-0.0077113165937817574,0.015683258272093638,-1.3169426110237734
-0.007709526593781758,0.015683258272093638,-1.3132352600427357
-0.007707736593781758,0.015683258272093638,-1.3132352600427357
-0.007705946593781758,0.015683258272093638,-1.3243573129858488
-0.0077041565937817575,0.015683258272093638,-1.3169426110237734
-0.007702366593781758,0.015683258272093638,-1.3169426110237734
-0.007700576593781758,0.015683258272093638,-1.3169426110237734
-0.007698786593781758,0.01198503341950984,-1.320649962004811
-0.0076969965937817575,0.015683258272093638,-1.3169426110237734
-0.007695206593781758,0.01198503341950984,-1.3169426110237734
-0.007693416593781758,0.01198503341950984,-1.3243573129858488
-0.007691626593781758,0.01198503341950984,-1.320649962004811
-0.0076898365937817575,0.00828680856692604,-1.3169426110237734
-0.007688046593781758,0.00828680856692604,-1.320649962004811
-0.007686256593781758,0.01198503341950984,-1.320649962004811
-0.007684466593781758,0.01198503341950984,-1.320649962004811
-0.0076826765937817575,0.015683258272093638,-1.3169426110237734
-0.007680886593781758,0.00828680856692604,-1.320649962004811
-0.007679096593781758,0.00828680856692604,-1.320649962004811
-0.007677306593781758,0.01198503341950984,-1.320649962004811
-0.0076755165937817576,0.00828680856692604,-1.320649962004811
-0.007673726593781758,0.00828680856692604,-1.320649962004811
-0.007671936593781758,0.01198503341950984,-1.320649962004811
-0.007670146593781758,0.008286808566927723,-1.320649962004811
-0.007668356593781758,0.00828680856692604,-1.3169426110237734
-0.007666566593781758,0.01198503341950984,-1.3169426110237734
-0.007664776593781758,0.01198503341950984,-1.3132352600427357
-0.007662986593781757,0.01198503341950984,-1.3132352600427375
-0.007661196593781758,0.01198503341950984,-1.3169426110237734
-0.007659406593781758,0.00458858371434224,-1.3169426110237734
-0.007657616593781758,0.00458858371434224,-1.320649962004811
-0.007655826593781757,0.00828680856692436,-1.3169426110237734
-0.007654036593781758,0.00458858371434224,-1.3169426110237734
-0.007652246593781758,0.00458858371434224,-1.3132352600427357
-0.007650456593781758,0.00828680856692604,-1.3132352600427357
-0.007648666593781757,0.0008903588617584406,-1.3132352600427357
-0.007646876593781758,0.00458858371434224,-1.320649962004811
-0.007645086593781758,0.00828680856692604,-1.3169426110237734
-0.007643296593781758,0.00458858371434224,-1.3169426110237734
-0.0076415065937817574,0.00458858371434224,-1.3169426110237734
-0.007639716593781758,0.00458858371434224,-1.3169426110237734
-0.007637926593781758,0.0008903588617584406,-1.3169426110237734
-0.007636136593781758,0.0008903588617584406,-1.3169426110237734
-0.0076343465937817575,0.00458858371434224,-1.3169426110237734
-0.007632556593781758,0.0008903588617584406,-1.3132352600427357
-0.007630766593781758,-0.002807865990825359,-1.3132352600427357
-0.007628976593781758,0.00458858371434224,-1.3169426110237734
-0.0076271865937817575,0.0008903588617584406,-1.3169426110237734
-0.007625396593781758,-0.002807865990825359,-1.3169426110237734
-0.007623606593781758,0.00458858371434224,-1.3169426110237734
-0.007621816593781758,0.0008903588617584406,-1.3169426110237734
-0.0076200265937817575,-0.0065060908434091584,-1.3169426110237734
-0.007618236593781758,0.0008903588617584406,-1.3169426110237734
-0.007616446593781758,-0.002807865990825359,-1.3132352600427357
-0.007614656593781758,-0.002807865990825359,-1.320649962004811
-0.0076128665937817575,-0.0065060908434091584,-1.320649962004811
-0.007611076593781758,-0.0065060908434091584,-1.320649962004811
-0.007609286593781758,-0.002807865990825359,-1.3169426110237734
-0.007607496593781758,0.0008903588617584406,-1.3169426110237734
-0.0076057065937817575,0.0008903588617584406,-1.3169426110237734
-0.007603916593781758,-0.0065060908434091584,-1.320649962004811
-0.007602126593781758,-0.002807865990825359,-1.3169426110237734
-0.007600336593781758,-0.002807865990825359,-1.3132352600427357
-0.0075985465937817576,-0.0065060908434091584,-1.3169426110237734
-0.007596756593781758,-0.002807865990825359,-1.320649962004811
-0.007594966593781758,-0.0065060908434091584,-1.3169426110237734
-0.007593176593781758,-0.010204315695991277,-1.3169426110237734
-0.007591386593781758,-0.010204315695992958,-1.3169426110237734
-0.007589596593781758,-0.010204315695992958,-1.3169426110237734
-0.007587806593781758,-0.0065060908434091584,-1.3169426110237734
-0.007586016593781757,-0.0065060908434091584,-1.3169426110237734
-0.007584226593781758,-0.0065060908434091584,-1.3169426110237734
-0.007582436593781758,-0.002807865990825359,-1.3169426110237734
-0.007580646593781758,-0.0065060908434091584,-1.320649962004811
-0.007578856593781757,-0.0065060908434091584,-1.3169426110237734
-0.007577066593781758,-0.0065060908434091584,-1.320649962004811
-0.007575276593781758,-0.010204315695992958,-1.3243573129858488
-0.007573486593781758,-0.013902540548576758,-1.3243573129858488
-0.007571696593781757,-0.010204315695992958,-1.320649962004811
-0.007569906593781758,-0.017600765401160557,-1.3169426110237734
-0.007568116593781758,-0.010204315695992958,-1.3132352600427357
-0.007566326593781758,-0.010204315695992958,-1.3169426110237734
-0.0075645365937817574,-0.013902540548576758,-1.3169426110237734
-0.007562746593781758,-0.013902540548576758,-1.3169426110237734
-0.007560956593781758,-0.010204315695992958,-1.320649962004811
-0.007559166593781758,-0.010204315695992958,-1.320649962004811
-0.0075573765937817575,-0.013902540548576758,-1.320649962004811
-0.007555586593781758,-0.017600765401160557,-1.320649962004811
-0.007553796593781758,-0.010204315695992958,-1.320649962004811
-0.007552006593781758,-0.013902540548576758,-1.3169426110237734
-0.0075502165937817575,-0.017600765401160557,-1.3169426110237734
-0.007548426593781758,-0.010204315695992958,-1.3132352600427357
-0.007546636593781758,-0.010204315695992958,-1.3169426110237734
-0.007544846593781758,-0.013902540548576758,-1.320649962004811
-0.0075430565937817575,-0.017600765401160557,-1.3169426110237734
-0.007541266593781758,-0.017600765401160557,-1.320649962004811
-0.007539476593781758,-0.021298990253744356,-1.3169426110237734
-0.007537686593781758,-0.021298990253744356,-1.3169426110237734
-0.0075358965937817575,-0.013902540548576758,-1.3169426110237734
-0.007534106593781758,-0.013902540548576758,-1.320649962004811
-0.007532316593781758,-0.017600765401160557,-1.3169426110237734
-0.007530526593781758,-0.021298990253744356,-1.3132352600427357
-0.0075287365937817576,-0.017600765401160557,-1.320649962004811
-0.007526946593781758,-0.017600765401160557,-1.3132352600427357
-0.007525156593781758,-0.017600765401160557,-1.3169426110237734
-0.007523366593781758,-0.013902540548578441,-1.3169426110237734
-0.007521576593781758,-0.017600765401160557,-1.3169426110237734
-0.007519786593781758,-0.024997215106328158,-1.320649962004811
-0.007517996593781758,-0.021298990253744356,-1.3169426110237734
-0.007516206593781758,-0.021298990253744356,-1.3169426110237734
-0.007514416593781758,-0.017600765401160557,-1.320649962004811
-0.007512626593781758,-0.017600765401160557,-1.320649962004811
-0.007510836593781758,-0.013902540548576758,-1.320649962004811
-0.007509046593781757,-0.017600765401160557,-1.3206499620048078
-0.007507256593781758,-0.017600765401160557,-1.3132352600427357
-0.007505466593781758,-0.021298990253744356,-1.3169426110237734
-0.007503676593781758,-0.017600765401160557,-1.320649962004811
-0.007501886593781757,-0.013902540548576758,-1.3169426110237734
-0.007500096593781758,-1.9480741384499038,0.37360943632941546
-0.007498306593781758,-3.183281239212893,1.3375206913992161
-0.007496516593781758,-3.168488339802558,1.326398638456103
-0.0074947265937817574,-3.1610918900973903,1.326398638456103
-0.007492936593781758,-3.1573936652448067,1.326398638456103
-0.007491146593781758,-3.149997215539639,1.326398638456103
-0.007489356593781758,-3.146298990687055,1.3301059894371408
-0.0074875665937817575,-3.13150609127672,1.3301059894371408
-0.007485776593781758,-3.127807866424136,1.3226912874750654
-0.007483986593781758,-3.109316742161217,1.3226912874750654
-0.007482196593781758,-3.1019202924560494,1.3189839364940277
-0.0074804065937817575,-3.094523842750882,1.3226912874750654
-0.007478616593781758,-3.0797309433405466,1.31527658551299
-0.007476826593781758,-3.0649380439302116,1.31527658551299
-0.007475036593781758,-3.057541594225044,1.3115692345319523
-0.0074732465937817575,-3.0464469196672925,1.3115692345319523
-0.007471456593781758,-3.0316540202569575,1.3078618835509146
-0.007469666593781758,-3.0205593456992057,1.3115692345319523
-0.007467876593781758,-3.0131628959940384,1.3078618835509146
-0.0074660865937817575,-2.9946717717311193,1.304154532569877
-0.007464296593781758,-2.983577097173368,1.3115692345319523
-0.007462506593781758,-2.9724824226156166,1.3078618835509146
-0.007460716593781758,-2.961387748057865,1.3115692345319523
-0.0074589265937817575,-2.961387748057865,1.3078618835509146
-0.007457136593781758,-2.942896623794946,1.3004471815888392
-0.007455346593781758,-2.928103724384611,1.304154532569877
-0.007453556593781758,-2.9170090498268597,1.3004471815888392
-0.0074517665937817576,-2.9059143752691083,1.2967398306078015
-0.007449976593781758,-2.8948197007113565,1.2967398306078015
-0.007448186593781758,-2.883725026153605,1.2930324796267638
-0.007446396593781758,-2.868932126743277,1.2856177776646918
-0.007444606593781758,-2.8578374521855188,1.2819104266836507
-0.007442816593781758,-2.850441002480351,1.2856177776646884
-0.007441026593781758,-2.8430445527751838,1.2856177776646884
-0.007439236593781757,-2.8282516533648416,1.2893251286457243
-0.007437446593781758,-2.8134587539545133,1.2856177776646884
-0.007435656593781758,-2.8060623042493456,1.2893251286457261
-0.007433866593781758,-2.794967629691594,1.2856177776646884
-0.007432076593781757,-2.7875711799864265,1.2856177776646884
-0.007430286593781758,-2.776476505428675,1.278203075702613
-0.007428496593781758,-2.7727782805760914,1.2819104266836507
-0.007426706593781758,-2.76168360601834,1.2819104266836507
-0.007424916593781757,-2.7542871563131723,1.2856177776646884
-0.007423126593781758,-2.7468907066080046,1.2856177776646884
-0.007421336593781758,-2.7320978071976696,1.2856177776646884
-0.007419546593781758,-2.724701357492502,1.2819104266836507
-0.0074177565937817574,-2.7136066829347505,1.2744957247215754
-0.007415966593781758,-2.709908458082167,1.278203075702613
-0.007414176593781758,-2.6951155586718314,1.2744957247215754
-0.007412386593781758,-2.6803226592614964,1.2744957247215754
-0.0074105965937817575,-2.6729262095563286,1.278203075702613
-0.007408806593781758,-2.669227984703745,1.278203075702613
-0.007407016593781758,-2.6581333101459936,1.2744957247215754
-0.007405226593781758,-2.6544350852934095,1.2744957247215754
-0.0074034365937817575,-2.650736860440826,1.2744957247215754
-0.007401646593781758,-2.635943961030491,1.2744957247215754
-0.007399856593781758,-2.628547511325323,1.2744957247215754
-0.007398066593781758,-2.617452836767572,1.2744957247215754
-0.0073962765937817575,-2.617452836767572,1.2744957247215754
-0.007394486593781758,-2.6063581622098204,1.2707883737405377
-0.007392696593781758,-2.595263487652069,1.278203075702613
-0.007390906593781758,-2.591565262799485,1.278203075702613
-0.0073891165937817575,-2.5841688130943177,1.2819104266836507
-0.007387326593781758,-2.569375913683982,1.2744957247215754
-0.007385536593781758,-2.561979463978815,1.2707883737405377
-0.007383746593781758,-2.558281239126231,1.2707883737405377
-0.0073819565937817576,-2.5508847894210636,1.2707883737405377
-0.007380166593781758,-2.536091890010728,1.2707883737405377
-0.007378376593781758,-2.5286954403055604,1.2744957247215754
-0.007376586593781758,-2.5249972154529767,1.2707883737405377
-0.007374796593781758,-2.517600765747809,1.278203075702613
-0.007373006593781758,-2.5102043160426417,1.2744957247215754
-0.007371216593781758,-2.5065060911900576,1.2744957247215754
-0.007369426593781758,-2.495411416632311,1.2744957247215754
-0.007367636593781758,-2.488014966927139,1.2707883737405377
-0.007365846593781758,-2.484316742074555,1.2744957247215754
-0.007364056593781758,-2.4769202923693876,1.278203075702613
-0.007362266593781757,-2.469523842664215,1.2707883737405377
-0.007360476593781758,-2.4584291681064685,1.2707883737405377
-0.007358686593781758,-2.4584291681064685,1.2744957247215754
-0.007356896593781758,-2.4547309432538844,1.2707883737405377
-0.007355106593781757,-2.443636268696133,1.2707883737405377
-0.007353316593781758,-2.4399380438435494,1.2707883737405377
-0.007351526593781758,-2.4251451444332144,1.2707883737405377
-0.007349736593781758,-2.4140504698754626,1.2707883737405377
-0.0073479465937817574,-2.4140504698754626,1.2744957247215754
-0.007346156593781758,-2.402955795317711,1.2670810227595
-0.007344366593781758,-2.402955795317711,1.2670810227595
-0.007342576593781758,-2.39186112075996,1.2707883737405377
-0.0073407865937817575,-2.388162895907376,1.2744957247215754
-0.007338996593781758,-2.3807664462022085,1.2707883737405377
-0.007337206593781758,-2.377068221349625,1.2670810227595
-0.007335416593781758,-2.369671771644457,1.2707883737405377
-0.0073336265937817575,-2.3659735467918734,1.2707883737405377
-0.007331836593781758,-2.354878872234122,1.2744957247215754
-0.007330046593781758,-2.3474824225289543,1.2744957247215754
-0.007328256593781758,-2.3437841976763707,1.2744957247215754
-0.0073264665937817575,-2.336387747971203,1.2744957247215754
-0.007324676593781758,-2.3326895231186193,1.2744957247215754
-0.007322886593781758,-2.3252930734134516,1.2744957247215754
-0.007321096593781758,-2.3141983988557002,1.2744957247215754
-0.0073193065937817575,-2.3068019491505325,1.278203075702613
-0.007317516593781758,-2.3068019491505325,1.2707883737405377
-0.007315726593781758,-2.295707274592781,1.2707883737405377
-0.007313936593781758,-2.2846126000350298,1.2744957247215754
-0.0073121465937817575,-2.280914375182446,1.2670810227595
-0.007310356593781758,-2.2735179254772784,1.2633736717784623
-0.007308566593781758,-2.2661214757721106,1.2670810227595
-0.007306776593781758,-2.2661214757721106,1.2707883737405377
-0.0073049865937817576,-2.2587250260669434,1.2670810227595
-0.007303196593781758,-2.2513285763617756,1.2633736717784623
-0.007301406593781758,-2.243932126656608,1.2707883737405377
-0.007299616593781758,-2.243932126656608,1.2744957247215736
-0.007297826593781758,-2.2365356769514406,1.2707883737405377
-0.007296036593781758,-2.229139227246273,1.2707883737405377
-0.007294246593781758,-2.225441002393689,1.2707883737405377
-0.007292456593781757,-2.214346327835934,1.2707883737405377
-0.007290666593781758,-2.20694987813077,1.2707883737405377
-0.007288876593781758,-2.20694987813077,1.2670810227595
-0.007287086593781758,-2.1995534284256024,1.2707883737405377
-0.007285296593781757,-2.1884587538678475,1.2707883737405359
-0.007283506593781758,-2.1810623041626833,1.2670810227595
-0.007281716593781758,-2.1773640793100997,1.2707883737405377
-0.007279926593781758,-2.169967629604932,1.2707883737405377
-0.007278136593781757,-2.1662694047523483,1.2707883737405377
-0.007276346593781758,-2.162571179899764,1.2670810227595
-0.007274556593781758,-2.1588729550471806,1.2670810227595
-0.007272766593781758,-2.151476505342013,1.2707883737405377
-0.0072709765937817574,-2.147778280489429,1.2670810227595
-0.007269186593781758,-2.1440800556368456,1.2670810227595
-0.007267396593781758,-2.1403818307842615,1.2670810227595
-0.007265606593781758,-2.12928715622651,1.2670810227595
-0.0072638165937817575,-2.12928715622651,1.2670810227595
-0.007262026593781758,-2.1255889313739265,1.2744957247215754
-0.007260236593781758,-2.114494256816175,1.2744957247215754
-0.007258446593781758,-2.1107960319635914,1.2744957247215754
-0.0072566565937817575,-2.1033995822584237,1.278203075702613
-0.007254866593781758,-2.096003132553256,1.278203075702613
-0.007253076593781758,-2.0923049077006723,1.2707883737405377
-0.007251286593781758,-2.0849084579955046,1.2707883737405377
-0.0072494965937817575,-2.077512008290337,1.2670810227595
-0.007247706593781758,-2.0664173337325855,1.2670810227595
-0.007245916593781758,-2.0590208840274182,1.2670810227595
-0.007244126593781758,-2.055322659174834,1.2707883737405377
-0.0072423365937817575,-2.0516244343222505,1.2670810227595
-0.007240546593781758,-2.0479262094696664,1.2707883737405377
-0.007238756593781758,-2.040529759764499,1.2670810227595
-0.007236966593781758,-2.0331333100593314,1.2744957247215754
-0.0072351765937817576,-2.0331333100593314,1.2707883737405377
-0.007233386593781758,-2.0294350852067478,1.2707883737405377
-0.007231596593781758,-2.02203863550158,1.2707883737405377
-0.007229806593781758,-2.0183404106489964,1.2707883737405377
-0.007228016593781758,-2.0146421857964123,1.2670810227595
-0.007226226593781758,-2.0109439609438287,1.2707883737405377
-0.007224436593781758,-2.007245736091245,1.2707883737405377
-0.007222646593781758,-1.9961510615334983,1.2707883737405377
-0.007220856593781758,-1.9924528366809093,1.2744957247215754
-0.007219066593781758,-1.9850563869757418,1.2670810227595
-0.007217276593781758,-1.981358162123158,1.2707883737405377
-0.007215486593781757,-1.977659937270571,1.2670810227595
-0.007213696593781758,-1.9702634875654066,1.2670810227595
-0.007211906593781758,-1.962867037860239,1.2670810227595
-0.007210116593781758,-1.9591688130076552,1.2670810227595
-0.007208326593781757,-1.9554705881550714,1.2707883737405377
-0.007206536593781758,-1.9517723633024877,1.2670810227595
-0.007204746593781758,-1.9480741384499038,1.2707883737405377
-0.007202956593781758,-1.9406776887447361,1.2707883737405377
-0.0072011665937817574,-1.9332812390395686,1.2670810227595
-0.007199376593781758,-1.9332812390395686,1.2707883737405377
-0.007197586593781758,-1.925884789334401,1.2707883737405377
-0.007195796593781758,-1.9184883396292334,1.2707883737405377
-0.0071940065937817575,-1.9184883396292334,1.2744957247215754
-0.007192216593781758,-1.9110918899240659,1.2744957247215754
-0.007190426593781758,-1.907393665071482,1.278203075702613
-0.007188636593781758,-1.9036954402188981,1.2744957247215754
-0.0071868465937817575,-1.8962989905137306,1.2707883737405377
-0.007185056593781758,-1.8926007656611468,1.2670810227595
-0.007183266593781758,-1.8852043159559793,1.2707883737405377
-0.007181476593781758,-1.8815060911033954,1.2670810227595
-0.0071796865937817575,-1.870411416545644,1.2633736717784623
-0.007177896593781758,-1.8667131916930602,1.2670810227595
-0.007176106593781758,-1.8593167419878927,1.2670810227595
-0.007174316593781758,-1.8593167419878927,1.2670810227595
