200Hz/acq0020.csv

#Digilent WaveForms Oscilloscope Acquisition
#Device Name: Discovery2
#Serial Number: SN:210321AA28BE
#Date Time: 2023-05-24 14:48:04.535
#Sample rate: 558659Hz
#Samples: 8192
#Trigger: Source: Channel 1 Type: Edge Condition: Rising Level: 800 mV Hyst.: Auto HoldOff: 100 ns
#Channel 1: Range: 1 V/div Offset: 0 V Attenuation: 1 X Sample Mode: Average
#Channel 2: Range: 1 V/div Offset: 0 V Attenuation: 1 X Sample Mode: Average

Time (s),Channel 1 (V),Channel 2 (V)
-0.007741597517021468,0.015683258272093638,-1.3169426110237734
-0.007739807517021469,0.015683258272093638,-1.3169426110237734
-0.007738017517021468,0.015683258272093638,-1.3132352600427357
-0.007736227517021468,0.015683258272093638,-1.309527909061698
-0.007734437517021468,0.01938148312467744,-1.3132352600427357
-0.007732647517021468,0.023079707977259556,-1.3169426110237752
-0.007730857517021468,0.01938148312467744,-1.320649962004811
-0.007729067517021468,0.02307970797726124,-1.3169426110237734
-0.0077272775170214685,0.01938148312467744,-1.3169426110237734
-0.007725487517021468,0.02307970797726124,-1.3169426110237734
-0.007723697517021468,0.015683258272093638,-1.3169426110237734
-0.007721907517021468,0.01198503341950984,-1.3169426110237734
-0.0077201175170214685,0.015683258272093638,-1.3169426110237734
-0.007718327517021468,0.01198503341950984,-1.3169426110237734
-0.007716537517021468,0.015683258272093638,-1.3169426110237734
-0.007714747517021468,0.015683258272093638,-1.3169426110237734
-0.0077129575170214685,0.01198503341950984,-1.3169426110237734
-0.007711167517021468,0.015683258272093638,-1.3169426110237734
-0.007709377517021468,0.015683258272093638,-1.3132352600427357
-0.007707587517021468,0.015683258272093638,-1.320649962004811
-0.0077057975170214685,0.015683258272093638,-1.320649962004811
-0.007704007517021468,0.01198503341950984,-1.3169426110237734
-0.007702217517021468,0.01198503341950984,-1.3132352600427357
-0.007700427517021468,0.01198503341950984,-1.3132352600427357
-0.0076986375170214685,0.015683258272093638,-1.3169426110237734
-0.007696847517021468,0.01198503341950984,-1.3169426110237734
-0.007695057517021468,0.01198503341950984,-1.3169426110237734
-0.007693267517021468,0.01198503341950984,-1.3169426110237734
-0.0076914775170214686,0.01198503341950984,-1.3169426110237734
-0.007689687517021468,0.00828680856692604,-1.320649962004811
-0.007687897517021468,0.015683258272093638,-1.3169426110237734
-0.007686107517021468,0.01198503341950984,-1.320649962004811
-0.007684317517021469,0.00828680856692604,-1.320649962004811
-0.007682527517021468,0.00828680856692604,-1.320649962004811
-0.007680737517021468,0.00828680856692604,-1.320649962004811
-0.007678947517021468,0.01198503341950984,-1.3169426110237734
-0.007677157517021469,0.00828680856692604,-1.3132352600427357
-0.007675367517021468,0.00458858371434224,-1.320649962004811
-0.007673577517021468,0.00828680856692604,-1.3169426110237734
-0.007671787517021468,0.00828680856692604,-1.320649962004811
-0.007669997517021469,0.011985033419508156,-1.320649962004811
-0.007668207517021468,0.00828680856692604,-1.3169426110237734
-0.007666417517021468,0.00458858371434224,-1.3169426110237734
-0.007664627517021468,0.00828680856692604,-1.3169426110237734
-0.007662837517021468,0.0008903588617584406,-1.3243573129858455
-0.007661047517021468,0.0008903588617584406,-1.3169426110237734
-0.007659257517021468,0.00458858371434224,-1.3132352600427357
-0.0076574675170214684,0.00828680856692604,-1.320649962004811
-0.007655677517021468,0.004588583714340558,-1.3169426110237752
-0.007653887517021468,0.0008903588617584406,-1.320649962004811
-0.007652097517021468,0.0008903588617584406,-1.3132352600427357
-0.0076503075170214685,0.00458858371434224,-1.320649962004811
-0.007648517517021468,-0.002807865990825359,-1.3169426110237734
-0.007646727517021468,0.0008903588617584406,-1.3132352600427357
-0.007644937517021468,0.0008903588617584406,-1.320649962004811
-0.0076431475170214685,-0.002807865990825359,-1.3169426110237734
-0.007641357517021468,0.0008903588617584406,-1.3169426110237734
-0.007639567517021468,0.0008903588617584406,-1.320649962004811
-0.007637777517021468,0.00828680856692604,-1.320649962004811
-0.0076359875170214685,0.00828680856692604,-1.3132352600427357
-0.007634197517021468,0.0008903588617584406,-1.320649962004811
-0.007632407517021468,0.0008903588617584406,-1.3132352600427357
-0.007630617517021468,-0.0065060908434091584,-1.3169426110237734
-0.0076288275170214685,-0.002807865990825359,-1.320649962004811
-0.007627037517021468,-0.0065060908434091584,-1.320649962004811
-0.007625247517021468,-0.0065060908434091584,-1.3169426110237734
-0.007623457517021468,-0.002807865990825359,-1.3169426110237734
-0.0076216675170214685,0.0008903588617584406,-1.3169426110237734
-0.007619877517021468,-0.010204315695992958,-1.3132352600427357
-0.007618087517021468,-0.010204315695992958,-1.3169426110237734
-0.007616297517021468,0.0008903588617584406,-1.320649962004811
-0.0076145075170214686,-0.002807865990825359,-1.3169426110237734
-0.007612717517021468,-0.002807865990825359,-1.3132352600427357
-0.007610927517021468,-0.002807865990825359,-1.320649962004811
-0.007609137517021468,-0.0065060908434091584,-1.3169426110237734
-0.007607347517021469,-0.010204315695992958,-1.320649962004811
-0.007605557517021468,-0.010204315695992958,-1.320649962004811
-0.007603767517021468,-0.013902540548576758,-1.3169426110237734
-0.007601977517021468,-0.010204315695992958,-1.320649962004811
-0.007600187517021469,-0.010204315695992958,-1.3169426110237734
-0.007598397517021468,-0.0065060908434091584,-1.3169426110237734
-0.007596607517021468,-0.010204315695992958,-1.320649962004811
-0.007594817517021468,-0.0065060908434091584,-1.320649962004811
-0.007593027517021469,-0.010204315695991277,-1.3169426110237752
-0.007591237517021468,-0.0065060908434091584,-1.3169426110237734
-0.007589447517021468,-0.010204315695992958,-1.320649962004811
-0.007587657517021468,-0.013902540548576758,-1.320649962004811
-0.007585867517021468,-0.010204315695992958,-1.3206499620048093
-0.007584077517021468,-0.010204315695992958,-1.3169426110237734
-0.007582287517021468,-0.0065060908434091584,-1.3169426110237734
-0.0075804975170214684,-0.013902540548576758,-1.3169426110237734
-0.007578707517021468,-0.017600765401160557,-1.320649962004811
-0.007576917517021468,-0.013902540548576758,-1.3132352600427357
-0.007575127517021468,-0.013902540548576758,-1.3169426110237734
-0.0075733375170214685,-0.017600765401160557,-1.320649962004811
-0.007571547517021468,-0.013902540548576758,-1.3169426110237734
-0.007569757517021468,-0.013902540548576758,-1.3169426110237734
-0.007567967517021468,-0.010204315695992958,-1.3169426110237734
-0.0075661775170214685,-0.013902540548576758,-1.3169426110237734
-0.007564387517021468,-0.013902540548576758,-1.320649962004811
-0.007562597517021468,-0.013902540548576758,-1.3169426110237734
-0.007560807517021468,-0.017600765401160557,-1.320649962004811
-0.0075590175170214685,-0.017600765401160557,-1.320649962004811
-0.007557227517021468,-0.017600765401160557,-1.3169426110237734
-0.007555437517021468,-0.017600765401160557,-1.3169426110237734
-0.007553647517021468,-0.013902540548576758,-1.320649962004811
-0.0075518575170214685,-0.013902540548576758,-1.320649962004811
-0.007550067517021468,-0.013902540548576758,-1.3169426110237734
-0.007548277517021468,-0.017600765401160557,-1.320649962004811
-0.007546487517021468,-0.021298990253744356,-1.320649962004811
-0.0075446975170214686,-0.017600765401160557,-1.3132352600427357
-0.007542907517021468,-0.017600765401160557,-1.320649962004811
-0.007541117517021468,-0.021298990253744356,-1.320649962004811
-0.007539327517021468,-0.024997215106328158,-1.3169426110237734
-0.007537537517021469,-0.024997215106328158,-1.3169426110237734
-0.007535747517021468,-0.024997215106328158,-1.3169426110237734
-0.007533957517021468,-0.021298990253744356,-1.3132352600427357
-0.007532167517021468,-0.021298990253744356,-1.3169426110237734
-0.007530377517021469,-0.021298990253744356,-1.3169426110237734
-0.007528587517021468,-0.021298990253744356,-1.3169426110237734
-0.007526797517021468,-0.021298990253744356,-1.320649962004811
-0.007525007517021468,-0.024997215106328158,-1.320649962004811
-0.007523217517021469,-0.01760076540116392,-1.3169426110237752
-0.007521427517021468,-0.024997215106328158,-1.3169426110237734
-0.007519637517021468,-0.017600765401160557,-1.3169426110237734
-0.007517847517021468,-0.021298990253744356,-1.3169426110237734
-0.007516057517021469,-0.024997215106326475,-1.3132352600427375
-0.007514267517021468,-0.021298990253744356,-1.3132352600427357
-0.007512477517021468,-0.021298990253744356,-1.320649962004811
-0.0075106875170214684,-0.021298990253744356,-1.3169426110237734
-0.007508897517021468,-0.021298990253742673,-1.3169426110237734
-0.007507107517021468,-0.017600765401160557,-1.3169426110237734
-0.007505317517021468,-0.017600765401160557,-1.320649962004811
-0.0075035275170214685,-0.024997215106328158,-1.320649962004811
-0.007501737517021468,-0.024997215106328158,-1.320649962004811
-0.007499947517021468,-2.354878872234122,0.7221004285469588
-0.007498157517021468,-3.1758847895077253,1.3338133404181785
-0.0074963675170214685,-3.164790114949974,1.3338133404181785
-0.007494577517021468,-3.1610918900973903,1.3301059894371408
-0.007492787517021468,-3.149997215539639,1.3301059894371408
-0.007490997517021468,-3.146298990687055,1.326398638456103
-0.0074892075170214685,-3.1389025409818876,1.3226912874750654
-0.007487417517021468,-3.13150609127672,1.3226912874750654
-0.007485627517021468,-3.1204114167189685,1.3226912874750654
-0.007483837517021468,-3.116713191866385,1.3189839364940277
-0.0074820475170214685,-3.1056185173086335,1.31527658551299
-0.007480257517021468,-3.090825617898298,1.31527658551299
-0.007478467517021468,-3.0834291681931303,1.31527658551299
-0.007476677517021468,-3.076032718487963,1.3078618835509146
-0.0074748875170214685,-3.057541594225044,1.3115692345319523
-0.007473097517021468,-3.039050469962125,1.31527658551299
-0.007471307517021468,-3.0316540202569575,1.3115692345319523
-0.007469517517021468,-3.02425757055179,1.31527658551299
-0.0074677275170214686,-3.0131628959940384,1.3078618835509146
-0.007465937517021468,-3.002068221436287,1.304154532569877
-0.007464147517021468,-2.9872753220259516,1.304154532569877
-0.007462357517021468,-2.9798788723207843,1.3004471815888392
-0.007460567517021469,-2.968784197763033,1.304154532569877
-0.007458777517021468,-2.9539912983526975,1.3004471815888392
-0.007456987517021468,-2.9391983989423625,1.3004471815888392
-0.007455197517021468,-2.9318019492371947,1.2967398306078015
-0.007453407517021469,-2.9170090498268597,1.2967398306078015
-0.007451617517021468,-2.9022161504165243,1.2930324796267638
-0.007449827517021468,-2.8948197007113565,1.2893251286457261
-0.007448037517021468,-2.883725026153605,1.2893251286457261
-0.007446247517021469,-2.8726303515958587,1.2893251286457261
-0.007444457517021468,-2.8615356770381024,1.2893251286457261
-0.007442667517021468,-2.850441002480351,1.2856177776646884
-0.007440877517021468,-2.835648103070016,1.278203075702613
-0.007439087517021468,-2.8282516533648434,1.2856177776646867
-0.007437297517021468,-2.817156978807097,1.2819104266836507
-0.007435507517021468,-2.802364079396762,1.2819104266836507
-0.0074337175170214684,-2.798665854544178,1.278203075702613
-0.007431927517021468,-2.7875711799864265,1.278203075702613
-0.007430137517021468,-2.7801747302812587,1.278203075702613
-0.007428347517021468,-2.7727782805760914,1.2819104266836507
-0.0074265575170214685,-2.7653818308709237,1.2819104266836507
-0.007424767517021468,-2.7468907066080046,1.2819104266836507
-0.007422977517021468,-2.7394942569028373,1.278203075702613
-0.007421187517021468,-2.728399582345086,1.2744957247215754
-0.0074193975170214685,-2.717304907787334,1.2744957247215754
-0.007417607517021468,-2.709908458082167,1.2744957247215754
-0.007415817517021468,-2.702512008376999,1.2707883737405377
-0.007414027517021468,-2.687719108966664,1.2744957247215754
-0.0074122375170214685,-2.68402088411408,1.278203075702613
-0.007410447517021468,-2.6766244344089127,1.2744957247215754
-0.007408657517021468,-2.669227984703745,1.2744957247215754
-0.007406867517021468,-2.6581333101459936,1.278203075702613
-0.0074050775170214685,-2.643340410735658,1.2744957247215754
-0.007403287517021468,-2.643340410735658,1.2744957247215754
-0.007401497517021468,-2.635943961030491,1.278203075702613
-0.007399707517021468,-2.635943961030491,1.2744957247215754
-0.0073979175170214686,-2.6248492864727395,1.2670810227595
-0.007396127517021468,-2.617452836767572,1.2707883737405377
-0.007394337517021468,-2.610056387062404,1.278203075702613
-0.007392547517021468,-2.5989617125046527,1.2819104266836507
-0.007390757517021469,-2.591565262799485,1.2744957247215754
-0.007388967517021468,-2.57677236338915,1.2744957247215754
-0.007387177517021468,-2.5730741385365663,1.2744957247215754
-0.007385387517021468,-2.561979463978815,1.2707883737405377
-0.007383597517021469,-2.5508847894210636,1.2670810227595
-0.007381807517021468,-2.5471865645684795,1.2707883737405377
-0.007380017517021468,-2.539790114863312,1.2670810227595
-0.007378227517021468,-2.539790114863312,1.2670810227595
-0.007376437517021469,-2.5286954403055604,1.2744957247215754
-0.007374647517021468,-2.521298990600393,1.2707883737405377
-0.007372857517021468,-2.517600765747809,1.2707883737405377
-0.007371067517021468,-2.5102043160426417,1.2707883737405377
-0.007369277517021469,-2.5028078663374775,1.2707883737405377
-0.007367487517021468,-2.4917131917797226,1.2744957247215754
-0.007365697517021468,-2.484316742074555,1.2707883737405377
-0.0073639075170214684,-2.4769202923693876,1.2744957247215754
-0.007362117517021468,-2.4732220675168035,1.2707883737405394
-0.007360327517021468,-2.4732220675168035,1.2744957247215754
-0.007358537517021468,-2.4584291681064685,1.2707883737405377
-0.0073567475170214685,-2.4510327184013008,1.2707883737405377
-0.007354957517021468,-2.443636268696133,1.2670810227595
-0.007353167517021468,-2.4325415941383817,1.2670810227595
-0.007351377517021468,-2.4177486947280467,1.2707883737405377
-0.0073495875170214685,-2.4214469195806303,1.2707883737405377
-0.007347797517021468,-2.410352245022879,1.2633736717784623
-0.007346007517021468,-2.402955795317711,1.2633736717784623
-0.007344217517021468,-2.402955795317711,1.2670810227595
-0.0073424275170214685,-2.395559345612544,1.2670810227595
-0.007340637517021468,-2.39186112075996,1.2670810227595
-0.007338847517021468,-2.3807664462022085,1.2670810227595
-0.007337057517021468,-2.373369996497041,1.2670810227595
-0.0073352675170214685,-2.369671771644457,1.2670810227595
-0.007333477517021468,-2.3585770970867057,1.2744957247215754
-0.007331687517021468,-2.3585770970867057,1.278203075702613
-0.007329897517021468,-2.351180647381538,1.2707883737405377
-0.0073281075170214685,-2.3437841976763707,1.2707883737405377
-0.007326317517021468,-2.3400859728237866,1.278203075702613
-0.007324527517021468,-2.336387747971203,1.2707883737405377
-0.007322737517021468,-2.321594848560868,1.2744957247215754
-0.0073209475170214686,-2.321594848560868,1.2707883737405377
-0.007319157517021468,-2.3105001740031166,1.2707883737405377
-0.007317367517021468,-2.299405499445365,1.2633736717784623
-0.007315577517021468,-2.295707274592781,1.2633736717784623
-0.007313787517021469,-2.2846126000350298,1.2633736717784623
-0.007311997517021468,-2.2846126000350298,1.2707883737405377
-0.007310207517021468,-2.277216150329862,1.2633736717784623
-0.007308417517021468,-2.2698197006246947,1.2707883737405377
-0.007306627517021469,-2.2661214757721106,1.2744957247215754
-0.007304837517021468,-2.2661214757721106,1.2744957247215754
-0.007303047517021468,-2.2550268012143593,1.2744957247215754
-0.007301257517021468,-2.243932126656608,1.2670810227595
-0.007299467517021469,-2.240233901804026,1.2670810227595
-0.007297677517021468,-2.2365356769514406,1.2707883737405377
-0.007295887517021468,-2.229139227246273,1.2707883737405377
-0.007294097517021468,-2.225441002393689,1.2707883737405377
-0.007292307517021468,-2.2143463278359357,1.2707883737405377
-0.007290517517021468,-2.210648102983354,1.2707883737405377
-0.007288727517021468,-2.20694987813077,1.2744957247215754
-0.0072869375170214684,-2.1958552035730188,1.2744957247215754
-0.007285147517021468,-2.1884587538678475,1.2707883737405377
-0.007283357517021468,-2.1810623041626833,1.2707883737405377
-0.007281567517021468,-2.1773640793100997,1.2707883737405377
-0.0072797775170214685,-2.173665854457516,1.2707883737405377
-0.007277987517021468,-2.169967629604932,1.2670810227595
-0.007276197517021468,-2.162571179899764,1.2633736717784623
-0.007274407517021468,-2.1588729550471806,1.2633736717784623
-0.0072726175170214685,-2.151476505342013,1.2707883737405377
-0.007270827517021468,-2.147778280489429,1.2707883737405377
-0.007269037517021468,-2.1440800556368456,1.2744957247215754
-0.007267247517021468,-2.136683605931678,1.2744957247215754
-0.0072654575170214685,-2.132985381079094,1.2744957247215754
-0.007263667517021468,-2.1255889313739265,1.2744957247215754
-0.007261877517021468,-2.1255889313739265,1.2744957247215754
-0.007260087517021468,-2.121890706521343,1.2744957247215754
-0.0072582975170214685,-2.1107960319635914,1.2670810227595
-0.007256507517021468,-2.1070978071110074,1.2670810227595
-0.007254717517021468,-2.1033995822584237,1.2670810227595
-0.007252927517021468,-2.0923049077006723,1.2707883737405377
-0.0072511375170214686,-2.077512008290337,1.2670810227595
-0.007249347517021468,-2.0701155585851696,1.2707883737405377
-0.007247557517021468,-2.0701155585851696,1.2670810227595
-0.007245767517021468,-2.062719108880002,1.2670810227595
-0.007243977517021469,-2.062719108880002,1.2670810227595
-0.007242187517021468,-2.055322659174834,1.2670810227595
-0.007240397517021468,-2.0516244343222505,1.2707883737405377
-0.007238607517021468,-2.0442279846170828,1.2707883737405377
-0.007236817517021469,-2.036831534911915,1.2707883737405377
-0.007235027517021468,-2.036831534911915,1.2670810227595
-0.007233237517021468,-2.0331333100593314,1.2707883737405377
-0.007231447517021468,-2.0257368603541637,1.2670810227595
-0.007229657517021469,-2.0183404106489964,1.2744957247215754
-0.007227867517021468,-2.0183404106489964,1.2744957247215754
-0.007226077517021468,-2.0109439609438287,1.2744957247215754
-0.007224287517021468,-2.003547511238661,1.2707883737405377
-0.007222497517021469,-1.9961510615334965,1.2744957247215736
-0.007220707517021468,-1.9924528366809093,1.2707883737405377
-0.007218917517021468,-1.9887546118283257,1.2707883737405377
-0.0072171275170214684,-1.9776599372705743,1.2670810227595
-0.007215337517021468,-1.9739617124179887,1.2670810227595
-0.007213547517021468,-1.9702634875654066,1.2670810227595
-0.007211757517021468,-1.9665652627128227,1.2707883737405377
-0.0072099675170214685,-1.962867037860239,1.2670810227595
-0.007208177517021468,-1.9554705881550714,1.2670810227595
-0.007206387517021468,-1.9554705881550714,1.2670810227595
-0.007204597517021468,-1.9480741384499038,1.2707883737405377
-0.0072028075170214685,-1.9369794638921525,1.2670810227595
-0.007201017517021468,-1.9406776887447361,1.278203075702613
-0.007199227517021468,-1.9369794638921525,1.2707883737405377
-0.007197437517021468,-1.9369794638921525,1.2707883737405377
-0.0071956475170214685,-1.9332812390395686,1.2744957247215754
-0.007193857517021468,-1.9221865644818172,1.278203075702613
-0.007192067517021468,-1.9184883396292334,1.2744957247215754
-0.007190277517021468,-1.9110918899240659,1.2670810227595
-0.0071884875170214685,-1.8999972153663145,1.2670810227595
-0.007186697517021468,-1.8999972153663145,1.2670810227595
-0.007184907517021468,-1.8815060911033954,1.2633736717784623
-0.007183117517021468,-1.8852043159559793,1.2670810227595
-0.0071813275170214685,-1.8815060911033954,1.2670810227595
-0.007179537517021468,-1.870411416545644,1.2633736717784623
-0.007177747517021468,-1.8741096413982279,1.2633736717784623
-0.007175957517021468,-1.8667131916930602,1.2670810227595
-0.0071741675170214686,-1.8593167419878927,1.2707883737405377
