200Hz/acq0077.csv

#Digilent WaveForms Oscilloscope Acquisition
#Device Name: Discovery2
#Serial Number: SN:210321AA28BE
#Date Time: 2023-05-24 14:48:06.113
#Sample rate: 558659Hz
#Samples: 8192
#Trigger: Source: Channel 1 Type: Edge Condition: Rising Level: 800 mV Hyst.: Auto HoldOff: 100 ns
#Channel 1: Range: 1 V/div Offset: 0 V Attenuation: 1 X Sample Mode: Average
#Channel 2: Range: 1 V/div Offset: 0 V Attenuation: 1 X Sample Mode: Average

Time (s),Channel 1 (V),Channel 2 (V)
-0.007741147969599185,0.034174382535012635,-1.320649962004811
-0.007739357969599185,0.03787260738759476,-1.3169426110237752
-0.007737567969599185,0.03787260738759644,-1.3169426110237734
-0.007735777969599185,0.03787260738759644,-1.3243573129858488
-0.007733987969599185,0.03047615768242884,-1.320649962004811
-0.0077321979695991845,0.034174382535010955,-1.3169426110237734
-0.007730407969599185,0.03047615768242884,-1.3169426110237734
-0.007728617969599185,0.034174382535012635,-1.3243573129858488
-0.007726827969599185,0.04157083224018024,-1.320649962004811
-0.0077250379695991845,0.03787260738759644,-1.3169426110237734
-0.007723247969599185,0.03787260738759644,-1.320649962004811
-0.007721457969599185,0.03047615768242884,-1.320649962004811
-0.007719667969599185,0.034174382535012635,-1.320649962004811
-0.0077178779695991845,0.034174382535012635,-1.3169426110237734
-0.007716087969599185,0.03047615768242884,-1.320649962004811
-0.007714297969599185,0.03047615768242884,-1.3169426110237734
-0.007712507969599185,0.034174382535012635,-1.3169426110237734
-0.0077107179695991845,0.03047615768242884,-1.3132352600427357
-0.007708927969599185,0.026777932829845037,-1.320649962004811
-0.007707137969599185,0.03047615768242884,-1.3169426110237734
-0.007705347969599185,0.026777932829845037,-1.320649962004811
-0.0077035579695991846,0.026777932829845037,-1.3169426110237734
-0.007701767969599185,0.03047615768242884,-1.3169426110237734
-0.007699977969599185,0.034174382535012635,-1.3132352600427357
-0.007698187969599185,0.03787260738759644,-1.3169426110237734
-0.007696397969599185,0.026777932829845037,-1.3169426110237734
-0.007694607969599185,0.03047615768242884,-1.320649962004811
-0.007692817969599185,0.03047615768242884,-1.320649962004811
-0.007691027969599185,0.03047615768242884,-1.320649962004811
-0.007689237969599185,0.026777932829845037,-1.320649962004811
-0.007687447969599185,0.03047615768242884,-1.320649962004811
-0.007685657969599185,0.026777932829845037,-1.320649962004811
-0.007683867969599185,0.034174382535012635,-1.3132352600427357
-0.007682077969599185,0.026777932829845037,-1.320649962004811
-0.007680287969599185,0.02307970797726124,-1.3243573129858488
-0.007678497969599185,0.03047615768242884,-1.3169426110237734
-0.007676707969599185,0.03047615768242884,-1.3169426110237734
-0.007674917969599185,0.034174382535012635,-1.3132352600427357
-0.007673127969599185,0.026777932829845037,-1.3132352600427357
-0.007671337969599185,0.01938148312467744,-1.3132352600427357
-0.007669547969599185,0.023079707977259556,-1.3169426110237716
-0.007667757969599185,0.02307970797726124,-1.3169426110237734
-0.007665967969599185,0.01938148312467744,-1.3169426110237734
-0.007664177969599185,0.026777932829845037,-1.3132352600427357
-0.0076623879695991845,0.026777932829843355,-1.313235260042739
-0.007660597969599185,0.02307970797726124,-1.320649962004811
-0.007658807969599185,0.01938148312467744,-1.320649962004811
-0.007657017969599185,0.02307970797726124,-1.320649962004811
-0.0076552279695991845,0.01938148312467744,-1.3206499620048129
-0.007653437969599185,0.01938148312467744,-1.3243573129858488
-0.007651647969599185,0.02307970797726124,-1.320649962004811
-0.007649857969599185,0.02307970797726124,-1.320649962004811
-0.0076480679695991845,0.01938148312467744,-1.320649962004811
-0.007646277969599185,0.01938148312467744,-1.3169426110237734
-0.007644487969599185,0.01938148312467744,-1.3169426110237734
-0.007642697969599185,0.015683258272093638,-1.3169426110237734
-0.0076409079695991845,0.01938148312467744,-1.3169426110237734
-0.007639117969599185,0.01938148312467744,-1.3169426110237734
-0.007637327969599185,0.02307970797726124,-1.3169426110237734
-0.007635537969599185,0.015683258272093638,-1.3169426110237734
-0.0076337479695991846,0.015683258272093638,-1.3132352600427357
-0.007631957969599185,0.01938148312467744,-1.3243573129858488
-0.007630167969599185,0.02307970797726124,-1.3169426110237734
-0.007628377969599185,0.01938148312467744,-1.320649962004811
-0.007626587969599185,0.01938148312467744,-1.3169426110237734
-0.007624797969599185,0.01938148312467744,-1.3169426110237734
-0.007623007969599185,0.015683258272093638,-1.3169426110237734
-0.007621217969599185,0.01198503341950984,-1.320649962004811
-0.007619427969599185,0.01938148312467744,-1.320649962004811
-0.007617637969599185,0.015683258272093638,-1.3169426110237734
-0.007615847969599185,0.015683258272093638,-1.3169426110237734
-0.007614057969599185,0.015683258272093638,-1.3169426110237734
-0.007612267969599185,0.015683258272093638,-1.320649962004811
-0.007610477969599185,0.015683258272093638,-1.3169426110237734
-0.007608687969599185,0.01198503341950984,-1.3169426110237734
-0.007606897969599185,0.01198503341950984,-1.320649962004811
-0.007605107969599185,0.015683258272093638,-1.3243573129858488
-0.007603317969599185,0.015683258272093638,-1.320649962004811
-0.007601527969599185,0.015683258272093638,-1.3169426110237734
-0.007599737969599185,0.01198503341950984,-1.3169426110237734
-0.007597947969599185,0.015683258272093638,-1.320649962004811
-0.007596157969599185,0.01198503341950984,-1.320649962004811
-0.007594367969599185,0.01198503341950984,-1.3169426110237734
-0.007592577969599185,0.004588583714345604,-1.3206499620048093
-0.007590787969599185,0.00458858371434224,-1.320649962004811
-0.007588997969599185,0.01198503341950984,-1.3169426110237734
-0.007587207969599185,0.00828680856692604,-1.320649962004811
-0.0075854179695991845,0.01198503341950984,-1.3206499620048093
-0.007583627969599185,0.01198503341950984,-1.3169426110237734
-0.007581837969599185,0.01198503341950984,-1.3169426110237734
-0.007580047969599185,0.00828680856692604,-1.3169426110237734
-0.0075782579695991845,0.00458858371434224,-1.320649962004811
-0.007576467969599185,0.00828680856692604,-1.320649962004811
-0.007574677969599185,0.00828680856692604,-1.320649962004811
-0.007572887969599185,0.00828680856692604,-1.3169426110237734
-0.0075710979695991845,0.00828680856692604,-1.3169426110237734
-0.007569307969599185,0.00458858371434224,-1.320649962004811
-0.007567517969599185,0.0008903588617584406,-1.3169426110237734
-0.007565727969599185,0.00458858371434224,-1.309527909061698
-0.0075639379695991845,0.00458858371434224,-1.3169426110237734
-0.007562147969599185,0.00828680856692604,-1.320649962004811
-0.007560357969599185,0.00828680856692604,-1.320649962004811
-0.007558567969599185,0.00828680856692604,-1.320649962004811
-0.0075567779695991846,0.00458858371434224,-1.320649962004811
-0.007554987969599185,0.0008903588617584406,-1.320649962004811
-0.007553197969599185,0.0008903588617584406,-1.320649962004811
-0.007551407969599185,0.0008903588617584406,-1.3169426110237734
-0.007549617969599185,0.0008903588617584406,-1.320649962004811
-0.007547827969599185,0.0008903588617584406,-1.320649962004811
-0.007546037969599185,0.0008903588617584406,-1.3169426110237734
-0.007544247969599185,0.0008903588617584406,-1.320649962004811
-0.007542457969599185,-0.002807865990825359,-1.3243573129858488
-0.007540667969599185,0.0008903588617584406,-1.320649962004811
-0.007538877969599185,0.0008903588617584406,-1.3169426110237734
-0.007537087969599185,0.0008903588617584406,-1.320649962004811
-0.007535297969599185,0.0008903588617584406,-1.3132352600427357
-0.007533507969599185,0.0008903588617584406,-1.320649962004811
-0.007531717969599185,-0.002807865990825359,-1.320649962004811
-0.007529927969599185,0.00458858371434224,-1.3243573129858488
-0.007528137969599185,-0.002807865990825359,-1.3243573129858488
-0.007526347969599185,0.0008903588617584406,-1.320649962004811
-0.007524557969599185,-0.0065060908434091584,-1.3243573129858488
-0.007522767969599185,-0.0028078659908270407,-1.3206499620048129
-0.007520977969599185,0.0008903588617584406,-1.320649962004811
-0.007519187969599185,0.0008903588617584406,-1.320649962004811
-0.007517397969599185,-0.002807865990825359,-1.320649962004811
-0.007515607969599185,0.0008903588617567588,-1.3169426110237752
-0.007513817969599185,0.0008903588617584406,-1.3169426110237734
-0.007512027969599185,-0.002807865990825359,-1.3132352600427357
-0.007510237969599185,-0.0065060908434091584,-1.320649962004811
-0.0075084479695991845,-0.0028078659908287226,-1.3169426110237734
-0.007506657969599185,-0.010204315695992958,-1.3169426110237734
-0.007504867969599185,-0.002807865990825359,-1.320649962004811
-0.007503077969599185,-0.002807865990825359,-1.3169426110237734
-0.0075012879695991845,-0.6869794637188283,-0.6718635403232145
-0.007499497969599185,-3.1758847895077253,1.3412280423802538
-0.007497707969599185,-3.164790114949974,1.3338133404181785
-0.007495917969599185,-3.1573936652448067,1.3301059894371408
-0.0074941279695991845,-3.146298990687055,1.326398638456103
-0.007492337969599185,-3.1389025409818876,1.3226912874750654
-0.007490547969599185,-3.1352043161293035,1.3226912874750654
-0.007488757969599185,-3.127807866424136,1.3226912874750654
-0.0074869679695991845,-3.116713191866385,1.3226912874750654
-0.007485177969599185,-3.1056185173086335,1.3189839364940277
-0.007483387969599185,-3.094523842750882,1.3189839364940277
-0.007481597969599185,-3.0871273930457144,1.3189839364940277
-0.007479807969599185,-3.072334493635379,1.3189839364940277
-0.007478017969599185,-3.057541594225044,1.3189839364940277
-0.007476227969599185,-3.042748694814709,1.31527658551299
-0.007474437969599185,-3.0316540202569575,1.31527658551299
-0.007472647969599185,-3.02425757055179,1.31527658551299
-0.007470857969599185,-3.016861120846622,1.31527658551299
-0.007469067969599185,-2.998369996583703,1.3115692345319523
-0.007467277969599185,-2.9872753220259516,1.3115692345319523
-0.007465487969599185,-2.9724824226156166,1.3078618835509146
-0.007463697969599185,-2.961387748057865,1.304154532569877
-0.007461907969599185,-2.9465948486475297,1.3004471815888392
-0.007460117969599185,-2.9318019492371947,1.2967398306078015
-0.007458327969599185,-2.9170090498268597,1.2930324796267638
-0.007456537969599185,-2.909612600121692,1.2930324796267638
-0.007454747969599185,-2.8948197007113565,1.2930324796267638
-0.007452957969599185,-2.883725026153605,1.2967398306078015
-0.007451167969599185,-2.8800268013010215,1.2930324796267638
-0.007449377969599185,-2.86893212674327,1.2930324796267638
-0.007447587969599185,-2.8652339018906865,1.2856177776646884
-0.007445797969599185,-2.8504410024803577,1.2893251286457243
-0.007444007969599185,-2.8430445527751838,1.2856177776646884
-0.007442217969599185,-2.8282516533648483,1.2856177776646884
-0.007440427969599185,-2.8245534285122647,1.2856177776646884
-0.0074386379695991845,-2.8171569788070903,1.293032479626762
-0.007436847969599185,-2.802364079396762,1.2893251286457261
-0.007435057969599185,-2.7912694048390105,1.2893251286457261
-0.007433267969599185,-2.7801747302812587,1.2856177776646884
-0.0074314779695991845,-2.7690800557235073,1.2856177776646884
-0.007429687969599185,-2.757985381165756,1.2856177776646884
-0.007427897969599185,-2.7468907066080046,1.2819104266836507
-0.007426107969599185,-2.7357960320502532,1.278203075702613
-0.0074243179695991845,-2.724701357492502,1.278203075702613
-0.007422527969599185,-2.717304907787334,1.2819104266836507
-0.007420737969599185,-2.7062102332295828,1.2707883737405377
-0.007418947969599185,-2.6988137835244155,1.278203075702613
-0.0074171579695991845,-2.6914173338192477,1.2744957247215754
-0.007415367969599185,-2.6803226592614964,1.2744957247215754
-0.007413577969599185,-2.6766244344089127,1.278203075702613
-0.007411787969599185,-2.6655297598511614,1.278203075702613
-0.0074099979695991846,-2.6581333101459936,1.2744957247215754
-0.007408207969599185,-2.6470386355882423,1.2744957247215754
-0.007406417969599185,-2.6396421858830745,1.2707883737405377
-0.007404627969599185,-2.635943961030491,1.2744957247215754
-0.007402837969599185,-2.628547511325323,1.2744957247215754
-0.007401047969599185,-2.617452836767572,1.2744957247215754
-0.007399257969599185,-2.610056387062404,1.2707883737405377
-0.007397467969599185,-2.5989617125046527,1.2707883737405377
-0.007395677969599185,-2.5841688130943177,1.278203075702613
-0.007393887969599185,-2.57677236338915,1.2744957247215754
-0.007392097969599185,-2.57677236338915,1.2744957247215754
-0.007390307969599185,-2.561979463978815,1.2744957247215754
-0.007388517969599185,-2.554583014273647,1.2707883737405377
-0.007386727969599185,-2.554583014273647,1.2707883737405377
-0.007384937969599185,-2.543488339715896,1.2670810227595
-0.007383147969599185,-2.536091890010728,1.2670810227595
-0.007381357969599185,-2.5249972154529767,1.2707883737405377
-0.007379567969599185,-2.517600765747809,1.2744957247215754
-0.007377777969599185,-2.517600765747809,1.2707883737405377
-0.007375987969599185,-2.5065060911900576,1.2707883737405377
-0.007374197969599185,-2.502807866337474,1.2707883737405377
-0.007372407969599185,-2.4954114166323063,1.2744957247215754
-0.007370617969599185,-2.4917131917797226,1.2744957247215754
-0.007368827969599185,-2.480618517221976,1.2744957247215754
-0.007367037969599185,-2.4732220675168035,1.2707883737405377
-0.007365247969599185,-2.46952384266422,1.2744957247215754
-0.007363457969599185,-2.462127392959052,1.2707883737405377
-0.0073616679695991845,-2.4473344935487154,1.2707883737405377
-0.007359877969599185,-2.443636268696133,1.2707883737405377
-0.007358087969599185,-2.4362398189909658,1.2670810227595
-0.007356297969599185,-2.4251451444332144,1.2707883737405377
-0.0073545079695991845,-2.4214469195806303,1.2707883737405377
-0.007352717969599185,-2.4140504698754626,1.2633736717784623
-0.007350927969599185,-2.4066540201702953,1.2633736717784623
-0.007349137969599185,-2.3992575704651276,1.2707883737405377
-0.0073473479695991845,-2.39186112075996,1.2707883737405377
-0.007345557969599185,-2.3844646710547925,1.2670810227595
-0.007343767969599185,-2.3844646710547925,1.2670810227595
-0.007341977969599185,-2.377068221349625,1.2670810227595
-0.0073401879695991845,-2.373369996497041,1.2670810227595
-0.007338397969599185,-2.36227532193929,1.2707883737405377
-0.007336607969599185,-2.351180647381538,1.2670810227595
-0.007334817969599185,-2.3474824225289543,1.2744957247215754
-0.007333027969599185,-2.3400859728237866,1.2707883737405377
-0.007331237969599185,-2.3326895231186193,1.2670810227595
-0.007329447969599185,-2.321594848560868,1.2633736717784623
-0.007327657969599185,-2.321594848560868,1.2670810227595
-0.007325867969599185,-2.3141983988557002,1.2633736717784623
-0.007324077969599185,-2.3105001740031166,1.2633736717784623
-0.007322287969599185,-2.299405499445365,1.2670810227595
-0.007320497969599185,-2.295707274592781,1.2670810227595
-0.007318707969599185,-2.2846126000350298,1.2707883737405377
-0.007316917969599185,-2.2883108248876134,1.2670810227595
-0.007315127969599185,-2.2735179254772784,1.2707883737405377
-0.007313337969599185,-2.2661214757721106,1.2707883737405377
-0.007311547969599185,-2.2661214757721106,1.2707883737405377
-0.007309757969599185,-2.2550268012143593,1.2744957247215754
-0.007307967969599185,-2.2550268012143593,1.2707883737405377
-0.007306177969599185,-2.247630351509192,1.2707883737405377
-0.007304387969599185,-2.243932126656608,1.2707883737405377
-0.007302597969599185,-2.2402339018040243,1.2707883737405377
-0.007300807969599185,-2.229139227246273,1.2670810227595
-0.007299017969599185,-2.2180445526885264,1.2707883737405359
-0.007297227969599185,-2.2143463278359374,1.2707883737405377
-0.007295437969599185,-2.2143463278359374,1.2707883737405377
-0.007293647969599185,-2.1995534284256024,1.2707883737405377
-0.0072918579695991845,-2.1995534284255975,1.2707883737405377
-0.007290067969599185,-2.188458753867851,1.2707883737405377
-0.007288277969599185,-2.1810623041626833,1.2707883737405377
-0.007286487969599185,-2.1810623041626833,1.2707883737405377
-0.0072846979695991845,-2.1699676296049284,1.2707883737405359
-0.007282907969599185,-2.162571179899764,1.2670810227595
-0.007281117969599185,-2.162571179899764,1.2707883737405377
-0.007279327969599185,-2.1588729550471806,1.2670810227595
-0.0072775379695991845,-2.151476505342013,1.2707883737405377
-0.007275747969599185,-2.1440800556368456,1.2670810227595
-0.007273957969599185,-2.1403818307842615,1.2707883737405377
-0.007272167969599185,-2.12928715622651,1.2670810227595
-0.0072703779695991845,-2.132985381079094,1.2707883737405377
-0.007268587969599185,-2.1255889313739265,1.2744957247215754
-0.007266797969599185,-2.1181924816687587,1.2707883737405377
-0.007265007969599185,-2.1107960319635914,1.2670810227595
-0.0072632179695991846,-2.1033995822584237,1.2707883737405377
-0.007261427969599185,-2.1033995822584237,1.2670810227595
-0.007259637969599185,-2.0923049077006723,1.2670810227595
-0.007257847969599185,-2.081210233142921,1.2670810227595
-0.007256057969599185,-2.077512008290337,1.2670810227595
-0.007254267969599185,-2.0738137834377532,1.2633736717784623
-0.007252477969599185,-2.0701155585851696,1.2670810227595
-0.007250687969599185,-2.062719108880002,1.2707883737405377
-0.007248897969599185,-2.0590208840274182,1.2707883737405377
-0.007247107969599185,-2.055322659174834,1.2744957247215754
-0.007245317969599185,-2.0442279846170828,1.2744957247215754
-0.007243527969599185,-2.0442279846170828,1.2707883737405377
-0.007241737969599185,-2.036831534911915,1.2670810227595
-0.007239947969599185,-2.036831534911915,1.2707883737405377
-0.007238157969599185,-2.0294350852067478,1.2707883737405377
-0.007236367969599185,-2.0257368603541637,1.2707883737405377
-0.007234577969599185,-2.0183404106489964,1.2707883737405377
-0.007232787969599185,-2.0109439609438287,1.2707883737405377
-0.007230997969599185,-2.003547511238661,1.2744957247215754
-0.007229207969599185,-1.9961510615334932,1.2707883737405377
-0.007227417969599185,-1.9924528366809093,1.2670810227595
-0.007225627969599185,-1.9887546118283257,1.2670810227595
-0.007223837969599185,-1.9887546118283257,1.2707883737405377
-0.007222047969599185,-1.9776599372705794,1.2670810227595017
-0.007220257969599185,-1.9702634875654066,1.2670810227595
-0.007218467969599185,-1.962867037860239,1.2633736717784623
-0.007216677969599185,-1.9591688130076552,1.2633736717784623
-0.0072148879695991845,-1.9517723633024877,1.2633736717784674
-0.007213097969599185,-1.9517723633024877,1.2744957247215754
-0.007211307969599185,-1.9480741384499038,1.2670810227595
-0.007209517969599185,-1.9480741384499038,1.2707883737405377
-0.0072077279695991845,-1.9406776887447361,1.2744957247215754
-0.007205937969599185,-1.9332812390395686,1.2707883737405377
-0.007204147969599185,-1.925884789334401,1.2707883737405377
-0.007202357969599185,-1.9221865644818172,1.2744957247215754
-0.0072005679695991845,-1.9184883396292334,1.2707883737405377
-0.007198777969599185,-1.9147901147766497,1.2670810227595
-0.007196987969599185,-1.9110918899240659,1.2670810227595
-0.007195197969599185,-1.9036954402188981,1.2670810227595
-0.0071934079695991845,-1.8962989905137306,1.2707883737405377
-0.007191617969599185,-1.8962989905137306,1.2670810227595
-0.007189827969599185,-1.8852043159559793,1.2670810227595
-0.007188037969599185,-1.8778078662508115,1.2596663207974246
-0.007186247969599185,-1.8741096413982279,1.2670810227595
-0.007184457969599185,-1.870411416545644,1.2670810227595
-0.007182667969599185,-1.8593167419878927,1.2670810227595
-0.007180877969599185,-1.8667131916930602,1.2670810227595
-0.007179087969599185,-1.8556185171353088,1.2707883737405377
-0.007177297969599185,-1.8482220674301413,1.2707883737405377
-0.007175507969599185,-1.8482220674301413,1.2670810227595
-0.007173717969599185,-1.8445238425775574,1.2670810227595
-0.007171927969599185,-1.8408256177249736,1.2744957247215754
-0.007170137969599185,-1.833429168019806,1.2707883737405377
