200Hz/acq0092.csv

#Digilent WaveForms Oscilloscope Acquisition
#Device Name: Discovery2
#Serial Number: SN:210321AA28BE
#Date Time: 2023-05-24 14:48:06.529
#Sample rate: 558659Hz
#Samples: 8192
#Trigger: Source: Channel 1 Type: Edge Condition: Rising Level: 800 mV Hyst.: Auto HoldOff: 100 ns
#Channel 1: Range: 1 V/div Offset: 0 V Attenuation: 1 X Sample Mode: Average
#Channel 2: Range: 1 V/div Offset: 0 V Attenuation: 1 X Sample Mode: Average

Time (s),Channel 1 (V),Channel 2 (V)
-0.007741516743244993,0.048967281945347836,-1.3169426110237734
-0.007739726743244993,0.05266550679792995,-1.3169426110237734
-0.007737936743244992,0.05266550679793163,-1.3169426110237734
-0.007736146743244993,0.04157083224018024,-1.3169426110237734
-0.007734356743244993,0.04157083224018024,-1.3169426110237734
-0.007732566743244992,0.04896728194534616,-1.3169426110237767
-0.007730776743244992,0.045269057092764034,-1.3243573129858488
-0.007728986743244993,0.05266550679793163,-1.3243573129858488
-0.007727196743244993,0.045269057092764034,-1.320649962004811
-0.007725406743244992,0.04157083224018024,-1.320649962004811
-0.0077236167432449924,0.048967281945347836,-1.320649962004811
-0.007721826743244993,0.045269057092764034,-1.320649962004811
-0.007720036743244993,0.04157083224018024,-1.3169426110237734
-0.007718246743244992,0.045269057092764034,-1.3132352600427357
-0.0077164567432449925,0.04157083224018024,-1.3132352600427357
-0.007714666743244993,0.04157083224018024,-1.3169426110237734
-0.007712876743244993,0.04157083224018024,-1.3169426110237734
-0.007711086743244992,0.03787260738759644,-1.3169426110237734
-0.0077092967432449925,0.04157083224018024,-1.3169426110237734
-0.007707506743244993,0.045269057092764034,-1.3169426110237734
-0.007705716743244993,0.04157083224018024,-1.3169426110237734
-0.007703926743244992,0.04157083224018024,-1.3169426110237734
-0.0077021367432449925,0.04157083224018024,-1.3169426110237734
-0.007700346743244993,0.04157083224018024,-1.3169426110237734
-0.007698556743244993,0.04157083224018024,-1.3169426110237734
-0.007696766743244992,0.04157083224018024,-1.320649962004811
-0.0076949767432449925,0.03787260738759644,-1.320649962004811
-0.007693186743244993,0.04157083224018024,-1.320649962004811
-0.007691396743244993,0.04157083224018024,-1.320649962004811
-0.007689606743244992,0.04157083224018024,-1.320649962004811
-0.0076878167432449926,0.045269057092764034,-1.3169426110237734
-0.007686026743244993,0.04157083224018024,-1.3169426110237734
-0.007684236743244993,0.03787260738759644,-1.320649962004811
-0.007682446743244992,0.03787260738759644,-1.3169426110237734
-0.007680656743244993,0.03787260738759644,-1.3243573129858488
-0.007678866743244993,0.045269057092764034,-1.320649962004811
-0.007677076743244993,0.03787260738759644,-1.320649962004811
-0.007675286743244992,0.03787260738759644,-1.3243573129858488
-0.007673496743244993,0.04157083224018024,-1.320649962004811
-0.007671706743244993,0.034174382535012635,-1.320649962004811
-0.007669916743244993,0.03787260738759476,-1.320649962004811
-0.007668126743244992,0.04157083224018024,-1.320649962004811
-0.007666336743244993,0.034174382535012635,-1.320649962004811
-0.007664546743244993,0.034174382535012635,-1.3243573129858488
-0.007662756743244992,0.034174382535014314,-1.3169426110237734
-0.007660966743244992,0.03787260738759644,-1.3169426110237734
-0.007659176743244993,0.034174382535012635,-1.3169426110237734
-0.007657386743244993,0.034174382535012635,-1.320649962004811
-0.007655596743244992,0.03047615768242884,-1.3206499620048078
-0.0076538067432449924,0.03047615768242884,-1.3132352600427357
-0.007652016743244993,0.034174382535012635,-1.3169426110237734
-0.007650226743244993,0.03047615768242884,-1.3169426110237734
-0.007648436743244992,0.03047615768242884,-1.3169426110237734
-0.0076466467432449925,0.026777932829845037,-1.3169426110237734
-0.007644856743244993,0.03047615768242884,-1.3169426110237734
-0.007643066743244993,0.026777932829845037,-1.320649962004811
-0.007641276743244992,0.026777932829845037,-1.320649962004811
-0.0076394867432449925,0.03047615768242884,-1.3132352600427357
-0.007637696743244993,0.03047615768242884,-1.320649962004811
-0.007635906743244993,0.026777932829845037,-1.3243573129858488
-0.007634116743244992,0.026777932829845037,-1.320649962004811
-0.0076323267432449925,0.03047615768242884,-1.3169426110237734
-0.007630536743244993,0.02307970797726124,-1.3169426110237734
-0.007628746743244993,0.026777932829845037,-1.320649962004811
-0.007626956743244992,0.026777932829845037,-1.3243573129858488
-0.0076251667432449925,0.026777932829845037,-1.3243573129858488
-0.007623376743244993,0.026777932829845037,-1.3243573129858488
-0.007621586743244993,0.026777932829845037,-1.320649962004811
-0.007619796743244992,0.02307970797726124,-1.3169426110237734
-0.0076180067432449925,0.03047615768242884,-1.3169426110237734
-0.007616216743244993,0.026777932829845037,-1.3169426110237734
-0.007614426743244993,0.02307970797726124,-1.3169426110237734
-0.007612636743244992,0.03047615768242884,-1.3169426110237734
-0.0076108467432449926,0.02307970797726124,-1.3169426110237734
-0.007609056743244993,0.026777932829845037,-1.3169426110237734
-0.007607266743244993,0.034174382535012635,-1.3169426110237734
-0.007605476743244992,0.026777932829845037,-1.320649962004811
-0.007603686743244993,0.026777932829845037,-1.3169426110237734
-0.007601896743244993,0.02307970797726124,-1.3169426110237734
-0.007600106743244993,0.026777932829845037,-1.3169426110237734
-0.007598316743244992,0.02307970797726124,-1.3169426110237734
-0.007596526743244993,0.02307970797726124,-1.320649962004811
-0.007594736743244993,0.026777932829845037,-1.3169426110237734
-0.007592946743244993,0.02307970797726292,-1.3132352600427375
-0.007591156743244992,0.015683258272093638,-1.3169426110237734
-0.007589366743244993,0.015683258272093638,-1.320649962004811
-0.007587576743244993,0.02307970797726124,-1.3169426110237734
-0.007585786743244992,0.026777932829843355,-1.320649962004811
-0.007583996743244992,0.02307970797726124,-1.320649962004811
-0.007582206743244993,0.02307970797726124,-1.320649962004811
-0.007580416743244993,0.02307970797726124,-1.320649962004811
-0.007578626743244992,0.01938148312467744,-1.3169426110237734
-0.0075768367432449924,0.01938148312467744,-1.3169426110237734
-0.007575046743244993,0.01938148312467744,-1.320649962004811
-0.007573256743244993,0.01938148312467744,-1.320649962004811
-0.007571466743244992,0.015683258272093638,-1.3169426110237734
-0.0075696767432449925,0.01938148312467744,-1.3132352600427357
-0.007567886743244993,0.01938148312467744,-1.3169426110237734
-0.007566096743244993,0.015683258272093638,-1.3243573129858488
-0.007564306743244992,0.01938148312467744,-1.320649962004811
-0.0075625167432449925,0.01938148312467744,-1.3243573129858488
-0.007560726743244993,0.015683258272093638,-1.320649962004811
-0.007558936743244993,0.01938148312467744,-1.320649962004811
-0.007557146743244992,0.01938148312467744,-1.320649962004811
-0.0075553567432449925,0.01938148312467744,-1.320649962004811
-0.007553566743244993,0.01938148312467744,-1.320649962004811
-0.007551776743244993,0.01938148312467744,-1.320649962004811
-0.007549986743244992,0.01938148312467744,-1.320649962004811
-0.0075481967432449925,0.015683258272093638,-1.3169426110237734
-0.007546406743244993,0.01198503341950984,-1.320649962004811
-0.007544616743244993,0.01198503341950984,-1.3243573129858488
-0.007542826743244992,0.015683258272093638,-1.320649962004811
-0.0075410367432449926,0.01198503341950984,-1.3169426110237734
-0.007539246743244993,0.00458858371434224,-1.3169426110237734
-0.007537456743244993,0.01198503341950984,-1.320649962004811
-0.007535666743244992,0.015683258272093638,-1.320649962004811
-0.007533876743244993,0.01198503341950984,-1.320649962004811
-0.007532086743244993,0.01198503341950984,-1.3169426110237734
-0.007530296743244993,0.015683258272093638,-1.3243573129858488
-0.007528506743244992,0.01198503341950984,-1.320649962004811
-0.007526716743244993,0.015683258272093638,-1.320649962004811
-0.007524926743244993,0.01198503341950984,-1.320649962004811
-0.007523136743244993,0.01198503341950984,-1.3169426110237752
-0.007521346743244992,0.01198503341950984,-1.3169426110237734
-0.007519556743244993,0.01198503341950984,-1.3243573129858488
-0.007517766743244993,0.00458858371434224,-1.3243573129858488
-0.007515976743244993,0.008286808566924358,-1.3206499620048129
-0.007514186743244992,0.00828680856692604,-1.320649962004811
-0.007512396743244993,0.00828680856692604,-1.3169426110237734
-0.007510606743244993,0.00828680856692604,-1.3169426110237734
-0.007508816743244992,0.011985033419508158,-1.3169426110237752
-0.0075070267432449924,0.00828680856692604,-1.320649962004811
-0.007505236743244993,0.00828680856692604,-1.320649962004811
-0.007503446743244993,0.00828680856692604,-1.3243573129858488
-0.007501656743244992,0.01198503341950984,-1.320649962004811
-0.0074998667432449925,-2.76168360601834,1.0705914207645022
-0.007498076743244993,-3.168488339802558,1.3301059894371408
-0.007496286743244993,-3.1573936652448067,1.3226912874750654
-0.007494496743244992,-3.1426007658344712,1.3189839364940277
-0.0074927067432449925,-3.1352043161293035,1.3226912874750654
-0.007490916743244993,-3.13150609127672,1.326398638456103
-0.007489126743244993,-3.116713191866385,1.3226912874750654
-0.007487336743244992,-3.109316742161217,1.3226912874750654
-0.0074855467432449925,-3.0982220676034657,1.3226912874750654
-0.007483756743244993,-3.090825617898298,1.3226912874750654
-0.007481966743244993,-3.0797309433405466,1.3226912874750654
-0.007480176743244992,-3.0649380439302116,1.326398638456103
-0.0074783867432449925,-3.0538433693724603,1.3189839364940277
-0.007476596743244993,-3.039050469962125,1.3189839364940277
-0.007474806743244993,-3.0279557954043734,1.3115692345319523
-0.007473016743244992,-3.0131628959940384,1.3078618835509146
-0.0074712267432449925,-2.998369996583703,1.304154532569877
-0.007469436743244993,-2.983577097173368,1.3078618835509146
-0.007467646743244993,-2.9761806474682,1.304154532569877
-0.007465856743244992,-2.965085972910449,1.3004471815888392
-0.0074640667432449926,-2.950293073500114,1.3004471815888392
-0.007462276743244993,-2.9465948486475297,1.3004471815888392
-0.007460486743244993,-2.9318019492371947,1.3004471815888392
-0.007458696743244992,-2.9170090498268597,1.3004471815888392
-0.007456906743244993,-2.909612600121692,1.2967398306078015
-0.007455116743244993,-2.8985179255639406,1.2967398306078015
-0.007453326743244993,-2.891121475858773,1.2967398306078015
-0.007451536743244992,-2.876328576448438,1.2893251286457261
-0.007449746743244993,-2.8652339018906865,1.2930324796267638
-0.007447956743244993,-2.854139227332935,1.2930324796267638
-0.007446166743244993,-2.846742777627771,1.2930324796267638
-0.007444376743244992,-2.8393463279225997,1.2893251286457261
-0.007442586743244993,-2.8208552036596806,1.2856177776646884
-0.007440796743244993,-2.8060623042493456,1.2856177776646884
-0.007439006743244992,-2.7949676296915875,1.2856177776646867
-0.007437216743244992,-2.7801747302812587,1.2819104266836507
-0.007435426743244993,-2.7690800557235073,1.278203075702613
-0.007433636743244993,-2.76168360601834,1.2819104266836507
-0.007431846743244992,-2.76168360601834,1.2819104266836507
-0.0074300567432449924,-2.7505889314605887,1.2744957247215754
-0.007428266743244993,-2.7468907066080046,1.2744957247215754
-0.007426476743244993,-2.728399582345086,1.2744957247215754
-0.007424686743244992,-2.721003132639918,1.2744957247215754
-0.0074228967432449925,-2.709908458082167,1.2744957247215754
-0.007421106743244993,-2.702512008376999,1.278203075702613
-0.007419316743244993,-2.6914173338192477,1.278203075702613
-0.007417526743244992,-2.6803226592614964,1.2819104266836507
-0.0074157367432449925,-2.6729262095563286,1.2744957247215754
-0.007413946743244993,-2.6655297598511614,1.2744957247215754
-0.007412156743244993,-2.6618315349985773,1.2744957247215754
-0.007410366743244992,-2.650736860440826,1.2744957247215754
-0.0074085767432449925,-2.6396421858830745,1.2744957247215754
-0.007406786743244993,-2.628547511325323,1.278203075702613
-0.007404996743244993,-2.6248492864727395,1.2707883737405377
-0.007403206743244992,-2.610056387062404,1.2707883737405377
-0.0074014167432449925,-2.5989617125046527,1.2707883737405377
-0.007399626743244993,-2.591565262799485,1.2633736717784623
-0.007397836743244993,-2.591565262799485,1.2670810227595
-0.007396046743244992,-2.57677236338915,1.2707883737405377
-0.0073942567432449926,-2.569375913683982,1.2707883737405377
-0.007392466743244993,-2.561979463978815,1.2744957247215754
-0.007390676743244993,-2.554583014273647,1.2707883737405377
-0.007388886743244992,-2.5508847894210636,1.2744957247215754
-0.007387096743244993,-2.543488339715896,1.2744957247215754
-0.007385306743244993,-2.539790114863312,1.2744957247215754
-0.007383516743244993,-2.5286954403055604,1.2744957247215754
-0.007381726743244992,-2.521298990600393,1.2744957247215754
-0.007379936743244993,-2.5249972154529767,1.278203075702613
-0.007378146743244993,-2.5102043160426417,1.278203075702613
-0.007376356743244993,-2.502807866337474,1.2707883737405377
-0.007374566743244992,-2.4954114166323063,1.2707883737405377
-0.007372776743244993,-2.488014966927139,1.2670810227595
-0.007370986743244993,-2.4732220675168035,1.2707883737405377
-0.007369196743244993,-2.4658256178116393,1.2670810227595017
-0.007367406743244992,-2.4510327184013008,1.2744957247215754
-0.007365616743244993,-2.4510327184013008,1.2670810227595
-0.007363826743244993,-2.4362398189909658,1.2670810227595
-0.007362036743244992,-2.4325415941383817,1.2707883737405377
-0.0073602467432449924,-2.4325415941383817,1.2707883737405377
-0.007358456743244993,-2.4214469195806303,1.2670810227595
-0.007356666743244993,-2.4214469195806303,1.2633736717784623
-0.007354876743244992,-2.410352245022879,1.2670810227595
-0.0073530867432449925,-2.4066540201702953,1.2670810227595
-0.007351296743244993,-2.402955795317711,1.2670810227595
-0.007349506743244993,-2.39186112075996,1.2670810227595
-0.007347716743244992,-2.377068221349625,1.2707883737405377
-0.0073459267432449925,-2.373369996497041,1.2707883737405377
-0.007344136743244993,-2.369671771644457,1.278203075702613
-0.007342346743244993,-2.369671771644457,1.2707883737405377
-0.007340556743244992,-2.3585770970867057,1.2633736717784623
-0.0073387667432449925,-2.3474824225289543,1.2670810227595
-0.007336976743244993,-2.3437841976763707,1.2633736717784623
-0.007335186743244993,-2.336387747971203,1.2670810227595
-0.007333396743244992,-2.3252930734134516,1.2633736717784623
-0.0073316067432449925,-2.3141983988557002,1.2670810227595
-0.007329816743244993,-2.317896623708284,1.2707883737405377
-0.007328026743244993,-2.3105001740031166,1.2707883737405377
-0.007326236743244992,-2.303103724297949,1.2707883737405377
-0.0073244467432449925,-2.295707274592781,1.2670810227595
-0.007322656743244993,-2.2883108248876134,1.2707883737405377
-0.007320866743244993,-2.280914375182446,1.2707883737405377
-0.007319076743244992,-2.2735179254772784,1.2744957247215754
-0.0073172867432449926,-2.2735179254772784,1.2707883737405377
-0.007315496743244993,-2.2661214757721106,1.2707883737405377
-0.007313706743244993,-2.2661214757721106,1.2670810227595
-0.007311916743244992,-2.262423250919527,1.2707883737405377
-0.007310126743244993,-2.2550268012143593,1.2670810227595
-0.007308336743244993,-2.243932126656608,1.2670810227595
-0.007306546743244993,-2.2328374520988565,1.2670810227595
-0.007304756743244992,-2.225441002393689,1.2707883737405377
-0.007302966743244993,-2.221742777541105,1.2633736717784623
-0.007301176743244993,-2.210648102983354,1.2633736717784623
-0.007299386743244993,-2.206949878130772,1.2596663207974264
-0.007297596743244992,-2.1921569787204347,1.2596663207974246
-0.007295806743244993,-2.1958552035730188,1.2633736717784623
-0.007294016743244993,-2.188458753867851,1.2633736717784623
-0.007292226743244992,-2.1884587538678444,1.263373671778464
-0.007290436743244992,-2.173665854457516,1.2670810227595
-0.007288646743244993,-2.173665854457516,1.2633736717784623
-0.007286856743244993,-2.169967629604932,1.2670810227595
-0.007285066743244992,-2.1625711798997607,1.2670810227595
-0.0072832767432449924,-2.155174730194597,1.2670810227595
-0.007281486743244993,-2.147778280489429,1.2707883737405377
-0.007279696743244993,-2.1440800556368456,1.2707883737405377
-0.007277906743244992,-2.1403818307842615,1.2670810227595
-0.0072761167432449925,-2.132985381079094,1.2670810227595
-0.007274326743244993,-2.132985381079094,1.2633736717784623
-0.007272536743244993,-2.1181924816687587,1.2670810227595
-0.007270746743244992,-2.1181924816687587,1.2670810227595
-0.0072689567432449925,-2.1107960319635914,1.2670810227595
-0.007267166743244993,-2.096003132553256,1.2670810227595
-0.007265376743244993,-2.0997013574058396,1.2707883737405377
-0.007263586743244992,-2.0923049077006723,1.2633736717784623
-0.0072617967432449925,-2.0849084579955046,1.2670810227595
-0.007260006743244993,-2.077512008290337,1.2670810227595
-0.007258216743244993,-2.077512008290337,1.2670810227595
-0.007256426743244992,-2.0701155585851696,1.2670810227595
-0.0072546367432449925,-2.0664173337325855,1.2670810227595
-0.007252846743244993,-2.055322659174834,1.2670810227595
-0.007251056743244993,-2.055322659174834,1.2670810227595
-0.007249266743244992,-2.055322659174834,1.2670810227595
-0.0072474767432449926,-2.0442279846170828,1.2707883737405377
-0.007245686743244993,-2.0479262094696664,1.2744957247215754
-0.007243896743244993,-2.036831534911915,1.2744957247215754
-0.007242106743244992,-2.0257368603541637,1.2707883737405377
-0.007240316743244993,-2.0257368603541637,1.2670810227595
-0.007238526743244993,-2.0146421857964123,1.2707883737405377
-0.007236736743244993,-2.003547511238661,1.2670810227595
-0.007234946743244992,-1.999849286386077,1.2670810227595
-0.007233156743244993,-1.9924528366809093,1.2633736717784623
-0.007231366743244993,-1.9887546118283257,1.2633736717784623
-0.007229576743244993,-1.9850563869757418,1.2633736717784623
-0.007227786743244992,-1.981358162123158,1.2633736717784623
-0.007225996743244993,-1.9776599372705743,1.2670810227595
-0.007224206743244993,-1.9739617124179905,1.2670810227595
-0.007222416743244993,-1.966565262712826,1.274495724721572
-0.007220626743244992,-1.962867037860239,1.2707883737405377
-0.007218836743244993,-1.9517723633024877,1.2707883737405377
-0.007217046743244993,-1.9554705881550714,1.2670810227595
-0.007215256743244992,-1.948074138449902,1.2670810227595033
-0.0072134667432449924,-1.94437591359732,1.2744957247215754
-0.007211676743244993,-1.9406776887447361,1.2670810227595
-0.007209886743244993,-1.9295830141869847,1.2670810227595
-0.007208096743244992,-1.9332812390395686,1.2670810227595
-0.0072063067432449925,-1.9221865644818172,1.2633736717784623
-0.007204516743244993,-1.9147901147766497,1.2707883737405377
-0.007202726743244993,-1.907393665071482,1.2670810227595
-0.007200936743244992,-1.9036954402188981,1.2707883737405377
-0.0071991467432449925,-1.8999972153663145,1.2707883737405377
-0.007197356743244993,-1.8889025408085631,1.2670810227595
-0.007195566743244993,-1.8889025408085631,1.2670810227595
-0.007193776743244992,-1.8815060911033954,1.2633736717784623
-0.0071919867432449925,-1.8778078662508115,1.2670810227595
-0.007190196743244993,-1.8778078662508115,1.2633736717784623
-0.007188406743244993,-1.870411416545644,1.2670810227595
-0.007186616743244992,-1.870411416545644,1.2670810227595
-0.0071848267432449925,-1.8593167419878927,1.2707883737405377
-0.007183036743244993,-1.8593167419878927,1.2707883737405377
-0.007181246743244993,-1.8556185171353088,1.2707883737405377
-0.007179456743244992,-1.8556185171353088,1.2744957247215754
-0.0071776667432449925,-1.8445238425775574,1.2670810227595
-0.007175876743244993,-1.83712739287239,1.2670810227595
-0.007174086743244993,-1.833429168019806,1.2707883737405377
-0.007172296743244992,-1.8223344934620547,1.2670810227595
-0.0071705067432449926,-1.8186362686094708,1.2633736717784623
-0.007168716743244993,-1.8112398189043033,1.2633736717784623
