200Hz/acq0076.csv

#Digilent WaveForms Oscilloscope Acquisition
#Device Name: Discovery2
#Serial Number: SN:210321AA28BE
#Date Time: 2023-05-24 14:48:06.087
#Sample rate: 558659Hz
#Samples: 8192
#Trigger: Source: Channel 1 Type: Edge Condition: Rising Level: 800 mV Hyst.: Auto HoldOff: 100 ns
#Channel 1: Range: 1 V/div Offset: 0 V Attenuation: 1 X Sample Mode: Average
#Channel 2: Range: 1 V/div Offset: 0 V Attenuation: 1 X Sample Mode: Average

Time (s),Channel 1 (V),Channel 2 (V)
-0.007741415050754217,0.05266550679793163,-1.320649962004811
-0.007739625050754218,0.056363731650513754,-1.320649962004811
-0.007737835050754217,0.05266550679793163,-1.320649962004811
-0.007736045050754217,0.05266550679793163,-1.3132352600427357
-0.0077342550507542174,0.05266550679793163,-1.320649962004811
-0.007732465050754217,0.05266550679793163,-1.320649962004811
-0.007730675050754217,0.05266550679793163,-1.320649962004811
-0.007728885050754217,0.048967281945347836,-1.320649962004811
-0.0077270950507542175,0.045269057092764034,-1.320649962004811
-0.007725305050754217,0.045269057092764034,-1.3169426110237734
-0.007723515050754217,0.048967281945347836,-1.3169426110237734
-0.007721725050754217,0.045269057092764034,-1.320649962004811
-0.0077199350507542175,0.048967281945347836,-1.3169426110237734
-0.007718145050754217,0.045269057092764034,-1.3169426110237734
-0.007716355050754217,0.045269057092764034,-1.3169426110237734
-0.007714565050754217,0.04157083224018024,-1.3169426110237734
-0.0077127750507542175,0.045269057092764034,-1.3169426110237734
-0.007710985050754217,0.045269057092764034,-1.3169426110237734
-0.007709195050754217,0.04157083224018024,-1.320649962004811
-0.007707405050754217,0.045269057092764034,-1.3169426110237734
-0.0077056150507542175,0.04157083224018024,-1.3132352600427357
-0.007703825050754217,0.04157083224018024,-1.320649962004811
-0.007702035050754217,0.045269057092764034,-1.320649962004811
-0.007700245050754217,0.048967281945347836,-1.3169426110237734
-0.0076984550507542176,0.03787260738759644,-1.3169426110237734
-0.007696665050754217,0.04157083224018024,-1.3169426110237734
-0.007694875050754217,0.03787260738759644,-1.320649962004811
-0.007693085050754217,0.04157083224018024,-1.320649962004811
-0.007691295050754218,0.03787260738759644,-1.320649962004811
-0.007689505050754217,0.04157083224018024,-1.3169426110237734
-0.007687715050754217,0.045269057092764034,-1.3169426110237734
-0.007685925050754217,0.045269057092764034,-1.320649962004811
-0.007684135050754218,0.04157083224018024,-1.3169426110237734
-0.007682345050754217,0.045269057092764034,-1.3169426110237734
-0.007680555050754217,0.04157083224018024,-1.3132352600427357
-0.007678765050754217,0.04157083224018024,-1.3169426110237734
-0.007676975050754218,0.04157083224018024,-1.3169426110237734
-0.007675185050754217,0.045269057092764034,-1.3169426110237734
-0.007673395050754217,0.04157083224018024,-1.320649962004811
-0.007671605050754217,0.04157083224018024,-1.3169426110237734
-0.007669815050754218,0.037872607387598116,-1.3169426110237734
-0.007668025050754217,0.04157083224018024,-1.3132352600427357
-0.007666235050754217,0.04157083224018024,-1.3169426110237734
-0.0076644450507542174,0.03787260738759644,-1.3169426110237734
-0.007662655050754217,0.034174382535012635,-1.31694261102377
-0.007660865050754217,0.034174382535012635,-1.309527909061698
-0.007659075050754217,0.034174382535012635,-1.3169426110237734
-0.0076572850507542175,0.034174382535012635,-1.3169426110237734
-0.007655495050754217,0.03787260738759307,-1.320649962004811
-0.007653705050754217,0.03047615768242884,-1.320649962004811
-0.007651915050754217,0.034174382535012635,-1.320649962004811
-0.0076501250507542175,0.03787260738759644,-1.320649962004811
-0.007648335050754217,0.034174382535012635,-1.3169426110237734
-0.007646545050754217,0.034174382535012635,-1.3169426110237734
-0.007644755050754217,0.034174382535012635,-1.3169426110237734
-0.0076429650507542175,0.034174382535012635,-1.320649962004811
-0.007641175050754217,0.03047615768242884,-1.320649962004811
-0.007639385050754217,0.03047615768242884,-1.3169426110237734
-0.007637595050754217,0.034174382535012635,-1.3169426110237734
-0.0076358050507542175,0.034174382535012635,-1.3169426110237734
-0.007634015050754217,0.03787260738759644,-1.3169426110237734
-0.007632225050754217,0.03047615768242884,-1.3132352600427357
-0.007630435050754217,0.026777932829845037,-1.320649962004811
-0.0076286450507542175,0.03047615768242884,-1.3243573129858488
-0.007626855050754217,0.03047615768242884,-1.3169426110237734
-0.007625065050754217,0.034174382535012635,-1.3169426110237734
-0.007623275050754217,0.026777932829845037,-1.320649962004811
-0.0076214850507542176,0.03047615768242884,-1.320649962004811
-0.007619695050754217,0.034174382535012635,-1.3169426110237734
-0.007617905050754217,0.026777932829845037,-1.3169426110237734
-0.007616115050754217,0.026777932829845037,-1.3169426110237734
-0.007614325050754218,0.034174382535012635,-1.3169426110237734
-0.007612535050754217,0.03047615768242884,-1.3169426110237734
-0.007610745050754217,0.01938148312467744,-1.320649962004811
-0.007608955050754217,0.026777932829845037,-1.320649962004811
-0.007607165050754218,0.03047615768242884,-1.3169426110237734
-0.007605375050754217,0.03047615768242884,-1.3132352600427357
-0.007603585050754217,0.02307970797726124,-1.320649962004811
-0.007601795050754217,0.026777932829845037,-1.320649962004811
-0.007600005050754218,0.03047615768242884,-1.3243573129858488
-0.007598215050754217,0.03047615768242884,-1.3169426110237734
-0.007596425050754217,0.026777932829845037,-1.3132352600427357
-0.007594635050754217,0.03047615768242884,-1.320649962004811
-0.007592845050754218,0.015683258272100365,-1.320649962004811
-0.007591055050754217,0.02307970797726124,-1.3243573129858488
-0.007589265050754217,0.02307970797726124,-1.320649962004811
-0.0075874750507542174,0.01938148312467744,-1.3169426110237734
-0.007585685050754217,0.019381483124680802,-1.3169426110237734
-0.007583895050754217,0.026777932829845037,-1.3169426110237734
-0.007582105050754217,0.02307970797726124,-1.320649962004811
-0.0075803150507542175,0.026777932829845037,-1.3132352600427357
-0.007578525050754217,0.01938148312467744,-1.320649962004811
-0.007576735050754217,0.01938148312467744,-1.3243573129858488
-0.007574945050754217,0.02307970797726124,-1.320649962004811
-0.0075731550507542175,0.01938148312467744,-1.3169426110237734
-0.007571365050754217,0.015683258272093638,-1.3169426110237734
-0.007569575050754217,0.01938148312467744,-1.320649962004811
-0.007567785050754217,0.026777932829845037,-1.320649962004811
-0.0075659950507542175,0.01938148312467744,-1.320649962004811
-0.007564205050754217,0.01938148312467744,-1.320649962004811
-0.007562415050754217,0.02307970797726124,-1.3243573129858488
-0.007560625050754217,0.01938148312467744,-1.3169426110237734
-0.0075588350507542175,0.015683258272093638,-1.3169426110237734
-0.007557045050754217,0.01938148312467744,-1.3169426110237734
-0.007555255050754217,0.02307970797726124,-1.3169426110237734
-0.007553465050754217,0.02307970797726124,-1.320649962004811
-0.0075516750507542175,0.02307970797726124,-1.3243573129858488
-0.007549885050754217,0.01938148312467744,-1.3169426110237734
-0.007548095050754217,0.015683258272093638,-1.320649962004811
-0.007546305050754217,0.015683258272093638,-1.3169426110237734
-0.007544515050754218,0.02307970797726124,-1.320649962004811
-0.007542725050754217,0.015683258272093638,-1.3169426110237734
-0.007540935050754217,0.01938148312467744,-1.3169426110237734
-0.007539145050754217,0.01938148312467744,-1.320649962004811
-0.007537355050754218,0.015683258272093638,-1.3169426110237734
-0.007535565050754217,0.015683258272093638,-1.320649962004811
-0.007533775050754217,0.01938148312467744,-1.320649962004811
-0.007531985050754217,0.01938148312467744,-1.3169426110237734
-0.007530195050754218,0.015683258272093638,-1.3132352600427357
-0.007528405050754217,0.01198503341950984,-1.3169426110237734
-0.007526615050754217,0.015683258272093638,-1.320649962004811
-0.007524825050754217,0.015683258272093638,-1.320649962004811
-0.007523035050754218,0.015683258272093638,-1.3169426110237752
-0.007521245050754217,0.01938148312467744,-1.320649962004811
-0.007519455050754217,0.01198503341950984,-1.3243573129858488
-0.007517665050754217,0.015683258272093638,-1.320649962004811
-0.007515875050754218,0.011985033419511522,-1.320649962004811
-0.007514085050754217,0.01198503341950984,-1.3169426110237734
-0.007512295050754217,0.01198503341950984,-1.320649962004811
-0.0075105050507542175,0.015683258272093638,-1.320649962004811
-0.007508715050754217,0.011985033419513203,-1.3169426110237734
-0.007506925050754217,0.01938148312467744,-1.3169426110237734
-0.007505135050754217,0.01198503341950984,-1.3169426110237734
-0.0075033450507542175,0.00828680856692604,-1.3169426110237734
-0.007501555050754217,-0.12854751097867453,-1.1241603600098133
-0.007499765050754217,-3.1721865646551417,1.3412280423802538
-0.007497975050754217,-3.168488339802558,1.3375206913992161
-0.0074961850507542175,-3.149997215539639,1.3338133404181785
-0.007494395050754217,-3.1426007658344712,1.3226912874750654
-0.007492605050754217,-3.13150609127672,1.3226912874750654
-0.007490815050754217,-3.124109641571552,1.3226912874750654
-0.0074890250507542175,-3.1130149670138008,1.326398638456103
-0.007487235050754217,-3.1019202924560494,1.3226912874750654
-0.007485445050754217,-3.094523842750882,1.3189839364940277
-0.007483655050754217,-3.0797309433405466,1.3189839364940277
-0.0074818650507542175,-3.0686362687827953,1.3189839364940277
-0.007480075050754217,-3.057541594225044,1.3226912874750654
-0.007478285050754217,-3.035352245109541,1.3226912874750654
-0.007476495050754217,-3.0279557954043734,1.31527658551299
-0.0074747050507542176,-3.02425757055179,1.3189839364940277
-0.007472915050754217,-3.0094646711414543,1.31527658551299
-0.007471125050754217,-2.998369996583703,1.31527658551299
-0.007469335050754217,-2.983577097173368,1.3078618835509146
-0.007467545050754218,-2.968784197763033,1.3078618835509146
-0.007465755050754217,-2.961387748057865,1.304154532569877
-0.007463965050754217,-2.9465948486475297,1.304154532569877
-0.007462175050754217,-2.9318019492371947,1.304154532569877
-0.007460385050754218,-2.9207072746794434,1.304154532569877
-0.007458595050754217,-2.909612600121692,1.2967398306078015
-0.007456805050754217,-2.8948197007113565,1.2967398306078015
-0.007455015050754217,-2.8874232510061892,1.2893251286457261
-0.007453225050754218,-2.876328576448438,1.2930324796267638
-0.007451435050754217,-2.8615356770381024,1.2967398306078015
-0.007449645050754217,-2.854139227332935,1.2930324796267638
-0.007447855050754217,-2.8467427776277674,1.2893251286457261
-0.007446065050754218,-2.8319498782174386,1.2893251286457261
-0.007444275050754217,-2.8282516533648483,1.2893251286457261
-0.007442485050754217,-2.809760529101929,1.2856177776646884
-0.0074406950507542174,-2.798665854544178,1.2893251286457261
-0.007438905050754217,-2.7949676296915906,1.2856177776646902
-0.007437115050754217,-2.7875711799864265,1.2893251286457261
-0.007435325050754217,-2.776476505428675,1.2856177776646884
-0.0074335350507542175,-2.76168360601834,1.2893251286457261
-0.007431745050754217,-2.7542871563131723,1.2893251286457261
-0.007429955050754217,-2.7468907066080046,1.2893251286457261
-0.007428165050754217,-2.7394942569028373,1.2819104266836507
-0.0074263750507542175,-2.724701357492502,1.278203075702613
-0.007424585050754217,-2.7062102332295828,1.2819104266836507
-0.007422795050754217,-2.7062102332295828,1.2744957247215754
-0.007421005050754217,-2.6914173338192477,1.2744957247215754
-0.0074192150507542175,-2.687719108966664,1.278203075702613
-0.007417425050754217,-2.6766244344089127,1.2744957247215754
-0.007415635050754217,-2.669227984703745,1.2744957247215754
-0.007413845050754217,-2.6581333101459936,1.2744957247215754
-0.0074120550507542175,-2.6470386355882423,1.2707883737405377
-0.007410265050754217,-2.6396421858830745,1.2744957247215754
-0.007408475050754217,-2.632245736177907,1.2744957247215754
-0.007406685050754217,-2.617452836767572,1.2744957247215754
-0.0074048950507542175,-2.613754611914988,1.2744957247215754
-0.007403105050754217,-2.6063581622098204,1.278203075702613
-0.007401315050754217,-2.5989617125046527,1.278203075702613
-0.007399525050754217,-2.5878670379469013,1.278203075702613
-0.007397735050754218,-2.5841688130943177,1.2707883737405377
-0.007395945050754217,-2.57677236338915,1.2744957247215754
-0.007394155050754217,-2.569375913683982,1.2707883737405377
-0.007392365050754217,-2.554583014273647,1.2744957247215754
-0.007390575050754218,-2.5508847894210636,1.2707883737405377
-0.007388785050754217,-2.539790114863312,1.2670810227595
-0.007386995050754217,-2.5323936651581445,1.2670810227595
-0.007385205050754217,-2.5249972154529767,1.2670810227595
-0.007383415050754218,-2.521298990600393,1.2670810227595
-0.007381625050754217,-2.5139025408952254,1.2707883737405377
-0.007379835050754217,-2.5065060911900576,1.2744957247215754
-0.007378045050754217,-2.4954114166323063,1.2707883737405377
-0.007376255050754218,-2.4954114166323063,1.2744957247215754
-0.007374465050754217,-2.484316742074555,1.278203075702613
-0.007372675050754217,-2.4769202923693876,1.2744957247215754
-0.007370885050754217,-2.4732220675168035,1.2744957247215754
-0.007369095050754218,-2.4695238426642216,1.2744957247215754
-0.007367305050754217,-2.4547309432538844,1.2744957247215754
-0.007365515050754217,-2.447334493548717,1.2744957247215754
-0.0073637250507542175,-2.4399380438435494,1.2707883737405377
-0.007361935050754217,-2.436239818990959,1.2670810227595
-0.007360145050754217,-2.4214469195806303,1.2670810227595
-0.007358355050754217,-2.410352245022879,1.2670810227595
-0.0073565650507542175,-2.4066540201702953,1.2670810227595
-0.007354775050754217,-2.402955795317711,1.2670810227595
-0.007352985050754217,-2.395559345612544,1.2670810227595
-0.007351195050754217,-2.39186112075996,1.2707883737405377
-0.0073494050507542175,-2.39186112075996,1.2707883737405377
-0.007347615050754217,-2.373369996497041,1.2707883737405377
-0.007345825050754217,-2.369671771644457,1.2670810227595
-0.007344035050754217,-2.36227532193929,1.2707883737405377
-0.0073422450507542175,-2.351180647381538,1.2707883737405377
-0.007340455050754217,-2.3474824225289543,1.2707883737405377
-0.007338665050754217,-2.336387747971203,1.2707883737405377
-0.007336875050754217,-2.336387747971203,1.2670810227595
-0.0073350850507542175,-2.3289912982660352,1.2744957247215754
-0.007333295050754217,-2.317896623708284,1.2744957247215754
-0.007331505050754217,-2.3141983988557002,1.2707883737405377
-0.007329715050754217,-2.3141983988557002,1.2707883737405377
-0.0073279250507542176,-2.303103724297949,1.2707883737405377
-0.007326135050754217,-2.2920090497401975,1.2744957247215754
-0.007324345050754217,-2.2883108248876134,1.2670810227595
-0.007322555050754217,-2.2735179254772784,1.2670810227595
-0.007320765050754218,-2.2735179254772784,1.2670810227595
-0.007318975050754217,-2.262423250919527,1.2670810227595
-0.007317185050754217,-2.2587250260669434,1.2670810227595
-0.007315395050754217,-2.2513285763617756,1.2670810227595
-0.007313605050754218,-2.2513285763617756,1.2707883737405377
-0.007311815050754217,-2.247630351509192,1.2670810227595
-0.007310025050754217,-2.2365356769514406,1.2707883737405377
-0.007308235050754217,-2.2328374520988565,1.2744957247215754
-0.007306445050754218,-2.2328374520988565,1.2744957247215754
-0.007304655050754217,-2.225441002393689,1.2707883737405377
-0.007302865050754217,-2.2143463278359374,1.2707883737405377
-0.007301075050754217,-2.2143463278359374,1.2744957247215754
-0.007299285050754218,-2.203251653278191,1.2744957247215754
-0.007297495050754217,-2.1958552035730188,1.2707883737405377
-0.007295705050754217,-2.1847605290152674,1.2744957247215754
-0.0072939150507542174,-2.1810623041626833,1.2744957247215754
-0.007292125050754217,-2.1736658544575125,1.2707883737405359
-0.007290335050754217,-2.1662694047523483,1.2670810227595
-0.007288545050754217,-2.1588729550471806,1.2670810227595
-0.0072867550507542175,-2.151476505342013,1.2670810227595
-0.007284965050754217,-2.155174730194592,1.2670810227595
-0.007283175050754217,-2.1440800556368456,1.2670810227595
-0.007281385050754217,-2.1403818307842615,1.2670810227595
-0.0072795950507542175,-2.132985381079094,1.2670810227595
-0.007277805050754217,-2.132985381079094,1.2670810227595
-0.007276015050754217,-2.121890706521343,1.2707883737405377
-0.007274225050754217,-2.1107960319635914,1.2707883737405377
-0.0072724350507542175,-2.1070978071110074,1.2707883737405377
-0.007270645050754217,-2.1033995822584237,1.2707883737405377
-0.007268855050754217,-2.1070978071110074,1.2670810227595
-0.007267065050754217,-2.0997013574058396,1.2707883737405377
-0.0072652750507542175,-2.0886066828480883,1.2707883737405377
-0.007263485050754217,-2.081210233142921,1.2670810227595
-0.007261695050754217,-2.077512008290337,1.2670810227595
-0.007259905050754217,-2.0701155585851696,1.2670810227595
-0.0072581150507542175,-2.0590208840274182,1.2670810227595
-0.007256325050754217,-2.062719108880002,1.2670810227595
-0.007254535050754217,-2.055322659174834,1.2670810227595
-0.007252745050754217,-2.0516244343222505,1.2707883737405377
-0.007250955050754218,-2.0442279846170828,1.2707883737405377
-0.007249165050754217,-2.036831534911915,1.2670810227595
-0.007247375050754217,-2.0331333100593314,1.2670810227595
-0.007245585050754217,-2.0331333100593314,1.2707883737405377
-0.007243795050754218,-2.0183404106489964,1.2707883737405377
-0.007242005050754217,-2.0146421857964123,1.2670810227595
-0.007240215050754217,-2.0109439609438287,1.2707883737405377
-0.007238425050754217,-2.007245736091245,1.2744957247215754
-0.007236635050754218,-1.999849286386077,1.2707883737405377
-0.007234845050754217,-1.9961510615334932,1.2819104266836507
-0.007233055050754217,-1.9961510615334932,1.2744957247215754
-0.007231265050754217,-1.9887546118283257,1.2744957247215754
-0.007229475050754218,-1.981358162123158,1.2707883737405377
-0.007227685050754217,-1.9702634875654066,1.2707883737405377
-0.007225895050754217,-1.9665652627128227,1.2707883737405377
-0.007224105050754217,-1.962867037860239,1.2707883737405377
-0.007222315050754218,-1.9517723633024928,1.2707883737405377
-0.007220525050754217,-1.9480741384499038,1.2670810227595
-0.007218735050754217,-1.94437591359732,1.2670810227595
-0.0072169450507542175,-1.94437591359732,1.2670810227595
-0.007215155050754217,-1.9369794638921474,1.2670810227595033
-0.007213365050754217,-1.925884789334401,1.2744957247215754
-0.007211575050754217,-1.9221865644818172,1.2670810227595
-0.0072097850507542175,-1.9221865644818172,1.2707883737405377
-0.007207995050754217,-1.9184883396292334,1.2707883737405377
-0.007206205050754217,-1.9110918899240659,1.2670810227595
-0.007204415050754217,-1.907393665071482,1.2707883737405377
-0.0072026250507542175,-1.907393665071482,1.2707883737405377
-0.007200835050754217,-1.8962989905137306,1.2670810227595
-0.007199045050754217,-1.8852043159559793,1.2670810227595
-0.007197255050754217,-1.8815060911033954,1.2707883737405377
-0.0071954650507542175,-1.8741096413982279,1.2707883737405377
-0.007193675050754217,-1.870411416545644,1.2707883737405377
-0.007191885050754217,-1.870411416545644,1.2744957247215754
-0.007190095050754217,-1.8667131916930602,1.2707883737405377
-0.0071883050507542175,-1.8593167419878927,1.278203075702613
-0.007186515050754217,-1.8556185171353088,1.2707883737405377
-0.007184725050754217,-1.8482220674301413,1.2633736717784623
-0.007182935050754217,-1.8408256177249736,1.2596663207974246
-0.0071811450507542176,-1.83712739287239,1.2670810227595
-0.007179355050754217,-1.833429168019806,1.2670810227595
-0.007177565050754217,-1.833429168019806,1.2670810227595
-0.007175775050754217,-1.8223344934620547,1.2744957247215754
-0.007173985050754218,-1.8223344934620547,1.2744957247215754
-0.007172195050754217,-1.814938043756887,1.2707883737405377
-0.007170405050754217,-1.8075415940517194,1.2707883737405377
-0.007168615050754217,-1.8075415940517194,1.2744957247215754
