200Hz/acq0099.csv

#Digilent WaveForms Oscilloscope Acquisition
#Device Name: Discovery2
#Serial Number: SN:210321AA28BE
#Date Time: 2023-05-24 14:48:06.755
#Sample rate: 558659Hz
#Samples: 8192
#Trigger: Source: Channel 1 Type: Edge Condition: Rising Level: 800 mV Hyst.: Auto HoldOff: 100 ns
#Channel 1: Range: 1 V/div Offset: 0 V Attenuation: 1 X Sample Mode: Average
#Channel 2: Range: 1 V/div Offset: 0 V Attenuation: 1 X Sample Mode: Average

Time (s),Channel 1 (V),Channel 2 (V)
-0.007741924733358044,0.045269057092764034,-1.3169426110237734
-0.0077401347333580445,0.052665506797928266,-1.3169426110237734
-0.007738344733358044,0.05266550679793163,-1.3169426110237734
-0.007736554733358044,0.05266550679793163,-1.3243573129858488
-0.007734764733358044,0.05266550679793163,-1.3169426110237734
-0.007732974733358044,0.048967281945347836,-1.3132352600427375
-0.007731184733358044,0.048967281945347836,-1.3169426110237734
-0.007729394733358044,0.045269057092764034,-1.320649962004811
-0.007727604733358044,0.04157083224018024,-1.3169426110237734
-0.007725814733358044,0.045269057092764034,-1.320649962004811
-0.007724024733358044,0.04157083224018024,-1.3169426110237734
-0.007722234733358044,0.045269057092764034,-1.320649962004811
-0.007720444733358044,0.045269057092764034,-1.3169426110237734
-0.007718654733358044,0.045269057092764034,-1.320649962004811
-0.007716864733358044,0.048967281945347836,-1.3169426110237734
-0.007715074733358044,0.04157083224018024,-1.3169426110237734
-0.007713284733358044,0.045269057092764034,-1.3169426110237734
-0.007711494733358044,0.045269057092764034,-1.3169426110237734
-0.007709704733358044,0.04157083224018024,-1.320649962004811
-0.007707914733358044,0.045269057092764034,-1.3169426110237734
-0.007706124733358044,0.04157083224018024,-1.320649962004811
-0.007704334733358044,0.04157083224018024,-1.3169426110237734
-0.007702544733358044,0.04157083224018024,-1.3169426110237734
-0.007700754733358044,0.04157083224018024,-1.320649962004811
-0.007698964733358044,0.045269057092764034,-1.3132352600427357
-0.007697174733358044,0.03787260738759644,-1.3169426110237734
-0.007695384733358044,0.03787260738759644,-1.3132352600427357
-0.007693594733358044,0.03787260738759644,-1.3169426110237734
-0.007691804733358044,0.04157083224018024,-1.3169426110237734
-0.007690014733358044,0.04157083224018024,-1.320649962004811
-0.007688224733358044,0.045269057092764034,-1.3169426110237734
-0.007686434733358044,0.03787260738759644,-1.3169426110237734
-0.0076846447333580445,0.034174382535012635,-1.3169426110237734
-0.007682854733358044,0.045269057092764034,-1.3169426110237734
-0.007681064733358044,0.03787260738759644,-1.3169426110237734
-0.007679274733358044,0.03787260738759644,-1.320649962004811
-0.0076774847333580445,0.03787260738759644,-1.3169426110237734
-0.007675694733358044,0.03787260738759644,-1.320649962004811
-0.007673904733358044,0.034174382535012635,-1.3169426110237734
-0.007672114733358044,0.03787260738759644,-1.3169426110237734
-0.0076703247333580445,0.04157083224017856,-1.3206499620048093
-0.007668534733358044,0.034174382535012635,-1.320649962004811
-0.007666744733358044,0.034174382535012635,-1.3169426110237734
-0.007664954733358044,0.034174382535012635,-1.3132352600427357
-0.007663164733358044,0.03787260738759476,-1.3243573129858455
-0.007661374733358044,0.034174382535012635,-1.3169426110237734
-0.007659584733358044,0.034174382535012635,-1.320649962004811
-0.007657794733358044,0.034174382535012635,-1.3169426110237734
-0.007656004733358044,0.034174382535012635,-1.3169426110237752
-0.007654214733358044,0.034174382535012635,-1.320649962004811
-0.007652424733358044,0.034174382535012635,-1.3169426110237734
-0.007650634733358044,0.034174382535012635,-1.3169426110237734
-0.007648844733358044,0.03047615768242884,-1.3132352600427357
-0.007647054733358044,0.034174382535012635,-1.320649962004811
-0.007645264733358044,0.026777932829845037,-1.320649962004811
-0.007643474733358044,0.03047615768242884,-1.320649962004811
-0.007641684733358044,0.034174382535012635,-1.3169426110237734
-0.007639894733358044,0.03047615768242884,-1.3169426110237734
-0.007638104733358044,0.034174382535012635,-1.320649962004811
-0.007636314733358044,0.026777932829845037,-1.3132352600427357
-0.007634524733358044,0.034174382535012635,-1.3169426110237734
-0.007632734733358044,0.02307970797726124,-1.3169426110237734
-0.007630944733358044,0.034174382535012635,-1.320649962004811
-0.007629154733358044,0.03047615768242884,-1.3169426110237734
-0.007627364733358044,0.03047615768242884,-1.3243573129858488
-0.007625574733358044,0.03047615768242884,-1.320649962004811
-0.007623784733358044,0.034174382535012635,-1.320649962004811
-0.007621994733358044,0.03047615768242884,-1.3169426110237734
-0.007620204733358044,0.03047615768242884,-1.3169426110237734
-0.007618414733358044,0.03047615768242884,-1.3169426110237734
-0.007616624733358044,0.03047615768242884,-1.3169426110237734
-0.0076148347333580444,0.03047615768242884,-1.320649962004811
-0.007613044733358044,0.034174382535012635,-1.3169426110237734
-0.007611254733358044,0.03047615768242884,-1.320649962004811
-0.007609464733358044,0.034174382535012635,-1.3169426110237734
-0.0076076747333580445,0.026777932829845037,-1.3169426110237734
-0.007605884733358044,0.03047615768242884,-1.3169426110237734
-0.007604094733358044,0.026777932829845037,-1.3169426110237734
-0.007602304733358044,0.034174382535012635,-1.309527909061698
-0.0076005147333580445,0.02307970797726124,-1.3132352600427357
-0.007598724733358044,0.026777932829845037,-1.3169426110237734
-0.007596934733358044,0.03047615768242884,-1.3132352600427357
-0.007595144733358044,0.03047615768242884,-1.320649962004811
-0.0075933547333580445,0.03047615768242884,-1.3169426110237752
-0.007591564733358044,0.02307970797726124,-1.3169426110237734
-0.007589774733358044,0.026777932829845037,-1.320649962004811
-0.007587984733358044,0.02307970797726124,-1.320649962004811
-0.007586194733358044,0.01938148312467744,-1.3206499620048093
-0.007584404733358044,0.01938148312467744,-1.3169426110237734
-0.007582614733358044,0.01938148312467744,-1.3132352600427357
-0.007580824733358044,0.01938148312467744,-1.3169426110237734
-0.007579034733358044,0.01938148312467744,-1.3169426110237734
-0.007577244733358044,0.02307970797726124,-1.3169426110237734
-0.007575454733358044,0.026777932829845037,-1.3132352600427357
-0.007573664733358044,0.01938148312467744,-1.320649962004811
-0.007571874733358044,0.01938148312467744,-1.3169426110237734
-0.007570084733358044,0.02307970797726124,-1.3169426110237734
-0.007568294733358044,0.01938148312467744,-1.3169426110237734
-0.007566504733358044,0.01938148312467744,-1.3169426110237734
-0.007564714733358044,0.01938148312467744,-1.3169426110237734
-0.007562924733358044,0.015683258272093638,-1.3169426110237734
-0.007561134733358044,0.02307970797726124,-1.320649962004811
-0.007559344733358044,0.01938148312467744,-1.320649962004811
-0.007557554733358044,0.01938148312467744,-1.320649962004811
-0.007555764733358044,0.01938148312467744,-1.3169426110237734
-0.007553974733358044,0.02307970797726124,-1.3132352600427357
-0.007552184733358044,0.01938148312467744,-1.3169426110237734
-0.007550394733358044,0.015683258272093638,-1.3243573129858488
-0.007548604733358044,0.015683258272093638,-1.320649962004811
-0.007546814733358044,0.015683258272093638,-1.3132352600427357
-0.007545024733358044,0.015683258272093638,-1.320649962004811
-0.007543234733358044,0.01938148312467744,-1.3169426110237734
-0.007541444733358044,0.015683258272093638,-1.3169426110237734
-0.007539654733358044,0.01938148312467744,-1.3132352600427357
-0.0075378647333580445,0.015683258272093638,-1.3169426110237734
-0.007536074733358044,0.015683258272093638,-1.320649962004811
-0.007534284733358044,0.015683258272093638,-1.320649962004811
-0.007532494733358044,0.01938148312467744,-1.320649962004811
-0.0075307047333580445,0.01198503341950984,-1.320649962004811
-0.007528914733358044,0.01198503341950984,-1.320649962004811
-0.007527124733358044,0.01198503341950984,-1.320649962004811
-0.007525334733358044,0.015683258272093638,-1.3169426110237734
-0.0075235447333580445,0.011985033419511522,-1.3169426110237734
-0.007521754733358044,0.01198503341950984,-1.3132352600427357
-0.007519964733358044,0.015683258272093638,-1.3169426110237734
-0.007518174733358044,0.015683258272093638,-1.320649962004811
-0.0075163847333580445,0.008286808566929404,-1.324357312985847
-0.007514594733358044,0.01198503341950984,-1.3132352600427357
-0.007512804733358044,0.01198503341950984,-1.3169426110237734
-0.007511014733358044,0.015683258272093638,-1.320649962004811
-0.007509224733358044,0.01198503341951152,-1.3206499620048093
-0.007507434733358044,0.015683258272093638,-1.3169426110237734
-0.007505644733358044,0.00828680856692604,-1.320649962004811
-0.007503854733358044,0.01198503341950984,-1.3169426110237734
-0.007502064733358044,0.01198503341950984,-1.3169426110237734
-0.007500274733358044,-1.6374232508328648,0.136338973543003
-0.007498484733358044,-3.1721865646551417,1.3412280423802538
-0.007496694733358044,-3.1536954403922226,1.3338133404181785
-0.007494904733358044,-3.146298990687055,1.3226912874750654
-0.007493114733358044,-3.1389025409818876,1.3226912874750654
-0.007491324733358044,-3.127807866424136,1.3301059894371408
-0.007489534733358044,-3.116713191866385,1.3301059894371408
-0.007487744733358044,-3.109316742161217,1.3301059894371408
-0.007485954733358044,-3.1019202924560494,1.326398638456103
-0.007484164733358044,-3.090825617898298,1.326398638456103
-0.007482374733358044,-3.0797309433405466,1.3226912874750654
-0.007480584733358044,-3.0686362687827953,1.3189839364940277
-0.007478794733358044,-3.050145144519876,1.3189839364940277
-0.007477004733358044,-3.0464469196672925,1.3189839364940277
-0.007475214733358044,-3.02425757055179,1.31527658551299
-0.007473424733358044,-3.0131628959940384,1.3078618835509146
-0.007471634733358044,-3.002068221436287,1.3115692345319523
-0.007469844733358044,-2.9872753220259516,1.3078618835509146
-0.0074680547333580444,-2.9761806474682,1.3078618835509146
-0.007466264733358044,-2.968784197763033,1.3078618835509146
-0.007464474733358044,-2.957689523205281,1.304154532569877
-0.007462684733358044,-2.9391983989423625,1.3004471815888392
-0.0074608947333580445,-2.928103724384611,1.304154532569877
-0.007459104733358044,-2.9207072746794434,1.3004471815888392
-0.007457314733358044,-2.909612600121692,1.3004471815888392
-0.007455524733358044,-2.9022161504165243,1.3004471815888392
-0.0074537347333580445,-2.891121475858773,1.2967398306078015
-0.007451944733358044,-2.883725026153605,1.3004471815888392
-0.007450154733358044,-2.872630351595854,1.2930324796267638
-0.007448364733358044,-2.8578374521855188,1.2930324796267638
-0.0074465747333580445,-2.8467427776277723,1.2930324796267638
-0.007444784733358044,-2.831949878217432,1.2893251286457261
-0.007442994733358044,-2.817156978807097,1.2856177776646884
-0.007441204733358044,-2.802364079396762,1.2819104266836507
-0.007439414733358044,-2.791269404839007,1.285617777664685
-0.007437624733358044,-2.783872955133843,1.278203075702613
-0.007435834733358044,-2.776476505428675,1.2856177776646884
-0.007434044733358044,-2.7653818308709237,1.2819104266836507
-0.007432254733358044,-2.7542871563131723,1.2819104266836507
-0.007430464733358044,-2.7468907066080046,1.278203075702613
-0.007428674733358044,-2.7357960320502532,1.2819104266836507
-0.007426884733358044,-2.728399582345086,1.2819104266836507
-0.007425094733358044,-2.717304907787334,1.2856177776646884
-0.007423304733358044,-2.7062102332295828,1.278203075702613
-0.007421514733358044,-2.702512008376999,1.278203075702613
-0.007419724733358044,-2.6951155586718314,1.2893251286457261
-0.007417934733358044,-2.687719108966664,1.2819104266836507
-0.007416144733358044,-2.6803226592614964,1.2856177776646884
-0.007414354733358044,-2.6655297598511614,1.2819104266836507
-0.007412564733358044,-2.6544350852934095,1.2819104266836507
-0.007410774733358044,-2.6470386355882423,1.2744957247215754
-0.007408984733358044,-2.6396421858830745,1.2744957247215754
-0.007407194733358044,-2.6248492864727395,1.2707883737405377
-0.007405404733358044,-2.6211510616201554,1.2670810227595
-0.007403614733358044,-2.6063581622098204,1.2670810227595
-0.007401824733358044,-2.6026599373572368,1.2670810227595
-0.007400034733358044,-2.595263487652069,1.2707883737405377
-0.007398244733358044,-2.5841688130943177,1.2744957247215754
-0.007396454733358044,-2.5804705882417336,1.2707883737405377
-0.007394664733358044,-2.569375913683982,1.278203075702613
-0.007392874733358044,-2.5656776888313986,1.2707883737405377
-0.0073910847333580445,-2.554583014273647,1.2744957247215754
-0.007389294733358044,-2.543488339715896,1.2744957247215754
-0.007387504733358044,-2.539790114863312,1.2744957247215754
-0.007385714733358044,-2.539790114863312,1.2744957247215754
-0.0073839247333580445,-2.5323936651581445,1.2819104266836507
-0.007382134733358044,-2.521298990600393,1.278203075702613
-0.007380344733358044,-2.5139025408952254,1.278203075702613
-0.007378554733358044,-2.5065060911900576,1.2744957247215754
-0.0073767647333580445,-2.4917131917797226,1.2707883737405377
-0.007374974733358044,-2.488014966927139,1.2707883737405377
-0.007373184733358044,-2.4806185172219712,1.2707883737405377
-0.007371394733358044,-2.465825617811636,1.2707883737405377
-0.0073696047333580445,-2.458429168106472,1.2670810227595017
-0.007367814733358044,-2.4584291681064685,1.2670810227595
-0.007366024733358044,-2.4547309432538844,1.2670810227595
-0.007364234733358044,-2.447334493548717,1.2633736717784623
-0.007362444733358044,-2.439938043843546,1.2670810227595
-0.007360654733358044,-2.4325415941383817,1.2670810227595
-0.007358864733358044,-2.4251451444332144,1.2744957247215754
-0.007357074733358044,-2.4177486947280467,1.2744957247215754
-0.007355284733358044,-2.410352245022879,1.2707883737405377
-0.007353494733358044,-2.402955795317711,1.2744957247215754
-0.007351704733358044,-2.3992575704651276,1.2744957247215754
-0.007349914733358044,-2.39186112075996,1.2707883737405377
-0.007348124733358044,-2.377068221349625,1.2707883737405377
-0.007346334733358044,-2.369671771644457,1.2670810227595
-0.007344544733358044,-2.3659735467918734,1.2670810227595
-0.007342754733358044,-2.354878872234122,1.2707883737405377
-0.007340964733358044,-2.351180647381538,1.2670810227595
-0.007339174733358044,-2.3400859728237866,1.2633736717784623
-0.007337384733358044,-2.336387747971203,1.2633736717784623
-0.007335594733358044,-2.3289912982660352,1.2633736717784623
-0.007333804733358044,-2.3289912982660352,1.2707883737405377
-0.007332014733358044,-2.321594848560868,1.2707883737405377
-0.007330224733358044,-2.3105001740031166,1.2744957247215754
-0.007328434733358044,-2.3105001740031166,1.2744957247215754
-0.007326644733358044,-2.295707274592781,1.2744957247215754
-0.007324854733358044,-2.295707274592781,1.2707883737405377
-0.007323064733358044,-2.2883108248876134,1.2707883737405377
-0.0073212747333580444,-2.280914375182446,1.2707883737405377
-0.007319484733358044,-2.280914375182446,1.2707883737405377
-0.007317694733358044,-2.2735179254772784,1.2744957247215754
-0.007315904733358044,-2.2661214757721106,1.278203075702613
-0.0073141147333580445,-2.2550268012143593,1.2707883737405377
-0.007312324733358044,-2.2513285763617756,1.2707883737405377
-0.007310534733358044,-2.243932126656608,1.2707883737405377
-0.007308744733358044,-2.2328374520988565,1.2670810227595
-0.0073069547333580445,-2.229139227246273,1.2670810227595
-0.007305164733358044,-2.2180445526885215,1.2633736717784623
-0.007303374733358044,-2.2143463278359374,1.2633736717784623
-0.007301584733358044,-2.210648102983354,1.2670810227595
-0.0072997947333580445,-2.2032516532781896,1.2670810227595
-0.007298004733358044,-2.1995534284256024,1.2707883737405377
-0.007296214733358044,-2.1921569787204347,1.2707883737405377
-0.007294424733358044,-2.188458753867851,1.2670810227595
-0.007292634733358044,-2.177364079310098,1.2670810227595017
-0.007290844733358044,-2.173665854457516,1.2707883737405377
-0.007289054733358044,-2.169967629604932,1.2707883737405377
-0.007287264733358044,-2.162571179899764,1.2670810227595
-0.007285474733358044,-2.158872955047179,1.2633736717784656
-0.007283684733358044,-2.155174730194597,1.2707883737405377
-0.007281894733358044,-2.151476505342013,1.2744957247215754
-0.007280104733358044,-2.1403818307842615,1.2707883737405377
-0.007278314733358044,-2.1403818307842615,1.2633736717784623
-0.007276524733358044,-2.1255889313739265,1.2670810227595
-0.007274734733358044,-2.114494256816175,1.2670810227595
-0.007272944733358044,-2.1107960319635914,1.2670810227595
-0.007271154733358044,-2.1107960319635914,1.2707883737405377
-0.007269364733358044,-2.0997013574058396,1.2670810227595
-0.007267574733358044,-2.1033995822584237,1.2707883737405377
-0.007265784733358044,-2.0923049077006723,1.2670810227595
-0.007263994733358044,-2.0849084579955046,1.2707883737405377
-0.007262204733358044,-2.081210233142921,1.2633736717784623
-0.007260414733358044,-2.0738137834377532,1.2670810227595
-0.007258624733358044,-2.0701155585851696,1.2707883737405377
-0.007256834733358044,-2.0738137834377532,1.2707883737405377
-0.007255044733358044,-2.062719108880002,1.2707883737405377
-0.007253254733358044,-2.055322659174834,1.278203075702613
-0.007251464733358044,-2.0516244343222505,1.2744957247215754
-0.007249674733358044,-2.0479262094696664,1.278203075702613
-0.007247884733358044,-2.0442279846170828,1.2707883737405377
-0.007246094733358044,-2.036831534911915,1.2707883737405377
-0.0072443047333580445,-2.0257368603541637,1.2707883737405377
-0.007242514733358044,-2.0183404106489964,1.2670810227595
-0.007240724733358044,-2.0183404106489964,1.2707883737405377
-0.007238934733358044,-2.007245736091245,1.2670810227595
-0.0072371447333580445,-1.999849286386077,1.2744957247215754
-0.007235354733358044,-1.9924528366809093,1.2670810227595
-0.007233564733358044,-1.9924528366809093,1.2707883737405377
-0.007231774733358044,-1.9887546118283257,1.2707883737405377
-0.0072299847333580445,-1.9887546118283257,1.2670810227595
-0.007228194733358044,-1.9776599372705743,1.2670810227595
-0.007226404733358044,-1.9665652627128227,1.2670810227595
-0.007224614733358044,-1.9665652627128227,1.2670810227595
-0.0072228247333580445,-1.9628670378602409,1.263373671778464
-0.007221034733358044,-1.9591688130076552,1.2670810227595
-0.007219244733358044,-1.9517723633024877,1.2670810227595
-0.007217454733358044,-1.9517723633024877,1.2707883737405377
-0.007215664733358044,-1.9443759135973149,1.2670810227595
-0.007213874733358044,-1.9332812390395686,1.2670810227595
-0.007212084733358044,-1.925884789334401,1.2670810227595
-0.007210294733358044,-1.9147901147766497,1.2670810227595
-0.007208504733358044,-1.9110918899240659,1.2707883737405377
-0.007206714733358044,-1.9110918899240659,1.2670810227595
-0.007204924733358044,-1.9036954402188981,1.2670810227595
-0.007203134733358044,-1.8999972153663145,1.2633736717784623
-0.007201344733358044,-1.8999972153663145,1.2670810227595
-0.007199554733358044,-1.8926007656611468,1.2707883737405377
-0.007197764733358044,-1.8889025408085631,1.2633736717784623
-0.007195974733358044,-1.8778078662508115,1.2670810227595
-0.007194184733358044,-1.8778078662508115,1.2670810227595
-0.007192394733358044,-1.8778078662508115,1.2707883737405377
-0.007190604733358044,-1.870411416545644,1.2670810227595
-0.007188814733358044,-1.8630149668404765,1.2707883737405377
-0.007187024733358044,-1.8593167419878927,1.2707883737405377
-0.007185234733358044,-1.8556185171353088,1.2707883737405377
-0.007183444733358044,-1.8556185171353088,1.2744957247215754
-0.007181654733358044,-1.8445238425775574,1.2707883737405377
-0.007179864733358044,-1.83712739287239,1.2707883737405377
-0.007178074733358044,-1.83712739287239,1.2707883737405377
-0.007176284733358044,-1.8260327183146385,1.2707883737405377
-0.0071744947333580444,-1.8223344934620547,1.2707883737405377
-0.007172704733358044,-1.814938043756887,1.2670810227595
-0.007170914733358044,-1.8075415940517194,1.2670810227595
