200Hz/acq0090.csv

#Digilent WaveForms Oscilloscope Acquisition
#Device Name: Discovery2
#Serial Number: SN:210321AA28BE
#Date Time: 2023-05-24 14:48:06.475
#Sample rate: 558659Hz
#Samples: 8192
#Trigger: Source: Channel 1 Type: Edge Condition: Rising Level: 800 mV Hyst.: Auto HoldOff: 100 ns
#Channel 1: Range: 1 V/div Offset: 0 V Attenuation: 1 X Sample Mode: Average
#Channel 2: Range: 1 V/div Offset: 0 V Attenuation: 1 X Sample Mode: Average

Time (s),Channel 1 (V),Channel 2 (V)
-0.0077415053064277,0.06745840620826683,-1.320649962004811
-0.0077397153064277,0.07115663106084895,-1.320649962004811
-0.0077379253064277,0.06745840620826683,-1.320649962004811
-0.0077361353064277,0.07115663106085063,-1.3132352600427357
-0.0077343453064277,0.06745840620826683,-1.3132352600427357
-0.0077325553064276995,0.06745840620826683,-1.3169426110237752
-0.0077307653064277,0.06745840620826683,-1.320649962004811
-0.0077289753064277,0.07485485591343444,-1.320649962004811
-0.0077271853064277,0.06376018135568304,-1.3169426110237734
-0.0077253953064276995,0.06376018135568304,-1.3169426110237734
-0.0077236053064277,0.07115663106085063,-1.3169426110237734
-0.0077218153064277,0.06745840620826683,-1.3169426110237734
-0.0077200253064277,0.06745840620826683,-1.3169426110237734
-0.0077182353064276996,0.06376018135568304,-1.320649962004811
-0.0077164453064277,0.06006195650309923,-1.320649962004811
-0.0077146553064277,0.06006195650309923,-1.3169426110237734
-0.0077128653064277,0.05636373165051543,-1.3243573129858488
-0.0077110753064277,0.06006195650309923,-1.3169426110237734
-0.0077092853064277,0.06745840620826683,-1.320649962004811
-0.0077074953064277,0.06006195650309923,-1.3169426110237734
-0.0077057053064277,0.06376018135568304,-1.320649962004811
-0.0077039153064277,0.06376018135568304,-1.3169426110237734
-0.0077021253064277,0.06745840620826683,-1.320649962004811
-0.0077003353064277,0.06376018135568304,-1.3169426110237734
-0.0076985453064277,0.06745840620826683,-1.3132352600427357
-0.0076967553064277,0.06745840620826683,-1.3169426110237734
-0.0076949653064277,0.06006195650309923,-1.3169426110237734
-0.0076931753064277,0.05266550679793163,-1.3169426110237734
-0.0076913853064277,0.06006195650309923,-1.320649962004811
-0.0076895953064277,0.05636373165051543,-1.3169426110237734
-0.0076878053064277,0.06006195650309923,-1.320649962004811
-0.0076860153064277,0.05636373165051543,-1.3169426110237734
-0.0076842253064277,0.05266550679793163,-1.3169426110237734
-0.0076824353064277,0.05636373165051543,-1.3169426110237734
-0.0076806453064277,0.05266550679793163,-1.3169426110237734
-0.0076788553064277,0.05636373165051543,-1.3243573129858488
-0.0076770653064277,0.06006195650309923,-1.3169426110237734
-0.0076752753064277,0.06376018135568304,-1.3169426110237734
-0.0076734853064277,0.06376018135568304,-1.3169426110237734
-0.0076716953064277,0.05636373165051543,-1.3169426110237734
-0.0076699053064277,0.05636373165051543,-1.3169426110237734
-0.0076681153064277,0.06006195650309923,-1.3169426110237734
-0.0076663253064277,0.05636373165051543,-1.3169426110237734
-0.0076645353064277,0.06006195650309923,-1.3169426110237734
-0.0076627453064276995,0.05266550679793163,-1.3169426110237734
-0.0076609553064277,0.05266550679793163,-1.3169426110237734
-0.0076591653064277,0.05266550679793163,-1.320649962004811
-0.0076573753064277,0.05266550679793163,-1.3132352600427357
-0.0076555853064276995,0.05266550679793163,-1.3169426110237716
-0.0076537953064277,0.05266550679793163,-1.3132352600427357
-0.0076520053064277,0.05266550679793163,-1.309527909061698
-0.0076502153064277,0.05266550679793163,-1.3169426110237734
-0.0076484253064276995,0.05266550679793163,-1.320649962004811
-0.0076466353064277,0.05636373165051543,-1.3169426110237734
-0.0076448453064277,0.05266550679793163,-1.3169426110237734
-0.0076430553064277,0.05266550679793163,-1.3169426110237734
-0.0076412653064277,0.045269057092764034,-1.3169426110237734
-0.0076394753064277,0.048967281945347836,-1.3132352600427357
-0.0076376853064277,0.048967281945347836,-1.320649962004811
-0.0076358953064277,0.05636373165051543,-1.3169426110237734
-0.0076341053064277,0.05266550679793163,-1.3169426110237734
-0.0076323153064277,0.05266550679793163,-1.320649962004811
-0.0076305253064277,0.05266550679793163,-1.3169426110237734
-0.0076287353064277,0.048967281945347836,-1.3169426110237734
-0.0076269453064277,0.05266550679793163,-1.320649962004811
-0.0076251553064277,0.05266550679793163,-1.320649962004811
-0.0076233653064277,0.048967281945347836,-1.3169426110237734
-0.0076215753064277,0.045269057092764034,-1.320649962004811
-0.0076197853064277,0.045269057092764034,-1.3132352600427357
-0.0076179953064277,0.045269057092764034,-1.320649962004811
-0.0076162053064277,0.048967281945347836,-1.3169426110237734
-0.0076144153064277,0.045269057092764034,-1.3169426110237734
-0.0076126253064277,0.045269057092764034,-1.320649962004811
-0.0076108353064277,0.045269057092764034,-1.3169426110237734
-0.0076090453064277,0.045269057092764034,-1.3169426110237734
-0.0076072553064277,0.048967281945347836,-1.320649962004811
-0.0076054653064277,0.045269057092764034,-1.3169426110237734
-0.0076036753064277,0.045269057092764034,-1.3169426110237734
-0.0076018853064277,0.045269057092764034,-1.3169426110237734
-0.0076000953064277,0.045269057092764034,-1.320649962004811
-0.0075983053064277,0.03787260738759644,-1.320649962004811
-0.0075965153064277,0.045269057092764034,-1.320649962004811
-0.0075947253064277,0.04157083224018024,-1.3169426110237734
-0.0075929353064277,0.04157083224018024,-1.3169426110237734
-0.0075911453064277,0.04157083224018024,-1.320649962004811
-0.0075893553064277,0.045269057092764034,-1.3169426110237734
-0.0075875653064277,0.04157083224018024,-1.320649962004811
-0.0075857753064276995,0.04157083224018024,-1.3132352600427357
-0.0075839853064277,0.04157083224018024,-1.3132352600427357
-0.0075821953064277,0.045269057092764034,-1.3132352600427357
-0.0075804053064277,0.04157083224018024,-1.3169426110237734
-0.0075786153064276995,0.03787260738759644,-1.320649962004811
-0.0075768253064277,0.03787260738759644,-1.3169426110237734
-0.0075750353064277,0.03787260738759644,-1.3169426110237734
-0.0075732453064277,0.03787260738759644,-1.320649962004811
-0.0075714553064276996,0.034174382535012635,-1.320649962004811
-0.0075696653064277,0.03787260738759644,-1.320649962004811
-0.0075678753064277,0.045269057092764034,-1.3169426110237734
-0.0075660853064277,0.03787260738759644,-1.320649962004811
-0.0075642953064277,0.034174382535012635,-1.3169426110237734
-0.0075625053064277,0.04157083224018024,-1.3132352600427357
-0.0075607153064277,0.04157083224018024,-1.3169426110237734
-0.0075589253064277,0.03787260738759644,-1.3132352600427357
-0.0075571353064277,0.03787260738759644,-1.3169426110237734
-0.0075553453064277,0.03787260738759644,-1.3132352600427357
-0.0075535553064277,0.03787260738759644,-1.320649962004811
-0.0075517653064277,0.034174382535012635,-1.320649962004811
-0.0075499753064277,0.04157083224018024,-1.3169426110237734
-0.0075481853064277,0.03787260738759644,-1.320649962004811
-0.0075463953064277,0.03787260738759644,-1.3243573129858488
-0.0075446053064277,0.04157083224018024,-1.3169426110237734
-0.0075428153064277,0.03787260738759644,-1.3169426110237734
-0.0075410253064277,0.04157083224018024,-1.3169426110237734
-0.0075392353064277,0.034174382535012635,-1.3169426110237734
-0.0075374453064277,0.03787260738759644,-1.320649962004811
-0.0075356553064277,0.034174382535012635,-1.3169426110237734
-0.0075338653064277,0.034174382535012635,-1.320649962004811
-0.0075320753064277,0.03787260738759644,-1.3169426110237734
-0.0075302853064277,0.034174382535012635,-1.3169426110237734
-0.0075284953064277,0.034174382535012635,-1.320649962004811
-0.0075267053064277,0.03787260738759644,-1.320649962004811
-0.0075249153064277,0.034174382535012635,-1.3169426110237734
-0.0075231253064277,0.03787260738759476,-1.3169426110237734
-0.0075213353064277,0.03047615768242884,-1.3132352600427357
-0.0075195453064277,0.03047615768242884,-1.3169426110237734
-0.0075177553064277,0.026777932829845037,-1.320649962004811
-0.0075159653064277,0.030476157682427157,-1.320649962004811
-0.0075141753064277,0.034174382535012635,-1.3169426110237734
-0.0075123853064277,0.034174382535012635,-1.3169426110237734
-0.0075105953064277,0.03047615768242884,-1.320649962004811
-0.0075088053064276995,0.026777932829843355,-1.320649962004811
-0.0075070153064277,0.02307970797726124,-1.320649962004811
-0.0075052253064277,0.03047615768242884,-1.320649962004811
-0.0075034353064277,0.026777932829845037,-1.3169426110237734
-0.0075016453064276995,0.03047615768242884,-1.3169426110237734
-0.0074998553064277,-2.8208552036596806,1.1299090364611053
-0.0074980653064277,-3.1573936652448067,1.3301059894371408
-0.0074962753064277,-3.1426007658344712,1.3301059894371408
-0.0074944853064277,-3.13150609127672,1.3226912874750654
-0.0074926953064277,-3.1204114167189685,1.326398638456103
-0.0074909053064277,-3.1204114167189685,1.3226912874750654
-0.0074891153064277,-3.1056185173086335,1.3189839364940277
-0.0074873253064277,-3.0982220676034657,1.3226912874750654
-0.0074855353064277,-3.0834291681931303,1.326398638456103
-0.0074837453064277,-3.076032718487963,1.326398638456103
-0.0074819553064277,-3.0649380439302116,1.3189839364940277
-0.0074801653064277,-3.050145144519876,1.326398638456103
-0.0074783753064277,-3.035352245109541,1.3226912874750654
-0.0074765853064277,-3.02425757055179,1.3189839364940277
-0.0074747953064277,-3.0131628959940384,1.31527658551299
-0.0074730053064277,-2.998369996583703,1.3115692345319523
-0.0074712153064277,-2.983577097173368,1.3078618835509146
-0.0074694253064277,-2.968784197763033,1.304154532569877
-0.0074676353064277,-2.9539912983526975,1.304154532569877
-0.0074658453064277,-2.942896623794946,1.3004471815888392
-0.0074640553064277,-2.928103724384611,1.3004471815888392
-0.0074622653064277,-2.924405499532027,1.2967398306078015
-0.0074604753064277,-2.909612600121692,1.304154532569877
-0.0074586853064277,-2.8985179255639406,1.2967398306078015
-0.0074568953064277,-2.8874232510061892,1.2930324796267638
-0.0074551053064277,-2.876328576448438,1.2967398306078015
-0.0074533153064277,-2.8652339018906865,1.2967398306078015
-0.0074515253064277,-2.8578374521855188,1.2930324796267638
-0.0074497353064277,-2.8393463279225997,1.2930324796267638
-0.0074479453064277,-2.831949878217432,1.2893251286457261
-0.0074461553064277,-2.824553428512268,1.293032479626762
-0.0074443653064277,-2.809760529101929,1.3004471815888392
-0.0074425753064277,-2.802364079396762,1.2893251286457261
-0.0074407853064277,-2.7912694048390105,1.2893251286457261
-0.0074389953064276995,-2.7764765054286715,1.2856177776646884
-0.0074372053064277,-2.7690800557235073,1.2856177776646884
-0.0074354153064277,-2.757985381165756,1.2856177776646884
-0.0074336253064277,-2.7468907066080046,1.2819104266836507
-0.0074318353064276995,-2.728399582345086,1.278203075702613
-0.0074300453064277,-2.724701357492502,1.278203075702613
-0.0074282553064277,-2.717304907787334,1.2744957247215754
-0.0074264653064277,-2.709908458082167,1.2819104266836507
-0.0074246753064276996,-2.6988137835244155,1.278203075702613
-0.0074228853064277,-2.687719108966664,1.278203075702613
-0.0074210953064277,-2.6803226592614964,1.278203075702613
-0.0074193053064277,-2.669227984703745,1.278203075702613
-0.0074175153064277,-2.6581333101459936,1.2744957247215754
-0.0074157253064277,-2.6581333101459936,1.278203075702613
-0.0074139353064277,-2.650736860440826,1.2819104266836507
-0.0074121453064277,-2.6396421858830745,1.278203075702613
-0.0074103553064277,-2.635943961030491,1.2744957247215754
-0.0074085653064277,-2.6211510616201554,1.278203075702613
-0.0074067753064277,-2.6063581622098204,1.2707883737405377
-0.0074049853064277,-2.5989617125046527,1.2707883737405377
-0.0074031953064277,-2.5878670379469013,1.2670810227595
-0.0074014053064277,-2.5804705882417336,1.2707883737405377
-0.0073996153064277,-2.5730741385365663,1.2744957247215754
-0.0073978253064277,-2.561979463978815,1.2670810227595
-0.0073960353064277,-2.554583014273647,1.2744957247215754
-0.0073942453064277,-2.5471865645684795,1.2744957247215754
-0.0073924553064277,-2.539790114863312,1.2744957247215754
-0.0073906653064277,-2.539790114863312,1.2744957247215754
-0.0073888753064277,-2.5249972154529767,1.2744957247215754
-0.0073870853064277,-2.5249972154529767,1.2707883737405377
-0.0073852953064277,-2.5139025408952254,1.2707883737405377
-0.0073835053064277,-2.5102043160426417,1.2670810227595
-0.0073817153064277,-2.4954114166323063,1.2744957247215754
-0.0073799253064277,-2.4954114166323063,1.2744957247215754
-0.0073781353064277,-2.484316742074555,1.2744957247215754
-0.0073763453064277,-2.4806185172219712,1.278203075702613
-0.0073745553064277,-2.4769202923693876,1.2707883737405377
-0.0073727653064277,-2.465825617811636,1.2744957247215754
-0.0073709753064277,-2.4584291681064685,1.2707883737405377
-0.0073691853064277,-2.4510327184013043,1.2670810227595017
-0.0073673953064277,-2.4362398189909658,1.2707883737405377
-0.0073656053064277,-2.4325415941383817,1.2670810227595
-0.0073638153064277,-2.4251451444332144,1.2633736717784623
-0.0073620253064276995,-2.417748694728043,1.2670810227595
-0.0073602353064277,-2.410352245022879,1.2670810227595
-0.0073584453064277,-2.402955795317711,1.2670810227595
-0.0073566553064277,-2.395559345612544,1.2670810227595
-0.0073548653064276995,-2.3844646710547925,1.2707883737405377
-0.0073530753064277,-2.3807664462022085,1.2670810227595
-0.0073512853064277,-2.377068221349625,1.2707883737405377
-0.0073494953064277,-2.373369996497041,1.2707883737405377
-0.0073477053064277,-2.3659735467918734,1.2707883737405377
-0.0073459153064277,-2.354878872234122,1.2670810227595
-0.0073441253064277,-2.351180647381538,1.278203075702613
-0.0073423353064277,-2.3437841976763707,1.2744957247215754
-0.0073405453064277,-2.336387747971203,1.2670810227595
-0.0073387553064277,-2.3252930734134516,1.2670810227595
-0.0073369653064277,-2.3252930734134516,1.2670810227595
-0.0073351753064277,-2.3105001740031166,1.2670810227595
-0.0073333853064277,-2.303103724297949,1.2670810227595
-0.0073315953064277,-2.299405499445365,1.2670810227595
-0.0073298053064277,-2.295707274592781,1.2633736717784623
-0.0073280153064277,-2.2883108248876134,1.2670810227595
-0.0073262253064277,-2.277216150329862,1.2670810227595
-0.0073244353064277,-2.2735179254772784,1.2670810227595
-0.0073226453064277,-2.2735179254772784,1.2670810227595
-0.0073208553064277,-2.262423250919527,1.2670810227595
-0.0073190653064277,-2.2587250260669434,1.2744957247215754
-0.0073172753064277,-2.2550268012143593,1.2670810227595
-0.0073154853064277,-2.2402339018040243,1.2744957247215754
-0.0073136953064277,-2.2365356769514406,1.2744957247215754
-0.0073119053064277,-2.2402339018040243,1.2707883737405377
-0.0073101153064277,-2.229139227246273,1.2744957247215754
-0.0073083253064277,-2.2180445526885215,1.2744957247215754
-0.0073065353064277,-2.2143463278359374,1.2707883737405377
-0.0073047453064277,-2.20694987813077,1.2670810227595
-0.0073029553064277,-2.203251653278186,1.2670810227595
-0.0073011653064277,-2.1921569787204347,1.2633736717784623
-0.0072993753064277,-2.184760529015271,1.2633736717784623
-0.0072975853064277,-2.1773640793100997,1.2707883737405377
-0.0072957953064277,-2.173665854457516,1.2707883737405377
-0.0072940053064277,-2.1662694047523483,1.2670810227595
-0.0072922153064276995,-2.1625711798997624,1.2670810227595
-0.0072904253064277,-2.1588729550471806,1.2670810227595
-0.0072886353064277,-2.151476505342013,1.2707883737405377
-0.0072868453064277,-2.151476505342013,1.2670810227595
-0.0072850553064276995,-2.1403818307842597,1.2670810227595
-0.0072832653064277,-2.136683605931678,1.2670810227595
-0.0072814753064277,-2.12928715622651,1.2670810227595
-0.0072796853064277,-2.1255889313739265,1.2707883737405377
-0.0072778953064276996,-2.1255889313739265,1.2670810227595
-0.0072761053064277,-2.1107960319635914,1.2707883737405377
-0.0072743153064277,-2.1033995822584237,1.2670810227595
-0.0072725253064277,-2.0997013574058396,1.2707883737405377
-0.0072707353064277,-2.0923049077006723,1.2670810227595
-0.0072689453064277,-2.081210233142921,1.2707883737405377
-0.0072671553064277,-2.081210233142921,1.2670810227595
-0.0072653653064277,-2.0664173337325855,1.2633736717784623
-0.0072635753064277,-2.0664173337325855,1.2707883737405377
-0.0072617853064277,-2.062719108880002,1.2670810227595
-0.0072599953064277,-2.055322659174834,1.2670810227595
-0.0072582053064277,-2.0516244343222505,1.2707883737405377
-0.0072564153064277,-2.0516244343222505,1.2707883737405377
-0.0072546253064277,-2.040529759764499,1.2744957247215754
-0.0072528353064277,-2.036831534911915,1.2707883737405377
-0.0072510453064277,-2.0331333100593314,1.2707883737405377
-0.0072492553064277,-2.0257368603541637,1.2744957247215754
-0.0072474653064277,-2.0183404106489964,1.2707883737405377
-0.0072456753064277,-2.0146421857964123,1.2707883737405377
-0.0072438853064277,-2.0146421857964123,1.278203075702613
-0.0072420953064277,-2.003547511238661,1.2744957247215754
-0.0072403053064277,-2.007245736091245,1.2707883737405377
-0.0072385153064277,-1.9961510615334932,1.2670810227595
-0.0072367253064277,-1.9850563869757418,1.2707883737405377
-0.0072349353064277,-1.981358162123158,1.2707883737405377
-0.0072331453064277,-1.9702634875654066,1.2707883737405377
-0.0072313553064277,-1.9665652627128227,1.2670810227595
-0.0072295653064277,-1.962867037860239,1.2670810227595
-0.0072277753064277,-1.9517723633024877,1.2670810227595
-0.0072259853064277,-1.9517723633024877,1.2670810227595
-0.0072241953064277,-1.9406776887447361,1.2670810227595
-0.0072224053064277,-1.9369794638921543,1.2670810227595
-0.0072206153064277,-1.9332812390395686,1.2707883737405377
-0.0072188253064277,-1.9295830141869847,1.2707883737405377
-0.0072170353064277,-1.925884789334401,1.2707883737405377
-0.0072152453064276995,-1.922186564481814,1.2670810227595
-0.0072134553064277,-1.9147901147766497,1.2670810227595
-0.0072116653064277,-1.9184883396292334,1.2707883737405377
-0.0072098753064277,-1.9036954402188981,1.2670810227595
-0.0072080853064276995,-1.8999972153663145,1.2670810227595
-0.0072062953064277,-1.8999972153663145,1.2670810227595
-0.0072045053064277,-1.8926007656611468,1.2633736717784623
-0.0072027153064277,-1.8815060911033954,1.2670810227595
-0.0072009253064277,-1.8815060911033954,1.2707883737405377
-0.0071991353064277,-1.870411416545644,1.2670810227595
-0.0071973453064277,-1.8667131916930602,1.2670810227595
-0.0071955553064277,-1.8593167419878927,1.2670810227595
-0.0071937653064277,-1.8593167419878927,1.2633736717784623
-0.0071919753064277,-1.8556185171353088,1.2633736717784623
-0.0071901853064277,-1.8482220674301413,1.2707883737405377
-0.0071883953064277,-1.8482220674301413,1.2670810227595
-0.0071866053064277,-1.83712739287239,1.2670810227595
-0.0071848153064277,-1.833429168019806,1.2707883737405377
-0.0071830253064277,-1.8297309431672222,1.2707883737405377
-0.0071812353064277,-1.8297309431672222,1.2670810227595
-0.0071794453064277,-1.8260327183146385,1.2670810227595
-0.0071776553064277,-1.8186362686094708,1.2744957247215754
-0.0071758653064277,-1.8112398189043033,1.2744957247215754
-0.0071740753064277,-1.8075415940517194,1.2707883737405377
-0.0071722853064277,-1.800145144346552,1.2744957247215754
-0.0071704953064277,-1.7927486946413842,1.2707883737405377
-0.0071687053064277,-1.7890504697888003,1.2744957247215754
-0.0071669153064277,-1.7853522449362167,1.2707883737405377
-0.0071651253064277,-1.777955795231049,1.2707883737405377
-0.0071633353064277,-1.7705593455258815,1.2670810227595
-0.0071615453064277,-1.7705593455258815,1.2670810227595
-0.0071597553064277,-1.7668611206732976,1.2633736717784623
-0.0071579653064277,-1.75946467096813,1.2633736717784623
-0.0071561753064277,-1.7557664461155462,1.2670810227595
-0.0071543853064277,-1.7483699964103787,1.2633736717784623
-0.0071525953064277,-1.7446717715577966,1.2707883737405343
-0.0071508053064277,-1.740973546705211,1.2744957247215754
-0.0071490153064277,-1.7372753218526273,1.2707883737405377
