200Hz/acq0030.csv

#Digilent WaveForms Oscilloscope Acquisition
#Device Name: Discovery2
#Serial Number: SN:210321AA28BE
#Date Time: 2023-05-24 14:48:04.809
#Sample rate: 558659Hz
#Samples: 8192
#Trigger: Source: Channel 1 Type: Edge Condition: Rising Level: 800 mV Hyst.: Auto HoldOff: 100 ns
#Channel 1: Range: 1 V/div Offset: 0 V Attenuation: 1 X Sample Mode: Average
#Channel 2: Range: 1 V/div Offset: 0 V Attenuation: 1 X Sample Mode: Average

Time (s),Channel 1 (V),Channel 2 (V)
-0.007741758853280034,0.07115663106085063,-1.320649962004811
-0.007739968853280034,0.07485485591343276,-1.324357312985847
-0.0077381788532800335,0.06745840620826683,-1.3169426110237734
-0.007736388853280034,0.06745840620826683,-1.3169426110237734
-0.007734598853280034,0.06745840620826683,-1.320649962004811
-0.007732808853280033,0.07115663106084895,-1.3169426110237716
-0.0077310188532800335,0.06745840620826683,-1.3132352600427357
-0.007729228853280034,0.06745840620826683,-1.320649962004811
-0.007727438853280034,0.06745840620826683,-1.3169426110237734
-0.007725648853280033,0.07115663106085063,-1.320649962004811
-0.0077238588532800335,0.06745840620826683,-1.320649962004811
-0.007722068853280034,0.06376018135568304,-1.3169426110237734
-0.007720278853280034,0.06745840620826683,-1.3169426110237734
-0.007718488853280033,0.06376018135568304,-1.3169426110237734
-0.007716698853280034,0.07115663106085063,-1.3132352600427357
-0.007714908853280034,0.06376018135568304,-1.3169426110237734
-0.007713118853280034,0.06006195650309923,-1.3169426110237734
-0.007711328853280033,0.06745840620826683,-1.3169426110237734
-0.007709538853280034,0.06745840620826683,-1.3169426110237734
-0.007707748853280034,0.06376018135568304,-1.3169426110237734
-0.007705958853280034,0.06745840620826683,-1.3132352600427357
-0.007704168853280033,0.06376018135568304,-1.3169426110237734
-0.007702378853280034,0.06745840620826683,-1.320649962004811
-0.007700588853280034,0.06376018135568304,-1.3243573129858488
-0.007698798853280034,0.06006195650309923,-1.3169426110237734
-0.007697008853280033,0.06376018135568304,-1.3169426110237734
-0.007695218853280034,0.06376018135568304,-1.3132352600427357
-0.007693428853280034,0.06376018135568304,-1.3169426110237734
-0.007691638853280034,0.05636373165051543,-1.320649962004811
-0.007689848853280033,0.06006195650309923,-1.3169426110237734
-0.007688058853280034,0.06745840620826683,-1.320649962004811
-0.007686268853280034,0.06376018135568304,-1.320649962004811
-0.007684478853280034,0.05636373165051543,-1.3169426110237734
-0.0076826888532800335,0.06006195650309923,-1.3132352600427357
-0.007680898853280034,0.05636373165051543,-1.3169426110237734
-0.007679108853280034,0.06006195650309923,-1.3169426110237734
-0.007677318853280034,0.06006195650309923,-1.3132352600427357
-0.0076755288532800335,0.05636373165051543,-1.3132352600427357
-0.007673738853280034,0.06006195650309923,-1.3169426110237734
-0.007671948853280034,0.05636373165051543,-1.320649962004811
-0.007670158853280034,0.06376018135567968,-1.3169426110237752
-0.0076683688532800335,0.06006195650309923,-1.3169426110237734
-0.007666578853280034,0.06006195650309923,-1.320649962004811
-0.007664788853280034,0.05636373165051543,-1.320649962004811
-0.007662998853280033,0.05266550679793163,-1.3169426110237734
-0.0076612088532800335,0.05266550679793163,-1.3169426110237734
-0.007659418853280034,0.05266550679793163,-1.320649962004811
-0.007657628853280034,0.05636373165051543,-1.320649962004811
-0.007655838853280033,0.05266550679793163,-1.3169426110237752
-0.0076540488532800335,0.05266550679793163,-1.320649962004811
-0.007652258853280034,0.05636373165051543,-1.320649962004811
-0.007650468853280034,0.05266550679793163,-1.320649962004811
-0.007648678853280033,0.05636373165051543,-1.320649962004811
-0.0076468888532800336,0.05636373165051543,-1.3169426110237734
-0.007645098853280034,0.05266550679793163,-1.3169426110237734
-0.007643308853280034,0.05266550679793163,-1.3169426110237734
-0.007641518853280033,0.05636373165051543,-1.3169426110237734
-0.007639728853280034,0.045269057092764034,-1.3169426110237734
-0.007637938853280034,0.05266550679793163,-1.3169426110237734
-0.007636148853280034,0.048967281945347836,-1.320649962004811
-0.007634358853280033,0.048967281945347836,-1.320649962004811
-0.007632568853280034,0.05266550679793163,-1.3132352600427357
-0.007630778853280034,0.05266550679793163,-1.3169426110237734
-0.007628988853280034,0.048967281945347836,-1.320649962004811
-0.007627198853280033,0.05266550679793163,-1.320649962004811
-0.007625408853280034,0.05266550679793163,-1.320649962004811
-0.007623618853280034,0.05266550679793163,-1.3169426110237734
-0.007621828853280034,0.045269057092764034,-1.3169426110237734
-0.007620038853280033,0.045269057092764034,-1.3169426110237734
-0.007618248853280034,0.05266550679793163,-1.320649962004811
-0.007616458853280034,0.05266550679793163,-1.3169426110237734
-0.007614668853280034,0.048967281945347836,-1.3169426110237734
-0.0076128788532800334,0.05266550679793163,-1.3132352600427357
-0.007611088853280034,0.045269057092764034,-1.320649962004811
-0.007609298853280034,0.048967281945347836,-1.320649962004811
-0.007607508853280034,0.05266550679793163,-1.3169426110237734
-0.0076057188532800335,0.048967281945347836,-1.320649962004811
-0.007603928853280034,0.048967281945347836,-1.320649962004811
-0.007602138853280034,0.048967281945347836,-1.320649962004811
-0.007600348853280034,0.04157083224018024,-1.3243573129858488
-0.0075985588532800335,0.045269057092764034,-1.3169426110237734
-0.007596768853280034,0.04157083224018024,-1.3169426110237734
-0.007594978853280034,0.045269057092764034,-1.3243573129858488
-0.007593188853280034,0.045269057092764034,-1.3169426110237767
-0.0075913988532800335,0.045269057092764034,-1.3169426110237734
-0.007589608853280034,0.04157083224018024,-1.320649962004811
-0.007587818853280034,0.048967281945347836,-1.3169426110237734
-0.007586028853280033,0.045269057092762355,-1.3169426110237752
-0.0075842388532800335,0.04157083224018024,-1.320649962004811
-0.007582448853280034,0.045269057092764034,-1.320649962004811
-0.007580658853280034,0.04157083224018024,-1.320649962004811
-0.007578868853280033,0.04157083224018024,-1.320649962004811
-0.0075770788532800335,0.04157083224018024,-1.320649962004811
-0.007575288853280034,0.045269057092764034,-1.320649962004811
-0.007573498853280034,0.04157083224018024,-1.3169426110237734
-0.007571708853280033,0.034174382535012635,-1.3132352600427357
-0.007569918853280034,0.04157083224018024,-1.3169426110237734
-0.007568128853280034,0.04157083224018024,-1.3169426110237734
-0.007566338853280034,0.04157083224018024,-1.3243573129858488
-0.007564548853280033,0.04157083224018024,-1.320649962004811
-0.007562758853280034,0.03787260738759644,-1.3132352600427357
-0.007560968853280034,0.04157083224018024,-1.3169426110237734
-0.007559178853280034,0.04157083224018024,-1.320649962004811
-0.007557388853280033,0.04157083224018024,-1.320649962004811
-0.007555598853280034,0.03787260738759644,-1.320649962004811
-0.007553808853280034,0.03787260738759644,-1.3169426110237734
-0.007552018853280034,0.04157083224018024,-1.3169426110237734
-0.007550228853280033,0.03787260738759644,-1.320649962004811
-0.007548438853280034,0.04157083224018024,-1.3169426110237734
-0.007546648853280034,0.034174382535012635,-1.3169426110237734
-0.007544858853280034,0.034174382535012635,-1.3169426110237734
-0.007543068853280033,0.03787260738759644,-1.3169426110237734
-0.007541278853280034,0.03787260738759644,-1.3169426110237734
-0.007539488853280034,0.03047615768242884,-1.3243573129858488
-0.007537698853280034,0.03787260738759644,-1.320649962004811
-0.0075359088532800335,0.034174382535012635,-1.320649962004811
-0.007534118853280034,0.034174382535012635,-1.320649962004811
-0.007532328853280034,0.034174382535012635,-1.3169426110237734
-0.007530538853280034,0.03787260738759644,-1.3132352600427357
-0.0075287488532800335,0.03787260738759644,-1.3169426110237734
-0.007526958853280034,0.034174382535012635,-1.320649962004811
-0.007525168853280034,0.034174382535012635,-1.320649962004811
-0.007523378853280034,0.03787260738759476,-1.320649962004811
-0.0075215888532800335,0.026777932829845037,-1.3243573129858488
-0.007519798853280034,0.034174382535012635,-1.320649962004811
-0.007518008853280034,0.034174382535012635,-1.3243573129858488
-0.007516218853280034,0.034174382535012635,-1.3169426110237767
-0.0075144288532800335,0.03787260738759644,-1.320649962004811
-0.007512638853280034,0.03787260738759644,-1.3169426110237734
-0.007510848853280034,0.03787260738759644,-1.3169426110237734
-0.007509058853280033,0.034174382535012635,-1.3169426110237734
-0.0075072688532800335,0.034174382535012635,-1.3169426110237734
-0.007505478853280034,0.03787260738759644,-1.3169426110237734
-0.007503688853280034,0.034174382535012635,-1.320649962004811
-0.007501898853280033,0.026777932829845037,-1.3132352600427357
-0.0075001088532800336,-1.9850563869757418,0.4366344030070563
-0.007498318853280034,-3.164790114949974,1.3375206913992161
-0.007496528853280034,-3.146298990687055,1.3301059894371408
-0.007494738853280033,-3.1352043161293035,1.3226912874750654
-0.007492948853280034,-3.1204114167189685,1.3226912874750654
-0.007491158853280034,-3.109316742161217,1.3189839364940277
-0.007489368853280034,-3.1019202924560494,1.3189839364940277
-0.007487578853280033,-3.094523842750882,1.3226912874750654
-0.007485788853280034,-3.0871273930457144,1.3226912874750654
-0.007483998853280034,-3.076032718487963,1.3189839364940277
-0.007482208853280034,-3.0612398190776275,1.3226912874750654
-0.007480418853280033,-3.042748694814709,1.3226912874750654
-0.007478628853280034,-3.039050469962125,1.3226912874750654
-0.007476838853280034,-3.02425757055179,1.3189839364940277
-0.007475048853280034,-3.0131628959940384,1.31527658551299
-0.007473258853280033,-2.998369996583703,1.3189839364940277
-0.007471468853280034,-2.9909735468785357,1.31527658551299
-0.007469678853280034,-2.9798788723207843,1.31527658551299
-0.007467888853280034,-2.965085972910449,1.3115692345319523
-0.0074660988532800334,-2.950293073500114,1.3115692345319523
-0.007464308853280034,-2.9318019492371947,1.3078618835509146
-0.007462518853280034,-2.9207072746794434,1.304154532569877
-0.007460728853280034,-2.9022161504165243,1.2967398306078015
-0.0074589388532800335,-2.8948197007113565,1.2967398306078015
-0.007457148853280034,-2.8800268013010215,1.3004471815888392
-0.007455358853280034,-2.872630351595854,1.2930324796267638
-0.007453568853280034,-2.8615356770381024,1.2930324796267638
-0.0074517788532800335,-2.854139227332935,1.2930324796267638
-0.007449988853280034,-2.850441002480351,1.2930324796267638
-0.007448198853280034,-2.831949878217432,1.2930324796267638
-0.007446408853280034,-2.8208552036596855,1.2930324796267638
-0.0074446188532800335,-2.8134587539545133,1.2893251286457261
-0.007442828853280034,-2.802364079396762,1.2856177776646884
-0.007441038853280034,-2.7875711799864265,1.2819104266836507
-0.007439248853280033,-2.780174730281252,1.2819104266836525
-0.0074374588532800335,-2.7653818308709237,1.2856177776646884
-0.007435668853280034,-2.757985381165756,1.2856177776646884
-0.007433878853280034,-2.7505889314605887,1.2893251286457261
-0.007432088853280033,-2.7394942569028373,1.2819104266836507
-0.0074302988532800335,-2.728399582345086,1.2856177776646884
-0.007428508853280034,-2.709908458082167,1.278203075702613
-0.007426718853280034,-2.702512008376999,1.278203075702613
-0.007424928853280033,-2.6951155586718314,1.278203075702613
-0.007423138853280034,-2.687719108966664,1.2744957247215754
-0.007421348853280034,-2.6766244344089127,1.278203075702613
-0.007419558853280034,-2.669227984703745,1.278203075702613
-0.007417768853280033,-2.6618315349985773,1.278203075702613
-0.007415978853280034,-2.650736860440826,1.2819104266836507
-0.007414188853280034,-2.6396421858830745,1.278203075702613
-0.007412398853280034,-2.632245736177907,1.2819104266836507
-0.007410608853280033,-2.6248492864727395,1.2819104266836507
-0.007408818853280034,-2.617452836767572,1.2819104266836507
-0.007407028853280034,-2.610056387062404,1.2744957247215754
-0.007405238853280034,-2.6026599373572368,1.278203075702613
-0.007403448853280033,-2.5989617125046527,1.2819104266836507
-0.007401658853280034,-2.591565262799485,1.2819104266836507
-0.007399868853280034,-2.5841688130943177,1.2744957247215754
-0.007398078853280034,-2.569375913683982,1.278203075702613
-0.007396288853280033,-2.558281239126231,1.278203075702613
-0.007394498853280034,-2.5471865645684795,1.2707883737405377
-0.007392708853280034,-2.543488339715896,1.2744957247215754
-0.007390918853280034,-2.539790114863312,1.2707883737405377
-0.0073891288532800335,-2.521298990600393,1.2707883737405377
-0.007387338853280034,-2.517600765747809,1.2744957247215754
-0.007385548853280034,-2.5065060911900576,1.2707883737405377
-0.007383758853280034,-2.502807866337474,1.278203075702613
-0.0073819688532800335,-2.4991096414848903,1.2707883737405377
-0.007380178853280034,-2.488014966927139,1.2707883737405377
-0.007378388853280034,-2.4806185172219712,1.2670810227595
-0.007376598853280034,-2.46952384266422,1.2707883737405377
-0.0073748088532800335,-2.462127392959052,1.2707883737405377
-0.007373018853280034,-2.465825617811636,1.2707883737405377
-0.007371228853280034,-2.4547309432538844,1.2744957247215754
-0.007369438853280034,-2.4510327184013025,1.2707883737405394
-0.0073676488532800335,-2.4399380438435494,1.2744957247215754
-0.007365858853280034,-2.4325415941383817,1.2707883737405377
-0.007364068853280034,-2.4251451444332144,1.2670810227595
-0.007362278853280033,-2.4140504698754577,1.2633736717784656
-0.0073604888532800335,-2.402955795317711,1.2707883737405377
-0.007358698853280034,-2.402955795317711,1.2707883737405377
-0.007356908853280034,-2.39186112075996,1.2670810227595
-0.007355118853280033,-2.39186112075996,1.2670810227595
-0.0073533288532800336,-2.3844646710547925,1.2670810227595
-0.007351538853280034,-2.377068221349625,1.2670810227595
-0.007349748853280034,-2.36227532193929,1.2707883737405377
-0.007347958853280033,-2.36227532193929,1.2707883737405377
-0.007346168853280034,-2.354878872234122,1.2670810227595
-0.007344378853280034,-2.3437841976763707,1.2670810227595
-0.007342588853280034,-2.3400859728237866,1.2707883737405377
-0.007340798853280033,-2.3326895231186193,1.2670810227595
-0.007339008853280034,-2.3289912982660352,1.2707883737405377
-0.007337218853280034,-2.3252930734134516,1.2707883737405377
-0.007335428853280034,-2.317896623708284,1.278203075702613
-0.007333638853280033,-2.317896623708284,1.2707883737405377
-0.007331848853280034,-2.299405499445365,1.2707883737405377
-0.007330058853280034,-2.2920090497401975,1.2707883737405377
-0.007328268853280034,-2.2883108248876134,1.2707883737405377
-0.007326478853280033,-2.277216150329862,1.2707883737405377
-0.007324688853280034,-2.2735179254772784,1.2633736717784623
-0.007322898853280034,-2.2698197006246947,1.2707883737405377
-0.007321108853280034,-2.2587250260669434,1.2670810227595
-0.0073193188532800334,-2.2513285763617756,1.2670810227595
-0.007317528853280034,-2.247630351509192,1.2670810227595
-0.007315738853280034,-2.2402339018040243,1.2670810227595
-0.007313948853280034,-2.2328374520988565,1.2670810227595
-0.0073121588532800335,-2.229139227246273,1.2670810227595
-0.007310368853280034,-2.225441002393689,1.2744957247215754
-0.007308578853280034,-2.2143463278359374,1.2707883737405377
-0.007306788853280034,-2.210648102983354,1.2707883737405377
-0.0073049988532800335,-2.20694987813077,1.2707883737405377
-0.007303208853280034,-2.203251653278186,1.2707883737405377
-0.007301418853280034,-2.1921569787204347,1.2744957247215754
-0.007299628853280034,-2.188458753867853,1.2744957247215754
-0.0072978388532800335,-2.1773640793100997,1.2744957247215754
-0.007296048853280034,-2.173665854457516,1.2744957247215754
-0.007294258853280034,-2.169967629604932,1.2670810227595
-0.007292468853280033,-2.1625711798997624,1.2670810227595
-0.0072906788532800335,-2.1588729550471806,1.2670810227595
-0.007288888853280034,-2.147778280489429,1.2633736717784623
-0.007287098853280034,-2.1440800556368456,1.2633736717784623
-0.007285308853280033,-2.1440800556368407,1.2670810227594982
-0.0072835188532800335,-2.132985381079094,1.2633736717784623
-0.007281728853280034,-2.12928715622651,1.2670810227595
-0.007279938853280034,-2.121890706521343,1.2707883737405377
-0.007278148853280033,-2.1181924816687587,1.2707883737405377
-0.007276358853280034,-2.1107960319635914,1.2707883737405377
-0.007274568853280034,-2.1033995822584237,1.2707883737405377
-0.007272778853280034,-2.1033995822584237,1.2707883737405377
-0.007270988853280033,-2.0923049077006723,1.2707883737405377
-0.007269198853280034,-2.096003132553256,1.2744957247215754
-0.007267408853280034,-2.0923049077006723,1.2707883737405377
-0.007265618853280034,-2.081210233142921,1.2707883737405377
-0.007263828853280033,-2.0738137834377532,1.2707883737405377
-0.007262038853280034,-2.062719108880002,1.2670810227595
-0.007260248853280034,-2.0590208840274182,1.2670810227595
-0.007258458853280034,-2.0479262094696664,1.2670810227595
-0.007256668853280033,-2.040529759764499,1.2670810227595
-0.007254878853280034,-2.040529759764499,1.2670810227595
-0.007253088853280034,-2.0294350852067478,1.2670810227595
-0.007251298853280034,-2.0294350852067478,1.2633736717784623
-0.007249508853280033,-2.0257368603541637,1.2670810227595
-0.007247718853280034,-2.0183404106489964,1.2670810227595
-0.007245928853280034,-2.0146421857964123,1.2707883737405377
-0.007244138853280034,-2.007245736091245,1.2670810227595
-0.0072423488532800335,-2.003547511238661,1.2670810227595
-0.007240558853280034,-1.999849286386077,1.2707883737405377
-0.007238768853280034,-1.9924528366809093,1.2670810227595
-0.007236978853280034,-1.9850563869757418,1.2670810227595
-0.0072351888532800335,-1.981358162123158,1.2707883737405377
-0.007233398853280034,-1.9776599372705743,1.2670810227595
-0.007231608853280034,-1.9665652627128227,1.2707883737405377
-0.007229818853280034,-1.9591688130076552,1.2670810227595
-0.0072280288532800335,-1.9554705881550714,1.2707883737405377
-0.007226238853280034,-1.9554705881550714,1.2633736717784623
-0.007224448853280034,-1.9480741384499038,1.2670810227595
-0.007222658853280034,-1.9443759135973218,1.2670810227595
-0.0072208688532800335,-1.9332812390395686,1.2670810227595
-0.007219078853280034,-1.925884789334401,1.2707883737405377
-0.007217288853280034,-1.9221865644818172,1.2744957247215754
-0.007215498853280033,-1.9147901147766497,1.2707883737405377
-0.0072137088532800335,-1.9147901147766497,1.2707883737405377
-0.007211918853280034,-1.907393665071482,1.2670810227595
-0.007210128853280034,-1.9036954402188981,1.2707883737405377
-0.007208338853280033,-1.9036954402188981,1.2744957247215754
-0.0072065488532800336,-1.8962989905137306,1.2707883737405377
-0.007204758853280034,-1.8962989905137306,1.2744957247215754
-0.007202968853280034,-1.8926007656611468,1.278203075702613
-0.007201178853280033,-1.8889025408085631,1.278203075702613
-0.007199388853280034,-1.8815060911033954,1.2707883737405377
-0.007197598853280034,-1.8741096413982279,1.2707883737405377
-0.007195808853280034,-1.8667131916930602,1.2670810227595
-0.007194018853280033,-1.8593167419878927,1.2633736717784623
-0.007192228853280034,-1.8519202922827251,1.2670810227595
-0.007190438853280034,-1.8445238425775574,1.2670810227595
-0.007188648853280034,-1.8408256177249736,1.2670810227595
-0.007186858853280033,-1.8445238425775574,1.2670810227595
-0.007185068853280034,-1.833429168019806,1.2670810227595
-0.007183278853280034,-1.8260327183146385,1.2670810227595
-0.007181488853280034,-1.8223344934620547,1.2707883737405377
-0.007179698853280033,-1.8186362686094708,1.2670810227595
-0.007177908853280034,-1.8112398189043033,1.2707883737405377
-0.007176118853280034,-1.8112398189043033,1.2744957247215754
-0.007174328853280034,-1.8038433691991356,1.2670810227595
-0.0071725388532800334,-1.800145144346552,1.2633736717784623
-0.007170748853280034,-1.796446919493968,1.2707883737405377
-0.007168958853280034,-1.796446919493968,1.2744957247215754
