200Hz/acq0079.csv

#Digilent WaveForms Oscilloscope Acquisition
#Device Name: Discovery2
#Serial Number: SN:210321AA28BE
#Date Time: 2023-05-24 14:48:06.168
#Sample rate: 558659Hz
#Samples: 8192
#Trigger: Source: Channel 1 Type: Edge Condition: Rising Level: 800 mV Hyst.: Auto HoldOff: 100 ns
#Channel 1: Range: 1 V/div Offset: 0 V Attenuation: 1 X Sample Mode: Average
#Channel 2: Range: 1 V/div Offset: 0 V Attenuation: 1 X Sample Mode: Average

Time (s),Channel 1 (V),Channel 2 (V)
-0.0077411725970856155,0.02307970797726124,-1.3169426110237734
-0.007739382597085616,0.019381483124679123,-1.3169426110237734
-0.007737592597085615,0.01938148312467744,-1.320649962004811
-0.007735802597085615,0.01938148312467744,-1.3132352600427357
-0.0077340125970856155,0.01198503341950984,-1.320649962004811
-0.007732222597085615,0.015683258272093638,-1.3206499620048078
-0.007730432597085615,0.015683258272093638,-1.3132352600427357
-0.007728642597085615,0.015683258272093638,-1.3169426110237734
-0.0077268525970856155,0.02307970797726124,-1.3169426110237734
-0.007725062597085615,0.01198503341950984,-1.3169426110237734
-0.007723272597085615,0.01198503341950984,-1.320649962004811
-0.007721482597085615,0.015683258272093638,-1.3169426110237734
-0.0077196925970856155,0.015683258272093638,-1.320649962004811
-0.007717902597085615,0.01938148312467744,-1.3169426110237734
-0.007716112597085615,0.015683258272093638,-1.320649962004811
-0.007714322597085615,0.015683258272093638,-1.3169426110237734
-0.007712532597085616,0.015683258272093638,-1.320649962004811
-0.007710742597085615,0.02307970797726124,-1.3132352600427357
-0.007708952597085615,0.015683258272093638,-1.3132352600427357
-0.007707162597085615,0.015683258272093638,-1.320649962004811
-0.007705372597085616,0.015683258272093638,-1.3169426110237734
-0.007703582597085615,0.015683258272093638,-1.3169426110237734
-0.007701792597085615,0.015683258272093638,-1.3169426110237734
-0.007700002597085615,0.00828680856692604,-1.3132352600427357
-0.007698212597085616,0.015683258272093638,-1.3169426110237734
-0.007696422597085615,0.015683258272093638,-1.320649962004811
-0.007694632597085615,0.01198503341950984,-1.3169426110237734
-0.007692842597085615,0.01198503341950984,-1.3169426110237734
-0.007691052597085616,0.00828680856692604,-1.320649962004811
-0.007689262597085615,0.01198503341950984,-1.320649962004811
-0.007687472597085615,0.015683258272093638,-1.3169426110237734
-0.007685682597085615,0.015683258272093638,-1.320649962004811
-0.007683892597085616,0.01198503341950984,-1.320649962004811
-0.007682102597085615,0.015683258272093638,-1.3169426110237734
-0.007680312597085615,0.01938148312467744,-1.3132352600427357
-0.0076785225970856155,0.015683258272093638,-1.3169426110237734
-0.007676732597085616,0.015683258272093638,-1.3169426110237734
-0.007674942597085615,0.015683258272093638,-1.320649962004811
-0.007673152597085615,0.01198503341950984,-1.3169426110237734
-0.0076713625970856155,0.00828680856692604,-1.3169426110237734
-0.007669572597085616,0.011985033419508156,-1.3169426110237734
-0.007667782597085615,0.01198503341950984,-1.3169426110237734
-0.007665992597085615,0.01198503341950984,-1.320649962004811
-0.0076642025970856155,0.00828680856692604,-1.3243573129858488
-0.007662412597085615,0.004588583714343922,-1.3206499620048093
-0.007660622597085615,0.00828680856692604,-1.3169426110237734
-0.007658832597085615,0.01198503341950984,-1.3169426110237734
-0.0076570425970856155,0.00828680856692604,-1.320649962004811
-0.007655252597085615,0.00828680856692604,-1.3206499620048093
-0.007653462597085615,0.00828680856692604,-1.3169426110237734
-0.007651672597085615,0.00458858371434224,-1.320649962004811
-0.0076498825970856155,0.00458858371434224,-1.320649962004811
-0.007648092597085615,0.00828680856692604,-1.3243573129858488
-0.007646302597085615,0.00828680856692604,-1.3169426110237734
-0.007644512597085615,0.00458858371434224,-1.3169426110237734
-0.0076427225970856156,0.00458858371434224,-1.3169426110237734
-0.007640932597085615,0.00458858371434224,-1.3169426110237734
-0.007639142597085615,0.00458858371434224,-1.320649962004811
-0.007637352597085615,0.00458858371434224,-1.3243573129858488
-0.007635562597085616,0.0008903588617584406,-1.3169426110237734
-0.007633772597085615,0.00458858371434224,-1.3169426110237734
-0.007631982597085615,-0.002807865990825359,-1.3169426110237734
-0.007630192597085615,0.00458858371434224,-1.320649962004811
-0.007628402597085616,0.0008903588617584406,-1.3243573129858488
-0.007626612597085615,0.00458858371434224,-1.3169426110237734
-0.007624822597085615,0.00458858371434224,-1.320649962004811
-0.007623032597085615,0.00458858371434224,-1.3169426110237734
-0.007621242597085616,0.00458858371434224,-1.320649962004811
-0.007619452597085615,0.0008903588617584406,-1.3169426110237734
-0.007617662597085615,0.0008903588617584406,-1.3169426110237734
-0.007615872597085615,-0.002807865990825359,-1.320649962004811
-0.007614082597085616,0.0008903588617584406,-1.320649962004811
-0.007612292597085615,-0.002807865990825359,-1.320649962004811
-0.007610502597085615,-0.002807865990825359,-1.320649962004811
-0.0076087125970856154,-0.002807865990825359,-1.320649962004811
-0.007606922597085616,-0.0065060908434091584,-1.320649962004811
-0.007605132597085615,0.0008903588617584406,-1.3169426110237734
-0.007603342597085615,-0.0065060908434091584,-1.3169426110237734
-0.0076015525970856155,-0.0065060908434091584,-1.320649962004811
-0.007599762597085616,0.0008903588617584406,-1.3169426110237734
-0.007597972597085615,-0.002807865990825359,-1.3169426110237734
-0.007596182597085615,0.0008903588617584406,-1.3132352600427357
-0.0075943925970856155,-0.002807865990825359,-1.3169426110237734
-0.007592602597085616,-0.002807865990825359,-1.3169426110237734
-0.007590812597085615,-0.0065060908434091584,-1.320649962004811
-0.007589022597085615,-0.002807865990825359,-1.3169426110237734
-0.0075872325970856155,-0.002807865990825359,-1.320649962004811
-0.007585442597085615,-0.0028078659908270407,-1.320649962004811
-0.007583652597085615,-0.0065060908434091584,-1.320649962004811
-0.007581862597085615,-0.0065060908434091584,-1.320649962004811
-0.0075800725970856155,0.0008903588617584406,-1.320649962004811
-0.007578282597085615,-0.002807865990825359,-1.320649962004811
-0.007576492597085615,-0.0065060908434091584,-1.320649962004811
-0.007574702597085615,-0.0065060908434091584,-1.320649962004811
-0.0075729125970856155,-0.0065060908434091584,-1.3169426110237734
-0.007571122597085615,-0.010204315695992958,-1.3169426110237734
-0.007569332597085615,-0.010204315695992958,-1.320649962004811
-0.007567542597085615,-0.010204315695992958,-1.3169426110237734
-0.0075657525970856156,-0.002807865990825359,-1.3169426110237734
-0.007563962597085615,-0.010204315695992958,-1.3169426110237734
-0.007562172597085615,-0.0065060908434091584,-1.3169426110237734
-0.007560382597085615,-0.010204315695992958,-1.320649962004811
-0.007558592597085616,-0.010204315695992958,-1.320649962004811
-0.007556802597085615,-0.0065060908434091584,-1.320649962004811
-0.007555012597085615,-0.0065060908434091584,-1.320649962004811
-0.007553222597085615,-0.013902540548576758,-1.3169426110237734
-0.007551432597085616,-0.013902540548576758,-1.3169426110237734
-0.007549642597085615,-0.0065060908434091584,-1.3169426110237734
-0.007547852597085615,-0.0065060908434091584,-1.3243573129858488
-0.007546062597085615,-0.0065060908434091584,-1.320649962004811
-0.007544272597085616,-0.010204315695992958,-1.3169426110237734
-0.007542482597085615,-0.010204315695992958,-1.3169426110237734
-0.007540692597085615,-0.013902540548576758,-1.320649962004811
-0.007538902597085615,-0.013902540548576758,-1.3169426110237734
-0.007537112597085616,-0.010204315695992958,-1.320649962004811
-0.007535322597085615,-0.013902540548576758,-1.320649962004811
-0.007533532597085615,-0.013902540548576758,-1.3169426110237734
-0.0075317425970856154,-0.017600765401160557,-1.320649962004811
-0.007529952597085616,-0.010204315695992958,-1.320649962004811
-0.007528162597085615,-0.017600765401160557,-1.320649962004811
-0.007526372597085615,-0.013902540548576758,-1.3169426110237734
-0.0075245825970856155,-0.017600765401160557,-1.320649962004811
-0.007522792597085616,-0.013902540548578441,-1.320649962004811
-0.007521002597085615,-0.021298990253744356,-1.3169426110237734
-0.007519212597085615,-0.013902540548576758,-1.320649962004811
-0.0075174225970856155,-0.010204315695992958,-1.320649962004811
-0.007515632597085616,-0.010204315695992958,-1.320649962004811
-0.007513842597085615,-0.013902540548576758,-1.320649962004811
-0.007512052597085615,-0.017600765401160557,-1.3169426110237734
-0.0075102625970856155,-0.017600765401160557,-1.3169426110237734
-0.007508472597085615,-0.01760076540116224,-1.3169426110237734
-0.007506682597085615,-0.021298990253744356,-1.3169426110237734
-0.007504892597085615,-0.021298990253744356,-1.3169426110237734
-0.0075031025970856155,-0.021298990253744356,-1.3169426110237734
-0.007501312597085615,-0.6278078660774875,-0.7237664540577422
-0.007499522597085615,-3.1795830143603094,1.3338133404181785
-0.007497732597085615,-3.168488339802558,1.3338133404181785
-0.0074959425970856156,-3.1573936652448067,1.326398638456103
-0.007494152597085615,-3.149997215539639,1.3226912874750654
-0.007492362597085615,-3.1426007658344712,1.3189839364940277
-0.007490572597085615,-3.1352043161293035,1.3189839364940277
-0.007488782597085616,-3.127807866424136,1.3226912874750654
-0.007486992597085615,-3.1204114167189685,1.3226912874750654
-0.007485202597085615,-3.109316742161217,1.3226912874750654
-0.007483412597085615,-3.1019202924560494,1.3226912874750654
-0.007481622597085616,-3.094523842750882,1.3226912874750654
-0.007479832597085615,-3.076032718487963,1.3189839364940277
-0.007478042597085615,-3.0686362687827953,1.3189839364940277
-0.007476252597085615,-3.0538433693724603,1.31527658551299
-0.007474462597085616,-3.0464469196672925,1.31527658551299
-0.007472672597085615,-3.035352245109541,1.31527658551299
-0.007470882597085615,-3.0279557954043734,1.3115692345319523
-0.007469092597085615,-3.0094646711414543,1.3078618835509146
-0.007467302597085616,-3.002068221436287,1.3078618835509146
-0.007465512597085615,-2.9872753220259516,1.304154532569877
-0.007463722597085615,-2.965085972910449,1.304154532569877
-0.0074619325970856154,-2.961387748057865,1.304154532569877
-0.007460142597085616,-2.9465948486475297,1.3004471815888392
-0.007458352597085615,-2.9391983989423625,1.3004471815888392
-0.007456562597085615,-2.9207072746794434,1.2930324796267638
-0.0074547725970856155,-2.909612600121692,1.2930324796267638
-0.007452982597085616,-2.9059143752691083,1.2893251286457261
-0.007451192597085615,-2.891121475858773,1.2930324796267638
-0.007449402597085615,-2.883725026153605,1.2930324796267638
-0.0074476125970856155,-2.876328576448438,1.2893251286457261
-0.007445822597085616,-2.8652339018906914,1.2856177776646902
-0.007444032597085615,-2.850441002480351,1.2856177776646884
-0.007442242597085615,-2.8467427776277674,1.2893251286457261
-0.0074404525970856155,-2.835648103070016,1.2893251286457261
-0.007438662597085615,-2.820855203659677,1.2893251286457261
-0.007436872597085615,-2.8134587539545133,1.2893251286457261
-0.007435082597085615,-2.802364079396762,1.2856177776646884
-0.0074332925970856155,-2.7912694048390105,1.2819104266836507
-0.007431502597085615,-2.783872955133843,1.2856177776646884
-0.007429712597085615,-2.7653818308709237,1.278203075702613
-0.007427922597085615,-2.757985381165756,1.2744957247215754
-0.0074261325970856155,-2.7468907066080046,1.2744957247215754
-0.007424342597085615,-2.7394942569028373,1.2744957247215754
-0.007422552597085615,-2.728399582345086,1.2744957247215754
-0.007420762597085615,-2.721003132639918,1.278203075702613
-0.0074189725970856156,-2.709908458082167,1.278203075702613
-0.007417182597085615,-2.7062102332295828,1.278203075702613
-0.007415392597085615,-2.6951155586718314,1.278203075702613
-0.007413602597085615,-2.687719108966664,1.2744957247215754
-0.007411812597085616,-2.6766244344089127,1.278203075702613
-0.007410022597085615,-2.6618315349985773,1.278203075702613
-0.007408232597085615,-2.6618315349985773,1.2744957247215754
-0.007406442597085615,-2.6544350852934095,1.2744957247215754
-0.007404652597085616,-2.643340410735658,1.278203075702613
-0.007402862597085615,-2.632245736177907,1.2744957247215754
-0.007401072597085615,-2.628547511325323,1.2744957247215754
-0.007399282597085615,-2.613754611914988,1.2707883737405377
-0.007397492597085616,-2.6063581622098204,1.2670810227595
-0.007395702597085615,-2.595263487652069,1.2707883737405377
-0.007393912597085615,-2.595263487652069,1.2707883737405377
-0.007392122597085615,-2.5878670379469013,1.2633736717784623
-0.007390332597085616,-2.5804705882417336,1.2670810227595
-0.007388542597085615,-2.5656776888313986,1.2744957247215754
-0.007386752597085615,-2.558281239126231,1.2670810227595
-0.0073849625970856154,-2.5508847894210636,1.2707883737405377
-0.007383172597085616,-2.539790114863312,1.2707883737405377
-0.007381382597085615,-2.539790114863312,1.2744957247215754
-0.007379592597085615,-2.536091890010728,1.2707883737405377
-0.0073778025970856155,-2.5286954403055604,1.2707883737405377
-0.007376012597085616,-2.517600765747809,1.2707883737405377
-0.007374222597085615,-2.5102043160426417,1.2744957247215754
-0.007372432597085615,-2.5102043160426417,1.2707883737405377
-0.0073706425970856155,-2.502807866337474,1.2744957247215754
-0.007368852597085616,-2.49541141663231,1.2707883737405394
-0.007367062597085615,-2.488014966927139,1.278203075702613
-0.007365272597085615,-2.4732220675168035,1.2707883737405377
-0.0073634825970856155,-2.46952384266422,1.2707883737405377
-0.007361692597085615,-2.458429168106465,1.2707883737405377
-0.007359902597085615,-2.4510327184013008,1.2707883737405377
-0.007358112597085615,-2.443636268696133,1.2633736717784623
-0.0073563225970856155,-2.4362398189909658,1.2670810227595
-0.007354532597085615,-2.428843369285798,1.2670810227595
-0.007352742597085615,-2.4177486947280467,1.2670810227595
-0.007350952597085615,-2.4177486947280467,1.2670810227595
-0.0073491625970856156,-2.4066540201702953,1.2707883737405377
-0.007347372597085615,-2.3992575704651276,1.2670810227595
-0.007345582597085615,-2.39186112075996,1.2707883737405377
-0.007343792597085615,-2.39186112075996,1.2707883737405377
-0.007342002597085616,-2.3844646710547925,1.2670810227595
-0.007340212597085615,-2.377068221349625,1.2707883737405377
-0.007338422597085615,-2.369671771644457,1.2744957247215754
-0.007336632597085615,-2.3659735467918734,1.2707883737405377
-0.007334842597085616,-2.36227532193929,1.2707883737405377
-0.007333052597085615,-2.354878872234122,1.2744957247215754
-0.007331262597085615,-2.3437841976763707,1.2670810227595
-0.007329472597085615,-2.3400859728237866,1.2670810227595
-0.007327682597085616,-2.3289912982660352,1.2633736717784623
-0.007325892597085615,-2.3252930734134516,1.2670810227595
-0.007324102597085615,-2.317896623708284,1.2670810227595
-0.007322312597085615,-2.3068019491505325,1.2670810227595
-0.007320522597085616,-2.3068019491505325,1.2670810227595
-0.007318732597085615,-2.299405499445365,1.2670810227595
-0.007316942597085615,-2.295707274592781,1.2707883737405377
-0.0073151525970856154,-2.2883108248876134,1.2633736717784623
-0.007313362597085616,-2.2846126000350298,1.2670810227595
-0.007311572597085615,-2.2698197006246947,1.2670810227595
-0.007309782597085615,-2.262423250919527,1.2707883737405377
-0.0073079925970856155,-2.262423250919527,1.2744957247215754
-0.007306202597085616,-2.2587250260669434,1.2707883737405377
-0.007304412597085615,-2.2513285763617756,1.2707883737405377
-0.007302622597085615,-2.243932126656608,1.278203075702613
-0.0073008325970856155,-2.2365356769514406,1.2707883737405377
-0.007299042597085616,-2.2328374520988583,1.2670810227595017
-0.007297252597085615,-2.225441002393689,1.2670810227595
-0.007295462597085615,-2.2180445526885215,1.2707883737405377
-0.0072936725970856155,-2.2143463278359374,1.2707883737405377
-0.007291882597085615,-2.2069498781307617,1.2670810227594982
-0.007290092597085615,-2.188458753867851,1.2633736717784623
-0.007288302597085615,-2.1921569787204347,1.2670810227595
-0.0072865125970856155,-2.1773640793100997,1.2633736717784623
-0.007284722597085615,-2.169967629604932,1.2670810227595
-0.007282932597085615,-2.169967629604932,1.2670810227595
-0.007281142597085615,-2.169967629604932,1.2633736717784623
-0.0072793525970856155,-2.1662694047523483,1.2707883737405377
-0.007277562597085615,-2.1588729550471806,1.2670810227595
-0.007275772597085615,-2.151476505342013,1.2707883737405377
-0.007273982597085615,-2.147778280489429,1.2707883737405377
-0.0072721925970856156,-2.1440800556368456,1.2707883737405377
-0.007270402597085615,-2.136683605931678,1.2707883737405377
-0.007268612597085615,-2.132985381079094,1.2744957247215754
-0.007266822597085615,-2.121890706521343,1.2707883737405377
-0.007265032597085616,-2.1181924816687587,1.2670810227595
-0.007263242597085615,-2.1070978071110074,1.2670810227595
-0.007261452597085615,-2.0997013574058396,1.2670810227595
-0.007259662597085615,-2.1033995822584237,1.2670810227595
-0.007257872597085616,-2.0886066828480883,1.2670810227595
-0.007256082597085615,-2.081210233142921,1.2670810227595
-0.007254292597085615,-2.0923049077006723,1.2744957247215754
-0.007252502597085615,-2.077512008290337,1.2707883737405377
-0.007250712597085616,-2.0738137834377532,1.2707883737405377
-0.007248922597085615,-2.0738137834377532,1.2670810227595
-0.007247132597085615,-2.0664173337325855,1.2670810227595
-0.007245342597085615,-2.062719108880002,1.2707883737405377
-0.007243552597085616,-2.055322659174834,1.2707883737405377
-0.007241762597085615,-2.0442279846170828,1.2670810227595
-0.007239972597085615,-2.040529759764499,1.2707883737405377
-0.0072381825970856154,-2.036831534911915,1.2744957247215754
-0.007236392597085616,-2.0331333100593314,1.278203075702613
-0.007234602597085615,-2.0294350852067478,1.2744957247215754
-0.007232812597085615,-2.0183404106489964,1.2707883737405377
-0.0072310225970856155,-2.0146421857964123,1.2707883737405377
-0.007229232597085616,-2.0109439609438287,1.2707883737405377
-0.007227442597085615,-1.999849286386077,1.2707883737405377
-0.007225652597085615,-1.9924528366809093,1.2670810227595
-0.0072238625970856155,-1.9887546118283257,1.2670810227595
-0.007222072597085616,-1.9850563869757436,1.2670810227595
-0.007220282597085615,-1.981358162123158,1.2633736717784623
-0.007218492597085615,-1.9739617124179905,1.2670810227595
-0.0072167025970856155,-1.9702634875654066,1.2670810227595
-0.007214912597085615,-1.9739617124179853,1.2707883737405377
-0.007213122597085615,-1.962867037860239,1.2707883737405377
-0.007211332597085615,-1.9517723633024877,1.2633736717784623
-0.0072095425970856155,-1.9517723633024877,1.2707883737405377
-0.007207752597085615,-1.9480741384499038,1.2744957247215754
-0.007205962597085615,-1.9406776887447361,1.2744957247215754
-0.007204172597085615,-1.9406776887447361,1.2744957247215754
-0.0072023825970856156,-1.9369794638921525,1.2707883737405377
-0.007200592597085615,-1.925884789334401,1.2707883737405377
-0.007198802597085615,-1.9184883396292334,1.2670810227595
-0.007197012597085615,-1.9184883396292334,1.2670810227595
-0.007195222597085616,-1.907393665071482,1.2707883737405377
-0.007193432597085615,-1.8999972153663145,1.2670810227595
-0.007191642597085615,-1.8962989905137306,1.2707883737405377
-0.007189852597085615,-1.8889025408085631,1.2670810227595
-0.007188062597085616,-1.8889025408085631,1.2670810227595
-0.007186272597085615,-1.8852043159559793,1.2744957247215754
-0.007184482597085615,-1.8815060911033954,1.2670810227595
-0.007182692597085615,-1.8741096413982279,1.2670810227595
-0.007180902597085616,-1.870411416545644,1.2707883737405377
-0.007179112597085615,-1.8667131916930602,1.2744957247215754
-0.007177322597085615,-1.8593167419878927,1.2670810227595
-0.007175532597085615,-1.8519202922827251,1.2707883737405377
-0.007173742597085616,-1.8482220674301413,1.2670810227595
-0.007171952597085615,-1.8445238425775574,1.2744957247215754
