200Hz/acq0037.csv

#Digilent WaveForms Oscilloscope Acquisition
#Device Name: Discovery2
#Serial Number: SN:210321AA28BE
#Date Time: 2023-05-24 14:48:05.000
#Sample rate: 558659Hz
#Samples: 8192
#Trigger: Source: Channel 1 Type: Edge Condition: Rising Level: 800 mV Hyst.: Auto HoldOff: 100 ns
#Channel 1: Range: 1 V/div Offset: 0 V Attenuation: 1 X Sample Mode: Average
#Channel 2: Range: 1 V/div Offset: 0 V Attenuation: 1 X Sample Mode: Average

Time (s),Channel 1 (V),Channel 2 (V)
-0.007741598543793833,0.01938148312467744,-1.3132352600427357
-0.007739808543793833,0.023079707977259556,-1.3169426110237716
-0.007738018543793832,0.02307970797726124,-1.320649962004811
-0.007736228543793832,0.02307970797726124,-1.320649962004811
-0.007734438543793833,0.015683258272093638,-1.3243573129858488
-0.007732648543793832,0.019381483124675757,-1.320649962004811
-0.007730858543793832,0.015683258272093638,-1.320649962004811
-0.007729068543793832,0.01938148312467744,-1.3169426110237734
-0.007727278543793833,0.015683258272093638,-1.3243573129858488
-0.007725488543793832,0.01198503341950984,-1.320649962004811
-0.007723698543793832,0.01938148312467744,-1.3132352600427357
-0.007721908543793832,0.02307970797726124,-1.3169426110237734
-0.007720118543793833,0.02307970797726124,-1.320649962004811
-0.007718328543793832,0.02307970797726124,-1.3169426110237734
-0.007716538543793832,0.015683258272093638,-1.3169426110237734
-0.0077147485437938325,0.01938148312467744,-1.3243573129858488
-0.007712958543793833,0.015683258272093638,-1.3169426110237734
-0.007711168543793832,0.01198503341950984,-1.320649962004811
-0.007709378543793832,0.01938148312467744,-1.3169426110237734
-0.0077075885437938325,0.01198503341950984,-1.309527909061698
-0.007705798543793833,0.01198503341950984,-1.3169426110237734
-0.007704008543793832,0.01938148312467744,-1.3132352600427357
-0.007702218543793832,0.01938148312467744,-1.3132352600427357
-0.0077004285437938325,0.01198503341950984,-1.3169426110237734
-0.007698638543793833,0.01198503341950984,-1.3169426110237734
-0.007696848543793832,0.01198503341950984,-1.3132352600427357
-0.007695058543793832,0.015683258272093638,-1.3169426110237734
-0.0076932685437938325,0.015683258272093638,-1.3169426110237734
-0.007691478543793833,0.00828680856692604,-1.320649962004811
-0.007689688543793832,0.015683258272093638,-1.3169426110237734
-0.007687898543793832,0.01198503341950984,-1.3169426110237734
-0.0076861085437938325,0.00828680856692604,-1.3243573129858488
-0.007684318543793833,0.01198503341950984,-1.320649962004811
-0.007682528543793832,0.01198503341950984,-1.320649962004811
-0.007680738543793832,0.00828680856692604,-1.3169426110237734
-0.0076789485437938326,0.01198503341950984,-1.320649962004811
-0.007677158543793833,0.00828680856692604,-1.3169426110237734
-0.007675368543793832,0.00828680856692604,-1.3169426110237734
-0.007673578543793832,0.015683258272093638,-1.320649962004811
-0.007671788543793833,0.00458858371434224,-1.320649962004811
-0.007669998543793833,0.008286808566924358,-1.3169426110237752
-0.007668208543793832,0.00828680856692604,-1.320649962004811
-0.007666418543793832,0.01198503341950984,-1.3169426110237734
-0.007664628543793833,0.00828680856692604,-1.320649962004811
-0.007662838543793832,0.008286808566927721,-1.320649962004811
-0.007661048543793832,0.01198503341950984,-1.320649962004811
-0.007659258543793832,0.00828680856692604,-1.320649962004811
-0.007657468543793833,0.0008903588617584406,-1.320649962004811
-0.007655678543793832,0.011985033419508158,-1.3169426110237752
-0.007653888543793832,0.00828680856692604,-1.320649962004811
-0.007652098543793832,0.00458858371434224,-1.320649962004811
-0.007650308543793833,0.00828680856692604,-1.3169426110237734
-0.007648518543793832,0.00458858371434224,-1.320649962004811
-0.007646728543793832,0.00828680856692604,-1.3243573129858488
-0.0076449385437938324,0.01198503341950984,-1.320649962004811
-0.007643148543793833,0.00458858371434224,-1.320649962004811
-0.007641358543793832,-0.002807865990825359,-1.3243573129858488
-0.007639568543793832,0.00458858371434224,-1.3280646639668865
-0.0076377785437938325,0.00458858371434224,-1.3169426110237734
-0.007635988543793833,0.00458858371434224,-1.3169426110237734
-0.007634198543793832,0.00458858371434224,-1.3169426110237734
-0.007632408543793832,0.0008903588617584406,-1.3169426110237734
-0.0076306185437938325,-0.002807865990825359,-1.320649962004811
-0.007628828543793833,0.0008903588617584406,-1.3169426110237734
-0.007627038543793832,-0.002807865990825359,-1.3169426110237734
-0.007625248543793832,0.00458858371434224,-1.320649962004811
-0.0076234585437938325,-0.002807865990825359,-1.3169426110237734
-0.007621668543793833,0.0008903588617584406,-1.320649962004811
-0.007619878543793832,-0.0065060908434091584,-1.3169426110237734
-0.007618088543793832,0.0008903588617584406,-1.3132352600427357
-0.0076162985437938325,0.00458858371434224,-1.3132352600427357
-0.007614508543793833,0.00458858371434224,-1.3169426110237734
-0.007612718543793832,0.0008903588617584406,-1.3169426110237734
-0.007610928543793832,0.00458858371434224,-1.3169426110237734
-0.0076091385437938325,0.0008903588617584406,-1.3169426110237734
-0.007607348543793833,0.00458858371434224,-1.3169426110237734
-0.007605558543793832,0.00458858371434224,-1.3169426110237734
-0.007603768543793832,0.0008903588617584406,-1.320649962004811
-0.007601978543793833,0.0008903588617584406,-1.320649962004811
-0.007600188543793833,0.0008903588617584406,-1.3169426110237734
-0.007598398543793832,0.0008903588617584406,-1.3169426110237734
-0.007596608543793832,-0.002807865990825359,-1.320649962004811
-0.007594818543793833,0.0008903588617584406,-1.320649962004811
-0.007593028543793833,-0.002807865990823677,-1.3169426110237752
-0.007591238543793832,-0.0065060908434091584,-1.3169426110237734
-0.007589448543793832,0.0008903588617584406,-1.3169426110237734
-0.007587658543793833,-0.0065060908434091584,-1.320649962004811
-0.007585868543793832,-0.006506090843407477,-1.320649962004811
-0.007584078543793832,-0.002807865990825359,-1.320649962004811
-0.007582288543793832,-0.010204315695992958,-1.320649962004811
-0.007580498543793833,-0.0065060908434091584,-1.3132352600427357
-0.007578708543793832,-0.0065060908434091584,-1.3132352600427357
-0.007576918543793832,-0.0065060908434091584,-1.3169426110237734
-0.007575128543793832,-0.0065060908434091584,-1.3132352600427357
-0.007573338543793833,-0.0065060908434091584,-1.3169426110237734
-0.007571548543793832,-0.010204315695992958,-1.320649962004811
-0.007569758543793832,-0.010204315695992958,-1.320649962004811
-0.0075679685437938325,-0.013902540548576758,-1.320649962004811
-0.007566178543793833,-0.010204315695992958,-1.3169426110237734
-0.007564388543793832,-0.010204315695992958,-1.3169426110237734
-0.007562598543793832,-0.013902540548576758,-1.3243573129858488
-0.0075608085437938325,-0.0065060908434091584,-1.3169426110237734
-0.007559018543793833,-0.0065060908434091584,-1.320649962004811
-0.007557228543793832,-0.0065060908434091584,-1.320649962004811
-0.007555438543793832,-0.010204315695992958,-1.3132352600427357
-0.0075536485437938325,-0.0065060908434091584,-1.3169426110237734
-0.007551858543793833,-0.010204315695992958,-1.3169426110237734
-0.007550068543793832,-0.010204315695992958,-1.3132352600427357
-0.007548278543793832,-0.013902540548576758,-1.3169426110237734
-0.0075464885437938325,-0.013902540548576758,-1.3169426110237734
-0.007544698543793833,-0.010204315695992958,-1.3169426110237734
-0.007542908543793832,-0.013902540548576758,-1.320649962004811
-0.007541118543793832,-0.010204315695992958,-1.3169426110237734
-0.0075393285437938325,-0.013902540548576758,-1.3169426110237734
-0.007537538543793833,-0.013902540548576758,-1.3169426110237734
-0.007535748543793832,-0.010204315695992958,-1.3169426110237734
-0.007533958543793832,-0.013902540548576758,-1.3169426110237734
-0.0075321685437938326,-0.013902540548576758,-1.320649962004811
-0.007530378543793833,-0.017600765401160557,-1.320649962004811
-0.007528588543793832,-0.017600765401160557,-1.3169426110237734
-0.007526798543793832,-0.013902540548576758,-1.3169426110237734
-0.007525008543793833,-0.013902540548576758,-1.3169426110237734
-0.007523218543793833,-0.013902540548576758,-1.3169426110237734
-0.007521428543793832,-0.021298990253744356,-1.3132352600427357
-0.007519638543793832,-0.021298990253744356,-1.3243573129858488
-0.007517848543793833,-0.017600765401160557,-1.320649962004811
-0.007516058543793833,-0.017600765401160557,-1.320649962004811
-0.007514268543793832,-0.021298990253744356,-1.3169426110237734
-0.007512478543793832,-0.021298990253744356,-1.3169426110237734
-0.007510688543793833,-0.017600765401160557,-1.3169426110237734
-0.007508898543793832,-0.017600765401160557,-1.3169426110237752
-0.007507108543793832,-0.017600765401160557,-1.320649962004811
-0.007505318543793832,-0.017600765401160557,-1.320649962004811
-0.007503528543793833,-0.021298990253744356,-1.320649962004811
-0.007501738543793832,-0.017600765401160557,-1.3169426110237734
-0.007499948543793832,-2.354878872234122,0.7221004285469588
-0.0074981585437938324,-3.1758847895077253,1.3338133404181785
-0.007496368543793833,-3.164790114949974,1.326398638456103
-0.007494578543793832,-3.1573936652448067,1.3301059894371408
-0.007492788543793832,-3.146298990687055,1.326398638456103
-0.0074909985437938325,-3.1426007658344712,1.326398638456103
-0.007489208543793833,-3.1389025409818876,1.3226912874750654
-0.007487418543793832,-3.127807866424136,1.3226912874750654
-0.007485628543793832,-3.1204114167189685,1.3189839364940277
-0.0074838385437938325,-3.1130149670138008,1.3226912874750654
-0.007482048543793833,-3.1019202924560494,1.3226912874750654
-0.007480258543793832,-3.094523842750882,1.3226912874750654
-0.007478468543793832,-3.0797309433405466,1.3189839364940277
-0.0074766785437938325,-3.072334493635379,1.3189839364940277
-0.007474888543793833,-3.057541594225044,1.31527658551299
-0.007473098543793832,-3.0464469196672925,1.3189839364940277
-0.007471308543793832,-3.0316540202569575,1.3189839364940277
-0.0074695185437938325,-3.016861120846622,1.3115692345319523
-0.007467728543793833,-3.0057664462888707,1.3115692345319523
-0.007465938543793832,-2.9946717717311193,1.304154532569877
-0.007464148543793832,-2.983577097173368,1.3004471815888392
-0.0074623585437938325,-2.9761806474682,1.3004471815888392
-0.007460568543793833,-2.957689523205281,1.3004471815888392
-0.007458778543793832,-2.942896623794946,1.3004471815888392
-0.007456988543793832,-2.9318019492371947,1.2967398306078015
-0.0074551985437938326,-2.9170090498268597,1.2967398306078015
-0.007453408543793833,-2.9133108249742756,1.2967398306078015
-0.007451618543793832,-2.9059143752691083,1.2930324796267638
-0.007449828543793832,-2.8948197007113565,1.2967398306078015
-0.007448038543793833,-2.8800268013010215,1.2930324796267638
-0.007446248543793833,-2.8726303515958573,1.2930324796267638
-0.007444458543793832,-2.8615356770381024,1.2893251286457261
-0.007442668543793832,-2.850441002480351,1.2893251286457261
-0.007440878543793833,-2.8430445527751838,1.2893251286457261
-0.007439088543793832,-2.831949878217427,1.2930324796267605
-0.007437298543793832,-2.8208552036596806,1.2856177776646884
-0.007435508543793832,-2.8134587539545133,1.2819104266836507
-0.007433718543793833,-2.794967629691594,1.2856177776646884
-0.007431928543793832,-2.7912694048390105,1.2819104266836507
-0.007430138543793832,-2.7690800557235073,1.2856177776646884
-0.007428348543793832,-2.7653818308709237,1.2819104266836507
-0.007426558543793833,-2.7542871563131723,1.278203075702613
-0.007424768543793832,-2.7468907066080046,1.278203075702613
-0.007422978543793832,-2.7357960320502532,1.278203075702613
-0.0074211885437938324,-2.7320978071976696,1.278203075702613
-0.007419398543793833,-2.721003132639918,1.2707883737405377
-0.007417608543793832,-2.709908458082167,1.2819104266836507
-0.007415818543793832,-2.702512008376999,1.2819104266836507
-0.0074140285437938325,-2.6951155586718314,1.278203075702613
-0.007412238543793833,-2.68402088411408,1.278203075702613
-0.007410448543793832,-2.6766244344089127,1.278203075702613
-0.007408658543793832,-2.669227984703745,1.278203075702613
-0.0074068685437938325,-2.6618315349985773,1.2819104266836507
-0.007405078543793833,-2.6544350852934095,1.278203075702613
-0.007403288543793832,-2.643340410735658,1.2819104266836507
-0.007401498543793832,-2.635943961030491,1.2744957247215754
-0.0073997085437938325,-2.6248492864727395,1.2707883737405377
-0.007397918543793833,-2.617452836767572,1.2707883737405377
-0.007396128543793832,-2.613754611914988,1.2707883737405377
-0.007394338543793832,-2.5989617125046527,1.2707883737405377
-0.0073925485437938325,-2.5878670379469013,1.2707883737405377
-0.007390758543793833,-2.5841688130943177,1.2744957247215754
-0.007388968543793832,-2.5730741385365663,1.2744957247215754
-0.007387178543793832,-2.5656776888313986,1.2744957247215754
-0.0073853885437938326,-2.558281239126231,1.2744957247215754
-0.007383598543793833,-2.554583014273647,1.2744957247215754
-0.007381808543793832,-2.5471865645684795,1.2707883737405377
-0.007380018543793832,-2.543488339715896,1.2744957247215754
-0.007378228543793833,-2.5286954403055604,1.2707883737405377
-0.007376438543793833,-2.5249972154529767,1.2707883737405377
-0.007374648543793832,-2.521298990600393,1.2707883737405377
-0.007372858543793832,-2.5139025408952254,1.2744957247215754
-0.007371068543793833,-2.5065060911900576,1.2744957247215754
-0.007369278543793833,-2.499109641484894,1.2744957247215754
-0.007367488543793832,-2.4917131917797226,1.2670810227595
-0.007365698543793832,-2.484316742074555,1.2707883737405377
-0.007363908543793833,-2.46952384266422,1.2670810227595
-0.007362118543793832,-2.462127392959052,1.2707883737405377
-0.007360328543793832,-2.462127392959052,1.2707883737405377
-0.007358538543793832,-2.4547309432538844,1.2670810227595
-0.007356748543793833,-2.447334493548717,1.2633736717784623
-0.007354958543793832,-2.4362398189909658,1.2670810227595
-0.007353168543793832,-2.4325415941383817,1.2670810227595
-0.0073513785437938324,-2.4325415941383817,1.2670810227595
-0.007349588543793833,-2.4214469195806303,1.2744957247215754
-0.007347798543793832,-2.4177486947280467,1.2707883737405377
-0.007346008543793832,-2.410352245022879,1.2707883737405377
-0.0073442185437938325,-2.402955795317711,1.2670810227595
-0.007342428543793833,-2.395559345612544,1.2707883737405377
-0.007340638543793832,-2.395559345612544,1.2744957247215754
-0.007338848543793832,-2.3807664462022085,1.2707883737405377
-0.0073370585437938325,-2.373369996497041,1.2707883737405377
-0.007335268543793833,-2.369671771644457,1.2670810227595
-0.007333478543793832,-2.354878872234122,1.2670810227595
-0.007331688543793832,-2.351180647381538,1.2670810227595
-0.0073298985437938325,-2.3474824225289543,1.2707883737405377
-0.007328108543793833,-2.3400859728237866,1.2633736717784623
-0.007326318543793832,-2.3326895231186193,1.2670810227595
-0.007324528543793832,-2.317896623708284,1.2744957247215754
-0.0073227385437938325,-2.317896623708284,1.2670810227595
-0.007320948543793833,-2.3105001740031166,1.2707883737405377
-0.007319158543793832,-2.3068019491505325,1.2670810227595
-0.007317368543793832,-2.303103724297949,1.2670810227595
-0.0073155785437938325,-2.299405499445365,1.2707883737405377
-0.007313788543793833,-2.2883108248876134,1.2707883737405377
-0.007311998543793832,-2.2846126000350298,1.2707883737405377
-0.007310208543793832,-2.277216150329862,1.2707883737405377
-0.0073084185437938326,-2.2735179254772784,1.2707883737405377
-0.007306628543793833,-2.2698197006246947,1.2707883737405377
-0.007304838543793832,-2.2587250260669434,1.2707883737405377
-0.007303048543793832,-2.2513285763617756,1.2670810227595
-0.007301258543793833,-2.247630351509192,1.2670810227595
-0.007299468543793833,-2.232837452098863,1.2670810227595
-0.007297678543793832,-2.2328374520988565,1.2633736717784623
-0.007295888543793832,-2.221742777541105,1.2670810227595
-0.007294098543793833,-2.2143463278359374,1.2707883737405377
-0.007292308543793832,-2.210648102983352,1.2707883737405394
-0.007290518543793832,-2.20694987813077,1.2744957247215754
-0.007288728543793832,-2.203251653278186,1.2707883737405377
-0.007286938543793833,-2.203251653278186,1.2707883737405377
-0.007285148543793832,-2.1884587538678493,1.2707883737405377
-0.007283358543793832,-2.1847605290152674,1.2707883737405377
-0.007281568543793832,-2.1810623041626833,1.2707883737405377
-0.007279778543793833,-2.1773640793100997,1.2707883737405377
-0.007277988543793832,-2.173665854457516,1.2670810227595
-0.007276198543793832,-2.169967629604932,1.2707883737405377
-0.0072744085437938324,-2.1588729550471806,1.2707883737405377
-0.007272618543793833,-2.1588729550471806,1.2707883737405377
-0.007270828543793832,-2.147778280489429,1.2744957247215754
-0.007269038543793832,-2.1403818307842615,1.2744957247215754
-0.0072672485437938325,-2.136683605931678,1.2670810227595
-0.007265458543793833,-2.12928715622651,1.2707883737405377
-0.007263668543793832,-2.121890706521343,1.2633736717784623
-0.007261878543793832,-2.114494256816175,1.2670810227595
-0.0072600885437938325,-2.1107960319635914,1.2670810227595
-0.007258298543793833,-2.1033995822584237,1.2670810227595
-0.007256508543793832,-2.0997013574058396,1.2670810227595
-0.007254718543793832,-2.0886066828480883,1.2707883737405377
-0.0072529285437938325,-2.0849084579955046,1.2670810227595
-0.007251138543793833,-2.0849084579955046,1.2633736717784623
-0.007249348543793832,-2.077512008290337,1.2670810227595
-0.007247558543793832,-2.0664173337325855,1.2633736717784623
-0.0072457685437938325,-2.062719108880002,1.2707883737405377
-0.007243978543793833,-2.062719108880002,1.2707883737405377
-0.007242188543793832,-2.0590208840274182,1.2744957247215754
-0.007240398543793832,-2.055322659174834,1.2707883737405377
-0.0072386085437938326,-2.0442279846170828,1.2670810227595
-0.007236818543793833,-2.036831534911915,1.2670810227595
-0.007235028543793832,-2.0294350852067478,1.2707883737405377
-0.007233238543793832,-2.0257368603541637,1.2707883737405377
-0.007231448543793833,-2.0183404106489964,1.2670810227595
-0.007229658543793833,-2.0146421857964123,1.2670810227595
-0.007227868543793832,-2.0146421857964123,1.2670810227595
-0.007226078543793832,-2.007245736091245,1.2670810227595
-0.007224288543793833,-2.007245736091245,1.2633736717784623
-0.007222498543793833,-1.9961510615334983,1.2633736717784623
-0.007220708543793832,-1.9850563869757418,1.2707883737405377
-0.007218918543793832,-1.981358162123158,1.2633736717784623
-0.007217128543793833,-1.9776599372705743,1.2670810227595
-0.007215338543793832,-1.9702634875654048,1.2670810227595
-0.007213548543793832,-1.9665652627128227,1.2670810227595
-0.007211758543793832,-1.962867037860239,1.2670810227595
-0.007209968543793833,-1.962867037860239,1.2707883737405377
-0.007208178543793832,-1.9591688130076552,1.2744957247215754
-0.007206388543793832,-1.9517723633024877,1.2707883737405377
-0.0072045985437938324,-1.9480741384499038,1.2670810227595
-0.007202808543793833,-1.9406776887447361,1.2670810227595
-0.007201018543793832,-1.9406776887447361,1.2707883737405377
-0.007199228543793832,-1.925884789334401,1.2670810227595
-0.0071974385437938325,-1.925884789334401,1.2670810227595
-0.007195648543793833,-1.9184883396292334,1.2670810227595
-0.007193858543793832,-1.9110918899240659,1.2633736717784623
-0.007192068543793832,-1.9036954402188981,1.2633736717784623
-0.0071902785437938325,-1.8999972153663145,1.2707883737405377
-0.007188488543793833,-1.8999972153663145,1.2670810227595
-0.007186698543793832,-1.8962989905137306,1.2633736717784623
-0.007184908543793832,-1.8889025408085631,1.2670810227595
-0.0071831185437938325,-1.8815060911033954,1.2744957247215754
-0.007181328543793833,-1.8741096413982279,1.2707883737405377
-0.007179538543793832,-1.870411416545644,1.2670810227595
-0.007177748543793832,-1.870411416545644,1.2670810227595
-0.0071759585437938325,-1.8667131916930602,1.2633736717784623
-0.007174168543793833,-1.8593167419878927,1.2670810227595
-0.007172378543793832,-1.8593167419878927,1.2707883737405377
