10Hz/acq0093.csv

#Digilent WaveForms Oscilloscope Acquisition
#Device Name: Discovery2
#Serial Number: SN:210321AA28BE
#Date Time: 2023-05-24 14:52:55.536
#Sample rate: 17809.4Hz
#Samples: 8192
#Trigger: Source: Channel 1 Type: Edge Condition: Rising Level: 800 mV Hyst.: Auto HoldOff: 100 ns
#Channel 1: Range: 1 V/div Offset: 0 V Attenuation: 1 X Sample Mode: Average
#Channel 2: Range: 1 V/div Offset: 0 V Attenuation: 1 X Sample Mode: Average

Time (s),Channel 1 (V),Channel 2 (V)
-0.19773472152960525,-0.024997215106328158,-1.3169426110237734
-0.19767857152960525,-0.03609188966407956,-1.3169426110237734
-0.19762242152960524,-0.043488339369247155,-1.3169426110237734
-0.19756627152960524,-0.05088478907441475,-1.3169426110237734
-0.19751012152960526,-0.05828123877958235,-1.3169426110237734
-0.19745397152960525,-0.06567768848474995,-1.3132352600427357
-0.19739782152960525,-0.06937591333733376,-1.3169426110237734
-0.19734167152960524,-0.07677236304250135,-1.3169426110237734
-0.19728552152960524,-0.08047058789508515,-1.3169426110237734
-0.19722937152960524,-0.08786703760025442,-1.3169426110237734
-0.19717322152960526,-0.09156526245283655,-1.3169426110237734
-0.19711707152960525,-0.09526348730542035,-1.3169426110237734
-0.19706092152960525,-0.09896171215800414,-1.3169426110237734
-0.19700477152960524,-0.10265993701058794,-1.3169426110237734
-0.19694862152960524,-0.10635816186317175,-1.3169426110237734
-0.19689247152960526,-0.10635816186317175,-1.3169426110237734
-0.19683632152960526,-0.10635816186317175,-1.3169426110237734
-0.19678017152960525,-0.11745283642092315,-1.3169426110237734
-0.19672402152960525,-0.12115106127350694,-1.3169426110237734
-0.19666787152960524,-0.12115106127350694,-1.3132352600427357
-0.19661172152960524,-0.12115106127350694,-1.3132352600427357
-0.19655557152960526,-0.12115106127350694,-1.3169426110237734
-0.19649942152960526,-0.12484928612609074,-1.3169426110237734
-0.19644327152960525,-0.12484928612609074,-1.3132352600427357
-0.19638712152960525,-0.12854751097867453,-1.3169426110237734
-0.19633097152960524,-0.12854751097867453,-1.3169426110237734
-0.19627482152960524,-0.12854751097867453,-1.3169426110237734
-0.19621867152960526,-0.13224573583125834,-1.3169426110237734
-0.19616252152960525,-0.13224573583125834,-1.3169426110237734
-0.19610637152960525,-0.13224573583125834,-1.3169426110237734
-0.19605022152960525,-0.13224573583125834,-1.3169426110237734
-0.19599407152960524,-0.13224573583125834,-1.3169426110237734
-0.19593792152960524,-0.13224573583125834,-1.3169426110237734
-0.19588177152960526,-0.13224573583125834,-1.3169426110237734
-0.19582562152960525,-0.13594396068384215,-1.3169426110237734
-0.19576947152960525,-0.13594396068384215,-1.3169426110237734
-0.19571332152960524,-0.13594396068384215,-1.3169426110237734
-0.19565717152960524,-0.13594396068384215,-1.3169426110237734
-0.19560102152960526,-0.13224573583126004,-1.3169426110237734
-0.19554487152960526,-0.13594396068384215,-1.3169426110237734
-0.19548872152960525,-0.13594396068384215,-1.3169426110237734
-0.19543257152960525,-0.13594396068384215,-1.3169426110237734
-0.19537642152960524,-0.13224573583125834,-1.3169426110237734
-0.19532027152960524,-0.13224573583125834,-1.3169426110237734
-0.19526412152960526,-0.13224573583125834,-1.3169426110237734
-0.19520797152960526,-0.13224573583125834,-1.3169426110237734
-0.19515182152960525,-0.13224573583125834,-1.3169426110237734
-0.19509567152960525,-0.13224573583125834,-1.3169426110237734
-0.19503952152960524,-0.13224573583125834,-1.3169426110237734
-0.19498337152960524,-0.13224573583125834,-1.3169426110237734
-0.19492722152960526,-0.12854751097867453,-1.3169426110237734
-0.19487107152960526,-0.12854751097867453,-1.3169426110237734
-0.19481492152960525,-0.12854751097867453,-1.3169426110237734
-0.19475877152960525,-0.12854751097867453,-1.3169426110237734
-0.19470262152960524,-0.13224573583125834,-1.3169426110237734
-0.19464647152960524,-0.13224573583125834,-1.3169426110237734
-0.19459032152960526,-0.13224573583125834,-1.3169426110237734
-0.19453417152960525,-0.13224573583125834,-1.3169426110237734
-0.19447802152960525,-0.13224573583125834,-1.3169426110237734
-0.19442187152960524,-0.13224573583125834,-1.3169426110237734
-0.19436572152960524,-0.13224573583125834,-1.3169426110237734
-0.19430957152960526,-0.12854751097867623,-1.3169426110237734
-0.19425342152960526,-0.13224573583125834,-1.3169426110237734
-0.19419727152960525,-0.12854751097867453,-1.3169426110237734
-0.19414112152960525,-0.12854751097867453,-1.3169426110237734
-0.19408497152960524,-0.12854751097867453,-1.3169426110237734
-0.19402882152960524,-0.12854751097867453,-1.3169426110237734
-0.19397267152960526,-0.12854751097867453,-1.3169426110237734
-0.19391652152960526,-0.12854751097867453,-1.3169426110237734
-0.19386037152960525,-0.12854751097867453,-1.3169426110237734
-0.19380422152960525,-0.12854751097867453,-1.3169426110237734
-0.19374807152960524,-0.12854751097867453,-1.3169426110237734
-0.19369192152960524,-0.12854751097867453,-1.3169426110237734
-0.19363577152960526,-0.12854751097867453,-1.3169426110237734
-0.19357962152960526,-0.12854751097867453,-1.3169426110237734
-0.19352347152960525,-0.12854751097867453,-1.3169426110237734
-0.19346732152960525,-0.12854751097867453,-1.3169426110237734
-0.19341117152960524,-0.12854751097867453,-1.3169426110237734
-0.19335502152960524,-0.12854751097867453,-1.3169426110237734
-0.19329887152960526,-0.12854751097867453,-1.3169426110237734
-0.19324272152960525,-0.12854751097867453,-1.3169426110237734
-0.19318657152960525,-0.12854751097867453,-1.3169426110237734
-0.19313042152960525,-0.12854751097867453,-1.3169426110237734
-0.19307427152960524,-0.12854751097867453,-1.3169426110237734
-0.19301812152960524,-0.12854751097867453,-1.3169426110237734
-0.19296197152960526,-0.12854751097867453,-1.3169426110237734
-0.19290582152960525,-0.12854751097867453,-1.3169426110237734
-0.19284967152960525,-0.12854751097867453,-1.3169426110237734
-0.19279352152960524,-0.12854751097867453,-1.3169426110237734
-0.19273737152960524,-0.12854751097867453,-1.3169426110237734
-0.19268122152960526,-0.12854751097867453,-1.3169426110237734
-0.19262507152960526,-0.12854751097867453,-1.3169426110237734
-0.19256892152960525,-0.12854751097867453,-1.3169426110237734
-0.19251277152960525,-0.12854751097867453,-1.3169426110237734
-0.19245662152960524,-0.13224573583125834,-1.3132352600427357
-0.19240047152960524,-0.12854751097867453,-1.3169426110237734
-0.19234432152960526,-0.12854751097867453,-1.3169426110237734
-0.19228817152960526,-0.12854751097867453,-1.3169426110237734
-0.19223202152960525,-0.12854751097867453,-1.3169426110237734
-0.19217587152960525,-0.12854751097867453,-1.3169426110237734
-0.19211972152960524,-0.12854751097867453,-1.3169426110237734
-0.19206357152960524,-0.12854751097867453,-1.3169426110237734
-0.19200742152960526,-0.12854751097867453,-1.3169426110237734
-0.19195127152960526,-0.12854751097867453,-1.3169426110237734
-0.19189512152960525,-0.12484928612609074,-1.3169426110237734
-0.19183897152960525,-0.12854751097867453,-1.3169426110237734
-0.19178282152960524,-0.12484928612609074,-1.3169426110237734
-0.19172667152960524,-0.12854751097867284,-1.3169426110237734
-0.19167052152960526,-0.12484928612609074,-1.3169426110237734
-0.19161437152960525,-0.12484928612609074,-1.3169426110237734
-0.19155822152960525,-0.12484928612609074,-1.3169426110237734
-0.19150207152960524,-0.12484928612609074,-1.3169426110237734
-0.19144592152960524,-0.12484928612609074,-1.3169426110237734
-0.19138977152960526,-0.12484928612609074,-1.3169426110237734
-0.19133362152960526,-0.12484928612609074,-1.3169426110237734
-0.19127747152960525,-0.12484928612609074,-1.3169426110237734
-0.19122132152960525,-0.12484928612609074,-1.3169426110237734
-0.19116517152960524,-0.12484928612609074,-1.3132352600427357
-0.19110902152960524,-0.12484928612609074,-1.3169426110237734
-0.19105287152960526,-0.12484928612609074,-1.3169426110237734
-0.19099672152960526,-0.12484928612609074,-1.3169426110237734
-0.19094057152960525,-0.12484928612609074,-1.3169426110237734
-0.19088442152960525,-0.12484928612609074,-1.3169426110237734
-0.19082827152960524,-0.12484928612609074,-1.3169426110237734
-0.19077212152960524,-0.12484928612609074,-1.3169426110237734
-0.19071597152960526,-0.12484928612609074,-1.3169426110237734
-0.19065982152960526,-0.12484928612609074,-1.3169426110237734
-0.19060367152960525,-0.12484928612609074,-1.3169426110237734
-0.19054752152960525,-0.12484928612609074,-1.3169426110237734
-0.19049137152960524,-0.12484928612609074,-1.3169426110237734
-0.19043522152960524,-0.12484928612609074,-1.3169426110237734
-0.19037907152960526,-0.12484928612609074,-1.3169426110237734
-0.19032292152960525,-0.12484928612609074,-1.3169426110237734
-0.19026677152960525,-0.12484928612609074,-1.3169426110237734
-0.19021062152960524,-0.12484928612609074,-1.3169426110237734
-0.19015447152960524,-0.12484928612609074,-1.3169426110237734
-0.19009832152960526,-0.12854751097867284,-1.3169426110237734
-0.19004217152960526,-0.12854751097867453,-1.3169426110237734
-0.18998602152960525,-0.12854751097867453,-1.3169426110237734
-0.18992987152960525,-0.12854751097867453,-1.3169426110237734
-0.18987372152960524,-0.12854751097867453,-1.3169426110237734
-0.18981757152960524,-0.12854751097867453,-1.3169426110237734
-0.18976142152960526,-0.12854751097867453,-1.3169426110237734
-0.18970527152960526,-0.12854751097867453,-1.3169426110237734
-0.18964912152960525,-0.12854751097867453,-1.3169426110237734
-0.18959297152960525,-0.12854751097867453,-1.3169426110237734
-0.18953682152960524,-0.12854751097867453,-1.3169426110237734
-0.18948067152960524,-0.12854751097867453,-1.3169426110237734
-0.18942452152960526,-0.12484928612609074,-1.3169426110237734
-0.18936837152960526,-0.12484928612609074,-1.3169426110237734
-0.18931222152960525,-0.12854751097867453,-1.3169426110237734
-0.18925607152960525,-0.12854751097867453,-1.3169426110237734
-0.18919992152960524,-0.12484928612609074,-1.3169426110237734
-0.18914377152960524,-0.12484928612609074,-1.3169426110237734
-0.18908762152960526,-0.12484928612609074,-1.3169426110237734
-0.18903147152960526,-0.12484928612609074,-1.3169426110237734
-0.18897532152960525,-0.12115106127350694,-1.3169426110237734
-0.18891917152960525,-0.12484928612609074,-1.3169426110237734
-0.18886302152960524,-0.12115106127350694,-1.3169426110237734
-0.18880687152960524,-0.12115106127350694,-1.3169426110237734
-0.18875072152960526,-0.12115106127350694,-1.3169426110237734
-0.18869457152960525,-0.12115106127350694,-1.3169426110237734
-0.18863842152960525,-0.11745283642092315,-1.3169426110237734
-0.18858227152960524,-0.11745283642092315,-1.3169426110237734
-0.18852612152960524,-0.11745283642092315,-1.3169426110237734
-0.18846997152960526,-0.11745283642092315,-1.3169426110237734
-0.18841382152960526,-0.11745283642092315,-1.3169426110237734
-0.18835767152960525,-0.11745283642092315,-1.3169426110237734
-0.18830152152960525,-0.11745283642092315,-1.3169426110237734
-0.18824537152960524,-0.11745283642092315,-1.3169426110237734
-0.18818922152960524,-0.11375461156833934,-1.3169426110237734
-0.18813307152960526,-0.11375461156833934,-1.3169426110237734
-0.18807692152960526,-0.11375461156833934,-1.3169426110237734
-0.18802077152960525,-0.11005638671575554,-1.3169426110237734
-0.18796462152960525,-0.11005638671575554,-1.3169426110237734
-0.18790847152960524,-0.10635816186317175,-1.3169426110237734
-0.18785232152960524,-0.10635816186317175,-1.3169426110237734
-0.18779617152960526,-0.10635816186317175,-1.3169426110237734
-0.18774002152960526,-0.10635816186317175,-1.3169426110237734
-0.18768387152960525,-0.10635816186317175,-1.3169426110237734
-0.18762772152960525,-0.10635816186317175,-1.3169426110237734
-0.18757157152960524,-0.10635816186317175,-1.3169426110237734
-0.18751542152960524,-0.10635816186317175,-1.3169426110237734
-0.18745927152960526,-0.10635816186317175,-1.3169426110237734
-0.18740312152960525,-0.10635816186317175,-1.3169426110237734
-0.18734697152960525,-0.10265993701058794,-1.3169426110237734
-0.18729082152960524,-0.10635816186317175,-1.3169426110237734
-0.18723467152960524,-0.10265993701058794,-1.3169426110237734
-0.18717852152960526,-0.10265993701058794,-1.3169426110237734
-0.18712237152960526,-0.10265993701058794,-1.3169426110237734
-0.18706622152960525,-0.10265993701058794,-1.3169426110237734
-0.18701007152960525,-0.10265993701058794,-1.3169426110237734
-0.18695392152960524,-0.10265993701058794,-1.3169426110237734
-0.18689777152960524,-0.10265993701058794,-1.3169426110237734
-0.18684162152960526,-0.10265993701058794,-1.3169426110237734
-0.18678547152960526,-0.10265993701058794,-1.3169426110237734
-0.18672932152960525,-0.10265993701058794,-1.3169426110237734
-0.18667317152960525,-0.10265993701058794,-1.3169426110237734
-0.18661702152960524,-0.10265993701058794,-1.3169426110237734
-0.18656087152960524,-0.10265993701058794,-1.3169426110237734
-0.18650472152960526,-0.10265993701058794,-1.3169426110237734
-0.18644857152960526,-0.10265993701058794,-1.3169426110237734
-0.18639242152960525,-0.10265993701058794,-1.3169426110237734
-0.18633627152960525,-0.10265993701058794,-1.3169426110237734
-0.18628012152960524,-0.10265993701058794,-1.3169426110237734
-0.18622397152960524,-0.10265993701058794,-1.3169426110237734
-0.18616782152960526,-0.10265993701058794,-1.3169426110237734
-0.18611167152960525,-0.10265993701058794,-1.3169426110237734
-0.18605552152960525,-0.10265993701058794,-1.3169426110237734
-0.18599937152960525,-0.10265993701058794,-1.3169426110237734
-0.18594322152960524,-0.10265993701058794,-1.3169426110237734
-0.18588707152960526,-0.09896171215800582,-1.3169426110237734
-0.18583092152960526,-0.09896171215800414,-1.3169426110237734
-0.18577477152960525,-0.09896171215800414,-1.3169426110237734
-0.18571862152960525,-0.09526348730542035,-1.3169426110237734
-0.18566247152960524,-0.09896171215800414,-1.3169426110237734
-0.18560632152960524,-0.09896171215800414,-1.3169426110237734
-0.18555017152960526,-0.09526348730542035,-1.3169426110237734
-0.18549402152960526,-0.09526348730542035,-1.3169426110237734
-0.18543787152960525,-0.09156526245283655,-1.3169426110237734
-0.18538172152960525,-0.09156526245283655,-1.3169426110237734
-0.18532557152960524,-0.09156526245283655,-1.3169426110237734
-0.18526942152960524,-0.08786703760025275,-1.3169426110237734
-0.18521327152960526,-0.08786703760025275,-1.3169426110237734
-0.18515712152960526,-0.08786703760025275,-1.3169426110237734
-0.18510097152960525,-0.08047058789508515,-1.3169426110237734
-0.18504482152960525,-0.08786703760025275,-1.3169426110237734
-0.18498867152960524,-0.08786703760025275,-1.3169426110237734
-0.18493252152960524,-0.08416881274766895,-1.3169426110237734
-0.18487637152960526,-0.08416881274766895,-1.3169426110237734
-0.18482022152960526,-0.08416881274766895,-1.3169426110237734
-0.18476407152960525,-0.08047058789508515,-1.3169426110237734
-0.18470792152960525,-0.08047058789508515,-1.3169426110237734
-0.18465177152960524,-0.08047058789508515,-1.3169426110237734
-0.18459562152960524,-0.07677236304250135,-1.3169426110237734
-0.18453947152960526,-0.07677236304250135,-1.3169426110237734
-0.18448332152960525,-0.07677236304250135,-1.3169426110237734
-0.18442717152960525,-0.07677236304250135,-1.3169426110237734
-0.18437102152960524,-0.07677236304250135,-1.3169426110237734
-0.18431487152960524,-0.07307413818991755,-1.3169426110237734
-0.18425872152960526,-0.07307413818991755,-1.3169426110237734
-0.18420257152960526,-0.07307413818991755,-1.3169426110237734
-0.18414642152960525,-0.07307413818991755,-1.3169426110237734
-0.18409027152960525,-0.06937591333733376,-1.3169426110237734
-0.18403412152960524,-0.06937591333733376,-1.3169426110237734
-0.18397797152960524,-0.06937591333733376,-1.3169426110237734
-0.18392182152960526,-0.06937591333733376,-1.3169426110237734
-0.18386567152960526,-0.06937591333733376,-1.3169426110237734
-0.18380952152960525,-0.06567768848474995,-1.3169426110237734
-0.18375337152960525,-0.06567768848474995,-1.3169426110237734
-0.18369722152960524,-0.06567768848474995,-1.3169426110237734
-0.18364107152960524,-0.06567768848474995,-1.3169426110237734
-0.18358492152960526,-0.06567768848474995,-1.3169426110237734
-0.18352877152960526,-0.06567768848474995,-1.3169426110237734
-0.18347262152960525,-0.06567768848474995,-1.3169426110237734
-0.18341647152960525,-0.06197946363216615,-1.3169426110237734
-0.18336032152960524,-0.06197946363216615,-1.3169426110237734
-0.18330417152960524,-0.06197946363216615,-1.3169426110237734
-0.18324802152960526,-0.06197946363216615,-1.3169426110237734
-0.18319187152960525,-0.06197946363216615,-1.3169426110237734
-0.18313572152960525,-0.06197946363216615,-1.3169426110237734
-0.18307957152960525,-0.06197946363216615,-1.3169426110237734
-0.18302342152960524,-0.05828123877958235,-1.3169426110237734
-0.18296727152960526,-0.06197946363216447,-1.3169426110237734
-0.18291112152960526,-0.054583013926998554,-1.3169426110237734
-0.18285497152960525,-0.054583013926998554,-1.3169426110237734
-0.18279882152960525,-0.05828123877958235,-1.3169426110237734
-0.18274267152960524,-0.05828123877958235,-1.3169426110237734
-0.18268652152960524,-0.05828123877958235,-1.3169426110237734
-0.18263037152960526,-0.054583013926998554,-1.3169426110237734
-0.18257422152960526,-0.054583013926998554,-1.3169426110237734
-0.18251807152960525,-0.054583013926998554,-1.3169426110237734
-0.18246192152960525,-0.054583013926998554,-1.3169426110237734
-0.18240577152960524,-0.054583013926998554,-1.3169426110237734
-0.18234962152960524,-0.05088478907441475,-1.3169426110237734
-0.18229347152960526,-0.05088478907441475,-1.3169426110237734
-0.18223732152960526,-0.05088478907441475,-1.3169426110237734
-0.18218117152960525,-0.05088478907441475,-1.3169426110237734
-0.18212502152960525,-0.04718656422183096,-1.3169426110237734
-0.18206887152960524,-0.04718656422183096,-1.3169426110237734
-0.18201272152960524,-0.04718656422183096,-1.3169426110237752
-0.18195657152960526,-0.04718656422183096,-1.320649962004811
-0.18190042152960526,-0.03979011451666335,-1.3169426110237734
-0.18184427152960525,-0.04718656422183096,-1.3169426110237734
-0.18178812152960525,-0.04718656422183096,-1.3169426110237734
-0.18173197152960524,-0.043488339369247155,-1.320649962004811
-0.18167582152960526,-0.043488339369247155,-1.320649962004811
-0.18161967152960526,-0.03979011451666335,-1.3169426110237734
-0.18156352152960525,-0.03979011451666335,-1.3169426110237734
-0.18150737152960525,-0.03979011451666335,-1.3169426110237734
-0.18145122152960524,-0.03609188966407956,-1.3169426110237734
-0.18139507152960524,-0.03979011451666335,-1.3169426110237734
-0.18133892152960526,-0.03979011451666335,-1.3169426110237734
-0.18128277152960526,-0.03979011451666335,-1.3169426110237734
-0.18122662152960525,-0.03609188966407956,-1.3169426110237734
-0.18117047152960525,-0.03609188966407956,-1.3169426110237734
-0.18111432152960524,-0.032393664811495755,-1.3169426110237734
-0.18105817152960524,-0.032393664811495755,-1.3169426110237734
-0.18100202152960526,-0.032393664811495755,-1.3169426110237734
-0.18094587152960526,-0.028695439958911956,-1.3169426110237734
-0.18088972152960525,-0.028695439958911956,-1.3169426110237734
-0.18083357152960525,-0.028695439958911956,-1.3169426110237734
-0.18077742152960524,-0.024997215106328158,-1.3169426110237734
-0.18072127152960524,-0.024997215106328158,-1.3169426110237734
-0.18066512152960526,-0.024997215106328158,-1.3169426110237734
-0.18060897152960526,-0.021298990253744356,-1.3169426110237734
-0.18055282152960525,-0.021298990253744356,-1.320649962004811
-0.18049667152960525,-0.021298990253744356,-1.3169426110237734
-0.18044052152960524,-0.021298990253744356,-1.3169426110237734
-0.18038437152960524,-0.021298990253744356,-1.3206499620048093
-0.18032822152960526,-0.021298990253744356,-1.3169426110237734
-0.18027207152960525,-0.021298990253744356,-1.320649962004811
-0.18021592152960525,-0.021298990253744356,-1.3169426110237734
-0.18015977152960524,-0.017600765401160557,-1.320649962004811
