10Hz/acq0016.csv

#Digilent WaveForms Oscilloscope Acquisition
#Device Name: Discovery2
#Serial Number: SN:210321AA28BE
#Date Time: 2023-05-24 14:52:17.036
#Sample rate: 17809.4Hz
#Samples: 8192
#Trigger: Source: Channel 1 Type: Edge Condition: Rising Level: 800 mV Hyst.: Auto HoldOff: 100 ns
#Channel 1: Range: 1 V/div Offset: 0 V Attenuation: 1 X Sample Mode: Average
#Channel 2: Range: 1 V/div Offset: 0 V Attenuation: 1 X Sample Mode: Average

Time (s),Channel 1 (V),Channel 2 (V)
-0.1977097716003508,-0.03609188966407956,-1.3169426110237734
-0.1976536216003508,-0.043488339369247155,-1.3169426110237734
-0.1975974716003508,-0.054583013926998554,-1.3169426110237734
-0.1975413216003508,-0.06197946363216615,-1.3169426110237734
-0.1974851716003508,-0.07307413818991755,-1.3169426110237734
-0.1974290216003508,-0.07677236304250135,-1.3169426110237734
-0.1973728716003508,-0.08416881274766895,-1.3169426110237734
-0.1973167216003508,-0.09156526245283655,-1.3169426110237734
-0.1972605716003508,-0.09896171215800414,-1.3169426110237734
-0.1972044216003508,-0.10635816186317343,-1.3169426110237734
-0.1971482716003508,-0.11005638671575554,-1.3169426110237734
-0.1970921216003508,-0.11375461156833934,-1.3169426110237734
-0.1970359716003508,-0.11745283642092315,-1.3169426110237734
-0.1969798216003508,-0.12484928612609074,-1.3169426110237734
-0.1969236716003508,-0.12854751097867453,-1.3169426110237734
-0.19686752160035081,-0.13224573583125665,-1.3169426110237734
-0.1968113716003508,-0.13224573583125834,-1.3169426110237734
-0.1967552216003508,-0.13594396068384215,-1.3169426110237734
-0.1966990716003508,-0.13964218553642593,-1.3169426110237734
-0.1966429216003508,-0.13964218553642593,-1.3169426110237734
-0.1965867716003508,-0.14334041038900974,-1.3169426110237734
-0.1965306216003508,-0.14703863524159355,-1.3169426110237734
-0.1964744716003508,-0.14703863524159355,-1.3169426110237734
-0.1964183216003508,-0.14703863524159355,-1.3169426110237734
-0.1963621716003508,-0.15443508494676114,-1.3132352600427357
-0.1963060216003508,-0.15443508494676114,-1.3169426110237734
-0.1962498716003508,-0.15443508494676114,-1.3132352600427357
-0.1961937216003508,-0.15813330979934495,-1.3169426110237734
-0.1961375716003508,-0.15813330979934495,-1.3169426110237734
-0.1960814216003508,-0.15813330979934495,-1.3169426110237734
-0.1960252716003508,-0.15813330979934495,-1.3132352600427357
-0.1959691216003508,-0.15813330979934495,-1.3169426110237734
-0.1959129716003508,-0.16183153465192873,-1.3169426110237734
-0.1958568216003508,-0.16183153465192873,-1.3169426110237734
-0.1958006716003508,-0.16183153465192873,-1.3169426110237734
-0.1957445216003508,-0.16183153465192873,-1.3169426110237734
-0.1956883716003508,-0.16183153465192873,-1.3169426110237734
-0.1956322216003508,-0.16183153465192873,-1.3169426110237734
-0.19557607160035081,-0.16183153465192873,-1.3132352600427375
-0.1955199216003508,-0.16552975950451254,-1.3132352600427357
-0.1954637716003508,-0.16552975950451254,-1.3132352600427357
-0.1954076216003508,-0.16552975950451254,-1.3169426110237734
-0.1953514716003508,-0.16552975950451254,-1.3169426110237734
-0.1952953216003508,-0.16552975950451254,-1.3169426110237734
-0.1952391716003508,-0.16552975950451254,-1.3169426110237734
-0.1951830216003508,-0.16552975950451254,-1.3169426110237734
-0.1951268716003508,-0.16552975950451254,-1.3169426110237734
-0.1950707216003508,-0.16552975950451254,-1.3132352600427357
-0.1950145716003508,-0.16552975950451254,-1.3169426110237734
-0.1949584216003508,-0.16183153465192873,-1.3169426110237734
-0.1949022716003508,-0.16183153465192873,-1.3169426110237734
-0.1948461216003508,-0.16183153465192873,-1.3169426110237734
-0.1947899716003508,-0.16183153465192873,-1.3169426110237734
-0.1947338216003508,-0.16183153465192873,-1.3169426110237734
-0.1946776716003508,-0.16183153465192873,-1.3169426110237734
-0.1946215216003508,-0.15813330979934495,-1.3132352600427357
-0.1945653716003508,-0.15813330979934495,-1.3132352600427357
-0.1945092216003508,-0.16183153465192873,-1.3132352600427357
-0.1944530716003508,-0.16183153465192873,-1.3169426110237734
-0.1943969216003508,-0.16183153465192873,-1.3169426110237734
-0.1943407716003508,-0.16183153465192873,-1.3169426110237734
-0.19428462160035082,-0.16183153465192873,-1.3169426110237734
-0.1942284716003508,-0.16183153465192873,-1.3169426110237734
-0.1941723216003508,-0.16183153465192873,-1.3169426110237734
-0.1941161716003508,-0.16183153465192873,-1.3169426110237734
-0.1940600216003508,-0.15813330979934495,-1.3169426110237734
-0.1940038716003508,-0.15813330979934495,-1.3169426110237734
-0.19394772160035081,-0.15813330979934495,-1.3169426110237734
-0.1938915716003508,-0.15813330979934495,-1.3169426110237734
-0.1938354216003508,-0.15813330979934495,-1.3169426110237734
-0.1937792716003508,-0.15813330979934495,-1.3169426110237734
-0.1937231216003508,-0.15813330979934495,-1.3169426110237734
-0.1936669716003508,-0.16183153465192873,-1.3169426110237734
-0.1936108216003508,-0.15813330979934495,-1.3169426110237734
-0.1935546716003508,-0.15813330979934495,-1.3169426110237734
-0.1934985216003508,-0.15813330979934495,-1.3169426110237734
-0.1934423716003508,-0.15813330979934495,-1.3169426110237734
-0.1933862216003508,-0.15813330979934495,-1.3169426110237734
-0.1933300716003508,-0.15813330979934495,-1.3169426110237734
-0.1932739216003508,-0.15443508494676114,-1.3169426110237734
-0.1932177716003508,-0.15443508494676114,-1.3132352600427357
-0.1931616216003508,-0.15813330979934495,-1.3169426110237734
-0.1931054716003508,-0.15443508494676114,-1.3169426110237734
-0.1930493216003508,-0.15443508494676114,-1.3169426110237734
-0.1929931716003508,-0.15443508494676114,-1.3132352600427375
-0.1929370216003508,-0.15443508494676114,-1.3169426110237734
-0.1928808716003508,-0.15443508494676114,-1.3169426110237734
-0.1928247216003508,-0.15443508494676114,-1.3169426110237734
-0.1927685716003508,-0.15443508494676114,-1.3169426110237734
-0.1927124216003508,-0.15443508494676114,-1.3169426110237734
-0.19265627160035081,-0.15443508494676114,-1.3169426110237734
-0.1926001216003508,-0.15443508494676114,-1.3169426110237734
-0.1925439716003508,-0.15073686009417733,-1.3169426110237734
-0.1924878216003508,-0.15443508494676114,-1.3169426110237734
-0.1924316716003508,-0.15443508494676114,-1.3169426110237734
-0.1923755216003508,-0.15443508494676114,-1.3169426110237734
-0.1923193716003508,-0.15073686009417733,-1.3169426110237734
-0.1922632216003508,-0.15073686009417733,-1.3169426110237734
-0.1922070716003508,-0.15073686009417733,-1.3169426110237734
-0.1921509216003508,-0.15073686009417733,-1.3169426110237734
-0.1920947716003508,-0.15073686009417733,-1.3169426110237734
-0.1920386216003508,-0.14703863524159355,-1.3169426110237734
-0.1919824716003508,-0.15073686009417733,-1.3169426110237734
-0.1919263216003508,-0.15073686009417733,-1.3169426110237734
-0.1918701716003508,-0.14703863524159355,-1.3169426110237734
-0.1918140216003508,-0.14703863524159355,-1.3169426110237734
-0.1917578716003508,-0.14703863524159355,-1.3169426110237734
-0.1917017216003508,-0.14703863524159355,-1.3169426110237734
-0.1916455716003508,-0.14703863524159355,-1.3169426110237734
-0.1915894216003508,-0.14334041038900974,-1.3169426110237734
-0.1915332716003508,-0.14334041038900974,-1.3169426110237734
-0.1914771216003508,-0.13964218553642593,-1.3169426110237734
-0.1914209716003508,-0.13964218553642593,-1.3169426110237734
-0.19136482160035082,-0.13964218553642593,-1.3169426110237734
-0.1913086716003508,-0.13594396068384215,-1.3169426110237734
-0.1912525216003508,-0.13964218553642593,-1.3169426110237734
-0.1911963716003508,-0.13594396068384215,-1.3169426110237734
-0.1911402216003508,-0.13594396068384215,-1.3169426110237734
-0.1910840716003508,-0.13964218553642593,-1.3169426110237734
-0.19102792160035081,-0.13964218553642593,-1.3169426110237734
-0.1909717716003508,-0.13594396068384215,-1.3169426110237734
-0.1909156216003508,-0.13594396068384215,-1.3169426110237734
-0.1908594716003508,-0.13594396068384215,-1.3169426110237734
-0.1908033216003508,-0.13594396068384215,-1.3169426110237734
-0.1907471716003508,-0.13224573583125834,-1.3169426110237734
-0.1906910216003508,-0.13224573583125834,-1.3169426110237734
-0.1906348716003508,-0.13224573583125834,-1.3169426110237734
-0.1905787216003508,-0.13224573583125834,-1.3169426110237734
-0.1905225716003508,-0.13224573583125834,-1.3169426110237734
-0.1904664216003508,-0.12854751097867453,-1.3169426110237734
-0.1904102716003508,-0.12854751097867453,-1.3169426110237716
-0.1903541216003508,-0.12854751097867453,-1.3132352600427357
-0.1902979716003508,-0.13224573583125834,-1.3169426110237734
-0.1902418216003508,-0.12854751097867453,-1.3132352600427357
-0.1901856716003508,-0.12854751097867453,-1.3169426110237734
-0.1901295216003508,-0.12854751097867453,-1.3132352600427357
-0.19007337160035082,-0.12854751097867453,-1.3169426110237716
-0.1900172216003508,-0.12854751097867453,-1.3169426110237734
-0.1899610716003508,-0.12854751097867453,-1.3169426110237734
-0.1899049216003508,-0.12854751097867453,-1.3169426110237734
-0.1898487716003508,-0.12484928612609074,-1.3169426110237734
-0.1897926216003508,-0.12484928612609074,-1.3169426110237734
-0.18973647160035081,-0.12484928612609074,-1.3169426110237734
-0.1896803216003508,-0.12115106127350694,-1.3169426110237734
-0.1896241716003508,-0.12115106127350694,-1.3169426110237734
-0.1895680216003508,-0.12115106127350694,-1.3169426110237734
-0.1895118716003508,-0.12115106127350694,-1.3169426110237734
-0.1894557216003508,-0.12115106127350694,-1.3169426110237734
-0.1893995716003508,-0.11745283642092315,-1.3169426110237734
-0.1893434216003508,-0.11745283642092315,-1.3169426110237734
-0.1892872716003508,-0.11745283642092315,-1.3169426110237734
-0.1892311216003508,-0.11375461156833934,-1.3169426110237734
-0.1891749716003508,-0.11375461156833934,-1.3169426110237734
-0.1891188216003508,-0.11375461156833934,-1.3169426110237734
-0.1890626716003508,-0.11375461156833934,-1.3169426110237734
-0.1890065216003508,-0.11005638671575554,-1.3169426110237734
-0.1889503716003508,-0.11005638671575554,-1.3169426110237734
-0.1888942216003508,-0.11005638671575554,-1.3169426110237734
-0.1888380716003508,-0.10635816186317175,-1.3169426110237734
-0.1887819216003508,-0.10635816186317175,-1.3169426110237734
-0.1887257716003508,-0.10635816186317175,-1.3169426110237734
-0.1886696216003508,-0.10635816186317175,-1.3169426110237734
-0.1886134716003508,-0.10635816186317175,-1.3169426110237734
-0.1885573216003508,-0.10265993701058794,-1.3169426110237734
-0.1885011716003508,-0.10265993701058794,-1.3169426110237734
-0.18844502160035081,-0.10265993701058794,-1.3169426110237734
-0.1883888716003508,-0.09896171215800414,-1.3169426110237734
-0.1883327216003508,-0.09896171215800414,-1.3169426110237734
-0.1882765716003508,-0.09896171215800414,-1.3169426110237734
-0.1882204216003508,-0.09896171215800414,-1.3169426110237734
-0.1881642716003508,-0.09526348730542035,-1.3169426110237734
-0.1881081216003508,-0.09526348730542035,-1.3169426110237734
-0.1880519716003508,-0.09526348730542035,-1.3169426110237734
-0.1879958216003508,-0.11375461156833934,-1.3169426110237734
-0.1879396716003508,-0.11005638671575554,-1.3169426110237734
-0.1878835216003508,-0.10635816186317175,-1.3169426110237734
-0.1878273716003508,-0.10265993701058794,-1.3169426110237734
-0.1877712216003508,-0.10265993701058794,-1.3169426110237734
-0.1877150716003508,-0.09896171215800414,-1.3169426110237734
-0.1876589216003508,-0.09526348730542035,-1.3169426110237734
-0.1876027716003508,-0.09156526245283655,-1.3169426110237734
-0.1875466216003508,-0.09156526245283655,-1.3169426110237734
-0.1874904716003508,-0.08416881274766727,-1.3169426110237734
-0.1874343216003508,-0.08047058789508515,-1.3169426110237734
-0.1873781716003508,-0.08047058789508515,-1.3169426110237734
-0.1873220216003508,-0.08047058789508515,-1.3169426110237734
-0.1872658716003508,-0.08047058789508515,-1.3169426110237734
-0.1872097216003508,-0.08047058789508515,-1.3169426110237734
-0.18715357160035082,-0.07677236304250303,-1.3169426110237734
-0.1870974216003508,-0.07677236304250135,-1.3169426110237734
-0.1870412716003508,-0.07677236304250135,-1.3169426110237734
-0.1869851216003508,-0.06197946363216615,-1.3169426110237734
-0.1869289716003508,-0.06197946363216615,-1.3169426110237734
-0.1868728216003508,-0.06197946363216615,-1.3169426110237734
-0.18681667160035081,-0.06567768848474995,-1.3169426110237734
-0.1867605216003508,-0.06197946363216615,-1.3169426110237734
-0.1867043716003508,-0.06197946363216615,-1.320649962004811
-0.1866482216003508,-0.06197946363216615,-1.3169426110237734
-0.1865920716003508,-0.06197946363216615,-1.3169426110237734
-0.1865359216003508,-0.06197946363216615,-1.3169426110237734
-0.1864797716003508,-0.06197946363216615,-1.3169426110237734
-0.1864236216003508,-0.05828123877958235,-1.3169426110237734
-0.1863674716003508,-0.05828123877958235,-1.3169426110237734
-0.1863113216003508,-0.05828123877958235,-1.3169426110237734
-0.1862551716003508,-0.05828123877958235,-1.3169426110237734
-0.1861990216003508,-0.05458301392700023,-1.3169426110237734
-0.1861428716003508,-0.05828123877958235,-1.3169426110237734
-0.1860867216003508,-0.05828123877958235,-1.3169426110237734
-0.1860305716003508,-0.054583013926998554,-1.320649962004811
-0.1859744216003508,-0.054583013926998554,-1.3169426110237734
-0.1859182716003508,-0.05088478907441475,-1.3169426110237734
-0.18586212160035082,-0.05088478907441475,-1.3169426110237734
-0.1858059716003508,-0.05088478907441475,-1.3169426110237734
-0.1857498216003508,-0.05088478907441475,-1.3169426110237734
-0.1856936716003508,-0.05088478907441475,-1.3169426110237734
-0.1856375216003508,-0.05088478907441475,-1.3169426110237734
-0.1855813716003508,-0.05088478907441475,-1.3169426110237734
-0.18552522160035081,-0.05088478907441475,-1.3169426110237734
-0.1854690716003508,-0.05088478907441475,-1.3169426110237734
-0.1854129216003508,-0.04718656422183096,-1.3169426110237734
-0.1853567716003508,-0.04718656422183096,-1.3169426110237734
-0.1853006216003508,-0.043488339369247155,-1.3169426110237734
-0.1852444716003508,-0.043488339369247155,-1.3169426110237734
-0.1851883216003508,-0.043488339369247155,-1.3169426110237734
-0.1851321716003508,-0.043488339369247155,-1.3169426110237734
-0.1850760216003508,-0.043488339369247155,-1.3169426110237734
-0.1850198716003508,-0.03979011451666335,-1.3169426110237734
-0.1849637216003508,-0.03979011451666335,-1.3169426110237734
-0.1849075716003508,-0.03979011451666335,-1.3169426110237734
-0.1848514216003508,-0.03979011451666335,-1.3169426110237734
-0.1847952716003508,-0.03979011451666335,-1.3169426110237734
-0.1847391216003508,-0.03609188966407956,-1.3169426110237734
-0.1846829716003508,-0.03609188966407956,-1.3169426110237734
-0.1846268216003508,-0.03609188966407956,-1.3169426110237734
-0.1845706716003508,-0.03609188966407956,-1.3169426110237752
-0.1845145216003508,-0.03609188966407956,-1.320649962004811
-0.1844583716003508,-0.03609188966407956,-1.3169426110237734
-0.1844022216003508,-0.032393664811495755,-1.3169426110237734
-0.1843460716003508,-0.032393664811495755,-1.3169426110237734
-0.1842899216003508,-0.032393664811495755,-1.3169426110237734
-0.18423377160035082,-0.02869543995891364,-1.3169426110237734
-0.1841776216003508,-0.028695439958911956,-1.3169426110237734
-0.1841214716003508,-0.028695439958911956,-1.3169426110237734
-0.1840653216003508,-0.024997215106328158,-1.3169426110237734
-0.1840091716003508,-0.028695439958911956,-1.3169426110237734
-0.1839530216003508,-0.024997215106328158,-1.3169426110237734
-0.18389687160035081,-0.028695439958911956,-1.3169426110237734
-0.1838407216003508,-0.024997215106328158,-1.3169426110237734
-0.1837845716003508,-0.024997215106328158,-1.3169426110237734
-0.1837284216003508,-0.024997215106328158,-1.3169426110237734
-0.1836722716003508,-0.024997215106328158,-1.3169426110237734
-0.1836161216003508,-0.024997215106328158,-1.320649962004811
-0.1835599716003508,-0.024997215106328158,-1.320649962004811
-0.1835038216003508,-0.024997215106328158,-1.3169426110237734
-0.1834476716003508,-0.021298990253744356,-1.3169426110237734
-0.1833915216003508,-0.021298990253744356,-1.3169426110237734
-0.1833353716003508,-0.021298990253744356,-1.3169426110237734
-0.1832792216003508,-0.01760076540116224,-1.3169426110237734
-0.1832230716003508,-0.021298990253744356,-1.3169426110237734
-0.1831669216003508,-0.021298990253744356,-1.3169426110237734
-0.1831107716003508,-0.021298990253744356,-1.3169426110237734
-0.1830546216003508,-0.021298990253744356,-1.3169426110237734
-0.1829984716003508,-0.021298990253744356,-1.3169426110237734
-0.18294232160035082,-0.021298990253744356,-1.3169426110237734
-0.1828861716003508,-0.021298990253744356,-1.3169426110237734
-0.1828300216003508,-0.021298990253744356,-1.3169426110237734
-0.1827738716003508,-0.021298990253744356,-1.3169426110237734
-0.1827177216003508,-0.021298990253744356,-1.3169426110237734
-0.1826615716003508,-0.021298990253744356,-1.3169426110237734
-0.18260542160035081,-0.021298990253744356,-1.3169426110237734
-0.1825492716003508,-0.021298990253744356,-1.320649962004811
-0.1824931216003508,-0.021298990253744356,-1.320649962004811
-0.1824369716003508,-0.021298990253744356,-1.3169426110237734
-0.1823808216003508,-0.017600765401160557,-1.3169426110237734
-0.1823246716003508,-0.021298990253744356,-1.3169426110237734
-0.1822685216003508,-0.021298990253744356,-1.3169426110237734
-0.1822123716003508,-0.017600765401160557,-1.3169426110237734
-0.1821562216003508,-0.017600765401160557,-1.3169426110237734
-0.1821000716003508,-0.017600765401160557,-1.3169426110237734
-0.1820439216003508,-0.017600765401160557,-1.3169426110237734
-0.1819877716003508,-0.017600765401160557,-1.3169426110237752
-0.1819316216003508,-0.017600765401160557,-1.320649962004811
-0.1818754716003508,-0.017600765401160557,-1.320649962004811
-0.1818193216003508,-0.017600765401160557,-1.3169426110237734
-0.1817631716003508,-0.013902540548576758,-1.320649962004811
-0.1817070216003508,-0.013902540548576758,-1.3169426110237734
-0.18165087160035082,-0.013902540548576758,-1.3206499620048093
-0.1815947216003508,-0.013902540548576758,-1.3169426110237734
-0.1815385716003508,-0.010204315695992958,-1.3169426110237734
-0.1814824216003508,-0.010204315695992958,-1.3169426110237734
-0.1814262716003508,-0.013902540548576758,-1.3169426110237734
-0.1813701216003508,-0.013902540548576758,-1.3169426110237734
-0.18131397160035082,-0.013902540548576758,-1.3169426110237734
-0.1812578216003508,-0.013902540548576758,-1.3169426110237734
-0.1812016716003508,-0.013902540548576758,-1.3169426110237734
-0.1811455216003508,-0.013902540548576758,-1.3169426110237734
-0.1810893716003508,-0.013902540548576758,-1.320649962004811
-0.1810332216003508,-0.017600765401160557,-1.320649962004811
-0.18097707160035081,-0.013902540548576758,-1.320649962004811
-0.1809209216003508,-0.013902540548576758,-1.320649962004811
-0.1808647716003508,-0.013902540548576758,-1.3169426110237734
-0.1808086216003508,-0.013902540548576758,-1.3169426110237734
-0.1807524716003508,-0.013902540548576758,-1.3169426110237734
-0.1806963216003508,-0.017600765401160557,-1.3169426110237734
-0.1806401716003508,-0.013902540548576758,-1.3169426110237734
-0.1805840216003508,-0.013902540548576758,-1.3169426110237734
-0.1805278716003508,-0.017600765401160557,-1.3169426110237734
-0.1804717216003508,-0.017600765401160557,-1.3169426110237734
-0.1804155716003508,-0.017600765401160557,-1.320649962004811
-0.1803594216003508,-0.017600765401160557,-1.320649962004811
-0.1803032716003508,-0.017600765401160557,-1.320649962004811
-0.1802471216003508,-0.017600765401160557,-1.320649962004811
-0.1801909716003508,-0.017600765401160557,-1.3169426110237734
-0.1801348216003508,-0.017600765401160557,-1.3169426110237734
-0.1800786716003508,-0.017600765401160557,-1.320649962004811
-0.18002252160035082,-0.017600765401160557,-1.3169426110237752
-0.1799663716003508,-0.017600765401160557,-1.320649962004811
-0.1799102216003508,-0.017600765401160557,-1.3169426110237734
