10Hz/acq0051.csv

#Digilent WaveForms Oscilloscope Acquisition
#Device Name: Discovery2
#Serial Number: SN:210321AA28BE
#Date Time: 2023-05-24 14:52:34.540
#Sample rate: 17809.4Hz
#Samples: 8192
#Trigger: Source: Channel 1 Type: Edge Condition: Rising Level: 800 mV Hyst.: Auto HoldOff: 100 ns
#Channel 1: Range: 1 V/div Offset: 0 V Attenuation: 1 X Sample Mode: Average
#Channel 2: Range: 1 V/div Offset: 0 V Attenuation: 1 X Sample Mode: Average

Time (s),Channel 1 (V),Channel 2 (V)
-0.19775338609245866,-0.07677236304250135,-1.3169426110237734
-0.19769723609245865,-0.08786703760025275,-1.3169426110237734
-0.19764108609245865,-0.09896171215800414,-1.3169426110237734
-0.19758493609245864,-0.11005638671575554,-1.3169426110237734
-0.19752878609245866,-0.11375461156833934,-1.3169426110237734
-0.19747263609245866,-0.12115106127350694,-1.3169426110237734
-0.19741648609245865,-0.12854751097867453,-1.3169426110237734
-0.19736033609245865,-0.13224573583125834,-1.3169426110237734
-0.19730418609245864,-0.13964218553642593,-1.3132352600427357
-0.19724803609245864,-0.1433404103890131,-1.3169426110237734
-0.19719188609245866,-0.15073686009417733,-1.3169426110237734
-0.19713573609245866,-0.15443508494676114,-1.3169426110237734
-0.19707958609245865,-0.15813330979934495,-1.3132352600427357
-0.19702343609245865,-0.16183153465192873,-1.3169426110237734
-0.19696728609245864,-0.16552975950451254,-1.3132352600427357
-0.19691113609245867,-0.16922798435709466,-1.3169426110237716
-0.19685498609245866,-0.16922798435709635,-1.3169426110237734
-0.19679883609245866,-0.17662443406226394,-1.3169426110237734
-0.19674268609245865,-0.17662443406226394,-1.3169426110237734
-0.19668653609245865,-0.18032265891484775,-1.3169426110237734
-0.19663038609245864,-0.18032265891484775,-1.3169426110237734
-0.19657423609245867,-0.18032265891484775,-1.3132352600427357
-0.19651808609245866,-0.18402088376743153,-1.3169426110237734
-0.19646193609245866,-0.18402088376743153,-1.3169426110237734
-0.19640578609245865,-0.18771910862001534,-1.3169426110237734
-0.19634963609245865,-0.18771910862001534,-1.3132352600427357
-0.19629348609245864,-0.19141733347259912,-1.3132352600427357
-0.19623733609245866,-0.18771910862001534,-1.3169426110237734
-0.19618118609245866,-0.19141733347259912,-1.3169426110237734
-0.19612503609245865,-0.19141733347259912,-1.3169426110237734
-0.19606888609245865,-0.19511555832518293,-1.3169426110237734
-0.19601273609245864,-0.19511555832518293,-1.3169426110237734
-0.19595658609245864,-0.19511555832518293,-1.3169426110237734
-0.19590043609245866,-0.19511555832518293,-1.3169426110237734
-0.19584428609245866,-0.19511555832518293,-1.3169426110237734
-0.19578813609245865,-0.19511555832518293,-1.3169426110237734
-0.19573198609245865,-0.19881378317776674,-1.3169426110237734
-0.19567583609245864,-0.19511555832518293,-1.3169426110237734
-0.19561968609245867,-0.19881378317776505,-1.3169426110237734
-0.19556353609245866,-0.19511555832518293,-1.3169426110237734
-0.19550738609245866,-0.19511555832518293,-1.3132352600427357
-0.19545123609245865,-0.19511555832518293,-1.3132352600427357
-0.19539508609245865,-0.19511555832518293,-1.3169426110237734
-0.19533893609245864,-0.19141733347259912,-1.3132352600427357
-0.19528278609245867,-0.19141733347259912,-1.3169426110237734
-0.19522663609245866,-0.19141733347259912,-1.3169426110237734
-0.19517048609245866,-0.19141733347259912,-1.3169426110237734
-0.19511433609245865,-0.19141733347259912,-1.3169426110237734
-0.19505818609245865,-0.19141733347259912,-1.3169426110237734
-0.19500203609245864,-0.19141733347259912,-1.3169426110237734
-0.19494588609245866,-0.18771910862001534,-1.3169426110237734
-0.19488973609245866,-0.18771910862001534,-1.3169426110237734
-0.19483358609245865,-0.18402088376743153,-1.3169426110237734
-0.19477743609245865,-0.18402088376743153,-1.3169426110237734
-0.19472128609245865,-0.18032265891484775,-1.3169426110237734
-0.19466513609245864,-0.18032265891484775,-1.3169426110237734
-0.19460898609245866,-0.18032265891484775,-1.3169426110237734
-0.19455283609245866,-0.17662443406226394,-1.3169426110237734
-0.19449668609245865,-0.17662443406226394,-1.3169426110237734
-0.19444053609245865,-0.17662443406226394,-1.3132352600427357
-0.19438438609245864,-0.17292620920968013,-1.3169426110237734
-0.19432823609245867,-0.17662443406226225,-1.3169426110237734
-0.19427208609245866,-0.17292620920968013,-1.3169426110237734
-0.19421593609245866,-0.17292620920968013,-1.3169426110237734
-0.19415978609245865,-0.16922798435709635,-1.3169426110237734
-0.19410363609245865,-0.16922798435709635,-1.3169426110237734
-0.19404748609245864,-0.16552975950451254,-1.3169426110237734
-0.19399133609245867,-0.16552975950451254,-1.3169426110237734
-0.19393518609245866,-0.16552975950451254,-1.3169426110237734
-0.19387903609245866,-0.16552975950451254,-1.3169426110237734
-0.19382288609245865,-0.16552975950451254,-1.3169426110237734
-0.19376673609245865,-0.16183153465192873,-1.3169426110237734
-0.19371058609245864,-0.15813330979934495,-1.3169426110237734
-0.19365443609245866,-0.15443508494676114,-1.3169426110237734
-0.19359828609245866,-0.15443508494676114,-1.3169426110237734
-0.19354213609245866,-0.15443508494676114,-1.3169426110237734
-0.19348598609245865,-0.15073686009417733,-1.3169426110237734
-0.19342983609245865,-0.15073686009417733,-1.3169426110237734
-0.19337368609245864,-0.15073686009417733,-1.3169426110237734
-0.19331753609245866,-0.14703863524159355,-1.3169426110237734
-0.19326138609245866,-0.14703863524159355,-1.3169426110237734
-0.19320523609245865,-0.14703863524159355,-1.3169426110237734
-0.19314908609245865,-0.14334041038900974,-1.3169426110237734
-0.19309293609245864,-0.14334041038900974,-1.3169426110237734
-0.19303678609245864,-0.13964218553642593,-1.3169426110237734
-0.19298063609245866,-0.13964218553642593,-1.3169426110237734
-0.19292448609245866,-0.13964218553642593,-1.3169426110237734
-0.19286833609245865,-0.13594396068384215,-1.3169426110237734
-0.19281218609245865,-0.13594396068384215,-1.3132352600427357
-0.19275603609245864,-0.13224573583125834,-1.3169426110237734
-0.19269988609245867,-0.13224573583125834,-1.3169426110237734
-0.19264373609245866,-0.13224573583125834,-1.3169426110237734
-0.19258758609245866,-0.13224573583125834,-1.3169426110237734
-0.19253143609245865,-0.12854751097867453,-1.3169426110237734
-0.19247528609245865,-0.12854751097867453,-1.3169426110237734
-0.19241913609245864,-0.12854751097867453,-1.3169426110237734
-0.19236298609245867,-0.12484928612609074,-1.3169426110237734
-0.19230683609245866,-0.12484928612609074,-1.3169426110237734
-0.19225068609245866,-0.12484928612609074,-1.3169426110237734
-0.19219453609245865,-0.12484928612609074,-1.3169426110237734
-0.19213838609245865,-0.12115106127350694,-1.3169426110237734
-0.19208223609245864,-0.12115106127350694,-1.3169426110237734
-0.19202608609245866,-0.11745283642092315,-1.3169426110237734
-0.19196993609245866,-0.11745283642092315,-1.3169426110237734
-0.19191378609245865,-0.11375461156833934,-1.3169426110237734
-0.19185763609245865,-0.11375461156833934,-1.3169426110237734
-0.19180148609245865,-0.11375461156833934,-1.3169426110237734
-0.19174533609245864,-0.11375461156833934,-1.3169426110237734
-0.19168918609245866,-0.11375461156833934,-1.3169426110237734
-0.19163303609245866,-0.11005638671575554,-1.3169426110237734
-0.19157688609245865,-0.11005638671575554,-1.3169426110237734
-0.19152073609245865,-0.11005638671575554,-1.3169426110237734
-0.19146458609245864,-0.10635816186317175,-1.3169426110237734
-0.19140843609245867,-0.11005638671575387,-1.3169426110237734
-0.19135228609245866,-0.10635816186317175,-1.3169426110237734
-0.19129613609245866,-0.10635816186317175,-1.3169426110237734
-0.19123998609245865,-0.10265993701058794,-1.3169426110237734
-0.19118383609245865,-0.10265993701058794,-1.3169426110237734
-0.19112768609245864,-0.09896171215800414,-1.3169426110237734
-0.19107153609245867,-0.09896171215800414,-1.3169426110237734
-0.19101538609245866,-0.09896171215800414,-1.3169426110237734
-0.19095923609245866,-0.09526348730542035,-1.3169426110237734
-0.19090308609245865,-0.09526348730542035,-1.3169426110237734
-0.19084693609245865,-0.09526348730542035,-1.3169426110237734
-0.19079078609245864,-0.09526348730542035,-1.3169426110237734
-0.19073463609245866,-0.09156526245283655,-1.3169426110237734
-0.19067848609245866,-0.09156526245283655,-1.3169426110237734
-0.19062233609245866,-0.08786703760025275,-1.3169426110237734
-0.19056618609245865,-0.08786703760025275,-1.3169426110237734
-0.19051003609245865,-0.08786703760025275,-1.3169426110237734
-0.19045388609245864,-0.08786703760025107,-1.3169426110237734
-0.19039773609245866,-0.08416881274766895,-1.3169426110237734
-0.19034158609245866,-0.08416881274766895,-1.3169426110237734
-0.19028543609245865,-0.08416881274766895,-1.3169426110237734
-0.19022928609245865,-0.08047058789508515,-1.3169426110237734
-0.19017313609245864,-0.08047058789508515,-1.3169426110237734
-0.19011698609245867,-0.07677236304250303,-1.3169426110237734
-0.19006083609245866,-0.07677236304250135,-1.3169426110237734
-0.19000468609245866,-0.07677236304250135,-1.3169426110237734
-0.18994853609245865,-0.07307413818991755,-1.3169426110237734
-0.18989238609245865,-0.07307413818991755,-1.3169426110237734
-0.18983623609245864,-0.07307413818991755,-1.3169426110237734
-0.18978008609245867,-0.07307413818991755,-1.3169426110237734
-0.18972393609245866,-0.07307413818991755,-1.3169426110237734
-0.18966778609245866,-0.07307413818991755,-1.3169426110237734
-0.18961163609245865,-0.06937591333733376,-1.3169426110237734
-0.18955548609245865,-0.06937591333733376,-1.3169426110237734
-0.18949933609245864,-0.06937591333733376,-1.3169426110237734
-0.18944318609245867,-0.06937591333733376,-1.3169426110237734
-0.18938703609245866,-0.06937591333733376,-1.3169426110237734
-0.18933088609245866,-0.06567768848474995,-1.3169426110237734
-0.18927473609245865,-0.06567768848474995,-1.3169426110237734
-0.18921858609245865,-0.06567768848474995,-1.3169426110237734
-0.18916243609245864,-0.06567768848474995,-1.3169426110237734
-0.18910628609245866,-0.06567768848474995,-1.3169426110237734
-0.18905013609245866,-0.06567768848474995,-1.3169426110237734
-0.18899398609245865,-0.06567768848474995,-1.3169426110237734
-0.18893783609245865,-0.06567768848474995,-1.3169426110237734
-0.18888168609245864,-0.06197946363216615,-1.3169426110237734
-0.18882553609245864,-0.06197946363216615,-1.3169426110237734
-0.18876938609245866,-0.06197946363216615,-1.3169426110237734
-0.18871323609245866,-0.06197946363216615,-1.3169426110237734
-0.18865708609245865,-0.06197946363216615,-1.3169426110237734
-0.18860093609245865,-0.05828123877958235,-1.3169426110237734
-0.18854478609245864,-0.05828123877958235,-1.3169426110237734
-0.18848863609245867,-0.05828123877958235,-1.3169426110237734
-0.18843248609245866,-0.05828123877958235,-1.3169426110237734
-0.18837633609245866,-0.05828123877958235,-1.3169426110237734
-0.18832018609245865,-0.05828123877958235,-1.3169426110237734
-0.18826403609245865,-0.05828123877958235,-1.3169426110237734
-0.18820788609245864,-0.054583013926998554,-1.3169426110237734
-0.18815173609245867,-0.054583013926998554,-1.3169426110237734
-0.18809558609245866,-0.054583013926998554,-1.3169426110237734
-0.18803943609245866,-0.054583013926998554,-1.3169426110237734
-0.18798328609245865,-0.054583013926998554,-1.3169426110237734
-0.18792713609245865,-0.054583013926998554,-1.3169426110237734
-0.18787098609245864,-0.054583013926998554,-1.3169426110237734
-0.18781483609245866,-0.05088478907441475,-1.3169426110237734
-0.18775868609245866,-0.05088478907441475,-1.3132352600427357
-0.18770253609245866,-0.05088478907441475,-1.3169426110237734
-0.18764638609245865,-0.05088478907441475,-1.3169426110237734
-0.18759023609245865,-0.05088478907441475,-1.3169426110237734
-0.18753408609245864,-0.05088478907441475,-1.3169426110237734
-0.18747793609245866,-0.05088478907441475,-1.3169426110237734
-0.18742178609245866,-0.05088478907441475,-1.3169426110237734
-0.18736563609245865,-0.05088478907441475,-1.3169426110237734
-0.18730948609245865,-0.05088478907441475,-1.3169426110237734
-0.18725333609245864,-0.05088478907441475,-1.3169426110237734
-0.18719718609245867,-0.05088478907441475,-1.3169426110237734
-0.18714103609245866,-0.04718656422183096,-1.3169426110237734
-0.18708488609245866,-0.04718656422183096,-1.3169426110237734
-0.18702873609245865,-0.04718656422183096,-1.3169426110237734
-0.18697258609245865,-0.04718656422183096,-1.3169426110237734
-0.18691643609245864,-0.04718656422183096,-1.3169426110237734
-0.18686028609245867,-0.04718656422183096,-1.3169426110237734
-0.18680413609245866,-0.04718656422183096,-1.3169426110237734
-0.18674798609245866,-0.04718656422183096,-1.3169426110237734
-0.18669183609245865,-0.04718656422183096,-1.3169426110237734
-0.18663568609245865,-0.043488339369247155,-1.3169426110237734
-0.18657953609245864,-0.04718656422183096,-1.3169426110237734
-0.18652338609245867,-0.043488339369247155,-1.3169426110237734
-0.18646723609245866,-0.04718656422183096,-1.3169426110237734
-0.18641108609245866,-0.04718656422183096,-1.3169426110237734
-0.18635493609245865,-0.04718656422183096,-1.3169426110237734
-0.18629878609245865,-0.04718656422183096,-1.3169426110237734
-0.18624263609245864,-0.04718656422183096,-1.3169426110237734
-0.18618648609245866,-0.04718656422183096,-1.3169426110237734
-0.18613033609245866,-0.04718656422183096,-1.3169426110237734
-0.18607418609245865,-0.04718656422183096,-1.3169426110237734
-0.18601803609245865,-0.04718656422183096,-1.3169426110237734
-0.18596188609245864,-0.04718656422183096,-1.3169426110237734
-0.18590573609245867,-0.05088478907441307,-1.3169426110237734
-0.18584958609245866,-0.05088478907441475,-1.3169426110237734
-0.18579343609245866,-0.04718656422183096,-1.3169426110237734
-0.18573728609245865,-0.05088478907441475,-1.3169426110237734
-0.18568113609245865,-0.05088478907441475,-1.3169426110237734
-0.18562498609245864,-0.05088478907441475,-1.320649962004811
-0.18556883609245867,-0.05088478907441475,-1.3169426110237734
-0.18551268609245866,-0.05088478907441475,-1.3169426110237734
-0.18545653609245866,-0.05088478907441475,-1.3169426110237734
-0.18540038609245865,-0.05088478907441475,-1.3169426110237734
-0.18534423609245865,-0.05088478907441475,-1.3169426110237734
-0.18528808609245864,-0.05088478907441475,-1.3169426110237734
-0.18523193609245867,-0.054583013926998554,-1.320649962004811
-0.18517578609245866,-0.05088478907441475,-1.3169426110237734
-0.18511963609245866,-0.054583013926998554,-1.3169426110237734
-0.18506348609245865,-0.054583013926998554,-1.3169426110237734
-0.18500733609245865,-0.054583013926998554,-1.3169426110237734
-0.18495118609245864,-0.05088478907441475,-1.3169426110237734
-0.18489503609245866,-0.05088478907441475,-1.3169426110237734
-0.18483888609245866,-0.05088478907441475,-1.3169426110237734
-0.18478273609245865,-0.05088478907441475,-1.3169426110237734
-0.18472658609245865,-0.05088478907441475,-1.3169426110237734
-0.18467043609245865,-0.05088478907441475,-1.3169426110237734
-0.18461428609245864,-0.054583013926998554,-1.3169426110237734
-0.18455813609245866,-0.054583013926998554,-1.3169426110237734
-0.18450198609245866,-0.054583013926998554,-1.3169426110237734
-0.18444583609245865,-0.054583013926998554,-1.3169426110237734
-0.18438968609245865,-0.054583013926998554,-1.3169426110237734
-0.18433353609245864,-0.054583013926998554,-1.3169426110237734
-0.18427738609245867,-0.054583013926998554,-1.3169426110237734
-0.18422123609245866,-0.054583013926998554,-1.3169426110237734
-0.18416508609245866,-0.05088478907441475,-1.3169426110237734
-0.18410893609245865,-0.05088478907441475,-1.3169426110237734
-0.18405278609245865,-0.05088478907441475,-1.3169426110237734
-0.18399663609245864,-0.054583013926998554,-1.3169426110237734
-0.18394048609245867,-0.054583013926998554,-1.3169426110237734
-0.18388433609245866,-0.054583013926998554,-1.3169426110237734
-0.18382818609245866,-0.054583013926998554,-1.3169426110237734
-0.18377203609245865,-0.054583013926998554,-1.3169426110237734
-0.18371588609245865,-0.054583013926998554,-1.3169426110237734
-0.18365973609245864,-0.054583013926998554,-1.3169426110237734
-0.18360358609245866,-0.054583013926998554,-1.3169426110237734
-0.18354743609245866,-0.054583013926998554,-1.3169426110237734
-0.18349128609245866,-0.054583013926998554,-1.3169426110237734
-0.18343513609245865,-0.05088478907441475,-1.3169426110237734
-0.18337898609245865,-0.054583013926998554,-1.3169426110237734
-0.18332283609245864,-0.054583013926998554,-1.3169426110237734
-0.18326668609245866,-0.054583013926998554,-1.3169426110237734
-0.18321053609245866,-0.054583013926998554,-1.3169426110237734
-0.18315438609245865,-0.054583013926998554,-1.3169426110237734
-0.18309823609245865,-0.054583013926998554,-1.320649962004811
-0.18304208609245864,-0.054583013926998554,-1.3169426110237734
-0.18298593609245867,-0.054583013926998554,-1.3169426110237734
-0.18292978609245866,-0.054583013926998554,-1.3169426110237734
-0.18287363609245866,-0.054583013926998554,-1.3169426110237734
-0.18281748609245865,-0.054583013926998554,-1.3169426110237734
-0.18276133609245865,-0.05828123877958235,-1.3169426110237734
-0.18270518609245864,-0.05828123877958235,-1.320649962004811
-0.18264903609245867,-0.05828123877958235,-1.3169426110237734
-0.18259288609245866,-0.05828123877958235,-1.3169426110237734
-0.18253673609245866,-0.05828123877958235,-1.3169426110237734
-0.18248058609245865,-0.05828123877958235,-1.3169426110237734
-0.18242443609245865,-0.05828123877958235,-1.3169426110237734
-0.18236828609245864,-0.05828123877958235,-1.3169426110237734
-0.18231213609245867,-0.06197946363216615,-1.3169426110237734
-0.18225598609245866,-0.06197946363216615,-1.320649962004811
-0.18219983609245866,-0.06197946363216615,-1.3169426110237734
-0.18214368609245865,-0.06197946363216615,-1.3169426110237734
-0.18208753609245865,-0.06197946363216615,-1.3169426110237734
-0.18203138609245864,-0.06197946363216615,-1.3169426110237734
-0.18197523609245866,-0.06197946363216615,-1.3169426110237734
-0.18191908609245866,-0.06197946363216615,-1.3169426110237734
-0.18186293609245865,-0.06197946363216615,-1.3169426110237734
-0.18180678609245865,-0.06197946363216615,-1.3169426110237734
-0.18175063609245865,-0.06197946363216615,-1.3169426110237734
-0.18169448609245867,-0.06197946363216615,-1.3169426110237734
-0.18163833609245866,-0.06197946363216615,-1.3169426110237734
-0.18158218609245866,-0.06197946363216615,-1.3169426110237734
-0.18152603609245865,-0.06197946363216615,-1.3169426110237734
-0.18146988609245865,-0.06197946363216615,-1.3169426110237734
-0.18141373609245864,-0.06197946363216615,-1.3169426110237734
-0.18135758609245867,-0.06197946363216615,-1.3169426110237734
-0.18130143609245866,-0.06197946363216615,-1.320649962004811
-0.18124528609245866,-0.06197946363216615,-1.3169426110237734
-0.18118913609245865,-0.06197946363216615,-1.3169426110237734
-0.18113298609245865,-0.06197946363216615,-1.3169426110237734
-0.18107683609245864,-0.06197946363216615,-1.3169426110237734
-0.18102068609245867,-0.06197946363216615,-1.3169426110237734
-0.18096453609245866,-0.06197946363216615,-1.3169426110237734
-0.18090838609245866,-0.06197946363216615,-1.3169426110237734
-0.18085223609245865,-0.06197946363216615,-1.3169426110237734
-0.18079608609245865,-0.06197946363216615,-1.3169426110237734
-0.18073993609245864,-0.06197946363216615,-1.3169426110237734
-0.18068378609245866,-0.05828123877958235,-1.3169426110237734
-0.18062763609245866,-0.05828123877958235,-1.3169426110237734
-0.18057148609245866,-0.05828123877958235,-1.3169426110237734
-0.18051533609245865,-0.05828123877958235,-1.3169426110237734
-0.18045918609245865,-0.05828123877958235,-1.3169426110237734
-0.18040303609245864,-0.05828123877958235,-1.3169426110237734
-0.18034688609245866,-0.05828123877958235,-1.3169426110237734
-0.18029073609245866,-0.05828123877958235,-1.3169426110237734
-0.18023458609245865,-0.05828123877958235,-1.3169426110237734
-0.18017843609245865,-0.05828123877958235,-1.3169426110237734
