10Hz/acq0077.csv

#Digilent WaveForms Oscilloscope Acquisition
#Device Name: Discovery2
#Serial Number: SN:210321AA28BE
#Date Time: 2023-05-24 14:52:47.541
#Sample rate: 17809.4Hz
#Samples: 8192
#Trigger: Source: Channel 1 Type: Edge Condition: Rising Level: 800 mV Hyst.: Auto HoldOff: 100 ns
#Channel 1: Range: 1 V/div Offset: 0 V Attenuation: 1 X Sample Mode: Average
#Channel 2: Range: 1 V/div Offset: 0 V Attenuation: 1 X Sample Mode: Average

Time (s),Channel 1 (V),Channel 2 (V)
-0.1977134887847222,-0.06197946363216615,-1.3169426110237734
-0.1976573387847222,-0.06937591333733376,-1.3169426110237734
-0.1976011887847222,-0.07677236304250135,-1.3132352600427357
-0.19754503878472218,-0.08786703760025275,-1.3169426110237734
-0.1974888887847222,-0.09526348730542035,-1.3169426110237734
-0.1974327387847222,-0.10265993701058794,-1.3169426110237734
-0.1973765887847222,-0.11005638671575554,-1.3169426110237734
-0.1973204387847222,-0.11375461156833934,-1.3169426110237734
-0.19726428878472219,-0.12115106127350694,-1.3169426110237734
-0.19720813878472218,-0.12484928612609242,-1.3169426110237734
-0.1971519887847222,-0.12854751097867453,-1.3169426110237734
-0.1970958387847222,-0.13224573583125834,-1.3169426110237734
-0.1970396887847222,-0.13594396068384215,-1.3169426110237734
-0.1969835387847222,-0.13964218553642593,-1.3169426110237734
-0.19692738878472218,-0.14334041038900974,-1.3169426110237734
-0.1968712387847222,-0.14703863524159186,-1.3132352600427375
-0.1968150887847222,-0.15073686009417733,-1.3169426110237734
-0.1967589387847222,-0.15073686009417733,-1.3132352600427357
-0.1967027887847222,-0.15443508494676114,-1.3169426110237734
-0.1966466387847222,-0.15443508494676114,-1.3169426110237734
-0.19659048878472218,-0.15443508494676114,-1.3132352600427357
-0.1965343387847222,-0.15813330979934495,-1.3132352600427357
-0.1964781887847222,-0.15813330979934495,-1.3169426110237734
-0.1964220387847222,-0.15813330979934495,-1.3132352600427357
-0.1963658887847222,-0.16183153465192873,-1.3169426110237734
-0.1963097387847222,-0.16183153465192873,-1.3132352600427357
-0.19625358878472218,-0.16183153465192873,-1.3132352600427357
-0.1961974387847222,-0.16183153465192873,-1.3169426110237734
-0.1961412887847222,-0.16183153465192873,-1.3169426110237734
-0.1960851387847222,-0.16183153465192873,-1.3169426110237734
-0.1960289887847222,-0.15813330979934495,-1.3169426110237734
-0.1959728387847222,-0.16183153465192873,-1.3169426110237734
-0.19591668878472218,-0.16183153465192873,-1.3169426110237734
-0.1958605387847222,-0.16183153465192873,-1.3169426110237734
-0.1958043887847222,-0.16183153465192873,-1.3169426110237734
-0.1957482387847222,-0.16183153465192873,-1.3169426110237734
-0.1956920887847222,-0.16183153465192873,-1.3169426110237734
-0.19563593878472219,-0.15813330979934495,-1.3169426110237734
-0.1955797887847222,-0.15813330979934495,-1.3169426110237734
-0.1955236387847222,-0.15813330979934495,-1.3169426110237734
-0.1954674887847222,-0.15443508494676114,-1.3169426110237734
-0.1954113387847222,-0.15443508494676114,-1.3169426110237734
-0.1953551887847222,-0.15443508494676114,-1.3169426110237734
-0.19529903878472218,-0.15073686009417733,-1.3169426110237734
-0.1952428887847222,-0.15073686009417733,-1.3169426110237734
-0.1951867387847222,-0.15073686009417733,-1.3169426110237734
-0.1951305887847222,-0.15073686009417733,-1.3169426110237734
-0.1950744387847222,-0.15073686009417733,-1.3169426110237734
-0.1950182887847222,-0.14703863524159355,-1.3169426110237734
-0.19496213878472218,-0.14703863524159355,-1.3169426110237734
-0.1949059887847222,-0.14703863524159355,-1.3169426110237734
-0.1948498387847222,-0.14703863524159355,-1.3169426110237734
-0.1947936887847222,-0.14334041038900974,-1.3169426110237734
-0.1947375387847222,-0.14334041038900974,-1.3169426110237734
-0.1946813887847222,-0.13964218553642593,-1.3169426110237734
-0.19462523878472218,-0.13964218553642424,-1.3169426110237734
-0.1945690887847222,-0.13594396068384215,-1.3169426110237734
-0.1945129387847222,-0.13594396068384215,-1.3169426110237734
-0.1944567887847222,-0.13594396068384215,-1.3169426110237734
-0.1944006387847222,-0.13224573583125834,-1.3169426110237734
-0.19434448878472219,-0.13594396068384215,-1.3169426110237734
-0.1942883387847222,-0.13224573583126004,-1.3169426110237734
-0.1942321887847222,-0.13224573583125834,-1.3169426110237734
-0.1941760387847222,-0.13224573583125834,-1.3169426110237734
-0.1941198887847222,-0.13224573583125834,-1.3169426110237734
-0.1940637387847222,-0.12854751097867453,-1.3169426110237734
-0.19400758878472218,-0.12854751097867453,-1.3169426110237734
-0.1939514387847222,-0.12484928612609074,-1.3169426110237734
-0.1938952887847222,-0.12484928612609074,-1.3169426110237734
-0.1938391387847222,-0.12484928612609074,-1.3169426110237734
-0.1937829887847222,-0.12484928612609074,-1.3169426110237734
-0.1937268387847222,-0.12115106127350694,-1.3169426110237734
-0.19367068878472218,-0.12115106127350694,-1.3169426110237734
-0.1936145387847222,-0.12115106127350694,-1.3169426110237734
-0.1935583887847222,-0.12115106127350694,-1.3169426110237734
-0.1935022387847222,-0.12115106127350694,-1.3169426110237734
-0.1934460887847222,-0.11745283642092315,-1.3169426110237734
-0.1933899387847222,-0.11745283642092315,-1.3169426110237734
-0.19333378878472218,-0.11745283642092315,-1.3132352600427357
-0.1932776387847222,-0.11745283642092315,-1.3169426110237734
-0.1932214887847222,-0.11745283642092315,-1.3169426110237734
-0.1931653387847222,-0.11745283642092315,-1.3169426110237734
-0.1931091887847222,-0.11745283642092315,-1.3169426110237734
-0.1930530387847222,-0.11745283642092315,-1.3169426110237734
-0.19299688878472218,-0.11375461156833934,-1.3169426110237734
-0.1929407387847222,-0.11375461156833934,-1.3169426110237734
-0.1928845887847222,-0.11375461156833934,-1.3169426110237734
-0.1928284387847222,-0.11375461156833934,-1.3169426110237734
-0.1927722887847222,-0.11005638671575554,-1.3169426110237734
-0.19271613878472219,-0.11005638671575554,-1.3169426110237734
-0.1926599887847222,-0.11005638671575554,-1.3169426110237734
-0.1926038387847222,-0.10635816186317175,-1.3169426110237734
-0.1925476887847222,-0.11005638671575554,-1.3132352600427357
-0.1924915387847222,-0.10635816186317175,-1.3169426110237734
-0.1924353887847222,-0.10635816186317175,-1.3169426110237734
-0.19237923878472218,-0.10635816186317175,-1.3169426110237734
-0.1923230887847222,-0.10635816186317175,-1.3169426110237734
-0.1922669387847222,-0.10635816186317175,-1.3169426110237734
-0.1922107887847222,-0.10265993701058794,-1.3169426110237734
-0.1921546387847222,-0.10265993701058794,-1.3169426110237734
-0.1920984887847222,-0.10265993701058794,-1.3169426110237734
-0.19204233878472218,-0.10265993701058794,-1.3169426110237734
-0.1919861887847222,-0.09896171215800414,-1.3169426110237734
-0.1919300387847222,-0.09896171215800414,-1.3169426110237734
-0.1918738887847222,-0.09526348730542035,-1.3169426110237734
-0.1918177387847222,-0.09526348730542035,-1.3169426110237734
-0.1917615887847222,-0.09896171215800414,-1.3169426110237734
-0.19170543878472218,-0.09526348730542035,-1.3169426110237734
-0.1916492887847222,-0.09526348730542035,-1.3169426110237734
-0.1915931387847222,-0.09526348730542035,-1.3169426110237734
-0.1915369887847222,-0.09526348730542035,-1.3169426110237734
-0.1914808387847222,-0.09526348730542035,-1.3132352600427357
-0.19142468878472219,-0.09156526245283655,-1.3169426110237734
-0.1913685387847222,-0.09156526245283655,-1.3169426110237734
-0.1913123887847222,-0.09156526245283655,-1.3169426110237734
-0.1912562387847222,-0.09156526245283655,-1.3169426110237734
-0.1912000887847222,-0.09156526245283655,-1.3169426110237734
-0.1911439387847222,-0.09156526245283655,-1.3169426110237734
-0.19108778878472218,-0.09156526245283655,-1.3169426110237734
-0.1910316387847222,-0.09156526245283655,-1.3169426110237734
-0.1909754887847222,-0.09156526245283655,-1.3169426110237734
-0.1909193387847222,-0.08786703760025275,-1.3169426110237734
-0.1908631887847222,-0.09526348730542035,-1.3169426110237734
-0.1908070387847222,-0.09156526245283655,-1.3169426110237734
-0.19075088878472218,-0.08786703760025275,-1.3169426110237734
-0.1906947387847222,-0.08786703760025275,-1.3169426110237734
-0.1906385887847222,-0.08786703760025275,-1.3169426110237734
-0.1905824387847222,-0.09156526245283655,-1.3169426110237734
-0.1905262887847222,-0.08786703760025275,-1.3169426110237734
-0.1904701387847222,-0.08786703760025275,-1.3169426110237734
-0.19041398878472218,-0.08786703760025107,-1.3169426110237734
-0.1903578387847222,-0.08416881274766895,-1.3169426110237734
-0.1903016887847222,-0.09156526245283655,-1.3169426110237734
-0.1902455387847222,-0.08786703760025275,-1.3169426110237734
-0.1901893887847222,-0.08416881274766895,-1.3169426110237734
-0.19013323878472219,-0.08786703760025275,-1.3169426110237734
-0.1900770887847222,-0.08786703760025275,-1.3169426110237734
-0.1900209387847222,-0.08786703760025275,-1.3169426110237734
-0.1899647887847222,-0.08786703760025275,-1.3169426110237734
-0.1899086387847222,-0.08786703760025275,-1.3169426110237734
-0.1898524887847222,-0.08416881274766895,-1.3169426110237734
-0.18979633878472219,-0.08786703760025275,-1.3169426110237734
-0.1897401887847222,-0.08786703760025275,-1.3169426110237734
-0.1896840387847222,-0.08786703760025275,-1.3169426110237734
-0.1896278887847222,-0.08786703760025275,-1.3169426110237734
-0.1895717387847222,-0.08786703760025275,-1.3169426110237734
-0.1895155887847222,-0.09156526245283655,-1.3169426110237734
-0.18945943878472218,-0.08786703760025275,-1.3169426110237734
-0.1894032887847222,-0.08786703760025275,-1.3169426110237734
-0.1893471387847222,-0.08786703760025275,-1.3169426110237734
-0.1892909887847222,-0.08786703760025275,-1.3169426110237734
-0.1892348387847222,-0.08786703760025275,-1.3169426110237734
-0.1891786887847222,-0.08786703760025275,-1.3169426110237734
-0.18912253878472218,-0.09156526245283655,-1.3169426110237734
-0.1890663887847222,-0.08786703760025275,-1.3169426110237734
-0.1890102387847222,-0.08786703760025275,-1.3169426110237734
-0.1889540887847222,-0.08786703760025275,-1.3169426110237734
-0.1888979387847222,-0.08786703760025275,-1.3169426110237734
-0.1888417887847222,-0.08786703760025275,-1.3169426110237734
-0.18878563878472218,-0.08786703760025275,-1.3169426110237734
-0.1887294887847222,-0.08786703760025275,-1.3169426110237734
-0.1886733387847222,-0.08416881274766895,-1.3169426110237734
-0.1886171887847222,-0.08786703760025275,-1.3169426110237734
-0.1885610387847222,-0.08786703760025275,-1.3169426110237734
-0.18850488878472219,-0.09156526245283655,-1.3169426110237734
-0.1884487387847222,-0.09156526245283655,-1.3169426110237734
-0.1883925887847222,-0.08786703760025275,-1.3169426110237734
-0.1883364387847222,-0.08416881274766895,-1.3169426110237734
-0.1882802887847222,-0.08416881274766895,-1.3169426110237734
-0.1882241387847222,-0.08416881274766895,-1.3169426110237734
-0.18816798878472218,-0.08416881274766895,-1.3169426110237734
-0.1881118387847222,-0.08416881274766895,-1.3169426110237734
-0.1880556887847222,-0.08416881274766895,-1.3169426110237734
-0.1879995387847222,-0.08416881274766895,-1.3169426110237734
-0.1879433887847222,-0.08416881274766895,-1.3169426110237734
-0.1878872387847222,-0.08416881274766895,-1.3169426110237734
-0.18783108878472218,-0.08416881274766895,-1.3169426110237734
-0.1877749387847222,-0.08416881274766895,-1.3169426110237734
-0.1877187887847222,-0.08416881274766895,-1.3169426110237734
-0.1876626387847222,-0.08416881274766895,-1.3169426110237734
-0.1876064887847222,-0.08416881274766895,-1.3169426110237734
-0.1875503387847222,-0.08416881274766895,-1.3169426110237734
-0.18749418878472218,-0.08416881274766895,-1.3169426110237734
-0.1874380387847222,-0.08416881274766895,-1.3169426110237734
-0.1873818887847222,-0.08786703760025275,-1.3169426110237734
-0.1873257387847222,-0.08786703760025275,-1.3169426110237734
-0.1872695887847222,-0.08416881274766895,-1.3169426110237734
-0.18721343878472219,-0.08416881274766895,-1.3169426110237734
-0.1871572887847222,-0.08416881274766895,-1.3169426110237734
-0.1871011387847222,-0.08416881274766895,-1.3169426110237734
-0.1870449887847222,-0.08786703760025275,-1.3169426110237734
-0.1869888387847222,-0.08786703760025275,-1.3169426110237734
-0.1869326887847222,-0.08416881274766895,-1.3169426110237734
-0.18687653878472218,-0.08416881274766895,-1.3169426110237734
-0.1868203887847222,-0.08416881274766895,-1.3169426110237734
-0.1867642387847222,-0.08416881274766895,-1.3169426110237734
-0.1867080887847222,-0.08416881274766895,-1.3169426110237734
-0.1866519387847222,-0.08786703760025275,-1.3169426110237734
-0.1865957887847222,-0.08416881274766895,-1.3169426110237734
-0.18653963878472218,-0.08416881274766895,-1.3169426110237734
-0.1864834887847222,-0.08786703760025275,-1.3169426110237734
-0.1864273387847222,-0.08786703760025275,-1.3169426110237734
-0.1863711887847222,-0.08786703760025275,-1.3169426110237734
-0.1863150387847222,-0.08786703760025275,-1.3169426110237734
-0.1862588887847222,-0.08786703760025275,-1.3169426110237734
-0.18620273878472218,-0.08786703760025275,-1.3169426110237734
-0.1861465887847222,-0.08786703760025275,-1.3169426110237734
-0.1860904387847222,-0.08786703760025275,-1.3169426110237734
-0.1860342887847222,-0.08786703760025275,-1.3169426110237734
-0.1859781387847222,-0.08786703760025275,-1.3169426110237734
-0.1859219887847222,-0.08416881274766895,-1.3169426110237734
-0.1858658387847222,-0.08786703760025107,-1.3169426110237734
-0.1858096887847222,-0.08416881274766895,-1.3169426110237734
-0.1857535387847222,-0.08416881274766895,-1.3169426110237734
-0.1856973887847222,-0.08416881274766895,-1.3169426110237734
-0.1856412387847222,-0.08786703760025275,-1.3169426110237734
-0.18558508878472219,-0.08416881274766895,-1.3169426110237734
-0.1855289387847222,-0.08416881274766895,-1.3169426110237734
-0.1854727887847222,-0.08416881274766895,-1.3169426110237734
-0.1854166387847222,-0.08416881274766895,-1.3169426110237734
-0.1853604887847222,-0.08416881274766895,-1.3169426110237734
-0.1853043387847222,-0.08416881274766895,-1.3132352600427357
-0.18524818878472218,-0.08416881274766895,-1.3169426110237734
-0.1851920387847222,-0.08416881274766895,-1.3169426110237734
-0.1851358887847222,-0.08416881274766895,-1.3169426110237734
-0.1850797387847222,-0.08416881274766895,-1.3169426110237734
-0.1850235887847222,-0.08416881274766895,-1.3169426110237734
-0.1849674387847222,-0.08047058789508515,-1.3169426110237734
-0.18491128878472218,-0.08047058789508515,-1.3169426110237734
-0.1848551387847222,-0.08047058789508515,-1.3169426110237734
-0.1847989887847222,-0.07677236304250135,-1.3169426110237734
-0.1847428387847222,-0.07677236304250135,-1.3169426110237734
-0.1846866887847222,-0.08047058789508515,-1.3169426110237734
-0.1846305387847222,-0.08047058789508515,-1.3169426110237734
-0.18457438878472218,-0.08047058789508515,-1.3169426110237734
-0.1845182387847222,-0.08047058789508515,-1.3169426110237734
-0.1844620887847222,-0.08047058789508515,-1.3169426110237734
-0.1844059387847222,-0.07677236304250135,-1.3169426110237734
-0.1843497887847222,-0.07677236304250135,-1.3169426110237734
-0.18429363878472219,-0.07677236304250135,-1.3169426110237734
-0.1842374887847222,-0.07677236304250135,-1.3169426110237734
-0.1841813387847222,-0.07677236304250135,-1.3169426110237734
-0.1841251887847222,-0.07677236304250135,-1.3169426110237734
-0.1840690387847222,-0.07307413818991755,-1.3169426110237734
-0.1840128887847222,-0.07677236304250135,-1.3169426110237734
-0.18395673878472218,-0.07307413818991755,-1.3169426110237734
-0.1839005887847222,-0.07307413818991755,-1.3169426110237734
-0.1838444387847222,-0.07307413818991755,-1.3169426110237734
-0.1837882887847222,-0.07677236304250135,-1.3169426110237734
-0.1837321387847222,-0.07677236304250135,-1.3169426110237734
-0.1836759887847222,-0.07677236304250135,-1.3169426110237734
-0.18361983878472218,-0.07307413818991755,-1.3169426110237734
-0.1835636887847222,-0.07307413818991755,-1.3169426110237734
-0.1835075387847222,-0.07307413818991755,-1.320649962004811
-0.1834513887847222,-0.06937591333733376,-1.3169426110237734
-0.1833952387847222,-0.07307413818991755,-1.3169426110237734
-0.1833390887847222,-0.07307413818991755,-1.3169426110237734
-0.18328293878472218,-0.07307413818991587,-1.3169426110237734
-0.1832267887847222,-0.06937591333733376,-1.3169426110237734
-0.1831706387847222,-0.06937591333733376,-1.3169426110237734
-0.1831144887847222,-0.06567768848474995,-1.3169426110237734
-0.1830583387847222,-0.06567768848474995,-1.3169426110237734
-0.1830021887847222,-0.07307413818991755,-1.3169426110237734
-0.1829460387847222,-0.07307413818991755,-1.3169426110237734
-0.1828898887847222,-0.06567768848474995,-1.3169426110237734
-0.1828337387847222,-0.06567768848474995,-1.3169426110237734
-0.1827775887847222,-0.06567768848474995,-1.3169426110237734
-0.1827214387847222,-0.06937591333733376,-1.3169426110237734
-0.18266528878472219,-0.06567768848474995,-1.3169426110237734
-0.1826091387847222,-0.06567768848474995,-1.3169426110237734
-0.1825529887847222,-0.06567768848474995,-1.3169426110237734
-0.1824968387847222,-0.06197946363216615,-1.3169426110237734
-0.1824406887847222,-0.06197946363216615,-1.3169426110237734
-0.1823845387847222,-0.05828123877958235,-1.3169426110237734
-0.18232838878472218,-0.05828123877958235,-1.3169426110237734
-0.1822722387847222,-0.05828123877958235,-1.3169426110237734
-0.1822160887847222,-0.05828123877958235,-1.3169426110237734
-0.1821599387847222,-0.05828123877958235,-1.3169426110237734
-0.1821037887847222,-0.05828123877958235,-1.3169426110237734
-0.1820476387847222,-0.05828123877958235,-1.3169426110237734
-0.18199148878472218,-0.054583013926998554,-1.3169426110237734
-0.1819353387847222,-0.054583013926998554,-1.3169426110237734
-0.1818791887847222,-0.054583013926998554,-1.3169426110237734
-0.1818230387847222,-0.054583013926998554,-1.3169426110237734
-0.1817668887847222,-0.05088478907441475,-1.3169426110237734
-0.1817107387847222,-0.05088478907441475,-1.3169426110237734
-0.1816545887847222,-0.05088478907441475,-1.3169426110237734
-0.1815984387847222,-0.05088478907441475,-1.3169426110237734
-0.1815422887847222,-0.05088478907441475,-1.3169426110237734
-0.1814861387847222,-0.04718656422183096,-1.3169426110237734
-0.1814299887847222,-0.04718656422183096,-1.3169426110237734
-0.18137383878472219,-0.043488339369247155,-1.3169426110237734
-0.1813176887847222,-0.04718656422183096,-1.3169426110237734
-0.1812615387847222,-0.04718656422183096,-1.3169426110237734
-0.1812053887847222,-0.043488339369247155,-1.3169426110237734
-0.1811492387847222,-0.043488339369247155,-1.3169426110237734
-0.1810930887847222,-0.03979011451666335,-1.3169426110237734
-0.18103693878472218,-0.03979011451666335,-1.3169426110237734
-0.1809807887847222,-0.03979011451666335,-1.3169426110237734
-0.1809246387847222,-0.03609188966407956,-1.3169426110237734
-0.1808684887847222,-0.03609188966407956,-1.3169426110237734
-0.1808123387847222,-0.03609188966407956,-1.3169426110237734
-0.1807561887847222,-0.032393664811495755,-1.3169426110237734
-0.18070003878472218,-0.03979011451666335,-1.3169426110237734
-0.1806438887847222,-0.03609188966407956,-1.3169426110237734
-0.1805877387847222,-0.03609188966407956,-1.3169426110237734
-0.1805315887847222,-0.032393664811495755,-1.3169426110237734
-0.1804754387847222,-0.032393664811495755,-1.3169426110237734
-0.1804192887847222,-0.032393664811495755,-1.3169426110237734
-0.18036313878472218,-0.02869543995891364,-1.3169426110237734
-0.1803069887847222,-0.032393664811495755,-1.3169426110237734
-0.1802508387847222,-0.032393664811495755,-1.3169426110237734
-0.1801946887847222,-0.028695439958911956,-1.3169426110237734
-0.1801385387847222,-0.028695439958911956,-1.3169426110237734
-0.18008238878472219,-0.028695439958911956,-1.3169426110237734
-0.1800262387847222,-0.028695439958911956,-1.3169426110237734
-0.1799700887847222,-0.024997215106328158,-1.3169426110237734
-0.1799139387847222,-0.024997215106328158,-1.320649962004811
-0.1798577887847222,-0.024997215106328158,-1.3169426110237734
