10Hz/acq0081.csv

#Digilent WaveForms Oscilloscope Acquisition
#Device Name: Discovery2
#Serial Number: SN:210321AA28BE
#Date Time: 2023-05-24 14:52:49.535
#Sample rate: 17809.4Hz
#Samples: 8192
#Trigger: Source: Channel 1 Type: Edge Condition: Rising Level: 800 mV Hyst.: Auto HoldOff: 100 ns
#Channel 1: Range: 1 V/div Offset: 0 V Attenuation: 1 X Sample Mode: Average
#Channel 2: Range: 1 V/div Offset: 0 V Attenuation: 1 X Sample Mode: Average

Time (s),Channel 1 (V),Channel 2 (V)
-0.1977244990056818,-0.05088478907441475,-1.3169426110237734
-0.1976683490056818,-0.06197946363216111,-1.3169426110237734
-0.19761219900568178,-0.06937591333733376,-1.3169426110237734
-0.1975560490056818,-0.0804705878950801,-1.3169426110237734
-0.19749989900568182,-0.08786703760024939,-1.3169426110237734
-0.1974437490056818,-0.09526348730542035,-1.3169426110237734
-0.1973875990056818,-0.10265993701058458,-1.3169426110237734
-0.19733144900568178,-0.10635816186317175,-1.3169426110237734
-0.1972752990056818,-0.11375461156833598,-1.3169426110237734
-0.19721914900568177,-0.11745283642092483,-1.3132352600427375
-0.1971629990056818,-0.12115106127350694,-1.3169426110237734
-0.19710684900568182,-0.12484928612608906,-1.3169426110237734
-0.19705069900568178,-0.12854751097867453,-1.3169426110237734
-0.1969945490056818,-0.1359439606838388,-1.3169426110237734
-0.19693839900568177,-0.13594396068384215,-1.3169426110237734
-0.1968822490056818,-0.13964218553642424,-1.3169426110237734
-0.19682609900568182,-0.14334041038900805,-1.3169426110237734
-0.1967699490056818,-0.14703863524159355,-1.3169426110237734
-0.1967137990056818,-0.14703863524159355,-1.3132352600427375
-0.19665764900568178,-0.15073686009417733,-1.3132352600427357
-0.1966014990056818,-0.15073686009417733,-1.3169426110237716
-0.19654534900568182,-0.15073686009417733,-1.3169426110237734
-0.1964891990056818,-0.15073686009417733,-1.3169426110237734
-0.19643304900568181,-0.15443508494675945,-1.3169426110237734
-0.19637689900568178,-0.15443508494676114,-1.3169426110237734
-0.1963207490056818,-0.15443508494676114,-1.3169426110237734
-0.19626459900568177,-0.15443508494676114,-1.3132352600427357
-0.1962084490056818,-0.15443508494676114,-1.3132352600427357
-0.19615229900568182,-0.15443508494676114,-1.3132352600427357
-0.19609614900568179,-0.15443508494676114,-1.3169426110237734
-0.1960399990056818,-0.15443508494676114,-1.3132352600427375
-0.19598384900568178,-0.15443508494676114,-1.3169426110237734
-0.1959276990056818,-0.15813330979934326,-1.3132352600427375
-0.19587154900568182,-0.15443508494676284,-1.3169426110237716
-0.1958153990056818,-0.15443508494676114,-1.3132352600427357
-0.1957592490056818,-0.15443508494676114,-1.3169426110237716
-0.19570309900568178,-0.15443508494676114,-1.3169426110237734
-0.1956469490056818,-0.15443508494676114,-1.3169426110237734
-0.19559079900568183,-0.15443508494676114,-1.3169426110237734
-0.1955346490056818,-0.15073686009417733,-1.3169426110237734
-0.19547849900568182,-0.15073686009417733,-1.3169426110237734
-0.19542234900568178,-0.15073686009417733,-1.3169426110237734
-0.1953661990056818,-0.14703863524159524,-1.3169426110237734
-0.19531004900568177,-0.14703863524159355,-1.3169426110237734
-0.1952538990056818,-0.14703863524159355,-1.3169426110237734
-0.19519774900568182,-0.14334041038901144,-1.3169426110237734
-0.1951415990056818,-0.14334041038900974,-1.3169426110237734
-0.1950854490056818,-0.14334041038900974,-1.3169426110237734
-0.19502929900568178,-0.14334041038900974,-1.3169426110237734
-0.1949731490056818,-0.14334041038900974,-1.3169426110237734
-0.19491699900568182,-0.1396421855364293,-1.3169426110237734
-0.1948608490056818,-0.13964218553642593,-1.3169426110237734
-0.19480469900568181,-0.13964218553642593,-1.3169426110237734
-0.19474854900568178,-0.13964218553642593,-1.3169426110237734
-0.1946923990056818,-0.13594396068384385,-1.3169426110237734
-0.19463624900568177,-0.13594396068384215,-1.3169426110237734
-0.1945800990056818,-0.13594396068384215,-1.3169426110237734
-0.19452394900568182,-0.13594396068384215,-1.3169426110237734
-0.19446779900568179,-0.13224573583125834,-1.3169426110237734
-0.1944116490056818,-0.13224573583125834,-1.3169426110237734
-0.19435549900568178,-0.13224573583125834,-1.3169426110237734
-0.1942993490056818,-0.13224573583125834,-1.3169426110237734
-0.19424319900568182,-0.12854751097867623,-1.3169426110237734
-0.1941870490056818,-0.12854751097867453,-1.3169426110237734
-0.1941308990056818,-0.12854751097867453,-1.3169426110237734
-0.19407474900568178,-0.12854751097867453,-1.3169426110237734
-0.1940185990056818,-0.12854751097867453,-1.3169426110237734
-0.19396244900568183,-0.12854751097867453,-1.3169426110237734
-0.1939062990056818,-0.12854751097867453,-1.3169426110237734
-0.19385014900568182,-0.12854751097867453,-1.3169426110237734
-0.19379399900568178,-0.12484928612609074,-1.3169426110237734
-0.1937378490056818,-0.12484928612609074,-1.3169426110237734
-0.19368169900568177,-0.12484928612609074,-1.3169426110237734
-0.1936255490056818,-0.12484928612609074,-1.3169426110237734
-0.19356939900568182,-0.12484928612609074,-1.3169426110237734
-0.1935132490056818,-0.12115106127350694,-1.3169426110237734
-0.1934570990056818,-0.12115106127350694,-1.3169426110237734
-0.19340094900568178,-0.12115106127350694,-1.3169426110237734
-0.1933447990056818,-0.12115106127350694,-1.3169426110237734
-0.19328864900568182,-0.12115106127350694,-1.3169426110237734
-0.1932324990056818,-0.11745283642092315,-1.3169426110237734
-0.1931763490056818,-0.11745283642092315,-1.3169426110237734
-0.19312019900568178,-0.11745283642092315,-1.3169426110237734
-0.1930640490056818,-0.11745283642092315,-1.3169426110237734
-0.19300789900568177,-0.11375461156833934,-1.3169426110237734
-0.1929517490056818,-0.11375461156833934,-1.3169426110237734
-0.19289559900568182,-0.11375461156833934,-1.3169426110237734
-0.19283944900568178,-0.11005638671575554,-1.3169426110237734
-0.1927832990056818,-0.11375461156833766,-1.3169426110237734
-0.19272714900568177,-0.11005638671575554,-1.3169426110237734
-0.1926709990056818,-0.11005638671575554,-1.3169426110237734
-0.19261484900568182,-0.10635816186317343,-1.3169426110237734
-0.1925586990056818,-0.11005638671575554,-1.3169426110237734
-0.1925025490056818,-0.10635816186317343,-1.3169426110237734
-0.19244639900568178,-0.10635816186317175,-1.3169426110237734
-0.1923902490056818,-0.10635816186317175,-1.3169426110237734
-0.19233409900568182,-0.10635816186317175,-1.3169426110237734
-0.1922779490056818,-0.10635816186317175,-1.3169426110237734
-0.19222179900568181,-0.10265993701058962,-1.3169426110237734
-0.19216564900568178,-0.10635816186317175,-1.3169426110237734
-0.1921094990056818,-0.10265993701058962,-1.3169426110237734
-0.19205334900568177,-0.10265993701058794,-1.3169426110237734
-0.1919971990056818,-0.10265993701058794,-1.3169426110237734
-0.19194104900568182,-0.10265993701058794,-1.3169426110237734
-0.19188489900568179,-0.10265993701058794,-1.3169426110237734
-0.1918287490056818,-0.09896171215800582,-1.3169426110237734
-0.19177259900568178,-0.10265993701058794,-1.3169426110237734
-0.1917164490056818,-0.09896171215800582,-1.3169426110237734
-0.19166029900568182,-0.09896171215800414,-1.3169426110237734
-0.1916041490056818,-0.09896171215800414,-1.3169426110237734
-0.1915479990056818,-0.09896171215800414,-1.3169426110237734
-0.19149184900568178,-0.09896171215800414,-1.3169426110237734
-0.1914356990056818,-0.09896171215800414,-1.3169426110237734
-0.19137954900568183,-0.09896171215800414,-1.3169426110237734
-0.1913233990056818,-0.09896171215800414,-1.3169426110237734
-0.19126724900568182,-0.09896171215800414,-1.3169426110237734
-0.19121109900568178,-0.09896171215800414,-1.3169426110237734
-0.1911549490056818,-0.09896171215800414,-1.3169426110237734
-0.19109879900568177,-0.09896171215800414,-1.3169426110237734
-0.1910426490056818,-0.09526348730542035,-1.3169426110237734
-0.19098649900568182,-0.09896171215800247,-1.3169426110237734
-0.1909303490056818,-0.09896171215800414,-1.3169426110237734
-0.1908741990056818,-0.09526348730542203,-1.3169426110237734
-0.19081804900568178,-0.09526348730542035,-1.3169426110237734
-0.1907618990056818,-0.09526348730542035,-1.3169426110237734
-0.19070574900568182,-0.09526348730542035,-1.3169426110237734
-0.1906495990056818,-0.09526348730542035,-1.3169426110237734
-0.19059344900568181,-0.09896171215800247,-1.3169426110237734
-0.19053729900568178,-0.09526348730542035,-1.3169426110237734
-0.1904811490056818,-0.09526348730542035,-1.3169426110237734
-0.19042499900568177,-0.09526348730542035,-1.3169426110237734
-0.1903688490056818,-0.09526348730542035,-1.3169426110237734
-0.19031269900568182,-0.09526348730542035,-1.3169426110237734
-0.19025654900568179,-0.09896171215800414,-1.3169426110237734
-0.1902003990056818,-0.09896171215800414,-1.3206499620048093
-0.19014424900568178,-0.09896171215800414,-1.3169426110237734
-0.1900880990056818,-0.09896171215800414,-1.3169426110237734
-0.19003194900568182,-0.09526348730542203,-1.3169426110237734
-0.1899757990056818,-0.09526348730542035,-1.3169426110237734
-0.1899196490056818,-0.09526348730542035,-1.3169426110237734
-0.18986349900568178,-0.09526348730542035,-1.3169426110237734
-0.1898073490056818,-0.09526348730542035,-1.3169426110237734
-0.18975119900568183,-0.09526348730542035,-1.3169426110237734
-0.1896950490056818,-0.09526348730542035,-1.3169426110237734
-0.18963889900568182,-0.09156526245283823,-1.3169426110237734
-0.18958274900568178,-0.09526348730542035,-1.3169426110237734
-0.1895265990056818,-0.09526348730542035,-1.3169426110237734
-0.18947044900568177,-0.09526348730542035,-1.3169426110237734
-0.1894142990056818,-0.09156526245283655,-1.3169426110237734
-0.18935814900568182,-0.09156526245283655,-1.3169426110237734
-0.1893019990056818,-0.09156526245283655,-1.3169426110237734
-0.1892458490056818,-0.09156526245283655,-1.3206499620048093
-0.18918969900568178,-0.09156526245283655,-1.3169426110237734
-0.1891335490056818,-0.09156526245283655,-1.3169426110237734
-0.18907739900568182,-0.09156526245283655,-1.3169426110237734
-0.1890212490056818,-0.08786703760025275,-1.3169426110237734
-0.1889650990056818,-0.09156526245283488,-1.3169426110237734
-0.18890894900568178,-0.09156526245283655,-1.3169426110237734
-0.1888527990056818,-0.09156526245283655,-1.3169426110237734
-0.18879664900568177,-0.09156526245283655,-1.3169426110237734
-0.1887404990056818,-0.09156526245283655,-1.3169426110237734
-0.18868434900568182,-0.09156526245283655,-1.3169426110237734
-0.18862819900568178,-0.09156526245283655,-1.3169426110237734
-0.1885720490056818,-0.09156526245283655,-1.3169426110237734
-0.18851589900568178,-0.09156526245283655,-1.3169426110237734
-0.1884597490056818,-0.09156526245283655,-1.3169426110237734
-0.18840359900568182,-0.09156526245283655,-1.3169426110237734
-0.1883474490056818,-0.09156526245283655,-1.3169426110237734
-0.1882912990056818,-0.09156526245283655,-1.3169426110237734
-0.18823514900568178,-0.08786703760025275,-1.3169426110237734
-0.1881789990056818,-0.08786703760025275,-1.3169426110237734
-0.18812284900568182,-0.0915652624528332,-1.3169426110237734
-0.1880666990056818,-0.09156526245283655,-1.3169426110237734
-0.18801054900568182,-0.08786703760025442,-1.3169426110237734
-0.18795439900568178,-0.08786703760025275,-1.3169426110237734
-0.1878982490056818,-0.08786703760025275,-1.3169426110237734
-0.18784209900568177,-0.09156526245283655,-1.3169426110237734
-0.1877859490056818,-0.09156526245283655,-1.3169426110237734
-0.18772979900568182,-0.09156526245283655,-1.3169426110237734
-0.1876736490056818,-0.09156526245283655,-1.3169426110237734
-0.1876174990056818,-0.09156526245283655,-1.3206499620048093
-0.18756134900568178,-0.09156526245283655,-1.3169426110237734
-0.1875051990056818,-0.09156526245283655,-1.3206499620048093
-0.18744904900568182,-0.09156526245283655,-1.3169426110237752
-0.1873928990056818,-0.09156526245283655,-1.3169426110237734
-0.1873367490056818,-0.09156526245283655,-1.3169426110237734
-0.18728059900568178,-0.09156526245283655,-1.3169426110237734
-0.1872244490056818,-0.09156526245283655,-1.3169426110237734
-0.18716829900568183,-0.09156526245283655,-1.3169426110237734
-0.1871121490056818,-0.09156526245283655,-1.3169426110237734
-0.18705599900568182,-0.09156526245283655,-1.3169426110237734
-0.18699984900568178,-0.09156526245283655,-1.3169426110237734
-0.1869436990056818,-0.09156526245283655,-1.3169426110237734
-0.18688754900568177,-0.09156526245283655,-1.3169426110237734
-0.1868313990056818,-0.09526348730542035,-1.3169426110237734
-0.18677524900568182,-0.09526348730542035,-1.3169426110237734
-0.1867190990056818,-0.09526348730542035,-1.3169426110237734
-0.1866629490056818,-0.09156526245283823,-1.3169426110237734
-0.18660679900568178,-0.09156526245283655,-1.3169426110237734
-0.1865506490056818,-0.09156526245283655,-1.3169426110237734
-0.18649449900568182,-0.09156526245283655,-1.3169426110237734
-0.1864383490056818,-0.08786703760025275,-1.3169426110237734
-0.18638219900568181,-0.08786703760025275,-1.3169426110237734
-0.18632604900568178,-0.08786703760025275,-1.3169426110237734
-0.1862698990056818,-0.08786703760025275,-1.3169426110237734
-0.18621374900568177,-0.08786703760025275,-1.3169426110237734
-0.1861575990056818,-0.08786703760025275,-1.3169426110237734
-0.18610144900568182,-0.08786703760025275,-1.3169426110237734
-0.18604529900568179,-0.08786703760025275,-1.3169426110237734
-0.1859891490056818,-0.08786703760025275,-1.3169426110237734
-0.18593299900568178,-0.08786703760025275,-1.3169426110237734
-0.1858768490056818,-0.08786703760025275,-1.3169426110237734
-0.18582069900568182,-0.08786703760025275,-1.3169426110237734
-0.1857645490056818,-0.08786703760025275,-1.3169426110237734
-0.1857083990056818,-0.08416881274767063,-1.3169426110237734
-0.18565224900568178,-0.08416881274766895,-1.3169426110237734
-0.1855960990056818,-0.08416881274766895,-1.3169426110237734
-0.18553994900568183,-0.08416881274766895,-1.3169426110237734
-0.1854837990056818,-0.08416881274766895,-1.3169426110237734
-0.18542764900568182,-0.08416881274766895,-1.3169426110237734
-0.18537149900568178,-0.08416881274766895,-1.3169426110237734
-0.1853153490056818,-0.08416881274766895,-1.3169426110237734
-0.18525919900568177,-0.08416881274766895,-1.3169426110237734
-0.1852030490056818,-0.08416881274766895,-1.3169426110237734
-0.18514689900568182,-0.08416881274766895,-1.3169426110237734
-0.1850907490056818,-0.08047058789508515,-1.3169426110237734
-0.1850345990056818,-0.08047058789508515,-1.3169426110237734
-0.18497844900568178,-0.08047058789508515,-1.3169426110237734
-0.1849222990056818,-0.08047058789508515,-1.3169426110237734
-0.18486614900568182,-0.08047058789508515,-1.3169426110237734
-0.1848099990056818,-0.07677236304250135,-1.3169426110237734
-0.18475384900568181,-0.08047058789508348,-1.3169426110237734
-0.18469769900568178,-0.07677236304250135,-1.3169426110237734
-0.1846415490056818,-0.08047058789508348,-1.3206499620048093
-0.18458539900568177,-0.08047058789508515,-1.3169426110237752
-0.1845292490056818,-0.08047058789508515,-1.320649962004811
-0.18447309900568182,-0.07677236304250303,-1.320649962004811
-0.18441694900568179,-0.07677236304250135,-1.3169426110237734
-0.1843607990056818,-0.07677236304250135,-1.3169426110237734
-0.18430464900568178,-0.07677236304250135,-1.3169426110237734
-0.1842484990056818,-0.07677236304250135,-1.3169426110237734
-0.18419234900568182,-0.07677236304250135,-1.3169426110237734
-0.1841361990056818,-0.07677236304250135,-1.3169426110237734
-0.1840800490056818,-0.07677236304250135,-1.3169426110237734
-0.18402389900568178,-0.07677236304250135,-1.3169426110237734
-0.1839677490056818,-0.07677236304250135,-1.3169426110237734
-0.18391159900568183,-0.07677236304250135,-1.3169426110237734
-0.1838554490056818,-0.07307413818991755,-1.3169426110237734
-0.18379929900568182,-0.07677236304249967,-1.3169426110237734
-0.18374314900568178,-0.07307413818991755,-1.320649962004811
-0.1836869990056818,-0.07307413818991755,-1.320649962004811
-0.18363084900568177,-0.07307413818991755,-1.3169426110237734
-0.1835746990056818,-0.06937591333733376,-1.3169426110237734
-0.18351854900568182,-0.06937591333733376,-1.3206499620048093
-0.1834623990056818,-0.06937591333733376,-1.3169426110237734
-0.1834062490056818,-0.06937591333733376,-1.3169426110237734
-0.18335009900568178,-0.06937591333733376,-1.3169426110237734
-0.1832939490056818,-0.06937591333733376,-1.3169426110237734
-0.18323779900568182,-0.06567768848475163,-1.3169426110237734
-0.1831816490056818,-0.06567768848474995,-1.3169426110237734
-0.1831254990056818,-0.06197946363216783,-1.3169426110237734
-0.18306934900568178,-0.06197946363216615,-1.3169426110237734
-0.1830131990056818,-0.06197946363216615,-1.3169426110237734
-0.18295704900568183,-0.06197946363216615,-1.3169426110237734
-0.1829008990056818,-0.06197946363216615,-1.3169426110237734
-0.18284474900568182,-0.06197946363216615,-1.3169426110237734
-0.18278859900568178,-0.05828123877958235,-1.320649962004811
-0.1827324490056818,-0.05828123877958235,-1.3169426110237752
-0.18267629900568177,-0.05828123877958235,-1.3169426110237734
-0.1826201490056818,-0.05828123877958235,-1.320649962004811
-0.18256399900568182,-0.05828123877958235,-1.320649962004811
-0.1825078490056818,-0.054583013926998554,-1.320649962004811
-0.1824516990056818,-0.054583013926998554,-1.320649962004811
-0.18239554900568178,-0.054583013926998554,-1.3169426110237734
-0.1823393990056818,-0.054583013926998554,-1.3206499620048093
-0.18228324900568182,-0.054583013926998554,-1.3169426110237767
-0.1822270990056818,-0.05088478907441475,-1.320649962004811
-0.18217094900568181,-0.05088478907441475,-1.320649962004811
-0.18211479900568178,-0.05088478907441475,-1.3169426110237734
-0.1820586490056818,-0.047186564221832636,-1.3169426110237734
-0.18200249900568177,-0.04718656422183096,-1.3169426110237752
-0.1819463490056818,-0.04718656422183096,-1.320649962004811
-0.18189019900568182,-0.04718656422183096,-1.320649962004811
-0.18183404900568179,-0.043488339369247155,-1.320649962004811
-0.1817778990056818,-0.043488339369247155,-1.320649962004811
-0.18172174900568178,-0.043488339369247155,-1.320649962004811
-0.1816655990056818,-0.043488339369247155,-1.320649962004811
-0.18160944900568182,-0.043488339369247155,-1.320649962004811
-0.1815532990056818,-0.03979011451666335,-1.3169426110237734
-0.1814971490056818,-0.043488339369245475,-1.3206499620048093
-0.18144099900568178,-0.03979011451666335,-1.3169426110237734
-0.1813848490056818,-0.03979011451666335,-1.3206499620048093
-0.18132869900568183,-0.03609188966408292,-1.320649962004811
-0.1812725490056818,-0.03609188966407956,-1.320649962004811
-0.18121639900568182,-0.03609188966407956,-1.320649962004811
-0.18116024900568178,-0.03609188966407956,-1.320649962004811
-0.1811040990056818,-0.03609188966407956,-1.320649962004811
-0.18104794900568177,-0.032393664811495755,-1.320649962004811
-0.1809917990056818,-0.03609188966407956,-1.320649962004811
-0.18093564900568182,-0.032393664811497434,-1.320649962004811
-0.1808794990056818,-0.032393664811495755,-1.320649962004811
-0.1808233490056818,-0.032393664811495755,-1.3169426110237752
-0.18076719900568178,-0.032393664811495755,-1.320649962004811
-0.1807110490056818,-0.032393664811495755,-1.3169426110237752
-0.18065489900568182,-0.032393664811495755,-1.3206499620048093
-0.1805987490056818,-0.032393664811495755,-1.320649962004811
-0.18054259900568181,-0.02869543995891364,-1.320649962004811
-0.18048644900568178,-0.028695439958911956,-1.320649962004811
-0.1804302990056818,-0.028695439958911956,-1.320649962004811
-0.18037414900568177,-0.028695439958911956,-1.320649962004811
-0.1803179990056818,-0.028695439958911956,-1.320649962004811
-0.18026184900568182,-0.02499721510632984,-1.320649962004811
-0.18020569900568179,-0.024997215106328158,-1.320649962004811
-0.1801495490056818,-0.024997215106328158,-1.3169426110237752
-0.18009339900568178,-0.024997215106328158,-1.320649962004811
-0.1800372490056818,-0.024997215106328158,-1.320649962004811
-0.17998109900568182,-0.024997215106328158,-1.320649962004811
