10Hz/acq0006.csv

#Digilent WaveForms Oscilloscope Acquisition
#Device Name: Discovery2
#Serial Number: SN:210321AA28BE
#Date Time: 2023-05-24 14:52:12.033
#Sample rate: 17809.4Hz
#Samples: 8192
#Trigger: Source: Channel 1 Type: Edge Condition: Rising Level: 800 mV Hyst.: Auto HoldOff: 100 ns
#Channel 1: Range: 1 V/div Offset: 0 V Attenuation: 1 X Sample Mode: Average
#Channel 2: Range: 1 V/div Offset: 0 V Attenuation: 1 X Sample Mode: Average

Time (s),Channel 1 (V),Channel 2 (V)
-0.19772387336006636,-0.028695439958911956,-1.3169426110237734
-0.19766772336006636,-0.03979011451666335,-1.3169426110237734
-0.19761157336006635,-0.04718656422183096,-1.3169426110237734
-0.19755542336006635,-0.05828123877958235,-1.3169426110237734
-0.19749927336006637,-0.06567768848474995,-1.3169426110237734
-0.19744312336006636,-0.07307413818991755,-1.3169426110237734
-0.19738697336006636,-0.08047058789508515,-1.3169426110237734
-0.19733082336006635,-0.08786703760025275,-1.3169426110237734
-0.19727467336006635,-0.09156526245283655,-1.3169426110237734
-0.19721852336006634,-0.09896171215800414,-1.3169426110237734
-0.19716237336006637,-0.09896171215800414,-1.3169426110237734
-0.19710622336006636,-0.10635816186317175,-1.3169426110237734
-0.19705007336006636,-0.10635816186317175,-1.3169426110237734
-0.19699392336006635,-0.11745283642092315,-1.3169426110237734
-0.19693777336006635,-0.12484928612609074,-1.3169426110237734
-0.19688162336006637,-0.12115106127350862,-1.3169426110237734
-0.19682547336006637,-0.12115106127350694,-1.3169426110237734
-0.19676932336006636,-0.12484928612609074,-1.3169426110237734
-0.19671317336006636,-0.12854751097867453,-1.3169426110237734
-0.19665702336006635,-0.12854751097867453,-1.3169426110237734
-0.19660087336006635,-0.13224573583125834,-1.3169426110237734
-0.19654472336006637,-0.13224573583125834,-1.3169426110237734
-0.19648857336006637,-0.13224573583125834,-1.3169426110237734
-0.19643242336006636,-0.14334041038900974,-1.3169426110237734
-0.19637627336006636,-0.13964218553642593,-1.3169426110237734
-0.19632012336006635,-0.14334041038900974,-1.3169426110237734
-0.19626397336006635,-0.13964218553642593,-1.3169426110237734
-0.19620782336006637,-0.14334041038900974,-1.3169426110237734
-0.19615167336006636,-0.14334041038900974,-1.3169426110237734
-0.19609552336006636,-0.14703863524159355,-1.3169426110237734
-0.19603937336006635,-0.14334041038900974,-1.3169426110237734
-0.19598322336006635,-0.14703863524159355,-1.3132352600427357
-0.19592707336006634,-0.14703863524159355,-1.3132352600427357
-0.19587092336006637,-0.14703863524159355,-1.3132352600427357
-0.19581477336006636,-0.14703863524159355,-1.3132352600427357
-0.19575862336006636,-0.14703863524159355,-1.3169426110237734
-0.19570247336006635,-0.14703863524159355,-1.3169426110237734
-0.19564632336006635,-0.14703863524159355,-1.3169426110237734
-0.19559017336006637,-0.14703863524159355,-1.3169426110237734
-0.19553402336006637,-0.14703863524159355,-1.3169426110237734
-0.19547787336006636,-0.14334041038900974,-1.3169426110237734
-0.19542172336006636,-0.15443508494676114,-1.3169426110237734
-0.19536557336006635,-0.15443508494676114,-1.3169426110237734
-0.19530942336006635,-0.15073686009417733,-1.3169426110237734
-0.19525327336006637,-0.15073686009417733,-1.3169426110237734
-0.19519712336006637,-0.14703863524159355,-1.3169426110237734
-0.19514097336006636,-0.15073686009417733,-1.3169426110237734
-0.19508482336006636,-0.15073686009417733,-1.3169426110237734
-0.19502867336006635,-0.15073686009417733,-1.3169426110237734
-0.19497252336006635,-0.15073686009417733,-1.3169426110237734
-0.19491637336006637,-0.15073686009417733,-1.3169426110237734
-0.19486022336006636,-0.15073686009417733,-1.3169426110237734
-0.19480407336006636,-0.15073686009417733,-1.3169426110237734
-0.19474792336006636,-0.15073686009417733,-1.3169426110237734
-0.19469177336006635,-0.15073686009417733,-1.3169426110237734
-0.19463562336006635,-0.15073686009417564,-1.3169426110237734
-0.19457947336006637,-0.14703863524159355,-1.3169426110237734
-0.19452332336006636,-0.15073686009417733,-1.3169426110237734
-0.19446717336006636,-0.15073686009417733,-1.3169426110237734
-0.19441102336006635,-0.14703863524159355,-1.3169426110237734
-0.19435487336006635,-0.15073686009417733,-1.3169426110237734
-0.19429872336006637,-0.15073686009417733,-1.3169426110237734
-0.19424257336006637,-0.15073686009417733,-1.3132352600427357
-0.19418642336006636,-0.14703863524159355,-1.3169426110237734
-0.19413027336006636,-0.14703863524159355,-1.3169426110237734
-0.19407412336006635,-0.14703863524159355,-1.3169426110237734
-0.19401797336006635,-0.14703863524159355,-1.3169426110237734
-0.19396182336006637,-0.14703863524159355,-1.3169426110237734
-0.19390567336006637,-0.14703863524159355,-1.3169426110237734
-0.19384952336006636,-0.14334041038900974,-1.3169426110237734
-0.19379337336006636,-0.14703863524159355,-1.3169426110237734
-0.19373722336006635,-0.14703863524159355,-1.3169426110237734
-0.19368107336006635,-0.14334041038900974,-1.3169426110237734
-0.19362492336006637,-0.14334041038900974,-1.3169426110237734
-0.19356877336006637,-0.14703863524159355,-1.3169426110237734
-0.19351262336006636,-0.14334041038900974,-1.3169426110237734
-0.19345647336006636,-0.14334041038900974,-1.3169426110237734
-0.19340032336006635,-0.14334041038900974,-1.3169426110237734
-0.19334417336006635,-0.14334041038900974,-1.3169426110237734
-0.19328802336006637,-0.14334041038900974,-1.3169426110237734
-0.19323187336006636,-0.13964218553642593,-1.3169426110237734
-0.19317572336006636,-0.13964218553642593,-1.3169426110237734
-0.19311957336006635,-0.13964218553642593,-1.3169426110237734
-0.19306342336006635,-0.13594396068384215,-1.3169426110237734
-0.19300727336006634,-0.13594396068384385,-1.3169426110237734
-0.19295112336006637,-0.13964218553642593,-1.3169426110237734
-0.19289497336006636,-0.13594396068384215,-1.3169426110237734
-0.19283882336006636,-0.13594396068384215,-1.3169426110237734
-0.19278267336006635,-0.13964218553642593,-1.3169426110237734
-0.19272652336006635,-0.13594396068384215,-1.3169426110237734
-0.19267037336006637,-0.13594396068384215,-1.3169426110237734
-0.19261422336006637,-0.13964218553642593,-1.3169426110237734
-0.19255807336006636,-0.13594396068384215,-1.3169426110237734
-0.19250192336006636,-0.13594396068384215,-1.3169426110237734
-0.19244577336006635,-0.13594396068384215,-1.3169426110237734
-0.19238962336006635,-0.13594396068384215,-1.3169426110237734
-0.19233347336006637,-0.13594396068384215,-1.3169426110237734
-0.19227732336006637,-0.13224573583125834,-1.3169426110237734
-0.19222117336006636,-0.12854751097867453,-1.3169426110237734
-0.19216502336006636,-0.13594396068384215,-1.3169426110237734
-0.19210887336006635,-0.13594396068384215,-1.3169426110237734
-0.19205272336006635,-0.13594396068384215,-1.3169426110237734
-0.19199657336006637,-0.13594396068384215,-1.3169426110237734
-0.19194042336006636,-0.13594396068384215,-1.3169426110237734
-0.19188427336006636,-0.13594396068384215,-1.3169426110237734
-0.19182812336006635,-0.13594396068384215,-1.3169426110237734
-0.19177197336006635,-0.13224573583125834,-1.3169426110237734
-0.19171582336006635,-0.13224573583126004,-1.3169426110237734
-0.19165967336006637,-0.13594396068384215,-1.3169426110237734
-0.19160352336006636,-0.13594396068384215,-1.3169426110237734
-0.19154737336006636,-0.13594396068384215,-1.320649962004811
-0.19149122336006635,-0.13224573583125834,-1.3169426110237734
-0.19143507336006635,-0.13224573583125834,-1.3169426110237734
-0.19137892336006637,-0.13224573583125834,-1.3169426110237734
-0.19132277336006637,-0.13224573583125834,-1.3169426110237734
-0.19126662336006636,-0.13224573583125834,-1.3169426110237734
-0.19121047336006636,-0.13224573583125834,-1.3169426110237734
-0.19115432336006635,-0.13224573583125834,-1.3169426110237734
-0.19109817336006635,-0.13224573583125834,-1.3169426110237734
-0.19104202336006637,-0.13224573583125834,-1.3169426110237734
-0.19098587336006637,-0.13224573583125834,-1.3169426110237734
-0.19092972336006636,-0.12854751097867453,-1.3169426110237734
-0.19087357336006636,-0.13224573583125834,-1.3169426110237734
-0.19081742336006635,-0.13224573583125834,-1.3169426110237734
-0.19076127336006635,-0.13224573583125834,-1.3169426110237734
-0.19070512336006637,-0.13224573583125834,-1.3169426110237734
-0.19064897336006636,-0.13224573583125834,-1.3169426110237734
-0.19059282336006636,-0.13224573583125834,-1.3169426110237734
-0.19053667336006636,-0.12854751097867453,-1.3169426110237734
-0.19048052336006635,-0.12854751097867453,-1.3169426110237734
-0.19042437336006635,-0.12854751097867453,-1.3169426110237734
-0.19036822336006637,-0.12854751097867453,-1.3169426110237734
-0.19031207336006636,-0.12854751097867453,-1.3169426110237734
-0.19025592336006636,-0.12484928612609074,-1.3169426110237734
-0.19019977336006635,-0.12484928612609074,-1.3169426110237734
-0.19014362336006635,-0.12854751097867453,-1.3169426110237734
-0.19008747336006637,-0.12854751097867453,-1.3169426110237734
-0.19003132336006637,-0.12484928612609074,-1.3169426110237734
-0.18997517336006636,-0.12484928612609074,-1.3169426110237734
-0.18991902336006636,-0.12854751097867453,-1.3169426110237734
-0.18986287336006635,-0.12484928612609074,-1.3169426110237734
-0.18980672336006635,-0.12484928612609074,-1.3169426110237734
-0.18975057336006637,-0.12115106127350694,-1.3169426110237734
-0.18969442336006637,-0.12115106127350694,-1.3169426110237734
-0.18963827336006636,-0.11745283642092315,-1.320649962004811
-0.18958212336006636,-0.11745283642092315,-1.3169426110237734
-0.18952597336006635,-0.11745283642092315,-1.3169426110237734
-0.18946982336006635,-0.11745283642092315,-1.3169426110237734
-0.18941367336006637,-0.11375461156833934,-1.3169426110237734
-0.18935752336006637,-0.11745283642092315,-1.3169426110237734
-0.18930137336006636,-0.11745283642092315,-1.3169426110237734
-0.18924522336006636,-0.11375461156833934,-1.3169426110237734
-0.18918907336006635,-0.11375461156833934,-1.3169426110237734
-0.18913292336006635,-0.11375461156833934,-1.3169426110237734
-0.18907677336006637,-0.11745283642092315,-1.320649962004811
-0.18902062336006636,-0.11375461156833934,-1.3169426110237734
-0.18896447336006636,-0.11375461156833934,-1.3169426110237734
-0.18890832336006635,-0.11375461156833934,-1.3169426110237734
-0.18885217336006635,-0.11375461156833934,-1.3169426110237734
-0.18879602336006635,-0.11375461156833766,-1.3169426110237734
-0.18873987336006637,-0.11005638671575554,-1.3169426110237734
-0.18868372336006636,-0.11005638671575554,-1.3169426110237734
-0.18862757336006636,-0.11005638671575554,-1.3169426110237734
-0.18857142336006635,-0.11005638671575554,-1.3169426110237734
-0.18851527336006635,-0.11375461156833934,-1.3169426110237734
-0.18845912336006637,-0.11005638671575722,-1.3169426110237734
-0.18840297336006637,-0.11005638671575554,-1.3169426110237734
-0.18834682336006636,-0.11005638671575554,-1.320649962004811
-0.18829067336006636,-0.11005638671575554,-1.320649962004811
-0.18823452336006635,-0.10635816186317175,-1.3169426110237734
-0.18817837336006635,-0.10635816186317175,-1.3169426110237734
-0.18812222336006637,-0.10635816186317175,-1.3169426110237734
-0.18806607336006637,-0.10635816186317175,-1.3169426110237734
-0.18800992336006636,-0.10635816186317175,-1.3169426110237734
-0.18795377336006636,-0.10265993701058794,-1.3169426110237734
-0.18789762336006635,-0.10635816186317175,-1.3169426110237734
-0.18784147336006635,-0.10635816186317175,-1.3169426110237734
-0.18778532336006637,-0.10265993701058794,-1.3169426110237734
-0.18772917336006636,-0.10265993701058794,-1.3169426110237734
-0.18767302336006636,-0.10265993701058794,-1.3169426110237734
-0.18761687336006636,-0.09896171215800414,-1.3169426110237734
-0.18756072336006635,-0.09896171215800414,-1.320649962004811
-0.18750457336006635,-0.09896171215800414,-1.3169426110237734
-0.18744842336006637,-0.09896171215800414,-1.3169426110237734
-0.18739227336006636,-0.09526348730542035,-1.3169426110237734
-0.18733612336006636,-0.09526348730542035,-1.3169426110237734
-0.18727997336006635,-0.09526348730542035,-1.3169426110237734
-0.18722382336006635,-0.09526348730542035,-1.3169426110237734
-0.18716767336006637,-0.09156526245283823,-1.3169426110237734
-0.18711152336006637,-0.09156526245283655,-1.3169426110237734
-0.18705537336006636,-0.09156526245283655,-1.3169426110237734
-0.18699922336006636,-0.08786703760025275,-1.3169426110237734
-0.18694307336006635,-0.08416881274766895,-1.3169426110237734
-0.18688692336006635,-0.08416881274766895,-1.3169426110237734
-0.18683077336006637,-0.08416881274766895,-1.3169426110237734
-0.18677462336006637,-0.08416881274766895,-1.3169426110237734
-0.18671847336006636,-0.08416881274766895,-1.3169426110237734
-0.18666232336006636,-0.08047058789508515,-1.3169426110237734
-0.18660617336006635,-0.08047058789508515,-1.3169426110237734
-0.18655002336006635,-0.08416881274766895,-1.3169426110237734
-0.18649387336006637,-0.08416881274766895,-1.3169426110237734
-0.18643772336006637,-0.07677236304250135,-1.3169426110237734
-0.18638157336006636,-0.08047058789508515,-1.3169426110237734
-0.18632542336006636,-0.07677236304250135,-1.3169426110237734
-0.18626927336006635,-0.07307413818991755,-1.3169426110237734
-0.18621312336006635,-0.07677236304250135,-1.3169426110237734
-0.18615697336006637,-0.07677236304250135,-1.3169426110237734
-0.18610082336006636,-0.08047058789508515,-1.3169426110237734
-0.18604467336006636,-0.07307413818991755,-1.3169426110237734
-0.18598852336006635,-0.07307413818991755,-1.3169426110237734
-0.18593237336006635,-0.06937591333733376,-1.3169426110237734
-0.18587622336006637,-0.06937591333733376,-1.3169426110237734
-0.18582007336006637,-0.06937591333733376,-1.3169426110237734
-0.18576392336006636,-0.06937591333733376,-1.3169426110237734
-0.18570777336006636,-0.06937591333733376,-1.3169426110237734
-0.18565162336006635,-0.06567768848474995,-1.3169426110237734
-0.18559547336006635,-0.06567768848474995,-1.3169426110237734
-0.18553932336006637,-0.06567768848474995,-1.3169426110237734
-0.18548317336006637,-0.06197946363216615,-1.3169426110237734
-0.18542702336006636,-0.06197946363216615,-1.3169426110237734
-0.18537087336006636,-0.06197946363216615,-1.3169426110237734
-0.18531472336006635,-0.06197946363216615,-1.3169426110237734
-0.18525857336006635,-0.06197946363216615,-1.320649962004811
-0.18520242336006637,-0.05828123877958235,-1.320649962004811
-0.18514627336006637,-0.05828123877958235,-1.3169426110237734
-0.18509012336006636,-0.05828123877958235,-1.3169426110237734
-0.18503397336006636,-0.05828123877958235,-1.3169426110237734
-0.18497782336006635,-0.05828123877958235,-1.3169426110237734
-0.18492167336006635,-0.05828123877958235,-1.320649962004811
-0.18486552336006637,-0.05828123877958235,-1.3169426110237734
-0.18480937336006636,-0.05828123877958235,-1.3169426110237734
-0.18475322336006636,-0.05828123877958235,-1.3169426110237734
-0.18469707336006636,-0.054583013926998554,-1.3169426110237734
-0.18464092336006635,-0.054583013926998554,-1.3169426110237734
-0.18458477336006635,-0.05088478907441475,-1.3169426110237734
-0.18452862336006637,-0.05088478907441475,-1.3169426110237734
-0.18447247336006636,-0.05088478907441475,-1.3169426110237734
-0.18441632336006636,-0.05088478907441475,-1.3169426110237734
-0.18436017336006635,-0.05088478907441475,-1.3169426110237734
-0.18430402336006635,-0.04718656422183096,-1.3169426110237734
-0.18424787336006637,-0.04718656422183096,-1.3169426110237734
-0.18419172336006637,-0.04718656422183096,-1.3169426110237734
-0.18413557336006636,-0.04718656422183096,-1.3169426110237734
-0.18407942336006636,-0.043488339369247155,-1.3169426110237734
-0.18402327336006635,-0.04718656422183096,-1.3169426110237734
-0.18396712336006635,-0.043488339369247155,-1.3169426110237734
-0.18391097336006637,-0.043488339369247155,-1.3169426110237734
-0.18385482336006637,-0.043488339369247155,-1.3169426110237734
-0.18379867336006636,-0.043488339369247155,-1.320649962004811
-0.18374252336006636,-0.03979011451666335,-1.3169426110237734
-0.18368637336006635,-0.03979011451666335,-1.3169426110237734
-0.18363022336006635,-0.03979011451666335,-1.3169426110237734
-0.18357407336006637,-0.03609188966407956,-1.3169426110237734
-0.18351792336006637,-0.032393664811495755,-1.3169426110237734
-0.18346177336006636,-0.03609188966407956,-1.3169426110237734
-0.18340562336006636,-0.03609188966407956,-1.3169426110237734
-0.18334947336006635,-0.032393664811495755,-1.3169426110237734
-0.18329332336006635,-0.032393664811495755,-1.3169426110237734
-0.18323717336006637,-0.032393664811495755,-1.3169426110237734
-0.18318102336006636,-0.032393664811495755,-1.3169426110237734
-0.18312487336006636,-0.028695439958911956,-1.3169426110237734
-0.18306872336006635,-0.028695439958911956,-1.3169426110237734
-0.18301257336006635,-0.028695439958911956,-1.3169426110237734
-0.18295642336006637,-0.028695439958911956,-1.3169426110237734
-0.18290027336006637,-0.024997215106328158,-1.3169426110237734
-0.18284412336006636,-0.028695439958911956,-1.320649962004811
-0.18278797336006636,-0.024997215106328158,-1.3169426110237734
-0.18273182336006635,-0.024997215106328158,-1.320649962004811
-0.18267567336006635,-0.024997215106328158,-1.320649962004811
-0.18261952336006637,-0.021298990253744356,-1.320649962004811
-0.18256337336006637,-0.021298990253744356,-1.320649962004811
-0.18250722336006636,-0.021298990253744356,-1.3169426110237734
-0.18245107336006636,-0.017600765401160557,-1.3169426110237734
-0.18239492336006635,-0.017600765401160557,-1.3169426110237734
-0.18233877336006635,-0.013902540548576758,-1.3169426110237734
-0.18228262336006637,-0.017600765401160557,-1.3169426110237734
-0.18222647336006637,-0.017600765401160557,-1.3169426110237734
-0.18217032336006636,-0.017600765401160557,-1.3169426110237734
-0.18211417336006636,-0.017600765401160557,-1.3169426110237734
-0.18205802336006635,-0.017600765401160557,-1.320649962004811
-0.18200187336006635,-0.017600765401160557,-1.3169426110237734
-0.18194572336006637,-0.017600765401160557,-1.3169426110237734
-0.18188957336006636,-0.013902540548576758,-1.320649962004811
-0.18183342336006636,-0.017600765401160557,-1.3169426110237734
-0.18177727336006635,-0.017600765401160557,-1.3169426110237734
-0.18172112336006635,-0.013902540548576758,-1.3169426110237734
-0.18166497336006637,-0.013902540548576758,-1.3169426110237734
-0.18160882336006637,-0.013902540548576758,-1.3169426110237734
-0.18155267336006636,-0.013902540548576758,-1.3169426110237734
-0.18149652336006636,-0.010204315695992958,-1.3169426110237734
-0.18144037336006635,-0.013902540548576758,-1.320649962004811
-0.18138422336006635,-0.013902540548576758,-1.320649962004811
-0.18132807336006637,-0.013902540548576758,-1.3169426110237734
-0.18127192336006637,-0.013902540548576758,-1.320649962004811
-0.18121577336006636,-0.010204315695992958,-1.320649962004811
-0.18115962336006636,-0.013902540548576758,-1.320649962004811
-0.18110347336006635,-0.010204315695992958,-1.3169426110237734
-0.18104732336006635,-0.013902540548576758,-1.3169426110237734
-0.18099117336006637,-0.010204315695992958,-1.3169426110237734
-0.18093502336006637,-0.010204315695992958,-1.3169426110237734
-0.18087887336006636,-0.010204315695992958,-1.3169426110237734
-0.18082272336006636,-0.013902540548576758,-1.320649962004811
-0.18076657336006635,-0.010204315695992958,-1.320649962004811
-0.18071042336006635,-0.010204315695992958,-1.3169426110237734
-0.18065427336006637,-0.0065060908434091584,-1.3169426110237734
-0.18059812336006636,-0.010204315695992958,-1.320649962004811
-0.18054197336006636,-0.010204315695992958,-1.3169426110237734
-0.18048582336006636,-0.010204315695992958,-1.320649962004811
-0.18042967336006635,-0.010204315695992958,-1.320649962004811
-0.18037352336006635,-0.010204315695991277,-1.3169426110237734
-0.18031737336006637,-0.0065060908434091584,-1.3169426110237734
-0.18026122336006636,-0.0065060908434091584,-1.3169426110237734
-0.18020507336006636,-0.0065060908434091584,-1.3169426110237734
-0.18014892336006635,-0.0065060908434091584,-1.3169426110237734
