10Hz/acq0083.csv

#Digilent WaveForms Oscilloscope Acquisition
#Device Name: Discovery2
#Serial Number: SN:210321AA28BE
#Date Time: 2023-05-24 14:52:50.537
#Sample rate: 17809.4Hz
#Samples: 8192
#Trigger: Source: Channel 1 Type: Edge Condition: Rising Level: 800 mV Hyst.: Auto HoldOff: 100 ns
#Channel 1: Range: 1 V/div Offset: 0 V Attenuation: 1 X Sample Mode: Average
#Channel 2: Range: 1 V/div Offset: 0 V Attenuation: 1 X Sample Mode: Average

Time (s),Channel 1 (V),Channel 2 (V)
-0.1977182074306421,-0.054583013926998554,-1.3169426110237734
-0.19766205743064214,-0.061979463632162786,-1.3169426110237734
-0.1976059074306421,-0.07307413818991755,-1.3169426110237734
-0.19754975743064213,-0.0804705878950818,-1.3169426110237734
-0.19749360743064215,-0.08786703760024939,-1.3169426110237734
-0.19743745743064212,-0.09526348730542035,-1.3169426110237734
-0.19738130743064214,-0.10265993701058458,-1.3169426110237734
-0.1973251574306421,-0.10635816186317175,-1.3169426110237734
-0.19726900743064213,-0.11375461156833598,-1.3169426110237734
-0.1972128574306421,-0.11745283642092483,-1.3169426110237734
-0.19715670743064212,-0.12115106127350694,-1.3169426110237734
-0.19710055743064214,-0.12484928612608906,-1.3169426110237734
-0.1970444074306421,-0.12854751097867453,-1.3169426110237734
-0.19698825743064213,-0.13224573583125665,-1.3132352600427375
-0.1969321074306421,-0.13224573583125834,-1.3132352600427357
-0.19687595743064212,-0.13964218553642258,-1.3132352600427357
-0.19681980743064215,-0.13964218553642593,-1.3132352600427357
-0.1967636574306421,-0.14334041038900974,-1.3169426110237734
-0.19670750743064214,-0.14334041038900974,-1.3169426110237734
-0.1966513574306421,-0.14703863524159355,-1.3169426110237734
-0.19659520743064213,-0.14703863524159355,-1.3169426110237734
-0.19653905743064215,-0.14703863524159355,-1.3169426110237734
-0.19648290743064212,-0.15073686009417733,-1.3132352600427357
-0.19642675743064214,-0.15073686009417733,-1.3132352600427357
-0.1963706074306421,-0.15073686009417733,-1.3132352600427357
-0.19631445743064213,-0.15073686009417733,-1.3132352600427357
-0.1962583074306421,-0.15073686009417733,-1.3132352600427357
-0.19620215743064212,-0.15073686009417733,-1.3169426110237734
-0.19614600743064214,-0.15073686009417733,-1.3169426110237734
-0.1960898574306421,-0.15073686009417733,-1.3169426110237734
-0.19603370743064213,-0.15073686009417733,-1.3169426110237734
-0.1959775574306421,-0.15443508494676114,-1.3169426110237734
-0.19592140743064212,-0.15073686009417903,-1.3169426110237734
-0.19586525743064215,-0.15073686009417733,-1.3169426110237734
-0.19580910743064212,-0.15073686009417733,-1.3169426110237734
-0.19575295743064214,-0.14703863524159524,-1.3169426110237734
-0.1956968074306421,-0.14703863524159355,-1.3169426110237734
-0.19564065743064213,-0.14703863524159355,-1.3169426110237734
-0.19558450743064215,-0.1433404103890131,-1.313235260042739
-0.19552835743064212,-0.14703863524159355,-1.3132352600427357
-0.19547220743064214,-0.14334041038901144,-1.3169426110237716
-0.1954160574306421,-0.14334041038900974,-1.3169426110237734
-0.19535990743064213,-0.14334041038900974,-1.3169426110237734
-0.1953037574306421,-0.14334041038900974,-1.3169426110237734
-0.19524760743064212,-0.14334041038900974,-1.3169426110237734
-0.19519145743064215,-0.14334041038900974,-1.3169426110237734
-0.1951353074306421,-0.14334041038900974,-1.3169426110237734
-0.19507915743064214,-0.13964218553642763,-1.3169426110237734
-0.1950230074306421,-0.13964218553642593,-1.3169426110237734
-0.19496685743064213,-0.13964218553642593,-1.3169426110237734
-0.19491070743064215,-0.13964218553642593,-1.3169426110237734
-0.19485455743064212,-0.13594396068384215,-1.3169426110237734
-0.19479840743064214,-0.13594396068384215,-1.3169426110237734
-0.1947422574306421,-0.13594396068384215,-1.3169426110237734
-0.19468610743064213,-0.13594396068384215,-1.3169426110237734
-0.1946299574306421,-0.13224573583125834,-1.3132352600427375
-0.19457380743064212,-0.13224573583125834,-1.3169426110237734
-0.19451765743064214,-0.13224573583125834,-1.3169426110237734
-0.1944615074306421,-0.13224573583125834,-1.3169426110237734
-0.19440535743064213,-0.13224573583125834,-1.3169426110237734
-0.1943492074306421,-0.13224573583125834,-1.3132352600427357
-0.19429305743064212,-0.13224573583125834,-1.3169426110237716
-0.19423690743064215,-0.12854751097867623,-1.3132352600427375
-0.19418075743064211,-0.13224573583125834,-1.3169426110237734
-0.19412460743064214,-0.12854751097867623,-1.3169426110237734
-0.1940684574306421,-0.12854751097867453,-1.3169426110237734
-0.19401230743064213,-0.12854751097867453,-1.3169426110237734
-0.19395615743064215,-0.12854751097867453,-1.3169426110237734
-0.19390000743064212,-0.12854751097867453,-1.3169426110237734
-0.19384385743064214,-0.12484928612609242,-1.3169426110237734
-0.1937877074306421,-0.12484928612609074,-1.3169426110237734
-0.19373155743064213,-0.12484928612609074,-1.3169426110237734
-0.1936754074306421,-0.12484928612609074,-1.3169426110237734
-0.19361925743064212,-0.12484928612609074,-1.3169426110237734
-0.19356310743064215,-0.12115106127350862,-1.3169426110237734
-0.1935069574306421,-0.12115106127350694,-1.3169426110237734
-0.19345080743064214,-0.12115106127350694,-1.3169426110237734
-0.1933946574306421,-0.12115106127350694,-1.3169426110237734
-0.19333850743064213,-0.12115106127350694,-1.3169426110237734
-0.19328235743064215,-0.11745283642092483,-1.3169426110237734
-0.19322620743064212,-0.11745283642092315,-1.3169426110237734
-0.19317005743064214,-0.11375461156834102,-1.3169426110237734
-0.1931139074306421,-0.11375461156833934,-1.3169426110237734
-0.19305775743064213,-0.11375461156833934,-1.3169426110237734
-0.1930016074306421,-0.11375461156833766,-1.3169426110237734
-0.19294545743064212,-0.11005638671575554,-1.3169426110237734
-0.19288930743064214,-0.11005638671575554,-1.3169426110237734
-0.1928331574306421,-0.11005638671575554,-1.3169426110237734
-0.19277700743064213,-0.11005638671575554,-1.3169426110237734
-0.1927208574306421,-0.11005638671575554,-1.3169426110237734
-0.19266470743064212,-0.11005638671575554,-1.3169426110237734
-0.19260855743064215,-0.11005638671575554,-1.3169426110237734
-0.19255240743064211,-0.11005638671575554,-1.3169426110237734
-0.19249625743064214,-0.11005638671575554,-1.3169426110237734
-0.1924401074306421,-0.11005638671575554,-1.3169426110237734
-0.19238395743064213,-0.10635816186317343,-1.3169426110237734
-0.19232780743064215,-0.10635816186317175,-1.3169426110237734
-0.19227165743064212,-0.10635816186317175,-1.3169426110237734
-0.19221550743064214,-0.10635816186317175,-1.3169426110237734
-0.1921593574306421,-0.10635816186317175,-1.3169426110237734
-0.19210320743064213,-0.10635816186317175,-1.3169426110237734
-0.1920470574306421,-0.10265993701058794,-1.3169426110237734
-0.19199090743064212,-0.10635816186317175,-1.3169426110237734
-0.19193475743064214,-0.10265993701058962,-1.3169426110237734
-0.1918786074306421,-0.10265993701058794,-1.3169426110237734
-0.19182245743064213,-0.10635816186317007,-1.3169426110237734
-0.1917663074306421,-0.10265993701058794,-1.3169426110237734
-0.19171015743064213,-0.10265993701058794,-1.3169426110237734
-0.19165400743064215,-0.10265993701058794,-1.3169426110237734
-0.19159785743064212,-0.10265993701058794,-1.3169426110237734
-0.19154170743064214,-0.10265993701058794,-1.3169426110237734
-0.1914855574306421,-0.10265993701058794,-1.3169426110237734
-0.19142940743064213,-0.10265993701058794,-1.3169426110237734
-0.19137325743064215,-0.10265993701058794,-1.3169426110237734
-0.19131710743064212,-0.10265993701058794,-1.3169426110237734
-0.19126095743064214,-0.09896171215800582,-1.3169426110237734
-0.1912048074306421,-0.10265993701058794,-1.3169426110237734
-0.19114865743064213,-0.10265993701058794,-1.3169426110237734
-0.1910925074306421,-0.09896171215800414,-1.3169426110237734
-0.19103635743064212,-0.09896171215800414,-1.3169426110237734
-0.19098020743064215,-0.09896171215800414,-1.3169426110237734
-0.1909240574306421,-0.09896171215800414,-1.3169426110237734
-0.19086790743064214,-0.09896171215800414,-1.3169426110237734
-0.1908117574306421,-0.09896171215800414,-1.3169426110237734
-0.19075560743064213,-0.09896171215800414,-1.3169426110237734
-0.19069945743064215,-0.10265993701058458,-1.3169426110237734
-0.19064330743064212,-0.09896171215800414,-1.3169426110237734
-0.19058715743064214,-0.09896171215800414,-1.3169426110237734
-0.1905310074306421,-0.09896171215800414,-1.3169426110237734
-0.19047485743064213,-0.09896171215800414,-1.3169426110237734
-0.1904187074306421,-0.10265993701058626,-1.3169426110237734
-0.19036255743064212,-0.09896171215800414,-1.3169426110237734
-0.19030640743064214,-0.09896171215800414,-1.3169426110237734
-0.1902502574306421,-0.09896171215800414,-1.3169426110237734
-0.19019410743064213,-0.09896171215800414,-1.3169426110237734
-0.1901379574306421,-0.09896171215800414,-1.3169426110237734
-0.19008180743064212,-0.09896171215800414,-1.3169426110237734
-0.19002565743064215,-0.09896171215800414,-1.3169426110237734
-0.18996950743064211,-0.09896171215800414,-1.3169426110237734
-0.18991335743064214,-0.09526348730542203,-1.3169426110237734
-0.1898572074306421,-0.10265993701058794,-1.3169426110237734
-0.18980105743064213,-0.09896171215800582,-1.3169426110237734
-0.18974490743064215,-0.09896171215800414,-1.3169426110237734
-0.18968875743064212,-0.09896171215800414,-1.3169426110237734
-0.18963260743064214,-0.09896171215800414,-1.3169426110237734
-0.1895764574306421,-0.09526348730542035,-1.3169426110237734
-0.18952030743064213,-0.09526348730542035,-1.3169426110237734
-0.1894641574306421,-0.09526348730542035,-1.3169426110237734
-0.18940800743064212,-0.09526348730542035,-1.3169426110237734
-0.18935185743064215,-0.09526348730542035,-1.3169426110237734
-0.1892957074306421,-0.09526348730542035,-1.3169426110237734
-0.18923955743064214,-0.09526348730542035,-1.3169426110237734
-0.1891834074306421,-0.09156526245283655,-1.3169426110237734
-0.18912725743064213,-0.09526348730541867,-1.3169426110237734
-0.18907110743064215,-0.09526348730542035,-1.3169426110237734
-0.18901495743064212,-0.09526348730542035,-1.3169426110237734
-0.18895880743064214,-0.09526348730542035,-1.3169426110237734
-0.1889026574306421,-0.09526348730542035,-1.3169426110237734
-0.18884650743064213,-0.09526348730542035,-1.3169426110237734
-0.1887903574306421,-0.09156526245283655,-1.3169426110237734
-0.18873420743064212,-0.09156526245283655,-1.3169426110237734
-0.18867805743064214,-0.09526348730541867,-1.3169426110237734
-0.1886219074306421,-0.09526348730542035,-1.3169426110237734
-0.18856575743064213,-0.09156526245283823,-1.3169426110237734
-0.1885096074306421,-0.09526348730542035,-1.3169426110237734
-0.18845345743064212,-0.09526348730542035,-1.3169426110237734
-0.18839730743064215,-0.09156526245283823,-1.3169426110237734
-0.18834115743064211,-0.09526348730542035,-1.3169426110237734
-0.18828500743064214,-0.09526348730542035,-1.3169426110237734
-0.1882288574306421,-0.09526348730542035,-1.3169426110237734
-0.18817270743064213,-0.09156526245283823,-1.3169426110237734
-0.18811655743064215,-0.09156526245283655,-1.3169426110237734
-0.18806040743064212,-0.09526348730542035,-1.3169426110237734
-0.18800425743064214,-0.09896171215800247,-1.3169426110237734
-0.1879481074306421,-0.09156526245283655,-1.3169426110237734
-0.18789195743064213,-0.09526348730541867,-1.3169426110237734
-0.1878358074306421,-0.09526348730542035,-1.3169426110237734
-0.18777965743064212,-0.09526348730542035,-1.3169426110237734
-0.18772350743064214,-0.09526348730542035,-1.3169426110237734
-0.1876673574306421,-0.09526348730542035,-1.3169426110237734
-0.18761120743064214,-0.09526348730542035,-1.3169426110237734
-0.1875550574306421,-0.09526348730542035,-1.3169426110237734
-0.18749890743064213,-0.09526348730542035,-1.3169426110237734
-0.18744275743064215,-0.09526348730542035,-1.3169426110237734
-0.18738660743064212,-0.09526348730542035,-1.3169426110237734
-0.18733045743064214,-0.09526348730542035,-1.3169426110237734
-0.1872743074306421,-0.09526348730542035,-1.3169426110237734
-0.18721815743064213,-0.09896171215800247,-1.3169426110237734
-0.18716200743064215,-0.09896171215800414,-1.3169426110237734
-0.18710585743064212,-0.09526348730542035,-1.3169426110237734
-0.18704970743064214,-0.09526348730542035,-1.3132352600427375
-0.1869935574306421,-0.09526348730542035,-1.3169426110237734
-0.18693740743064213,-0.09526348730542035,-1.3169426110237734
-0.1868812574306421,-0.09526348730542035,-1.3169426110237734
-0.18682510743064212,-0.09526348730542035,-1.3169426110237734
-0.18676895743064215,-0.09526348730542035,-1.3169426110237734
-0.1867128074306421,-0.09526348730542035,-1.3169426110237734
-0.18665665743064214,-0.09156526245283823,-1.3169426110237734
-0.1866005074306421,-0.09156526245283655,-1.3169426110237734
-0.18654435743064213,-0.09156526245283655,-1.3169426110237734
-0.18648820743064215,-0.09156526245283655,-1.3169426110237734
-0.18643205743064212,-0.09156526245283655,-1.3169426110237734
-0.18637590743064214,-0.09156526245283655,-1.3169426110237734
-0.1863197574306421,-0.09156526245283655,-1.3169426110237734
-0.18626360743064213,-0.09156526245283655,-1.3169426110237734
-0.1862074574306421,-0.09156526245283655,-1.3169426110237734
-0.18615130743064212,-0.09156526245283655,-1.3169426110237734
-0.18609515743064214,-0.08786703760025442,-1.3169426110237734
-0.1860390074306421,-0.08786703760025275,-1.3169426110237734
-0.18598285743064213,-0.08786703760025275,-1.3169426110237734
-0.1859267074306421,-0.08416881274766895,-1.3169426110237734
-0.18587055743064212,-0.08416881274766895,-1.3169426110237734
-0.18581440743064215,-0.08416881274766895,-1.3169426110237734
-0.18575825743064212,-0.08416881274766895,-1.3169426110237734
-0.18570210743064214,-0.08786703760025107,-1.3169426110237734
-0.1856459574306421,-0.08416881274766895,-1.3169426110237734
-0.18558980743064213,-0.08416881274766895,-1.3169426110237734
-0.18553365743064215,-0.08416881274766895,-1.3169426110237734
-0.18547750743064212,-0.08416881274766895,-1.3169426110237734
-0.18542135743064214,-0.08416881274766895,-1.3169426110237734
-0.1853652074306421,-0.08416881274766895,-1.3169426110237734
-0.18530905743064213,-0.08416881274766895,-1.3169426110237734
-0.1852529074306421,-0.08416881274766895,-1.3169426110237734
-0.18519675743064212,-0.08416881274766895,-1.3169426110237734
-0.18514060743064215,-0.08047058789508683,-1.3169426110237734
-0.1850844574306421,-0.08047058789508515,-1.3169426110237734
-0.18502830743064214,-0.08047058789508515,-1.3169426110237734
-0.1849721574306421,-0.08047058789508515,-1.3169426110237734
-0.18491600743064213,-0.08047058789508515,-1.3169426110237734
-0.18485985743064215,-0.08047058789508515,-1.3169426110237734
-0.18480370743064212,-0.08047058789508515,-1.3169426110237734
-0.18474755743064214,-0.08047058789508515,-1.3169426110237734
-0.1846914074306421,-0.08047058789508515,-1.3169426110237734
-0.18463525743064213,-0.07677236304250303,-1.3132352600427375
-0.1845791074306421,-0.07677236304250135,-1.3132352600427375
-0.18452295743064212,-0.07677236304250135,-1.3169426110237734
-0.18446680743064214,-0.07677236304250135,-1.3169426110237734
-0.1844106574306421,-0.07677236304250135,-1.3169426110237734
-0.18435450743064213,-0.07677236304250135,-1.3169426110237734
-0.1842983574306421,-0.07677236304250135,-1.3169426110237734
-0.18424220743064212,-0.07677236304250135,-1.3169426110237734
-0.18418605743064215,-0.07677236304250135,-1.3169426110237734
-0.18412990743064211,-0.07677236304250135,-1.3169426110237734
-0.18407375743064214,-0.07307413818991923,-1.3169426110237734
-0.1840176074306421,-0.07307413818991755,-1.3169426110237734
-0.18396145743064213,-0.07307413818991755,-1.3169426110237734
-0.18390530743064215,-0.06937591333733711,-1.3169426110237734
-0.18384915743064212,-0.06937591333733376,-1.3169426110237734
-0.18379300743064214,-0.06937591333733376,-1.3169426110237734
-0.1837368574306421,-0.06937591333733376,-1.3169426110237734
-0.18368070743064213,-0.06937591333733376,-1.3169426110237734
-0.1836245574306421,-0.06937591333733376,-1.3169426110237734
-0.18356840743064212,-0.06567768848474995,-1.3169426110237734
-0.18351225743064215,-0.06567768848474995,-1.3169426110237734
-0.1834561074306421,-0.06197946363216615,-1.3169426110237734
-0.18339995743064214,-0.06197946363216615,-1.3169426110237734
-0.1833438074306421,-0.06197946363216615,-1.3169426110237734
-0.18328765743064213,-0.05828123877958403,-1.3169426110237734
-0.18323150743064215,-0.05828123877958235,-1.3169426110237734
-0.18317535743064212,-0.05828123877958235,-1.3169426110237734
-0.18311920743064214,-0.05828123877958235,-1.3169426110237734
-0.1830630574306421,-0.05828123877958235,-1.3169426110237734
-0.18300690743064213,-0.05828123877958235,-1.3169426110237734
-0.18295075743064215,-0.05828123877958235,-1.3169426110237734
-0.18289460743064212,-0.054583013926998554,-1.3169426110237734
-0.18283845743064214,-0.054583013926998554,-1.3169426110237734
-0.1827823074306421,-0.054583013926998554,-1.3169426110237734
-0.18272615743064213,-0.054583013926998554,-1.3169426110237734
-0.1826700074306421,-0.05088478907441475,-1.3169426110237734
-0.18261385743064212,-0.054583013926998554,-1.3169426110237734
-0.18255770743064215,-0.05088478907441643,-1.3169426110237734
-0.18250155743064211,-0.05088478907441475,-1.3169426110237734
-0.18244540743064214,-0.047186564221832636,-1.3169426110237734
-0.1823892574306421,-0.04718656422183096,-1.3169426110237734
-0.18233310743064213,-0.04718656422183096,-1.3169426110237734
-0.18227695743064215,-0.04718656422183096,-1.3169426110237734
-0.18222080743064212,-0.04718656422183096,-1.3169426110237734
-0.18216465743064214,-0.043488339369248834,-1.3169426110237734
-0.1821085074306421,-0.043488339369247155,-1.3169426110237734
-0.18205235743064213,-0.043488339369247155,-1.3169426110237734
-0.1819962074306421,-0.043488339369247155,-1.3169426110237734
-0.18194005743064212,-0.043488339369247155,-1.3169426110237734
-0.18188390743064214,-0.043488339369247155,-1.3169426110237734
-0.1818277574306421,-0.043488339369247155,-1.3169426110237734
-0.18177160743064213,-0.03979011451666503,-1.3169426110237734
-0.1817154574306421,-0.03979011451666335,-1.3169426110237734
-0.18165930743064213,-0.03979011451666335,-1.3169426110237734
-0.18160315743064215,-0.03979011451666335,-1.3169426110237734
-0.18154700743064212,-0.03609188966407956,-1.3169426110237734
-0.18149085743064214,-0.03609188966407956,-1.3169426110237734
-0.1814347074306421,-0.03609188966407956,-1.3169426110237734
-0.18137855743064213,-0.032393664811497434,-1.3169426110237734
-0.18132240743064215,-0.03609188966407619,-1.3169426110237734
-0.18126625743064212,-0.032393664811495755,-1.3169426110237734
-0.18121010743064214,-0.032393664811495755,-1.3169426110237734
-0.1811539574306421,-0.032393664811495755,-1.3169426110237734
-0.18109780743064213,-0.032393664811495755,-1.3206499620048093
-0.1810416574306421,-0.032393664811495755,-1.3169426110237734
-0.18098550743064212,-0.032393664811495755,-1.320649962004811
-0.18092935743064215,-0.032393664811495755,-1.3169426110237752
-0.1808732074306421,-0.028695439958911956,-1.3169426110237734
-0.18081705743064214,-0.028695439958911956,-1.3169426110237734
-0.1807609074306421,-0.024997215106328158,-1.3169426110237734
-0.18070475743064213,-0.024997215106328158,-1.3169426110237734
-0.18064860743064215,-0.024997215106328158,-1.3169426110237734
-0.18059245743064212,-0.024997215106328158,-1.3169426110237734
-0.18053630743064214,-0.024997215106328158,-1.3169426110237734
-0.1804801574306421,-0.024997215106328158,-1.3169426110237734
-0.18042400743064213,-0.024997215106328158,-1.3169426110237734
-0.1803678574306421,-0.024997215106328158,-1.3169426110237734
-0.18031170743064212,-0.024997215106328158,-1.3169426110237734
-0.18025555743064214,-0.024997215106328158,-1.3169426110237734
-0.1801994074306421,-0.021298990253744356,-1.3169426110237734
-0.18014325743064213,-0.021298990253744356,-1.3169426110237734
-0.1800871074306421,-0.021298990253744356,-1.3169426110237734
-0.18003095743064212,-0.021298990253744356,-1.3169426110237734
