10Hz/acq0036.csv

#Digilent WaveForms Oscilloscope Acquisition
#Device Name: Discovery2
#Serial Number: SN:210321AA28BE
#Date Time: 2023-05-24 14:52:27.029
#Sample rate: 17809.4Hz
#Samples: 8192
#Trigger: Source: Channel 1 Type: Edge Condition: Rising Level: 800 mV Hyst.: Auto HoldOff: 100 ns
#Channel 1: Range: 1 V/div Offset: 0 V Attenuation: 1 X Sample Mode: Average
#Channel 2: Range: 1 V/div Offset: 0 V Attenuation: 1 X Sample Mode: Average

Time (s),Channel 1 (V),Channel 2 (V)
-0.19771366997843368,-0.06567768848474995,-1.3169426110237734
-0.19765751997843367,-0.07677236304250135,-1.3169426110237734
-0.19760136997843367,-0.08416881274766895,-1.3169426110237734
-0.19754521997843366,-0.09526348730542035,-1.3169426110237734
-0.19748906997843368,-0.10265993701058794,-1.3169426110237734
-0.19743291997843368,-0.11005638671575554,-1.3169426110237734
-0.19737676997843367,-0.11745283642092315,-1.3169426110237734
-0.19732061997843367,-0.12484928612609074,-1.3169426110237734
-0.19726446997843367,-0.13224573583125834,-1.3169426110237734
-0.19720831997843366,-0.1359439606838455,-1.3169426110237734
-0.19715216997843368,-0.14334041038900974,-1.3169426110237734
-0.19709601997843368,-0.14334041038900974,-1.3169426110237734
-0.19703986997843367,-0.15073686009417733,-1.3169426110237734
-0.19698371997843367,-0.15443508494676114,-1.3169426110237734
-0.19692756997843366,-0.15813330979934495,-1.3169426110237734
-0.1968714199784337,-0.15813330979934495,-1.3169426110237734
-0.19681526997843368,-0.17292620920968013,-1.3169426110237734
-0.19675911997843368,-0.17292620920968013,-1.3169426110237734
-0.19670296997843367,-0.17292620920968013,-1.3132352600427357
-0.19664681997843367,-0.17292620920968013,-1.3169426110237734
-0.19659066997843366,-0.17662443406226394,-1.3169426110237734
-0.19653451997843369,-0.17662443406226394,-1.3169426110237734
-0.19647836997843368,-0.18032265891484775,-1.3169426110237734
-0.19642221997843368,-0.18402088376743153,-1.3169426110237734
-0.19636606997843367,-0.18402088376743153,-1.3169426110237734
-0.19630991997843367,-0.18771910862001534,-1.3169426110237734
-0.19625376997843366,-0.18771910862001534,-1.3169426110237734
-0.19619761997843368,-0.19141733347259912,-1.3169426110237734
-0.19614146997843368,-0.19141733347259912,-1.3169426110237734
-0.19608531997843368,-0.19511555832518293,-1.3169426110237734
-0.19602916997843367,-0.19511555832518293,-1.3169426110237734
-0.19597301997843367,-0.19511555832518293,-1.3169426110237734
-0.19591686997843366,-0.19511555832518293,-1.3169426110237734
-0.19586071997843368,-0.19511555832518293,-1.3169426110237734
-0.19580456997843368,-0.19511555832518293,-1.3169426110237734
-0.19574841997843367,-0.19511555832518293,-1.3169426110237734
-0.19569226997843367,-0.19511555832518293,-1.3169426110237734
-0.19563611997843366,-0.19511555832518293,-1.3132352600427357
-0.1955799699784337,-0.19511555832518293,-1.3169426110237716
-0.19552381997843368,-0.19141733347259912,-1.3169426110237734
-0.19546766997843368,-0.19511555832518293,-1.3169426110237734
-0.19541151997843367,-0.19511555832518293,-1.3169426110237734
-0.19535536997843367,-0.19511555832518293,-1.3169426110237734
-0.19529921997843366,-0.19511555832518293,-1.3169426110237734
-0.1952430699784337,-0.19511555832518293,-1.3169426110237734
-0.19518691997843368,-0.19511555832518293,-1.3169426110237734
-0.19513076997843368,-0.19141733347259912,-1.3169426110237734
-0.19507461997843367,-0.19141733347259912,-1.3169426110237734
-0.19501846997843367,-0.19141733347259912,-1.3169426110237734
-0.19496231997843366,-0.18771910862001534,-1.3169426110237734
-0.19490616997843369,-0.18771910862001534,-1.3169426110237734
-0.19485001997843368,-0.18771910862001534,-1.3169426110237734
-0.19479386997843368,-0.18771910862001534,-1.3169426110237734
-0.19473771997843367,-0.18771910862001534,-1.3169426110237734
-0.19468156997843367,-0.18771910862001534,-1.3169426110237734
-0.19462541997843366,-0.18771910862001365,-1.3169426110237734
-0.19456926997843368,-0.18402088376743153,-1.3169426110237734
-0.19451311997843368,-0.18402088376743153,-1.3169426110237734
-0.19445696997843367,-0.18032265891484775,-1.3169426110237734
-0.19440081997843367,-0.18032265891484775,-1.3169426110237734
-0.19434466997843367,-0.18032265891484775,-1.3169426110237734
-0.1942885199784337,-0.18032265891484775,-1.3169426110237734
-0.19423236997843368,-0.18032265891484775,-1.3169426110237734
-0.19417621997843368,-0.18032265891484775,-1.3169426110237734
-0.19412006997843367,-0.18032265891484775,-1.3169426110237734
-0.19406391997843367,-0.17662443406226394,-1.3169426110237734
-0.19400776997843366,-0.17662443406226394,-1.3169426110237734
-0.1939516199784337,-0.17662443406226394,-1.3169426110237734
-0.19389546997843368,-0.17292620920968013,-1.3169426110237734
-0.19383931997843368,-0.17292620920968013,-1.3169426110237734
-0.19378316997843367,-0.17292620920968013,-1.3169426110237734
-0.19372701997843367,-0.17292620920968013,-1.3169426110237734
-0.19367086997843366,-0.17292620920968013,-1.3169426110237734
-0.19361471997843369,-0.17292620920968013,-1.3169426110237734
-0.19355856997843368,-0.17292620920968013,-1.3169426110237734
-0.19350241997843368,-0.16922798435709635,-1.3169426110237734
-0.19344626997843367,-0.16922798435709635,-1.3169426110237734
-0.19339011997843367,-0.16922798435709635,-1.3169426110237734
-0.19333396997843366,-0.16922798435709635,-1.3169426110237734
-0.19327781997843368,-0.16552975950451254,-1.3169426110237734
-0.19322166997843368,-0.16552975950451254,-1.3169426110237734
-0.19316551997843368,-0.16183153465192873,-1.3169426110237734
-0.19310936997843367,-0.16183153465192873,-1.3169426110237734
-0.19305321997843367,-0.16183153465192873,-1.3169426110237734
-0.19299706997843366,-0.16183153465192873,-1.3169426110237716
-0.19294091997843368,-0.16183153465192873,-1.3132352600427357
-0.19288476997843368,-0.15813330979934495,-1.3169426110237734
-0.19282861997843367,-0.15813330979934495,-1.3169426110237734
-0.19277246997843367,-0.15443508494676114,-1.3169426110237734
-0.19271631997843366,-0.15443508494676114,-1.3169426110237734
-0.1926601699784337,-0.15443508494676114,-1.3169426110237734
-0.19260401997843368,-0.15443508494676114,-1.3169426110237734
-0.19254786997843368,-0.15073686009417733,-1.3169426110237734
-0.19249171997843367,-0.15073686009417733,-1.3169426110237734
-0.19243556997843367,-0.15073686009417733,-1.3169426110237734
-0.19237941997843366,-0.14703863524159355,-1.3169426110237734
-0.1923232699784337,-0.14703863524159355,-1.3169426110237734
-0.19226711997843368,-0.14334041038900974,-1.3169426110237734
-0.19221096997843368,-0.14334041038900974,-1.3169426110237734
-0.19215481997843367,-0.14334041038900974,-1.3169426110237734
-0.19209866997843367,-0.14334041038900974,-1.3169426110237734
-0.19204251997843366,-0.14334041038900974,-1.3169426110237734
-0.19198636997843369,-0.14334041038900974,-1.3169426110237734
-0.19193021997843368,-0.13964218553642593,-1.3169426110237734
-0.19187406997843368,-0.13594396068384215,-1.3169426110237734
-0.19181791997843367,-0.13594396068384215,-1.3169426110237734
-0.19176176997843367,-0.13594396068384215,-1.3169426110237734
-0.19170561997843366,-0.13224573583125834,-1.3169426110237734
-0.19164946997843368,-0.13224573583125834,-1.3169426110237734
-0.19159331997843368,-0.13224573583125834,-1.3169426110237734
-0.19153716997843367,-0.13224573583125834,-1.3169426110237734
-0.19148101997843367,-0.12854751097867453,-1.3169426110237734
-0.19142486997843366,-0.12854751097867453,-1.3169426110237734
-0.1913687199784337,-0.12854751097867453,-1.3169426110237734
-0.19131256997843368,-0.12484928612609074,-1.3169426110237734
-0.19125641997843368,-0.12484928612609074,-1.3169426110237734
-0.19120026997843367,-0.12115106127350694,-1.3169426110237734
-0.19114411997843367,-0.11745283642092315,-1.3169426110237734
-0.19108796997843366,-0.11745283642092315,-1.3169426110237734
-0.1910318199784337,-0.11745283642092315,-1.320649962004811
-0.19097566997843368,-0.11745283642092315,-1.3169426110237734
-0.19091951997843368,-0.11375461156833934,-1.3169426110237734
-0.19086336997843367,-0.11375461156833934,-1.320649962004811
-0.19080721997843367,-0.11375461156833934,-1.3169426110237734
-0.19075106997843366,-0.11005638671575554,-1.3169426110237734
-0.19069491997843369,-0.11005638671575554,-1.3169426110237734
-0.19063876997843368,-0.11005638671575554,-1.3169426110237734
-0.19058261997843368,-0.10635816186317175,-1.3169426110237734
-0.19052646997843367,-0.10635816186317175,-1.3169426110237734
-0.19047031997843367,-0.10635816186317175,-1.3169426110237734
-0.19041416997843366,-0.10265993701058794,-1.3169426110237734
-0.19035801997843368,-0.10265993701058794,-1.3169426110237734
-0.19030186997843368,-0.10265993701058794,-1.3169426110237734
-0.19024571997843367,-0.10635816186317175,-1.3169426110237734
-0.19018956997843367,-0.10265993701058794,-1.3169426110237734
-0.19013341997843367,-0.10265993701058794,-1.3169426110237734
-0.1900772699784337,-0.09896171215800582,-1.3169426110237734
-0.19002111997843368,-0.10265993701058794,-1.3169426110237734
-0.18996496997843368,-0.09896171215800414,-1.3169426110237734
-0.18990881997843367,-0.09896171215800414,-1.3169426110237734
-0.18985266997843367,-0.09526348730542035,-1.3169426110237734
-0.18979651997843366,-0.09526348730542035,-1.3169426110237734
-0.1897403699784337,-0.09526348730542035,-1.3169426110237734
-0.18968421997843368,-0.09156526245283655,-1.3169426110237734
-0.18962806997843368,-0.09156526245283655,-1.3169426110237734
-0.18957191997843367,-0.09156526245283655,-1.3169426110237734
-0.18951576997843367,-0.09156526245283655,-1.3169426110237734
-0.18945961997843366,-0.09156526245283655,-1.3169426110237734
-0.1894034699784337,-0.08786703760025275,-1.3169426110237734
-0.18934731997843368,-0.08786703760025275,-1.3169426110237734
-0.18929116997843368,-0.08416881274766895,-1.320649962004811
-0.18923501997843367,-0.08416881274766895,-1.3169426110237734
-0.18917886997843367,-0.08416881274766895,-1.3169426110237734
-0.18912271997843366,-0.08047058789508515,-1.3169426110237734
-0.18906656997843369,-0.08047058789508515,-1.3169426110237734
-0.18901041997843368,-0.08047058789508515,-1.3169426110237734
-0.18895426997843368,-0.08047058789508515,-1.3169426110237734
-0.18889811997843367,-0.07677236304250135,-1.3169426110237734
-0.18884196997843367,-0.07677236304250135,-1.3169426110237734
-0.18878581997843366,-0.07677236304249967,-1.3169426110237734
-0.18872966997843368,-0.07307413818991755,-1.3169426110237734
-0.18867351997843368,-0.07307413818991755,-1.3169426110237734
-0.18861736997843367,-0.06937591333733376,-1.3169426110237734
-0.18856121997843367,-0.06567768848474995,-1.3169426110237734
-0.18850506997843366,-0.07307413818991755,-1.3169426110237734
-0.1884489199784337,-0.07307413818991755,-1.3169426110237734
-0.18839276997843368,-0.06937591333733376,-1.3169426110237734
-0.18833661997843368,-0.06567768848474995,-1.3169426110237734
-0.18828046997843367,-0.06567768848474995,-1.3169426110237734
-0.18822431997843367,-0.06567768848474995,-1.3169426110237734
-0.18816816997843366,-0.06197946363216615,-1.3169426110237734
-0.1881120199784337,-0.05828123877958235,-1.3169426110237734
-0.18805586997843368,-0.05828123877958235,-1.3169426110237734
-0.18799971997843368,-0.05828123877958235,-1.3169426110237734
-0.18794356997843367,-0.05828123877958235,-1.3169426110237734
-0.18788741997843367,-0.05828123877958235,-1.320649962004811
-0.18783126997843366,-0.054583013926998554,-1.3169426110237734
-0.18777511997843369,-0.054583013926998554,-1.3169426110237734
-0.18771896997843368,-0.05088478907441475,-1.3169426110237734
-0.18766281997843368,-0.054583013926998554,-1.3169426110237734
-0.18760666997843367,-0.05088478907441475,-1.3169426110237734
-0.18755051997843367,-0.05088478907441475,-1.3169426110237734
-0.18749436997843366,-0.05088478907441475,-1.3169426110237734
-0.18743821997843368,-0.05088478907441475,-1.3169426110237734
-0.18738206997843368,-0.05088478907441475,-1.3169426110237734
-0.18732591997843367,-0.04718656422183096,-1.3169426110237734
-0.18726976997843367,-0.04718656422183096,-1.3169426110237734
-0.18721361997843367,-0.04718656422183096,-1.3169426110237734
-0.1871574699784337,-0.04718656422183096,-1.3206499620048093
-0.18710131997843368,-0.04718656422183096,-1.3169426110237734
-0.18704516997843368,-0.04718656422183096,-1.3169426110237734
-0.18698901997843367,-0.043488339369247155,-1.320649962004811
-0.18693286997843367,-0.043488339369247155,-1.3169426110237734
-0.18687671997843366,-0.043488339369247155,-1.3169426110237734
-0.1868205699784337,-0.043488339369247155,-1.3169426110237734
-0.18676441997843368,-0.043488339369247155,-1.3169426110237734
-0.18670826997843368,-0.043488339369247155,-1.3169426110237734
-0.18665211997843367,-0.043488339369247155,-1.3169426110237734
-0.18659596997843367,-0.043488339369247155,-1.3169426110237734
-0.18653981997843366,-0.043488339369247155,-1.3169426110237734
-0.18648366997843369,-0.03979011451666335,-1.3169426110237734
-0.18642751997843368,-0.03979011451666335,-1.3169426110237734
-0.18637136997843368,-0.03979011451666335,-1.3169426110237734
-0.18631521997843367,-0.03609188966407956,-1.3169426110237734
-0.18625906997843367,-0.03979011451666335,-1.3169426110237734
-0.18620291997843366,-0.03979011451666335,-1.3169426110237734
-0.18614676997843368,-0.03979011451666335,-1.3169426110237734
-0.18609061997843368,-0.03979011451666335,-1.3169426110237734
-0.18603446997843368,-0.03609188966407956,-1.3169426110237734
-0.18597831997843367,-0.03979011451666335,-1.3169426110237734
-0.18592216997843367,-0.03609188966407956,-1.3169426110237734
-0.1858660199784337,-0.03979011451666167,-1.3169426110237734
-0.18580986997843368,-0.03609188966407956,-1.3169426110237734
-0.18575371997843368,-0.03979011451666335,-1.3169426110237734
-0.18569756997843367,-0.03609188966407956,-1.3169426110237734
-0.18564141997843367,-0.03609188966407956,-1.320649962004811
-0.18558526997843366,-0.03609188966407956,-1.3169426110237734
-0.1855291199784337,-0.032393664811495755,-1.3169426110237734
-0.18547296997843368,-0.03609188966407956,-1.3169426110237734
-0.18541681997843368,-0.032393664811495755,-1.3169426110237734
-0.18536066997843367,-0.032393664811495755,-1.3169426110237734
-0.18530451997843367,-0.032393664811495755,-1.3169426110237734
-0.18524836997843366,-0.032393664811495755,-1.320649962004811
-0.1851922199784337,-0.032393664811495755,-1.320649962004811
-0.18513606997843368,-0.032393664811495755,-1.3169426110237734
-0.18507991997843368,-0.028695439958911956,-1.3169426110237734
-0.18502376997843367,-0.028695439958911956,-1.320649962004811
-0.18496761997843367,-0.028695439958911956,-1.3169426110237734
-0.18491146997843366,-0.028695439958911956,-1.3169426110237734
-0.18485531997843369,-0.028695439958911956,-1.3169426110237734
-0.18479916997843368,-0.032393664811495755,-1.3169426110237734
-0.18474301997843368,-0.028695439958911956,-1.3169426110237734
-0.18468686997843367,-0.028695439958911956,-1.3169426110237734
-0.18463071997843367,-0.028695439958911956,-1.3169426110237734
-0.18457456997843366,-0.032393664811495755,-1.3169426110237734
-0.18451841997843368,-0.032393664811495755,-1.3169426110237734
-0.18446226997843368,-0.028695439958911956,-1.3169426110237734
-0.18440611997843367,-0.028695439958911956,-1.3169426110237734
-0.18434996997843367,-0.028695439958911956,-1.3169426110237734
-0.18429381997843367,-0.028695439958911956,-1.3169426110237734
-0.1842376699784337,-0.028695439958911956,-1.3169426110237734
-0.18418151997843368,-0.028695439958911956,-1.3169426110237734
-0.18412536997843368,-0.032393664811495755,-1.3169426110237734
-0.18406921997843367,-0.032393664811495755,-1.3169426110237734
-0.18401306997843367,-0.032393664811495755,-1.3169426110237734
-0.18395691997843366,-0.032393664811495755,-1.320649962004811
-0.1839007699784337,-0.03609188966407956,-1.3169426110237734
-0.18384461997843368,-0.032393664811495755,-1.3169426110237734
-0.18378846997843368,-0.03609188966407956,-1.3169426110237734
-0.18373231997843367,-0.032393664811495755,-1.3169426110237734
-0.18367616997843367,-0.032393664811495755,-1.3169426110237734
-0.18362001997843366,-0.032393664811495755,-1.3169426110237734
-0.18356386997843369,-0.032393664811495755,-1.320649962004811
-0.18350771997843368,-0.03609188966407956,-1.3169426110237734
-0.18345156997843368,-0.032393664811495755,-1.320649962004811
-0.18339541997843367,-0.032393664811495755,-1.320649962004811
-0.18333926997843367,-0.032393664811495755,-1.320649962004811
-0.18328311997843366,-0.03609188966407788,-1.3169426110237752
-0.18322696997843368,-0.032393664811495755,-1.320649962004811
-0.18317081997843368,-0.032393664811495755,-1.320649962004811
-0.18311466997843368,-0.032393664811495755,-1.320649962004811
-0.18305851997843367,-0.03609188966407956,-1.3169426110237734
-0.18300236997843367,-0.03609188966407956,-1.320649962004811
-0.1829462199784337,-0.03609188966407956,-1.320649962004811
-0.18289006997843368,-0.03979011451666335,-1.320649962004811
-0.18283391997843368,-0.03979011451666335,-1.3169426110237734
-0.18277776997843367,-0.03979011451666335,-1.320649962004811
-0.18272161997843367,-0.043488339369247155,-1.320649962004811
-0.18266546997843366,-0.043488339369247155,-1.320649962004811
-0.1826093199784337,-0.03979011451666335,-1.320649962004811
-0.18255316997843368,-0.043488339369247155,-1.320649962004811
-0.18249701997843368,-0.03979011451666335,-1.3169426110237734
-0.18244086997843367,-0.03979011451666335,-1.3169426110237734
-0.18238471997843367,-0.03979011451666335,-1.3169426110237734
-0.18232856997843366,-0.03979011451666335,-1.3169426110237734
-0.1822724199784337,-0.03979011451666335,-1.3169426110237734
-0.18221626997843368,-0.03979011451666335,-1.3169426110237734
-0.18216011997843368,-0.03979011451666335,-1.3169426110237734
-0.18210396997843367,-0.03979011451666335,-1.3169426110237734
-0.18204781997843367,-0.03979011451666335,-1.320649962004811
-0.18199166997843366,-0.03979011451666335,-1.3169426110237752
-0.18193551997843369,-0.03979011451666335,-1.320649962004811
-0.18187936997843368,-0.03979011451666335,-1.320649962004811
-0.18182321997843368,-0.03979011451666335,-1.3169426110237734
-0.18176706997843367,-0.03979011451666335,-1.3169426110237734
-0.18171091997843367,-0.03979011451666335,-1.3169426110237734
-0.1816547699784337,-0.03979011451666335,-1.3169426110237734
-0.18159861997843368,-0.03979011451666335,-1.3169426110237734
-0.18154246997843368,-0.03979011451666335,-1.320649962004811
-0.18148631997843367,-0.03979011451666335,-1.320649962004811
-0.18143016997843367,-0.03979011451666335,-1.320649962004811
-0.18137401997843366,-0.043488339369247155,-1.3169426110237734
-0.1813178699784337,-0.043488339369247155,-1.320649962004811
-0.18126171997843368,-0.043488339369247155,-1.320649962004811
-0.18120556997843368,-0.043488339369247155,-1.3169426110237734
-0.18114941997843367,-0.043488339369247155,-1.3169426110237734
-0.18109326997843367,-0.043488339369247155,-1.3169426110237734
-0.18103711997843366,-0.043488339369247155,-1.3169426110237734
-0.1809809699784337,-0.043488339369247155,-1.320649962004811
-0.18092481997843368,-0.043488339369247155,-1.320649962004811
-0.18086866997843368,-0.043488339369247155,-1.320649962004811
-0.18081251997843367,-0.043488339369247155,-1.3169426110237734
-0.18075636997843367,-0.043488339369247155,-1.320649962004811
-0.18070021997843366,-0.043488339369247155,-1.320649962004811
-0.18064406997843369,-0.043488339369247155,-1.320649962004811
-0.18058791997843368,-0.043488339369247155,-1.320649962004811
-0.18053176997843368,-0.03979011451666335,-1.320649962004811
-0.18047561997843367,-0.04718656422183096,-1.320649962004811
-0.18041946997843367,-0.05088478907441475,-1.320649962004811
-0.18036331997843366,-0.05088478907441307,-1.320649962004811
-0.18030716997843368,-0.04718656422183096,-1.320649962004811
-0.18025101997843368,-0.04718656422183096,-1.320649962004811
-0.18019486997843367,-0.04718656422183096,-1.3169426110237734
-0.18013871997843367,-0.04718656422183096,-1.3169426110237734
-0.18008256997843367,-0.04718656422183096,-1.3169426110237734
