10Hz/acq0094.csv

#Digilent WaveForms Oscilloscope Acquisition
#Device Name: Discovery2
#Serial Number: SN:210321AA28BE
#Date Time: 2023-05-24 14:52:56.036
#Sample rate: 17809.4Hz
#Samples: 8192
#Trigger: Source: Channel 1 Type: Edge Condition: Rising Level: 800 mV Hyst.: Auto HoldOff: 100 ns
#Channel 1: Range: 1 V/div Offset: 0 V Attenuation: 1 X Sample Mode: Average
#Channel 2: Range: 1 V/div Offset: 0 V Attenuation: 1 X Sample Mode: Average

Time (s),Channel 1 (V),Channel 2 (V)
-0.19772694918749997,-0.028695439958911956,-1.3132352600427357
-0.19767079918749997,-0.03979011451666335,-1.3169426110237734
-0.19761464918749996,-0.04718656422183096,-1.3132352600427357
-0.19755849918749996,-0.054583013926998554,-1.3132352600427357
-0.19750234918749998,-0.06567768848474995,-1.3132352600427357
-0.19744619918749998,-0.06937591333733376,-1.3132352600427357
-0.19739004918749997,-0.07677236304250135,-1.3132352600427357
-0.19733389918749997,-0.08416881274766895,-1.3132352600427357
-0.19727774918749996,-0.09156526245283655,-1.3132352600427357
-0.19722159918749996,-0.09526348730542371,-1.3132352600427375
-0.19716544918749998,-0.10265993701058794,-1.3169426110237734
-0.19710929918749998,-0.10265993701058794,-1.3169426110237734
-0.19705314918749997,-0.11005638671575554,-1.3132352600427357
-0.19699699918749997,-0.11375461156833934,-1.3169426110237734
-0.19694084918749996,-0.11375461156833934,-1.3169426110237734
-0.19688469918749998,-0.12115106127350359,-1.3169426110237734
-0.19682854918749998,-0.12115106127350694,-1.3169426110237734
-0.19677239918749997,-0.12484928612609074,-1.3169426110237734
-0.19671624918749997,-0.12484928612609074,-1.3169426110237734
-0.19666009918749996,-0.12854751097867453,-1.3132352600427357
-0.19660394918749996,-0.13224573583125834,-1.3132352600427357
-0.19654779918749998,-0.13594396068384215,-1.3169426110237734
-0.19649164918749998,-0.13594396068384215,-1.3169426110237734
-0.19643549918749997,-0.13964218553642593,-1.3132352600427357
-0.19637934918749997,-0.13964218553642593,-1.3169426110237734
-0.19632319918749996,-0.14334041038900974,-1.3169426110237734
-0.19626704918749996,-0.14334041038900974,-1.3169426110237734
-0.19621089918749998,-0.14334041038900974,-1.3132352600427357
-0.19615474918749998,-0.14334041038900974,-1.3169426110237734
-0.19609859918749997,-0.14334041038900974,-1.3132352600427357
-0.19604244918749997,-0.14334041038900974,-1.3169426110237734
-0.19598629918749996,-0.14703863524159355,-1.3169426110237734
-0.19593014918749996,-0.14703863524159355,-1.3169426110237734
-0.19587399918749998,-0.14703863524159355,-1.3169426110237734
-0.19581784918749998,-0.14703863524159355,-1.3132352600427357
-0.19576169918749997,-0.14703863524159355,-1.3169426110237734
-0.19570554918749997,-0.14703863524159355,-1.3169426110237734
-0.19564939918749996,-0.14703863524159355,-1.3169426110237734
-0.19559324918749998,-0.14703863524159355,-1.3132352600427375
-0.19553709918749998,-0.14703863524159355,-1.3169426110237734
-0.19548094918749997,-0.14703863524159355,-1.3132352600427357
-0.19542479918749997,-0.14703863524159355,-1.3169426110237734
-0.19536864918749997,-0.14703863524159355,-1.3169426110237734
-0.19531249918749996,-0.14703863524159355,-1.3169426110237734
-0.19525634918749998,-0.14334041038900974,-1.3169426110237734
-0.19520019918749998,-0.14334041038900974,-1.3132352600427357
-0.19514404918749997,-0.13964218553642593,-1.3132352600427357
-0.19508789918749997,-0.13964218553642593,-1.3132352600427357
-0.19503174918749996,-0.13964218553642593,-1.3169426110237734
-0.19497559918749996,-0.13964218553642593,-1.3132352600427357
-0.19491944918749998,-0.13964218553642593,-1.3169426110237734
-0.19486329918749998,-0.13964218553642593,-1.3132352600427357
-0.19480714918749997,-0.13964218553642593,-1.3169426110237734
-0.19475099918749997,-0.14334041038900974,-1.3169426110237734
-0.19469484918749996,-0.14334041038900974,-1.3169426110237734
-0.19463869918749996,-0.14334041038900805,-1.3169426110237734
-0.19458254918749998,-0.13964218553642593,-1.3169426110237734
-0.19452639918749998,-0.13964218553642593,-1.3169426110237734
-0.19447024918749997,-0.13594396068384215,-1.3132352600427357
-0.19441409918749997,-0.13594396068384215,-1.3132352600427357
-0.19435794918749996,-0.13594396068384215,-1.3132352600427357
-0.19430179918749999,-0.13594396068384215,-1.3132352600427357
-0.19424564918749998,-0.13594396068384215,-1.3169426110237734
-0.19418949918749998,-0.13594396068384215,-1.3169426110237734
-0.19413334918749997,-0.13594396068384215,-1.3169426110237734
-0.19407719918749997,-0.13594396068384215,-1.3169426110237734
-0.19402104918749996,-0.13594396068384215,-1.3169426110237734
-0.19396489918749998,-0.13594396068384215,-1.3169426110237734
-0.19390874918749998,-0.13594396068384215,-1.3169426110237734
-0.19385259918749997,-0.13594396068384215,-1.3132352600427357
-0.19379644918749997,-0.13594396068384215,-1.3169426110237734
-0.19374029918749996,-0.13594396068384215,-1.3169426110237734
-0.19368414918749996,-0.13594396068384215,-1.3132352600427357
-0.19362799918749998,-0.13594396068384215,-1.3169426110237734
-0.19357184918749998,-0.13594396068384215,-1.3169426110237734
-0.19351569918749997,-0.13224573583125834,-1.3169426110237734
-0.19345954918749997,-0.13224573583125834,-1.3169426110237734
-0.19340339918749996,-0.13224573583125834,-1.3169426110237734
-0.19334724918749996,-0.12854751097867453,-1.3169426110237734
-0.19329109918749998,-0.12854751097867453,-1.3169426110237734
-0.19323494918749998,-0.12854751097867453,-1.3169426110237734
-0.19317879918749997,-0.12854751097867453,-1.3169426110237734
-0.19312264918749997,-0.12854751097867453,-1.3169426110237734
-0.19306649918749996,-0.13224573583125834,-1.3169426110237734
-0.19301034918749996,-0.13224573583125665,-1.3169426110237734
-0.19295419918749998,-0.12854751097867453,-1.3169426110237734
-0.19289804918749998,-0.12854751097867453,-1.3169426110237734
-0.19284189918749997,-0.12854751097867453,-1.3132352600427357
-0.19278574918749997,-0.13224573583125834,-1.3132352600427357
-0.19272959918749996,-0.13224573583125834,-1.3169426110237734
-0.19267344918749998,-0.13224573583125834,-1.3169426110237734
-0.19261729918749998,-0.13224573583125834,-1.3132352600427357
-0.19256114918749997,-0.13594396068384215,-1.3169426110237734
-0.19250499918749997,-0.13224573583125834,-1.3169426110237734
-0.19244884918749997,-0.13224573583125834,-1.3169426110237734
-0.19239269918749996,-0.12854751097867453,-1.3169426110237734
-0.19233654918749998,-0.12854751097867453,-1.3169426110237734
-0.19228039918749998,-0.12854751097867453,-1.3169426110237734
-0.19222424918749997,-0.12854751097867453,-1.3169426110237734
-0.19216809918749997,-0.12854751097867453,-1.3169426110237734
-0.19211194918749996,-0.12854751097867453,-1.3169426110237734
-0.19205579918749996,-0.12854751097867453,-1.3169426110237734
-0.19199964918749998,-0.12854751097867453,-1.3169426110237734
-0.19194349918749998,-0.12484928612609074,-1.3169426110237734
-0.19188734918749997,-0.12484928612609074,-1.3169426110237734
-0.19183119918749997,-0.12484928612609074,-1.3169426110237734
-0.19177504918749996,-0.12484928612609074,-1.3169426110237734
-0.19171889918749996,-0.12484928612609074,-1.3169426110237734
-0.19166274918749998,-0.12484928612609074,-1.3169426110237734
-0.19160659918749998,-0.12484928612609074,-1.3169426110237734
-0.19155044918749997,-0.12484928612609074,-1.3169426110237734
-0.19149429918749997,-0.12484928612609074,-1.3169426110237734
-0.19143814918749996,-0.12484928612609074,-1.3169426110237734
-0.19138199918749998,-0.12115106127350862,-1.3169426110237734
-0.19132584918749998,-0.12115106127350694,-1.3169426110237734
-0.19126969918749998,-0.12484928612609074,-1.3169426110237734
-0.19121354918749997,-0.12115106127350694,-1.3169426110237734
-0.19115739918749997,-0.12115106127350694,-1.3169426110237734
-0.19110124918749996,-0.12115106127350694,-1.3169426110237734
-0.19104509918749998,-0.12115106127350694,-1.3169426110237734
-0.19098894918749998,-0.12115106127350694,-1.3169426110237734
-0.19093279918749997,-0.12115106127350694,-1.3169426110237734
-0.19087664918749997,-0.12115106127350694,-1.3169426110237734
-0.19082049918749996,-0.12115106127350694,-1.3169426110237734
-0.19076434918749996,-0.11745283642092315,-1.3169426110237734
-0.19070819918749998,-0.12115106127350694,-1.3169426110237734
-0.19065204918749998,-0.12115106127350694,-1.3169426110237734
-0.19059589918749997,-0.11745283642092315,-1.3169426110237734
-0.19053974918749997,-0.12115106127350694,-1.3169426110237734
-0.19048359918749996,-0.12115106127350694,-1.3169426110237734
-0.19042744918749996,-0.11745283642092315,-1.3169426110237734
-0.19037129918749998,-0.11745283642092315,-1.3169426110237734
-0.19031514918749998,-0.11745283642092315,-1.3169426110237734
-0.19025899918749997,-0.12115106127350694,-1.3169426110237734
-0.19020284918749997,-0.11745283642092315,-1.3169426110237734
-0.19014669918749996,-0.11745283642092315,-1.3169426110237734
-0.19009054918749999,-0.11745283642092315,-1.3169426110237734
-0.19003439918749998,-0.11745283642092315,-1.3169426110237734
-0.18997824918749998,-0.11745283642092315,-1.3169426110237734
-0.18992209918749997,-0.11745283642092315,-1.3169426110237734
-0.18986594918749997,-0.11745283642092315,-1.3169426110237734
-0.18980979918749996,-0.11745283642092315,-1.3169426110237734
-0.18975364918749998,-0.11745283642092315,-1.3169426110237734
-0.18969749918749998,-0.11745283642092315,-1.3169426110237734
-0.18964134918749997,-0.11745283642092315,-1.3169426110237734
-0.18958519918749997,-0.11745283642092315,-1.3169426110237734
-0.18952904918749996,-0.11745283642092315,-1.3169426110237734
-0.18947289918749996,-0.11745283642092315,-1.3169426110237734
-0.18941674918749998,-0.11745283642092315,-1.3169426110237734
-0.18936059918749998,-0.11745283642092315,-1.3169426110237734
-0.18930444918749997,-0.11745283642092315,-1.3169426110237734
-0.18924829918749997,-0.11745283642092315,-1.3169426110237734
-0.18919214918749996,-0.11745283642092315,-1.3169426110237734
-0.18913599918749996,-0.11745283642092315,-1.3169426110237734
-0.18907984918749998,-0.11375461156833934,-1.3169426110237734
-0.18902369918749998,-0.11375461156833934,-1.3169426110237734
-0.18896754918749997,-0.11375461156833934,-1.3169426110237734
-0.18891139918749997,-0.11375461156833934,-1.3169426110237734
-0.18885524918749996,-0.11375461156833934,-1.3169426110237734
-0.18879909918749996,-0.11375461156833934,-1.3169426110237734
-0.18874294918749998,-0.11375461156833934,-1.3169426110237734
-0.18868679918749998,-0.11375461156833934,-1.3169426110237734
-0.18863064918749997,-0.11375461156833934,-1.3169426110237734
-0.18857449918749997,-0.11005638671575554,-1.3169426110237734
-0.18851834918749996,-0.11005638671575554,-1.3169426110237734
-0.18846219918749998,-0.11005638671575554,-1.3169426110237734
-0.18840604918749998,-0.11005638671575554,-1.3169426110237734
-0.18834989918749998,-0.10635816186317175,-1.3169426110237734
-0.18829374918749997,-0.10635816186317175,-1.3169426110237734
-0.18823759918749997,-0.10635816186317175,-1.3169426110237734
-0.18818144918749996,-0.10635816186317175,-1.3169426110237734
-0.18812529918749998,-0.10635816186317175,-1.3169426110237734
-0.18806914918749998,-0.10265993701058794,-1.3169426110237734
-0.18801299918749997,-0.10265993701058794,-1.3169426110237734
-0.18795684918749997,-0.10265993701058794,-1.3169426110237734
-0.18790069918749996,-0.10265993701058794,-1.3169426110237734
-0.18784454918749996,-0.10265993701058794,-1.3169426110237734
-0.18778839918749998,-0.10265993701058794,-1.3169426110237734
-0.18773224918749998,-0.10265993701058794,-1.3169426110237734
-0.18767609918749997,-0.10265993701058794,-1.3169426110237734
-0.18761994918749997,-0.09896171215800414,-1.3169426110237734
-0.18756379918749996,-0.09896171215800414,-1.3169426110237734
-0.18750764918749996,-0.09526348730542035,-1.3169426110237734
-0.18745149918749998,-0.09526348730542035,-1.3169426110237734
-0.18739534918749998,-0.09896171215800414,-1.3169426110237734
-0.18733919918749997,-0.09526348730542035,-1.3169426110237734
-0.18728304918749997,-0.09896171215800414,-1.3169426110237734
-0.18722689918749996,-0.09896171215800414,-1.3169426110237734
-0.18717074918749999,-0.09526348730542203,-1.3169426110237734
-0.18711459918749998,-0.09526348730542035,-1.3169426110237734
-0.18705844918749998,-0.09526348730542035,-1.3169426110237734
-0.18700229918749997,-0.09526348730542035,-1.3169426110237734
-0.18694614918749997,-0.09526348730542035,-1.3169426110237734
-0.18688999918749996,-0.09526348730542035,-1.3169426110237734
-0.18683384918749998,-0.09156526245283655,-1.3169426110237734
-0.18677769918749998,-0.09156526245283655,-1.3169426110237734
-0.18672154918749997,-0.09156526245283655,-1.3169426110237734
-0.18666539918749997,-0.09156526245283655,-1.3169426110237734
-0.18660924918749996,-0.09156526245283655,-1.3169426110237734
-0.18655309918749996,-0.08786703760025275,-1.3169426110237734
-0.18649694918749998,-0.08786703760025275,-1.3169426110237734
-0.18644079918749998,-0.08786703760025275,-1.3169426110237734
-0.18638464918749997,-0.08786703760025275,-1.3169426110237734
-0.18632849918749997,-0.08786703760025275,-1.3169426110237734
-0.18627234918749996,-0.08786703760025275,-1.3169426110237734
-0.18621619918749996,-0.08786703760025107,-1.3169426110237734
-0.18616004918749998,-0.08416881274766895,-1.3169426110237734
-0.18610389918749998,-0.08416881274766895,-1.3169426110237734
-0.18604774918749997,-0.08416881274766895,-1.3169426110237734
-0.18599159918749997,-0.08416881274766895,-1.3169426110237734
-0.18593544918749996,-0.08047058789508515,-1.3169426110237734
-0.18587929918749999,-0.08047058789508515,-1.3169426110237734
-0.18582314918749998,-0.08047058789508515,-1.3169426110237734
-0.18576699918749998,-0.08047058789508515,-1.3169426110237734
-0.18571084918749997,-0.07677236304250135,-1.3169426110237734
-0.18565469918749997,-0.07677236304250135,-1.3169426110237734
-0.18559854918749996,-0.07677236304250135,-1.3169426110237734
-0.18554239918749998,-0.07307413818991755,-1.3169426110237734
-0.18548624918749998,-0.06937591333733376,-1.3169426110237734
-0.18543009918749997,-0.07677236304250135,-1.3169426110237734
-0.18537394918749997,-0.07677236304250135,-1.3169426110237734
-0.18531779918749997,-0.07307413818991755,-1.3169426110237734
-0.18526164918749996,-0.06937591333733376,-1.3169426110237734
-0.18520549918749998,-0.06937591333733376,-1.3169426110237734
-0.18514934918749998,-0.06937591333733376,-1.3169426110237734
-0.18509319918749997,-0.06937591333733376,-1.3169426110237734
-0.18503704918749997,-0.06937591333733376,-1.3169426110237734
-0.18498089918749996,-0.06937591333733376,-1.3169426110237734
-0.18492474918749996,-0.06937591333733376,-1.3169426110237734
-0.18486859918749998,-0.06937591333733376,-1.3169426110237734
-0.18481244918749998,-0.06567768848474995,-1.3169426110237734
-0.18475629918749997,-0.06567768848474995,-1.3169426110237734
-0.18470014918749997,-0.06567768848474995,-1.3169426110237734
-0.18464399918749996,-0.06197946363216615,-1.3169426110237734
-0.18458784918749996,-0.06197946363216615,-1.3169426110237734
-0.18453169918749998,-0.06197946363216615,-1.3169426110237734
-0.18447554918749998,-0.06197946363216615,-1.3169426110237734
-0.18441939918749997,-0.05828123877958235,-1.3169426110237734
-0.18436324918749997,-0.05828123877958235,-1.320649962004811
-0.18430709918749996,-0.054583013926998554,-1.3169426110237734
-0.18425094918749998,-0.054583013926998554,-1.3169426110237734
-0.18419479918749998,-0.054583013926998554,-1.3169426110237734
-0.18413864918749998,-0.054583013926998554,-1.3169426110237734
-0.18408249918749997,-0.05088478907441475,-1.3169426110237734
-0.18402634918749997,-0.05088478907441475,-1.3169426110237734
-0.18397019918749996,-0.05088478907441475,-1.3169426110237734
-0.18391404918749998,-0.04718656422183096,-1.3169426110237734
-0.18385789918749998,-0.05088478907441475,-1.3169426110237734
-0.18380174918749997,-0.04718656422183096,-1.3169426110237734
-0.18374559918749997,-0.04718656422183096,-1.3169426110237734
-0.18368944918749996,-0.04718656422183096,-1.3169426110237734
-0.18363329918749996,-0.04718656422183096,-1.3169426110237734
-0.18357714918749998,-0.043488339369247155,-1.3169426110237734
-0.18352099918749998,-0.043488339369247155,-1.3169426110237734
-0.18346484918749997,-0.03609188966407956,-1.3169426110237734
-0.18340869918749997,-0.04718656422183096,-1.3169426110237734
-0.18335254918749996,-0.04718656422183096,-1.3169426110237734
-0.18329639918749996,-0.043488339369245475,-1.3169426110237734
-0.18324024918749998,-0.03979011451666335,-1.3169426110237734
-0.18318409918749998,-0.03979011451666335,-1.3169426110237734
-0.18312794918749997,-0.03979011451666335,-1.3169426110237734
-0.18307179918749997,-0.03609188966407956,-1.3169426110237734
-0.18301564918749996,-0.03609188966407956,-1.3169426110237734
-0.18295949918749999,-0.03979011451666167,-1.3169426110237734
-0.18290334918749998,-0.03609188966407956,-1.3169426110237734
-0.18284719918749998,-0.03609188966407956,-1.3169426110237734
-0.18279104918749997,-0.03609188966407956,-1.3169426110237734
-0.18273489918749997,-0.03609188966407956,-1.3169426110237734
-0.18267874918749996,-0.032393664811495755,-1.3169426110237734
-0.18262259918749998,-0.03609188966407956,-1.3169426110237734
-0.18256644918749998,-0.032393664811495755,-1.320649962004811
-0.18251029918749997,-0.032393664811495755,-1.320649962004811
-0.18245414918749997,-0.028695439958911956,-1.3169426110237734
-0.18239799918749997,-0.028695439958911956,-1.3169426110237734
-0.18234184918749996,-0.028695439958911956,-1.3169426110237734
-0.18228569918749998,-0.028695439958911956,-1.320649962004811
-0.18222954918749998,-0.028695439958911956,-1.3169426110237734
-0.18217339918749997,-0.028695439958911956,-1.3169426110237734
-0.18211724918749997,-0.024997215106328158,-1.3169426110237734
-0.18206109918749996,-0.028695439958911956,-1.3169426110237734
-0.18200494918749996,-0.024997215106324796,-1.3169426110237734
-0.18194879918749998,-0.017600765401160557,-1.3169426110237734
-0.18189264918749998,-0.028695439958911956,-1.3169426110237734
-0.18183649918749997,-0.028695439958911956,-1.3169426110237734
-0.18178034918749997,-0.024997215106328158,-1.3169426110237734
-0.18172419918749996,-0.021298990253744356,-1.3169426110237734
-0.18166804918749999,-0.021298990253744356,-1.3169426110237734
-0.18161189918749998,-0.021298990253744356,-1.320649962004811
-0.18155574918749998,-0.021298990253744356,-1.3169426110237734
-0.18149959918749997,-0.021298990253744356,-1.3169426110237734
-0.18144344918749997,-0.021298990253744356,-1.3169426110237734
-0.18138729918749996,-0.017600765401160557,-1.3169426110237734
-0.18133114918749998,-0.017600765401160557,-1.3169426110237734
-0.18127499918749998,-0.013902540548576758,-1.320649962004811
-0.18121884918749998,-0.013902540548576758,-1.3169426110237734
-0.18116269918749997,-0.013902540548576758,-1.3169426110237734
-0.18110654918749997,-0.013902540548576758,-1.3169426110237734
-0.18105039918749996,-0.013902540548576758,-1.3169426110237734
-0.18099424918749998,-0.010204315695992958,-1.3169426110237734
-0.18093809918749998,-0.010204315695992958,-1.3169426110237734
-0.18088194918749997,-0.010204315695992958,-1.320649962004811
-0.18082579918749997,-0.010204315695992958,-1.3169426110237734
-0.18076964918749996,-0.0065060908434091584,-1.320649962004811
-0.18071349918749996,-0.013902540548576758,-1.3169426110237734
-0.18065734918749998,-0.013902540548576758,-1.3169426110237734
-0.18060119918749998,-0.0065060908434091584,-1.3169426110237734
-0.18054504918749997,-0.0065060908434091584,-1.3169426110237734
-0.18048889918749997,-0.0065060908434091584,-1.3169426110237734
-0.18043274918749996,-0.0065060908434091584,-1.3169426110237734
-0.18037659918749996,-0.010204315695991277,-1.3169426110237734
-0.18032044918749998,-0.0065060908434091584,-1.3169426110237734
-0.18026429918749998,-0.010204315695992958,-1.3169426110237734
-0.18020814918749997,-0.0065060908434091584,-1.320649962004811
-0.18015199918749997,-0.0065060908434091584,-1.3169426110237734
