10Hz/acq0096.csv

#Digilent WaveForms Oscilloscope Acquisition
#Device Name: Discovery2
#Serial Number: SN:210321AA28BE
#Date Time: 2023-05-24 14:52:57.036
#Sample rate: 17809.4Hz
#Samples: 8192
#Trigger: Source: Channel 1 Type: Edge Condition: Rising Level: 800 mV Hyst.: Auto HoldOff: 100 ns
#Channel 1: Range: 1 V/div Offset: 0 V Attenuation: 1 X Sample Mode: Average
#Channel 2: Range: 1 V/div Offset: 0 V Attenuation: 1 X Sample Mode: Average

Time (s),Channel 1 (V),Channel 2 (V)
-0.19771924258079684,-0.028695439958911956,-1.3169426110237734
-0.19766309258079684,-0.03979011451666335,-1.3169426110237734
-0.19760694258079683,-0.04718656422183096,-1.3132352600427357
-0.19755079258079683,-0.05828123877958235,-1.3169426110237734
-0.19749464258079685,-0.06567768848474995,-1.3169426110237734
-0.19743849258079685,-0.07307413818991755,-1.3169426110237734
-0.19738234258079684,-0.08047058789508515,-1.3169426110237734
-0.19732619258079684,-0.08416881274766895,-1.3169426110237734
-0.19727004258079683,-0.09156526245283655,-1.3169426110237734
-0.19721389258079683,-0.09526348730542371,-1.3169426110237716
-0.19715774258079685,-0.10265993701058794,-1.3132352600427357
-0.19710159258079685,-0.10635816186317175,-1.3169426110237734
-0.19704544258079684,-0.11005638671575554,-1.3169426110237734
-0.19698929258079684,-0.11375461156833934,-1.3169426110237734
-0.19693314258079683,-0.11745283642092315,-1.3169426110237734
-0.19687699258079686,-0.12115106127350526,-1.3132352600427375
-0.19682084258079685,-0.12484928612609074,-1.3132352600427357
-0.19676469258079685,-0.12854751097867453,-1.3169426110237734
-0.19670854258079684,-0.13224573583125834,-1.3169426110237734
-0.19665239258079684,-0.13224573583125834,-1.3169426110237734
-0.19659624258079683,-0.13224573583125834,-1.3169426110237734
-0.19654009258079685,-0.13594396068384215,-1.3169426110237734
-0.19648394258079685,-0.13964218553642593,-1.3169426110237734
-0.19642779258079685,-0.13964218553642593,-1.3169426110237734
-0.19637164258079684,-0.13964218553642593,-1.3169426110237734
-0.19631549258079684,-0.14334041038900974,-1.3169426110237734
-0.19625934258079683,-0.14334041038900974,-1.3132352600427357
-0.19620319258079685,-0.14703863524159355,-1.3132352600427357
-0.19614704258079685,-0.14703863524159355,-1.3169426110237734
-0.19609089258079684,-0.14703863524159355,-1.3132352600427357
-0.19603474258079684,-0.14703863524159355,-1.3169426110237734
-0.19597859258079683,-0.14703863524159355,-1.3132352600427357
-0.19592244258079683,-0.14334041038901144,-1.3132352600427357
-0.19586629258079685,-0.14703863524159355,-1.3132352600427357
-0.19581014258079685,-0.14703863524159355,-1.3169426110237734
-0.19575399258079684,-0.14703863524159355,-1.3169426110237734
-0.19569784258079684,-0.14703863524159355,-1.3169426110237734
-0.19564169258079683,-0.14703863524159355,-1.3169426110237734
-0.19558554258079686,-0.14703863524159355,-1.3169426110237734
-0.19552939258079685,-0.14703863524159355,-1.3169426110237734
-0.19547324258079685,-0.14334041038900974,-1.3132352600427357
-0.19541709258079684,-0.14334041038900974,-1.3132352600427357
-0.19536094258079684,-0.14334041038900974,-1.3169426110237734
-0.19530479258079683,-0.14334041038900974,-1.3169426110237734
-0.19524864258079686,-0.14334041038900974,-1.3169426110237734
-0.19519249258079685,-0.14334041038900974,-1.3169426110237734
-0.19513634258079685,-0.14334041038900974,-1.3132352600427357
-0.19508019258079684,-0.13964218553642593,-1.3132352600427357
-0.19502404258079684,-0.13964218553642593,-1.3132352600427357
-0.19496789258079683,-0.13964218553642593,-1.3132352600427357
-0.19491174258079685,-0.14334041038900974,-1.3132352600427357
-0.19485559258079685,-0.13964218553642593,-1.3132352600427357
-0.19479944258079684,-0.14334041038900974,-1.3132352600427357
-0.19474329258079684,-0.13964218553642593,-1.3169426110237734
-0.19468714258079683,-0.13964218553642593,-1.3169426110237734
-0.19463099258079683,-0.13964218553642593,-1.3169426110237734
-0.19457484258079685,-0.13964218553642593,-1.3169426110237734
-0.19451869258079685,-0.13594396068384215,-1.3169426110237734
-0.19446254258079684,-0.13594396068384215,-1.3169426110237734
-0.19440639258079684,-0.13964218553642593,-1.3132352600427357
-0.19435024258079683,-0.13964218553642593,-1.3169426110237734
-0.19429409258079686,-0.13964218553642593,-1.3132352600427375
-0.19423794258079685,-0.13964218553642593,-1.3169426110237734
-0.19418179258079685,-0.13964218553642593,-1.3169426110237734
-0.19412564258079684,-0.13964218553642593,-1.3169426110237734
-0.19406949258079684,-0.13594396068384215,-1.3169426110237734
-0.19401334258079683,-0.13594396068384215,-1.3169426110237734
-0.19395719258079686,-0.13594396068384215,-1.3169426110237734
-0.19390104258079685,-0.13594396068384215,-1.3169426110237734
-0.19384489258079685,-0.13594396068384215,-1.3169426110237734
-0.19378874258079684,-0.13594396068384215,-1.3169426110237734
-0.19373259258079684,-0.13224573583125834,-1.3169426110237734
-0.19367644258079683,-0.13224573583125834,-1.3169426110237734
-0.19362029258079685,-0.13224573583125834,-1.3169426110237734
-0.19356414258079685,-0.13224573583125834,-1.3169426110237734
-0.19350799258079684,-0.13224573583125834,-1.3169426110237734
-0.19345184258079684,-0.13224573583125834,-1.3169426110237734
-0.19339569258079684,-0.13224573583125834,-1.3169426110237734
-0.19333954258079683,-0.13224573583125834,-1.3169426110237734
-0.19328339258079685,-0.13224573583125834,-1.3169426110237734
-0.19322724258079685,-0.13224573583125834,-1.3132352600427357
-0.19317109258079684,-0.13224573583125834,-1.3169426110237734
-0.19311494258079684,-0.13224573583125834,-1.3169426110237734
-0.19305879258079683,-0.13224573583125834,-1.3169426110237734
-0.19300264258079683,-0.13224573583126004,-1.3169426110237734
-0.19294649258079685,-0.13594396068384215,-1.3169426110237734
-0.19289034258079685,-0.13594396068384215,-1.3169426110237734
-0.19283419258079684,-0.13224573583125834,-1.3169426110237734
-0.19277804258079684,-0.13224573583125834,-1.3169426110237734
-0.19272189258079683,-0.13224573583125834,-1.3169426110237734
-0.19266574258079686,-0.13224573583125834,-1.3169426110237734
-0.19260959258079685,-0.13224573583125834,-1.3169426110237734
-0.19255344258079685,-0.13224573583125834,-1.3169426110237734
-0.19249729258079684,-0.13224573583125834,-1.3169426110237734
-0.19244114258079684,-0.13224573583125834,-1.3169426110237734
-0.19238499258079683,-0.13224573583125834,-1.3169426110237734
-0.19232884258079685,-0.12854751097867453,-1.3169426110237734
-0.19227269258079685,-0.12854751097867453,-1.3169426110237734
-0.19221654258079685,-0.12854751097867453,-1.3169426110237734
-0.19216039258079684,-0.12854751097867453,-1.3169426110237734
-0.19210424258079684,-0.12854751097867453,-1.3169426110237734
-0.19204809258079683,-0.12854751097867453,-1.3169426110237734
-0.19199194258079685,-0.12854751097867453,-1.3169426110237734
-0.19193579258079685,-0.12854751097867453,-1.3169426110237734
-0.19187964258079684,-0.12854751097867453,-1.3169426110237734
-0.19182349258079684,-0.12484928612609074,-1.3169426110237734
-0.19176734258079683,-0.12484928612609074,-1.3169426110237734
-0.19171119258079683,-0.12484928612609074,-1.3169426110237734
-0.19165504258079685,-0.12484928612609074,-1.3169426110237734
-0.19159889258079685,-0.12484928612609074,-1.3169426110237734
-0.19154274258079684,-0.12484928612609074,-1.3169426110237734
-0.19148659258079684,-0.12484928612609074,-1.3169426110237734
-0.19143044258079683,-0.12484928612609074,-1.3169426110237734
-0.19137429258079686,-0.12484928612609074,-1.3169426110237734
-0.19131814258079685,-0.12484928612609074,-1.3169426110237734
-0.19126199258079685,-0.12484928612609074,-1.3169426110237734
-0.19120584258079684,-0.12115106127350694,-1.3169426110237734
-0.19114969258079684,-0.12115106127350694,-1.3169426110237734
-0.19109354258079683,-0.12484928612609074,-1.3169426110237734
-0.19103739258079686,-0.12115106127350694,-1.3169426110237734
-0.19098124258079685,-0.12484928612609074,-1.3169426110237734
-0.19092509258079685,-0.12115106127350694,-1.3169426110237734
-0.19086894258079684,-0.12115106127350694,-1.3169426110237734
-0.19081279258079684,-0.12115106127350694,-1.3169426110237734
-0.19075664258079683,-0.12115106127350694,-1.3169426110237734
-0.19070049258079685,-0.12115106127350694,-1.3132352600427357
-0.19064434258079685,-0.12115106127350694,-1.3169426110237734
-0.19058819258079684,-0.12115106127350694,-1.3169426110237734
-0.19053204258079684,-0.12115106127350694,-1.3169426110237734
-0.19047589258079684,-0.12115106127350694,-1.3169426110237734
-0.19041974258079683,-0.12115106127350694,-1.3169426110237734
-0.19036359258079685,-0.12115106127350694,-1.3169426110237734
-0.19030744258079685,-0.12115106127350694,-1.3169426110237734
-0.19025129258079684,-0.12115106127350694,-1.3169426110237734
-0.19019514258079684,-0.12484928612609074,-1.3169426110237734
-0.19013899258079683,-0.12115106127350694,-1.3169426110237734
-0.19008284258079686,-0.12484928612608906,-1.3169426110237734
-0.19002669258079685,-0.12115106127350694,-1.3169426110237734
-0.18997054258079685,-0.12115106127350694,-1.3169426110237734
-0.18991439258079684,-0.12115106127350694,-1.3169426110237734
-0.18985824258079684,-0.12115106127350694,-1.3169426110237734
-0.18980209258079683,-0.12115106127350694,-1.3169426110237734
-0.18974594258079686,-0.12115106127350694,-1.3169426110237734
-0.18968979258079685,-0.12115106127350694,-1.3169426110237734
-0.18963364258079685,-0.12115106127350694,-1.3169426110237734
-0.18957749258079684,-0.12115106127350694,-1.3169426110237734
-0.18952134258079684,-0.12115106127350694,-1.3169426110237734
-0.18946519258079683,-0.12115106127350694,-1.3169426110237734
-0.18940904258079685,-0.11745283642092315,-1.3169426110237734
-0.18935289258079685,-0.11745283642092315,-1.3169426110237734
-0.18929674258079685,-0.11745283642092315,-1.3169426110237734
-0.18924059258079684,-0.11375461156833934,-1.3169426110237734
-0.18918444258079684,-0.11375461156833934,-1.3169426110237734
-0.18912829258079683,-0.11745283642092315,-1.3169426110237734
-0.18907214258079685,-0.11375461156833934,-1.3169426110237734
-0.18901599258079685,-0.11375461156833934,-1.3169426110237734
-0.18895984258079684,-0.11375461156833934,-1.3169426110237734
-0.18890369258079684,-0.11375461156833934,-1.3169426110237734
-0.18884754258079683,-0.11375461156833934,-1.3169426110237734
-0.18879139258079683,-0.11375461156833934,-1.3169426110237734
-0.18873524258079685,-0.11375461156833934,-1.3169426110237734
-0.18867909258079685,-0.11375461156833934,-1.3169426110237734
-0.18862294258079684,-0.11375461156833934,-1.3169426110237734
-0.18856679258079684,-0.11375461156833934,-1.3169426110237734
-0.18851064258079683,-0.11005638671575554,-1.3169426110237734
-0.18845449258079686,-0.11005638671575554,-1.3169426110237734
-0.18839834258079685,-0.10635816186317175,-1.3169426110237734
-0.18834219258079685,-0.10635816186317175,-1.3169426110237734
-0.18828604258079684,-0.10635816186317175,-1.3169426110237734
-0.18822989258079684,-0.11005638671575554,-1.3169426110237734
-0.18817374258079683,-0.10635816186317175,-1.3169426110237734
-0.18811759258079686,-0.10635816186317175,-1.3169426110237734
-0.18806144258079685,-0.10635816186317175,-1.3169426110237734
-0.18800529258079685,-0.10635816186317175,-1.3169426110237734
-0.18794914258079684,-0.10635816186317175,-1.3169426110237734
-0.18789299258079684,-0.10265993701058794,-1.3169426110237734
-0.18783684258079683,-0.10265993701058794,-1.3169426110237734
-0.18778069258079685,-0.10265993701058794,-1.3169426110237734
-0.18772454258079685,-0.10265993701058794,-1.3169426110237734
-0.18766839258079684,-0.10265993701058794,-1.3169426110237734
-0.18761224258079684,-0.10265993701058794,-1.3169426110237734
-0.18755609258079683,-0.10265993701058794,-1.3169426110237734
-0.18749994258079683,-0.10265993701058626,-1.3169426110237734
-0.18744379258079685,-0.09896171215800414,-1.3169426110237734
-0.18738764258079685,-0.09896171215800414,-1.3169426110237734
-0.18733149258079684,-0.09896171215800414,-1.3169426110237734
-0.18727534258079684,-0.09896171215800414,-1.3169426110237734
-0.18721919258079683,-0.09896171215800414,-1.3169426110237734
-0.18716304258079686,-0.09896171215800414,-1.3169426110237734
-0.18710689258079685,-0.09526348730542035,-1.3169426110237734
-0.18705074258079685,-0.09896171215800414,-1.3169426110237734
-0.18699459258079684,-0.09896171215800414,-1.3169426110237734
-0.18693844258079684,-0.09896171215800414,-1.3169426110237734
-0.18688229258079683,-0.09896171215800414,-1.3169426110237734
-0.18682614258079686,-0.09896171215800414,-1.3169426110237734
-0.18676999258079685,-0.09156526245283655,-1.3169426110237734
-0.18671384258079685,-0.09156526245283655,-1.3169426110237734
-0.18665769258079684,-0.09156526245283655,-1.3169426110237734
-0.18660154258079684,-0.09156526245283655,-1.3169426110237734
-0.18654539258079683,-0.09156526245283655,-1.3169426110237734
-0.18648924258079685,-0.08786703760025275,-1.3169426110237734
-0.18643309258079685,-0.08786703760025275,-1.3169426110237734
-0.18637694258079684,-0.08786703760025275,-1.3169426110237734
-0.18632079258079684,-0.08786703760025275,-1.3169426110237734
-0.18626464258079684,-0.08786703760025275,-1.3169426110237734
-0.18620849258079683,-0.08786703760025107,-1.3169426110237734
-0.18615234258079685,-0.08416881274766895,-1.3169426110237734
-0.18609619258079685,-0.08416881274766895,-1.3169426110237734
-0.18604004258079684,-0.08047058789508515,-1.3169426110237734
-0.18598389258079684,-0.08047058789508515,-1.3169426110237734
-0.18592774258079683,-0.08047058789508515,-1.3169426110237734
-0.18587159258079686,-0.07677236304250303,-1.3169426110237734
-0.18581544258079685,-0.07677236304250135,-1.3169426110237734
-0.18575929258079685,-0.07677236304250135,-1.3169426110237734
-0.18570314258079684,-0.07677236304250135,-1.3169426110237734
-0.18564699258079684,-0.07677236304250135,-1.3169426110237734
-0.18559084258079683,-0.07677236304250135,-1.3169426110237734
-0.18553469258079686,-0.07307413818991755,-1.3169426110237734
-0.18547854258079685,-0.07677236304250135,-1.3169426110237734
-0.18542239258079685,-0.07307413818991755,-1.3169426110237734
-0.18536624258079684,-0.07307413818991755,-1.3169426110237734
-0.18531009258079684,-0.07307413818991755,-1.3169426110237734
-0.18525394258079683,-0.07307413818991755,-1.3169426110237734
-0.18519779258079686,-0.07307413818991755,-1.3169426110237734
-0.18514164258079685,-0.06937591333733376,-1.3169426110237734
-0.18508549258079685,-0.06937591333733376,-1.3169426110237734
-0.18502934258079684,-0.06567768848474995,-1.3169426110237734
-0.18497319258079684,-0.06567768848474995,-1.3169426110237734
-0.18491704258079683,-0.06197946363216615,-1.3169426110237734
-0.18486089258079685,-0.06197946363216615,-1.3169426110237734
-0.18480474258079685,-0.06197946363216615,-1.3169426110237734
-0.18474859258079684,-0.05828123877958235,-1.3169426110237734
-0.18469244258079684,-0.05828123877958235,-1.3169426110237734
-0.18463629258079683,-0.05828123877958235,-1.3169426110237734
-0.18458014258079683,-0.05828123877958235,-1.3169426110237734
-0.18452399258079685,-0.05828123877958235,-1.3169426110237734
-0.18446784258079685,-0.054583013926998554,-1.3169426110237734
-0.18441169258079684,-0.054583013926998554,-1.3169426110237734
-0.18435554258079684,-0.054583013926998554,-1.3169426110237734
-0.18429939258079683,-0.05088478907441475,-1.320649962004811
-0.18424324258079686,-0.05088478907441475,-1.3169426110237752
-0.18418709258079685,-0.05088478907441475,-1.3169426110237734
-0.18413094258079685,-0.05088478907441475,-1.3169426110237734
-0.18407479258079684,-0.05088478907441475,-1.3169426110237734
-0.18401864258079684,-0.04718656422183096,-1.3169426110237734
-0.18396249258079683,-0.05088478907441475,-1.3169426110237734
-0.18390634258079686,-0.04718656422183096,-1.3169426110237734
-0.18385019258079685,-0.04718656422183096,-1.3169426110237734
-0.18379404258079685,-0.04718656422183096,-1.3169426110237734
-0.18373789258079684,-0.04718656422183096,-1.3169426110237734
-0.18368174258079684,-0.04718656422183096,-1.3169426110237734
-0.18362559258079683,-0.043488339369247155,-1.3169426110237734
-0.18356944258079685,-0.043488339369247155,-1.3169426110237734
-0.18351329258079685,-0.043488339369247155,-1.3169426110237734
-0.18345714258079684,-0.03979011451666335,-1.3169426110237734
-0.18340099258079684,-0.043488339369247155,-1.3169426110237734
-0.18334484258079684,-0.03979011451666335,-1.3169426110237734
-0.18328869258079683,-0.03609188966407956,-1.3169426110237734
-0.18323254258079685,-0.03609188966407956,-1.3169426110237734
-0.18317639258079685,-0.03609188966407956,-1.3169426110237734
-0.18312024258079684,-0.03609188966407956,-1.3169426110237734
-0.18306409258079684,-0.03609188966407956,-1.3169426110237734
-0.18300794258079683,-0.03609188966407956,-1.3169426110237734
-0.18295179258079686,-0.03609188966407956,-1.3169426110237734
-0.18289564258079685,-0.03609188966407956,-1.3169426110237734
-0.18283949258079685,-0.03609188966407956,-1.3169426110237734
-0.18278334258079684,-0.03609188966407956,-1.3169426110237734
-0.18272719258079684,-0.032393664811495755,-1.3169426110237734
-0.18267104258079683,-0.032393664811495755,-1.3169426110237734
-0.18261489258079686,-0.032393664811495755,-1.3169426110237734
-0.18255874258079685,-0.028695439958911956,-1.3169426110237734
-0.18250259258079685,-0.032393664811495755,-1.3169426110237734
-0.18244644258079684,-0.028695439958911956,-1.3169426110237734
-0.18239029258079684,-0.028695439958911956,-1.3169426110237734
-0.18233414258079683,-0.028695439958911956,-1.3169426110237734
-0.18227799258079685,-0.024997215106328158,-1.3169426110237734
-0.18222184258079685,-0.024997215106328158,-1.3169426110237734
-0.18216569258079685,-0.024997215106328158,-1.3169426110237734
-0.18210954258079684,-0.024997215106328158,-1.3169426110237734
-0.18205339258079684,-0.021298990253744356,-1.3169426110237734
-0.18199724258079683,-0.021298990253744356,-1.3169426110237734
-0.18194109258079685,-0.021298990253744356,-1.3169426110237734
-0.18188494258079685,-0.021298990253744356,-1.3169426110237734
-0.18182879258079684,-0.021298990253744356,-1.3169426110237734
-0.18177264258079684,-0.017600765401160557,-1.3169426110237734
-0.18171649258079683,-0.017600765401160557,-1.3169426110237734
-0.18166034258079686,-0.013902540548578441,-1.3169426110237734
-0.18160419258079685,-0.013902540548576758,-1.3169426110237734
-0.18154804258079685,-0.013902540548576758,-1.320649962004811
-0.18149189258079684,-0.013902540548576758,-1.3169426110237734
-0.18143574258079684,-0.013902540548576758,-1.320649962004811
-0.18137959258079683,-0.010204315695992958,-1.320649962004811
-0.18132344258079686,-0.010204315695992958,-1.3169426110237734
-0.18126729258079685,-0.010204315695992958,-1.320649962004811
-0.18121114258079685,-0.010204315695992958,-1.320649962004811
-0.18115499258079684,-0.013902540548576758,-1.3169426110237734
-0.18109884258079684,-0.010204315695992958,-1.3169426110237734
-0.18104269258079683,-0.010204315695992958,-1.3169426110237734
-0.18098654258079686,-0.010204315695992958,-1.3169426110237734
-0.18093039258079685,-0.010204315695992958,-1.3169426110237734
-0.18087424258079685,-0.010204315695992958,-1.3169426110237734
-0.18081809258079684,-0.010204315695992958,-1.3169426110237734
-0.18076194258079684,-0.010204315695992958,-1.3169426110237734
-0.18070579258079683,-0.010204315695992958,-1.3169426110237734
-0.18064964258079685,-0.0065060908434091584,-1.3169426110237734
-0.18059349258079685,-0.0065060908434091584,-1.3169426110237734
-0.18053734258079684,-0.0065060908434091584,-1.3169426110237734
-0.18048119258079684,-0.0065060908434091584,-1.320649962004811
-0.18042504258079683,-0.0065060908434091584,-1.3169426110237734
-0.18036889258079683,-0.0065060908434091584,-1.3169426110237734
-0.18031274258079685,-0.0065060908434091584,-1.3169426110237734
-0.18025659258079685,-0.002807865990825359,-1.3169426110237734
-0.18020044258079684,-0.0065060908434091584,-1.320649962004811
-0.18014429258079684,-0.002807865990825359,-1.3169426110237734
