10Hz/acq0095.csv

#Digilent WaveForms Oscilloscope Acquisition
#Device Name: Discovery2
#Serial Number: SN:210321AA28BE
#Date Time: 2023-05-24 14:52:56.541
#Sample rate: 17809.4Hz
#Samples: 8192
#Trigger: Source: Channel 1 Type: Edge Condition: Rising Level: 800 mV Hyst.: Auto HoldOff: 100 ns
#Channel 1: Range: 1 V/div Offset: 0 V Attenuation: 1 X Sample Mode: Average
#Channel 2: Range: 1 V/div Offset: 0 V Attenuation: 1 X Sample Mode: Average

Time (s),Channel 1 (V),Channel 2 (V)
-0.19772231134334414,-0.028695439958911956,-1.3169426110237734
-0.19766616134334414,-0.03979011451666335,-1.3169426110237734
-0.19761001134334413,-0.04718656422183096,-1.3169426110237734
-0.19755386134334413,-0.054583013926998554,-1.3169426110237734
-0.19749771134334415,-0.06197946363216615,-1.3132352600427357
-0.19744156134334415,-0.06937591333733376,-1.3169426110237734
-0.19738541134334414,-0.07677236304250135,-1.3169426110237734
-0.19732926134334414,-0.08416881274766895,-1.3132352600427357
-0.19727311134334413,-0.08786703760025275,-1.3132352600427357
-0.19721696134334413,-0.09526348730542371,-1.3169426110237734
-0.19716081134334415,-0.10265993701058794,-1.3169426110237734
-0.19710466134334415,-0.10635816186317175,-1.3169426110237734
-0.19704851134334414,-0.11005638671575554,-1.3169426110237734
-0.19699236134334414,-0.11375461156833934,-1.3169426110237734
-0.19693621134334413,-0.11375461156833934,-1.3169426110237734
-0.19688006134334415,-0.12115106127350359,-1.3169426110237734
-0.19682391134334415,-0.12115106127350694,-1.3169426110237734
-0.19676776134334414,-0.12484928612609074,-1.3132352600427357
-0.19671161134334414,-0.12854751097867453,-1.3132352600427357
-0.19665546134334413,-0.13224573583125834,-1.3132352600427357
-0.19659931134334413,-0.13224573583125834,-1.3132352600427357
-0.19654316134334415,-0.13594396068384215,-1.3169426110237734
-0.19648701134334415,-0.13594396068384215,-1.3132352600427357
-0.19643086134334414,-0.13964218553642593,-1.3169426110237734
-0.19637471134334414,-0.13964218553642593,-1.3132352600427357
-0.19631856134334413,-0.13964218553642593,-1.3132352600427357
-0.19626241134334413,-0.13964218553642593,-1.3132352600427357
-0.19620626134334415,-0.14334041038900974,-1.3169426110237734
-0.19615011134334415,-0.14334041038900974,-1.3169426110237734
-0.19609396134334414,-0.14334041038900974,-1.3169426110237734
-0.19603781134334414,-0.14334041038900974,-1.3169426110237734
-0.19598166134334413,-0.14334041038900974,-1.3132352600427357
-0.19592551134334413,-0.14703863524159186,-1.3169426110237716
-0.19586936134334415,-0.14334041038900974,-1.3132352600427357
-0.19581321134334415,-0.14703863524159355,-1.3169426110237734
-0.19575706134334414,-0.14703863524159355,-1.3132352600427357
-0.19570091134334414,-0.14703863524159355,-1.3132352600427357
-0.19564476134334413,-0.14703863524159355,-1.3132352600427357
-0.19558861134334415,-0.14703863524159355,-1.3169426110237716
-0.19553246134334415,-0.14334041038900974,-1.3169426110237734
-0.19547631134334414,-0.14334041038900974,-1.3132352600427357
-0.19542016134334414,-0.14334041038900974,-1.3132352600427357
-0.19536401134334413,-0.14334041038900974,-1.3132352600427357
-0.19530786134334413,-0.14334041038900974,-1.3169426110237734
-0.19525171134334415,-0.14334041038900974,-1.3132352600427357
-0.19519556134334415,-0.14334041038900974,-1.3169426110237734
-0.19513941134334414,-0.14334041038900974,-1.3169426110237734
-0.19508326134334414,-0.14334041038900974,-1.3169426110237734
-0.19502711134334413,-0.14334041038900974,-1.3132352600427357
-0.19497096134334413,-0.14334041038900974,-1.3132352600427357
-0.19491481134334415,-0.13964218553642593,-1.3132352600427357
-0.19485866134334415,-0.13964218553642593,-1.3132352600427357
-0.19480251134334414,-0.13964218553642593,-1.3169426110237734
-0.19474636134334414,-0.13964218553642593,-1.3132352600427357
-0.19469021134334413,-0.13964218553642593,-1.3132352600427357
-0.19463406134334413,-0.13964218553642593,-1.3132352600427357
-0.19457791134334415,-0.13964218553642593,-1.3132352600427357
-0.19452176134334415,-0.13964218553642593,-1.3169426110237734
-0.19446561134334414,-0.13964218553642593,-1.3169426110237734
-0.19440946134334414,-0.13964218553642593,-1.3169426110237734
-0.19435331134334413,-0.13964218553642593,-1.3132352600427357
-0.19429716134334415,-0.13594396068384385,-1.3169426110237716
-0.19424101134334415,-0.13594396068384215,-1.3169426110237734
-0.19418486134334415,-0.13594396068384215,-1.3169426110237734
-0.19412871134334414,-0.13594396068384215,-1.3132352600427357
-0.19407256134334414,-0.13594396068384215,-1.3132352600427357
-0.19401641134334413,-0.13594396068384215,-1.3169426110237734
-0.19396026134334415,-0.13594396068384215,-1.3169426110237734
-0.19390411134334415,-0.13594396068384215,-1.3169426110237734
-0.19384796134334414,-0.13594396068384215,-1.3132352600427357
-0.19379181134334414,-0.13594396068384215,-1.3132352600427357
-0.19373566134334413,-0.13594396068384215,-1.3132352600427357
-0.19367951134334413,-0.13224573583125834,-1.3169426110237734
-0.19362336134334415,-0.13594396068384215,-1.3169426110237734
-0.19356721134334415,-0.13594396068384215,-1.3169426110237734
-0.19351106134334414,-0.13594396068384215,-1.3169426110237734
-0.19345491134334414,-0.13594396068384215,-1.3169426110237734
-0.19339876134334413,-0.13224573583125834,-1.3169426110237734
-0.19334261134334413,-0.13224573583125834,-1.3169426110237734
-0.19328646134334415,-0.13224573583125834,-1.3169426110237734
-0.19323031134334415,-0.13224573583125834,-1.3169426110237734
-0.19317416134334414,-0.13224573583125834,-1.3169426110237734
-0.19311801134334414,-0.13224573583125834,-1.3169426110237734
-0.19306186134334413,-0.13224573583125834,-1.3169426110237734
-0.19300571134334413,-0.13224573583125834,-1.3169426110237734
-0.19294956134334415,-0.13224573583125834,-1.3169426110237734
-0.19289341134334415,-0.13224573583125834,-1.3169426110237734
-0.19283726134334414,-0.13224573583125834,-1.3169426110237734
-0.19278111134334414,-0.13224573583125834,-1.3169426110237734
-0.19272496134334413,-0.13224573583125834,-1.3169426110237734
-0.19266881134334415,-0.13224573583125834,-1.3169426110237734
-0.19261266134334415,-0.13224573583125834,-1.3169426110237734
-0.19255651134334414,-0.12854751097867453,-1.3132352600427357
-0.19250036134334414,-0.13224573583125834,-1.3169426110237734
-0.19244421134334413,-0.13224573583125834,-1.3169426110237734
-0.19238806134334413,-0.12854751097867453,-1.3169426110237734
-0.19233191134334415,-0.12854751097867453,-1.3169426110237734
-0.19227576134334415,-0.12854751097867453,-1.3169426110237734
-0.19221961134334414,-0.12854751097867453,-1.3169426110237734
-0.19216346134334414,-0.12854751097867453,-1.3169426110237734
-0.19210731134334413,-0.12854751097867453,-1.3169426110237734
-0.19205116134334413,-0.12854751097867453,-1.3169426110237734
-0.19199501134334415,-0.12854751097867453,-1.3169426110237734
-0.19193886134334415,-0.12484928612609074,-1.3169426110237734
-0.19188271134334414,-0.12484928612609074,-1.3169426110237734
-0.19182656134334414,-0.12484928612609074,-1.3169426110237734
-0.19177041134334413,-0.12115106127350694,-1.3169426110237734
-0.19171426134334413,-0.12484928612609074,-1.3169426110237734
-0.19165811134334415,-0.12484928612609074,-1.3169426110237734
-0.19160196134334415,-0.12484928612609074,-1.3169426110237734
-0.19154581134334414,-0.12484928612609074,-1.3169426110237734
-0.19148966134334414,-0.12115106127350694,-1.3169426110237734
-0.19143351134334413,-0.12115106127350694,-1.3169426110237734
-0.19137736134334415,-0.12115106127350694,-1.3169426110237734
-0.19132121134334415,-0.12115106127350694,-1.3169426110237734
-0.19126506134334414,-0.12115106127350694,-1.3169426110237734
-0.19120891134334414,-0.12115106127350694,-1.3169426110237734
-0.19115276134334414,-0.12115106127350694,-1.3169426110237734
-0.19109661134334413,-0.12115106127350694,-1.3169426110237734
-0.19104046134334415,-0.12115106127350694,-1.3169426110237734
-0.19098431134334415,-0.12115106127350694,-1.3169426110237734
-0.19092816134334414,-0.12115106127350694,-1.3169426110237734
-0.19087201134334414,-0.11745283642092315,-1.3169426110237734
-0.19081586134334413,-0.11745283642092315,-1.3169426110237734
-0.19075971134334413,-0.11745283642092315,-1.3169426110237734
-0.19070356134334415,-0.11745283642092315,-1.3169426110237734
-0.19064741134334415,-0.12115106127350694,-1.3169426110237734
-0.19059126134334414,-0.12115106127350694,-1.3169426110237734
-0.19053511134334414,-0.11745283642092315,-1.3169426110237734
-0.19047896134334413,-0.12115106127350694,-1.3169426110237734
-0.19042281134334413,-0.12115106127350694,-1.3169426110237734
-0.19036666134334415,-0.12115106127350694,-1.3169426110237734
-0.19031051134334415,-0.12115106127350694,-1.3169426110237734
-0.19025436134334414,-0.11745283642092315,-1.3169426110237734
-0.19019821134334414,-0.11745283642092315,-1.3169426110237734
-0.19014206134334413,-0.12115106127350694,-1.3169426110237734
-0.19008591134334415,-0.12115106127350694,-1.3169426110237734
-0.19002976134334415,-0.11745283642092315,-1.3169426110237734
-0.18997361134334415,-0.11745283642092315,-1.3169426110237734
-0.18991746134334414,-0.11745283642092315,-1.3169426110237734
-0.18986131134334414,-0.11745283642092315,-1.3169426110237734
-0.18980516134334413,-0.11745283642092315,-1.3169426110237734
-0.18974901134334415,-0.11745283642092315,-1.3169426110237734
-0.18969286134334415,-0.12115106127350694,-1.3169426110237734
-0.18963671134334414,-0.11745283642092315,-1.3169426110237734
-0.18958056134334414,-0.11745283642092315,-1.3132352600427357
-0.18952441134334413,-0.12115106127350694,-1.3169426110237734
-0.18946826134334413,-0.12115106127350694,-1.3169426110237734
-0.18941211134334415,-0.12115106127350694,-1.3169426110237734
-0.18935596134334415,-0.11745283642092315,-1.3169426110237734
-0.18929981134334414,-0.11745283642092315,-1.3169426110237734
-0.18924366134334414,-0.11745283642092315,-1.3169426110237734
-0.18918751134334413,-0.11745283642092315,-1.3169426110237734
-0.18913136134334413,-0.11745283642092315,-1.3169426110237734
-0.18907521134334415,-0.11375461156833934,-1.3169426110237734
-0.18901906134334415,-0.11375461156833934,-1.3169426110237734
-0.18896291134334414,-0.11375461156833934,-1.3169426110237734
-0.18890676134334414,-0.11375461156833934,-1.3169426110237734
-0.18885061134334413,-0.11375461156833934,-1.3169426110237734
-0.18879446134334413,-0.11375461156833934,-1.3169426110237734
-0.18873831134334415,-0.11375461156833934,-1.3169426110237734
-0.18868216134334415,-0.11375461156833934,-1.3169426110237734
-0.18862601134334414,-0.11375461156833934,-1.3169426110237734
-0.18856986134334414,-0.11375461156833934,-1.3169426110237734
-0.18851371134334413,-0.11005638671575554,-1.3169426110237734
-0.18845756134334415,-0.11005638671575554,-1.3169426110237734
-0.18840141134334415,-0.11005638671575554,-1.3169426110237734
-0.18834526134334414,-0.11005638671575554,-1.3169426110237734
-0.18828911134334414,-0.11005638671575554,-1.3169426110237734
-0.18823296134334414,-0.10635816186317175,-1.3169426110237734
-0.18817681134334413,-0.10635816186317175,-1.3169426110237734
-0.18812066134334415,-0.10265993701058794,-1.3169426110237734
-0.18806451134334415,-0.10265993701058794,-1.3169426110237734
-0.18800836134334414,-0.10635816186317175,-1.3169426110237734
-0.18795221134334414,-0.10265993701058794,-1.3169426110237734
-0.18789606134334413,-0.10265993701058794,-1.3169426110237734
-0.18783991134334413,-0.10265993701058794,-1.3169426110237734
-0.18778376134334415,-0.10265993701058794,-1.3169426110237734
-0.18772761134334415,-0.10265993701058794,-1.3169426110237734
-0.18767146134334414,-0.10265993701058794,-1.3169426110237734
-0.18761531134334414,-0.10265993701058794,-1.3169426110237734
-0.18755916134334413,-0.10265993701058794,-1.3169426110237734
-0.18750301134334413,-0.10265993701058794,-1.3169426110237734
-0.18744686134334415,-0.10265993701058794,-1.3169426110237734
-0.18739071134334415,-0.09896171215800414,-1.3169426110237734
-0.18733456134334414,-0.09896171215800414,-1.3169426110237734
-0.18727841134334414,-0.09896171215800414,-1.3169426110237734
-0.18722226134334413,-0.09896171215800414,-1.3169426110237734
-0.18716611134334415,-0.09896171215800414,-1.3169426110237734
-0.18710996134334415,-0.09896171215800414,-1.3169426110237734
-0.18705381134334415,-0.09896171215800414,-1.3169426110237734
-0.18699766134334414,-0.09896171215800414,-1.3169426110237734
-0.18694151134334414,-0.09896171215800414,-1.3169426110237734
-0.18688536134334413,-0.09896171215800414,-1.3169426110237734
-0.18682921134334415,-0.09526348730542035,-1.3169426110237734
-0.18677306134334415,-0.09526348730542035,-1.3169426110237734
-0.18671691134334414,-0.09526348730542035,-1.3169426110237734
-0.18666076134334414,-0.09526348730542035,-1.3169426110237734
-0.18660461134334413,-0.09156526245283655,-1.3169426110237734
-0.18654846134334413,-0.09156526245283655,-1.3169426110237734
-0.18649231134334415,-0.09156526245283655,-1.3169426110237734
-0.18643616134334415,-0.09156526245283655,-1.3169426110237734
-0.18638001134334414,-0.08786703760025275,-1.3169426110237734
-0.18632386134334414,-0.08786703760025275,-1.3169426110237734
-0.18626771134334413,-0.08786703760025275,-1.3169426110237734
-0.18621156134334413,-0.08786703760025275,-1.3169426110237734
-0.18615541134334415,-0.08786703760025275,-1.3169426110237734
-0.18609926134334415,-0.08416881274766895,-1.3169426110237734
-0.18604311134334414,-0.08416881274766895,-1.3169426110237734
-0.18598696134334414,-0.08416881274766895,-1.3169426110237734
-0.18593081134334413,-0.08416881274766895,-1.3169426110237734
-0.18587466134334416,-0.08047058789508683,-1.3169426110237734
-0.18581851134334415,-0.08047058789508515,-1.3169426110237734
-0.18576236134334415,-0.07677236304250135,-1.3169426110237734
-0.18570621134334414,-0.07677236304250135,-1.3169426110237734
-0.18565006134334414,-0.07677236304250135,-1.3169426110237734
-0.18559391134334413,-0.07677236304250135,-1.3169426110237734
-0.18553776134334415,-0.07677236304250135,-1.3169426110237734
-0.18548161134334415,-0.07307413818991755,-1.3169426110237734
-0.18542546134334414,-0.07307413818991755,-1.3169426110237734
-0.18536931134334414,-0.07307413818991755,-1.3169426110237734
-0.18531316134334413,-0.06937591333733376,-1.3169426110237734
-0.18525701134334413,-0.06937591333733376,-1.3169426110237734
-0.18520086134334415,-0.06937591333733376,-1.3169426110237734
-0.18514471134334415,-0.06937591333733376,-1.3169426110237734
-0.18508856134334414,-0.06937591333733376,-1.3169426110237734
-0.18503241134334414,-0.06937591333733376,-1.3169426110237734
-0.18497626134334413,-0.06937591333733376,-1.3169426110237734
-0.18492011134334413,-0.06567768848474995,-1.3169426110237734
-0.18486396134334415,-0.06567768848474995,-1.3169426110237734
-0.18480781134334415,-0.06567768848474995,-1.3169426110237734
-0.18475166134334414,-0.06197946363216615,-1.3169426110237734
-0.18469551134334414,-0.06197946363216615,-1.3169426110237734
-0.18463936134334413,-0.05828123877958235,-1.3169426110237734
-0.18458321134334413,-0.05828123877958067,-1.3169426110237734
-0.18452706134334415,-0.054583013926998554,-1.3169426110237734
-0.18447091134334415,-0.054583013926998554,-1.3169426110237734
-0.18441476134334414,-0.054583013926998554,-1.3169426110237734
-0.18435861134334414,-0.054583013926998554,-1.3169426110237734
-0.18430246134334413,-0.054583013926998554,-1.3169426110237734
-0.18424631134334415,-0.05088478907441643,-1.3169426110237734
-0.18419016134334415,-0.05088478907441475,-1.3169426110237734
-0.18413401134334414,-0.05088478907441475,-1.3169426110237734
-0.18407786134334414,-0.05088478907441475,-1.3169426110237734
-0.18402171134334414,-0.05088478907441475,-1.3169426110237734
-0.18396556134334413,-0.04718656422183096,-1.3169426110237734
-0.18390941134334415,-0.04718656422183096,-1.3169426110237734
-0.18385326134334415,-0.043488339369247155,-1.3169426110237734
-0.18379711134334414,-0.043488339369247155,-1.3169426110237734
-0.18374096134334414,-0.043488339369247155,-1.3169426110237734
-0.18368481134334413,-0.04718656422183096,-1.3169426110237734
-0.18362866134334413,-0.04718656422183096,-1.3169426110237734
-0.18357251134334415,-0.043488339369247155,-1.3169426110237734
-0.18351636134334415,-0.043488339369247155,-1.3169426110237734
-0.18346021134334414,-0.043488339369247155,-1.3169426110237734
-0.18340406134334414,-0.043488339369247155,-1.3169426110237734
-0.18334791134334413,-0.043488339369247155,-1.3169426110237734
-0.18329176134334413,-0.043488339369245475,-1.3169426110237734
-0.18323561134334415,-0.03979011451666335,-1.3169426110237734
-0.18317946134334415,-0.03979011451666335,-1.3169426110237734
-0.18312331134334414,-0.03609188966407956,-1.3169426110237734
-0.18306716134334414,-0.03609188966407956,-1.3169426110237734
-0.18301101134334413,-0.03609188966407956,-1.3169426110237734
-0.18295486134334416,-0.03609188966407956,-1.3169426110237734
-0.18289871134334415,-0.032393664811495755,-1.3169426110237734
-0.18284256134334415,-0.03609188966407956,-1.3169426110237734
-0.18278641134334414,-0.032393664811495755,-1.3169426110237734
-0.18273026134334414,-0.032393664811495755,-1.3169426110237734
-0.18267411134334413,-0.032393664811495755,-1.3169426110237734
-0.18261796134334415,-0.032393664811495755,-1.3169426110237734
-0.18256181134334415,-0.032393664811495755,-1.3169426110237734
-0.18250566134334414,-0.032393664811495755,-1.3169426110237734
-0.18244951134334414,-0.028695439958911956,-1.3169426110237734
-0.18239336134334413,-0.028695439958911956,-1.3169426110237734
-0.18233721134334413,-0.028695439958911956,-1.3169426110237734
-0.18228106134334415,-0.024997215106328158,-1.3169426110237734
-0.18222491134334415,-0.024997215106328158,-1.3169426110237734
-0.18216876134334414,-0.024997215106328158,-1.3169426110237734
-0.18211261134334414,-0.024997215106328158,-1.3169426110237734
-0.18205646134334413,-0.024997215106328158,-1.3169426110237734
-0.18200031134334413,-0.021298990253744356,-1.3169426110237734
-0.18194416134334415,-0.021298990253744356,-1.3169426110237734
-0.18188801134334415,-0.021298990253744356,-1.3169426110237734
-0.18183186134334414,-0.021298990253744356,-1.3169426110237734
-0.18177571134334414,-0.021298990253744356,-1.3169426110237734
-0.18171956134334413,-0.021298990253744356,-1.3169426110237734
-0.18166341134334416,-0.01760076540116224,-1.3169426110237734
-0.18160726134334415,-0.017600765401160557,-1.3169426110237734
-0.18155111134334415,-0.017600765401160557,-1.3169426110237734
-0.18149496134334414,-0.017600765401160557,-1.3169426110237734
-0.18143881134334414,-0.017600765401160557,-1.3169426110237734
-0.18138266134334413,-0.013902540548576758,-1.320649962004811
-0.18132651134334415,-0.013902540548576758,-1.3169426110237734
-0.18127036134334415,-0.013902540548576758,-1.3169426110237734
-0.18121421134334414,-0.010204315695992958,-1.3169426110237734
-0.18115806134334414,-0.010204315695992958,-1.3169426110237734
-0.18110191134334414,-0.010204315695992958,-1.3169426110237734
-0.18104576134334413,-0.010204315695992958,-1.3169426110237734
-0.18098961134334415,-0.010204315695992958,-1.3169426110237734
-0.18093346134334415,-0.010204315695992958,-1.320649962004811
-0.18087731134334414,-0.010204315695992958,-1.3169426110237734
-0.18082116134334414,-0.013902540548576758,-1.320649962004811
-0.18076501134334413,-0.010204315695992958,-1.320649962004811
-0.18070886134334413,-0.010204315695992958,-1.320649962004811
-0.18065271134334415,-0.010204315695992958,-1.3169426110237734
-0.18059656134334415,-0.010204315695992958,-1.3169426110237734
-0.18054041134334414,-0.010204315695992958,-1.320649962004811
-0.18048426134334414,-0.010204315695992958,-1.320649962004811
-0.18042811134334413,-0.010204315695992958,-1.320649962004811
-0.18037196134334413,-0.0065060908434091584,-1.320649962004811
-0.18031581134334415,-0.0065060908434091584,-1.320649962004811
-0.18025966134334415,-0.0065060908434091584,-1.3169426110237734
-0.18020351134334414,-0.002807865990825359,-1.3169426110237734
-0.18014736134334414,-0.0065060908434091584,-1.3169426110237734
