10Hz/acq0033.csv

#Digilent WaveForms Oscilloscope Acquisition
#Device Name: Discovery2
#Serial Number: SN:210321AA28BE
#Date Time: 2023-05-24 14:52:25.535
#Sample rate: 17809.4Hz
#Samples: 8192
#Trigger: Source: Channel 1 Type: Edge Condition: Rising Level: 800 mV Hyst.: Auto HoldOff: 100 ns
#Channel 1: Range: 1 V/div Offset: 0 V Attenuation: 1 X Sample Mode: Average
#Channel 2: Range: 1 V/div Offset: 0 V Attenuation: 1 X Sample Mode: Average

Time (s),Channel 1 (V),Channel 2 (V)
-0.19772499129798687,-0.05828123877958235,-1.3132352600427357
-0.19766884129798687,-0.06937591333733376,-1.3169426110237734
-0.19761269129798686,-0.07677236304250135,-1.3169426110237734
-0.19755654129798686,-0.08786703760025275,-1.3169426110237734
-0.19750039129798688,-0.09526348730542035,-1.3169426110237734
-0.19744424129798688,-0.09896171215800414,-1.3169426110237734
-0.19738809129798687,-0.11005638671575554,-1.3169426110237734
-0.19733194129798687,-0.11745283642092315,-1.3169426110237734
-0.19727579129798686,-0.12115106127350694,-1.3169426110237734
-0.19721964129798686,-0.12854751097867623,-1.3169426110237734
-0.19716349129798688,-0.13224573583125834,-1.3169426110237734
-0.19710734129798688,-0.13964218553642593,-1.3169426110237734
-0.19705119129798687,-0.14334041038900974,-1.3169426110237734
-0.19699504129798687,-0.14703863524159355,-1.3169426110237734
-0.19693889129798686,-0.15073686009417733,-1.3132352600427357
-0.19688274129798689,-0.15443508494675945,-1.3169426110237716
-0.19682659129798688,-0.15813330979934495,-1.3169426110237734
-0.19677044129798688,-0.16183153465192873,-1.3169426110237734
-0.19671429129798687,-0.16552975950451254,-1.3169426110237734
-0.19665814129798687,-0.16922798435709635,-1.3169426110237734
-0.19660199129798686,-0.16922798435709635,-1.3169426110237734
-0.19654584129798688,-0.17292620920968013,-1.3169426110237734
-0.19648969129798688,-0.17662443406226394,-1.3169426110237734
-0.19643354129798687,-0.17662443406226394,-1.3169426110237734
-0.19637739129798687,-0.17662443406226394,-1.3169426110237734
-0.19632124129798686,-0.18032265891484775,-1.3169426110237734
-0.19626509129798686,-0.18402088376743153,-1.3169426110237734
-0.19620894129798688,-0.18402088376743153,-1.3169426110237734
-0.19615279129798688,-0.18402088376743153,-1.3169426110237734
-0.19609664129798687,-0.18402088376743153,-1.3169426110237734
-0.19604049129798687,-0.18771910862001534,-1.3169426110237734
-0.19598434129798686,-0.18771910862001534,-1.3169426110237734
-0.19592819129798686,-0.19141733347259912,-1.3169426110237734
-0.19587204129798688,-0.19141733347259912,-1.3169426110237734
-0.19581589129798688,-0.19141733347259912,-1.3169426110237734
-0.19575974129798687,-0.19141733347259912,-1.3169426110237734
-0.19570359129798687,-0.19141733347259912,-1.3169426110237734
-0.19564744129798686,-0.19141733347259912,-1.3169426110237734
-0.19559129129798689,-0.19141733347259912,-1.3132352600427375
-0.19553514129798688,-0.19141733347259912,-1.3169426110237734
-0.19547899129798688,-0.19511555832518293,-1.3169426110237734
-0.19542284129798687,-0.19511555832518293,-1.3169426110237734
-0.19536669129798687,-0.19511555832518293,-1.3169426110237734
-0.19531054129798686,-0.19511555832518293,-1.3169426110237734
-0.19525439129798688,-0.19511555832518293,-1.3169426110237734
-0.19519824129798688,-0.19511555832518293,-1.3169426110237734
-0.19514209129798687,-0.19141733347259912,-1.3169426110237734
-0.19508594129798687,-0.19141733347259912,-1.3169426110237734
-0.19502979129798687,-0.19141733347259912,-1.3169426110237734
-0.19497364129798686,-0.19141733347259912,-1.3169426110237734
-0.19491749129798688,-0.19141733347259912,-1.3169426110237734
-0.19486134129798688,-0.19141733347259912,-1.3169426110237734
-0.19480519129798687,-0.18771910862001534,-1.3169426110237734
-0.19474904129798687,-0.18771910862001534,-1.3169426110237734
-0.19469289129798686,-0.18771910862001534,-1.3169426110237734
-0.19463674129798686,-0.18771910862001534,-1.3169426110237734
-0.19458059129798688,-0.18771910862001534,-1.3169426110237734
-0.19452444129798688,-0.18771910862001534,-1.3169426110237734
-0.19446829129798687,-0.18402088376743153,-1.3169426110237734
-0.19441214129798687,-0.18402088376743153,-1.3169426110237734
-0.19435599129798686,-0.18402088376743153,-1.3169426110237734
-0.19429984129798689,-0.18402088376743153,-1.3169426110237734
-0.19424369129798688,-0.18402088376743153,-1.3169426110237734
-0.19418754129798688,-0.18032265891484775,-1.3169426110237734
-0.19413139129798687,-0.18032265891484775,-1.3169426110237734
-0.19407524129798687,-0.18032265891484775,-1.3169426110237734
-0.19401909129798686,-0.18032265891484775,-1.3169426110237734
-0.19396294129798688,-0.18032265891484775,-1.3169426110237734
-0.19390679129798688,-0.17662443406226394,-1.3169426110237734
-0.19385064129798688,-0.17662443406226394,-1.3169426110237734
-0.19379449129798687,-0.17662443406226394,-1.3169426110237734
-0.19373834129798687,-0.17662443406226394,-1.3169426110237734
-0.19368219129798686,-0.17292620920968013,-1.3169426110237734
-0.19362604129798688,-0.17292620920968013,-1.3169426110237734
-0.19356989129798688,-0.17292620920968013,-1.3169426110237734
-0.19351374129798687,-0.16922798435709635,-1.3169426110237734
-0.19345759129798687,-0.16922798435709635,-1.3169426110237734
-0.19340144129798686,-0.16922798435709635,-1.3169426110237734
-0.19334529129798686,-0.16922798435709635,-1.3169426110237734
-0.19328914129798688,-0.16922798435709635,-1.3169426110237734
-0.19323299129798688,-0.16922798435709635,-1.3132352600427357
-0.19317684129798687,-0.16552975950451254,-1.3132352600427357
-0.19312069129798687,-0.16552975950451254,-1.3169426110237734
-0.19306454129798686,-0.16552975950451254,-1.3132352600427357
-0.19300839129798686,-0.16552975950451254,-1.3169426110237734
-0.19295224129798688,-0.16552975950451254,-1.3169426110237734
-0.19289609129798688,-0.16183153465192873,-1.3169426110237734
-0.19283994129798687,-0.16183153465192873,-1.3169426110237734
-0.19278379129798687,-0.16183153465192873,-1.3169426110237734
-0.19272764129798686,-0.16183153465192873,-1.3169426110237734
-0.19267149129798689,-0.15813330979934664,-1.3169426110237734
-0.19261534129798688,-0.15813330979934495,-1.3132352600427357
-0.19255919129798688,-0.15813330979934495,-1.3169426110237734
-0.19250304129798687,-0.15443508494676114,-1.3169426110237734
-0.19244689129798687,-0.15443508494676114,-1.3169426110237734
-0.19239074129798686,-0.15443508494676114,-1.3169426110237734
-0.19233459129798688,-0.15443508494676114,-1.3169426110237734
-0.19227844129798688,-0.15073686009417733,-1.3169426110237734
-0.19222229129798687,-0.15073686009417733,-1.3169426110237734
-0.19216614129798687,-0.15073686009417733,-1.3169426110237734
-0.19210999129798687,-0.14703863524159355,-1.3169426110237734
-0.19205384129798686,-0.14703863524159355,-1.3169426110237734
-0.19199769129798688,-0.14334041038900974,-1.3169426110237734
-0.19194154129798688,-0.14334041038900974,-1.3169426110237734
-0.19188539129798687,-0.14334041038900974,-1.3169426110237734
-0.19182924129798687,-0.13964218553642593,-1.3169426110237734
-0.19177309129798686,-0.13964218553642593,-1.3169426110237734
-0.19171694129798686,-0.13594396068384215,-1.3169426110237734
-0.19166079129798688,-0.13594396068384215,-1.3169426110237734
-0.19160464129798688,-0.13594396068384215,-1.3169426110237734
-0.19154849129798687,-0.13224573583125834,-1.3169426110237734
-0.19149234129798687,-0.13224573583125834,-1.3169426110237734
-0.19143619129798686,-0.13224573583125834,-1.3169426110237734
-0.19138004129798689,-0.13224573583125834,-1.3169426110237734
-0.19132389129798688,-0.12854751097867453,-1.3169426110237734
-0.19126774129798688,-0.12854751097867453,-1.3169426110237734
-0.19121159129798687,-0.12854751097867453,-1.3169426110237734
-0.19115544129798687,-0.12484928612609074,-1.3169426110237734
-0.19109929129798686,-0.12484928612609074,-1.3169426110237734
-0.19104314129798688,-0.12484928612609074,-1.3169426110237734
-0.19098699129798688,-0.12484928612609074,-1.3169426110237734
-0.19093084129798688,-0.12115106127350694,-1.3169426110237734
-0.19087469129798687,-0.12115106127350694,-1.3169426110237734
-0.19081854129798687,-0.12115106127350694,-1.3169426110237734
-0.19076239129798686,-0.12115106127350694,-1.3169426110237734
-0.19070624129798688,-0.11375461156833934,-1.3169426110237734
-0.19065009129798688,-0.11375461156833934,-1.3169426110237734
-0.19059394129798687,-0.11375461156833934,-1.3169426110237734
-0.19053779129798687,-0.11375461156833934,-1.3169426110237734
-0.19048164129798686,-0.11005638671575554,-1.3169426110237734
-0.19042549129798686,-0.11005638671575554,-1.3169426110237734
-0.19036934129798688,-0.11005638671575554,-1.3169426110237734
-0.19031319129798688,-0.11005638671575554,-1.3169426110237734
-0.19025704129798687,-0.11005638671575554,-1.3169426110237734
-0.19020089129798687,-0.10635816186317175,-1.3169426110237734
-0.19014474129798686,-0.10635816186317175,-1.3169426110237734
-0.1900885912979869,-0.10265993701058962,-1.3169426110237734
-0.19003244129798688,-0.10265993701058794,-1.3169426110237734
-0.18997629129798688,-0.10265993701058794,-1.3169426110237734
-0.18992014129798687,-0.09896171215800414,-1.3169426110237734
-0.18986399129798687,-0.09896171215800414,-1.3169426110237734
-0.18980784129798686,-0.09896171215800414,-1.3169426110237734
-0.18975169129798689,-0.09526348730542035,-1.3169426110237734
-0.18969554129798688,-0.09526348730542035,-1.3169426110237734
-0.18963939129798688,-0.09526348730542035,-1.3169426110237734
-0.18958324129798687,-0.09156526245283655,-1.3169426110237734
-0.18952709129798687,-0.09526348730542035,-1.3169426110237734
-0.18947094129798686,-0.09156526245283655,-1.3169426110237734
-0.18941479129798688,-0.09156526245283655,-1.3169426110237734
-0.18935864129798688,-0.09156526245283655,-1.3169426110237734
-0.18930249129798687,-0.08786703760025275,-1.3169426110237734
-0.18924634129798687,-0.08786703760025275,-1.3169426110237734
-0.18919019129798686,-0.08786703760025275,-1.3169426110237734
-0.18913404129798686,-0.08416881274766895,-1.3169426110237734
-0.18907789129798688,-0.08416881274766895,-1.3169426110237734
-0.18902174129798688,-0.08416881274766895,-1.3169426110237734
-0.18896559129798687,-0.08416881274766895,-1.3169426110237734
-0.18890944129798687,-0.08047058789508515,-1.3169426110237734
-0.18885329129798686,-0.08047058789508515,-1.3169426110237734
-0.18879714129798686,-0.07677236304250135,-1.3169426110237734
-0.18874099129798688,-0.07677236304250135,-1.3169426110237734
-0.18868484129798688,-0.07677236304250135,-1.3169426110237734
-0.18862869129798687,-0.07677236304250135,-1.3169426110237734
-0.18857254129798687,-0.07307413818991755,-1.3169426110237734
-0.18851639129798686,-0.07307413818991755,-1.3169426110237734
-0.18846024129798689,-0.07307413818991755,-1.3169426110237734
-0.18840409129798688,-0.07307413818991755,-1.3169426110237734
-0.18834794129798688,-0.06937591333733376,-1.3169426110237734
-0.18829179129798687,-0.06937591333733376,-1.3169426110237734
-0.18823564129798687,-0.06937591333733376,-1.3169426110237734
-0.18817949129798686,-0.06567768848474995,-1.3169426110237734
-0.18812334129798688,-0.06567768848474995,-1.3169426110237734
-0.18806719129798688,-0.06567768848474995,-1.3169426110237734
-0.18801104129798688,-0.06197946363216615,-1.3169426110237734
-0.18795489129798687,-0.06197946363216615,-1.3169426110237734
-0.18789874129798687,-0.06197946363216615,-1.3169426110237734
-0.18784259129798686,-0.06197946363216615,-1.3169426110237734
-0.18778644129798688,-0.06197946363216615,-1.3132352600427357
-0.18773029129798688,-0.05828123877958235,-1.3169426110237734
-0.18767414129798687,-0.05828123877958235,-1.3169426110237734
-0.18761799129798687,-0.054583013926998554,-1.3169426110237734
-0.18756184129798686,-0.054583013926998554,-1.3169426110237734
-0.18750569129798686,-0.054583013926998554,-1.3169426110237734
-0.18744954129798688,-0.054583013926998554,-1.3169426110237734
-0.18739339129798688,-0.05088478907441475,-1.3169426110237734
-0.18733724129798687,-0.05088478907441475,-1.3169426110237734
-0.18728109129798687,-0.04718656422183096,-1.3169426110237734
-0.18722494129798686,-0.04718656422183096,-1.3169426110237734
-0.1871687912979869,-0.04718656422183096,-1.3169426110237734
-0.18711264129798688,-0.04718656422183096,-1.3169426110237734
-0.18705649129798688,-0.04718656422183096,-1.3169426110237734
-0.18700034129798687,-0.04718656422183096,-1.3169426110237734
-0.18694419129798687,-0.043488339369247155,-1.3169426110237734
-0.18688804129798686,-0.043488339369247155,-1.3169426110237734
-0.18683189129798689,-0.043488339369247155,-1.3169426110237734
-0.18677574129798688,-0.043488339369247155,-1.3169426110237734
-0.18671959129798688,-0.03979011451666335,-1.3169426110237734
-0.18666344129798687,-0.03979011451666335,-1.3169426110237734
-0.18660729129798687,-0.03979011451666335,-1.3169426110237734
-0.18655114129798686,-0.03979011451666335,-1.3169426110237734
-0.18649499129798688,-0.03979011451666335,-1.3169426110237734
-0.18643884129798688,-0.03979011451666335,-1.3169426110237734
-0.18638269129798687,-0.03979011451666335,-1.3169426110237734
-0.18632654129798687,-0.03609188966407956,-1.3169426110237734
-0.18627039129798686,-0.03609188966407956,-1.3169426110237734
-0.18621424129798686,-0.03609188966407956,-1.3169426110237734
-0.18615809129798688,-0.03609188966407956,-1.3169426110237734
-0.18610194129798688,-0.03979011451666335,-1.3169426110237734
-0.18604579129798687,-0.03979011451666335,-1.3169426110237734
-0.18598964129798687,-0.03979011451666335,-1.3169426110237734
-0.18593349129798686,-0.03609188966407956,-1.3169426110237734
-0.1858773412979869,-0.03979011451666167,-1.3169426110237734
-0.18582119129798688,-0.03609188966407956,-1.3169426110237734
-0.18576504129798688,-0.03609188966407956,-1.3169426110237734
-0.18570889129798687,-0.03609188966407956,-1.3169426110237734
-0.18565274129798687,-0.03609188966407956,-1.3169426110237734
-0.18559659129798686,-0.03609188966407956,-1.3169426110237734
-0.18554044129798689,-0.03609188966407956,-1.3169426110237734
-0.18548429129798688,-0.03609188966407956,-1.3169426110237734
-0.18542814129798688,-0.03609188966407956,-1.3169426110237734
-0.18537199129798687,-0.03609188966407956,-1.320649962004811
-0.18531584129798687,-0.03609188966407956,-1.3169426110237734
-0.18525969129798686,-0.032393664811495755,-1.3169426110237734
-0.18520354129798688,-0.032393664811495755,-1.3169426110237734
-0.18514739129798688,-0.032393664811495755,-1.320649962004811
-0.18509124129798687,-0.032393664811495755,-1.320649962004811
-0.18503509129798687,-0.032393664811495755,-1.320649962004811
-0.18497894129798687,-0.032393664811495755,-1.3169426110237734
-0.18492279129798686,-0.028695439958911956,-1.3169426110237734
-0.18486664129798688,-0.032393664811495755,-1.3169426110237734
-0.18481049129798688,-0.028695439958911956,-1.3169426110237734
-0.18475434129798687,-0.028695439958911956,-1.3169426110237734
-0.18469819129798687,-0.028695439958911956,-1.3169426110237734
-0.18464204129798686,-0.028695439958911956,-1.320649962004811
-0.18458589129798686,-0.028695439958911956,-1.320649962004811
-0.18452974129798688,-0.028695439958911956,-1.320649962004811
-0.18447359129798688,-0.024997215106328158,-1.3169426110237734
-0.18441744129798687,-0.028695439958911956,-1.3169426110237734
-0.18436129129798687,-0.028695439958911956,-1.320649962004811
-0.18430514129798686,-0.024997215106328158,-1.3169426110237734
-0.18424899129798689,-0.028695439958910274,-1.3169426110237734
-0.18419284129798688,-0.024997215106328158,-1.3169426110237734
-0.18413669129798688,-0.028695439958911956,-1.320649962004811
-0.18408054129798687,-0.028695439958911956,-1.3169426110237734
-0.18402439129798687,-0.028695439958911956,-1.3169426110237734
-0.18396824129798686,-0.028695439958911956,-1.320649962004811
-0.18391209129798688,-0.028695439958911956,-1.320649962004811
-0.18385594129798688,-0.024997215106328158,-1.3169426110237734
-0.18379979129798688,-0.024997215106328158,-1.320649962004811
-0.18374364129798687,-0.024997215106328158,-1.3169426110237734
-0.18368749129798687,-0.024997215106328158,-1.3169426110237734
-0.18363134129798686,-0.028695439958911956,-1.3169426110237734
-0.18357519129798688,-0.028695439958911956,-1.3169426110237734
-0.18351904129798688,-0.028695439958911956,-1.3169426110237734
-0.18346289129798687,-0.028695439958911956,-1.3169426110237734
-0.18340674129798687,-0.028695439958911956,-1.3169426110237734
-0.18335059129798686,-0.028695439958911956,-1.3169426110237734
-0.18329444129798686,-0.032393664811495755,-1.3169426110237734
-0.18323829129798688,-0.032393664811495755,-1.3169426110237734
-0.18318214129798688,-0.032393664811495755,-1.3169426110237734
-0.18312599129798687,-0.032393664811495755,-1.3169426110237734
-0.18306984129798687,-0.032393664811495755,-1.3169426110237734
-0.18301369129798686,-0.032393664811495755,-1.3169426110237734
-0.1829575412979869,-0.032393664811495755,-1.3169426110237734
-0.18290139129798688,-0.032393664811495755,-1.3169426110237734
-0.18284524129798688,-0.032393664811495755,-1.3169426110237734
-0.18278909129798687,-0.032393664811495755,-1.3169426110237734
-0.18273294129798687,-0.028695439958911956,-1.3169426110237734
-0.18267679129798686,-0.032393664811495755,-1.3169426110237734
-0.18262064129798689,-0.032393664811495755,-1.3169426110237734
-0.18256449129798688,-0.032393664811495755,-1.3169426110237734
-0.18250834129798688,-0.032393664811495755,-1.3169426110237734
-0.18245219129798687,-0.032393664811495755,-1.320649962004811
-0.18239604129798687,-0.03609188966407956,-1.3169426110237734
-0.18233989129798686,-0.03609188966407956,-1.320649962004811
-0.18228374129798688,-0.03609188966407956,-1.3169426110237734
-0.18222759129798688,-0.03609188966407956,-1.320649962004811
-0.18217144129798687,-0.03609188966407956,-1.3169426110237734
-0.18211529129798687,-0.03609188966407956,-1.3169426110237734
-0.18205914129798687,-0.03609188966407956,-1.3169426110237734
-0.18200299129798686,-0.03609188966407956,-1.3169426110237734
-0.18194684129798688,-0.03609188966407956,-1.3169426110237734
-0.18189069129798688,-0.03609188966407956,-1.3169426110237734
-0.18183454129798687,-0.03609188966407956,-1.3169426110237734
-0.18177839129798687,-0.03609188966407956,-1.3169426110237734
-0.18172224129798686,-0.03609188966407956,-1.3169426110237734
-0.1816660912979869,-0.03609188966407956,-1.3206499620048093
-0.18160994129798688,-0.03979011451666335,-1.3169426110237734
-0.18155379129798688,-0.03979011451666335,-1.320649962004811
-0.18149764129798687,-0.03609188966407956,-1.3169426110237734
-0.18144149129798687,-0.03609188966407956,-1.3169426110237734
-0.18138534129798686,-0.03609188966407956,-1.3169426110237734
-0.18132919129798689,-0.03609188966407956,-1.3169426110237734
-0.18127304129798688,-0.03609188966407956,-1.3169426110237734
-0.18121689129798688,-0.03609188966407956,-1.3169426110237734
-0.18116074129798687,-0.03609188966407956,-1.320649962004811
-0.18110459129798687,-0.03609188966407956,-1.3169426110237734
-0.18104844129798686,-0.03609188966407956,-1.3169426110237734
-0.18099229129798688,-0.03979011451666335,-1.3169426110237734
-0.18093614129798688,-0.03979011451666335,-1.3169426110237734
-0.18087999129798688,-0.03979011451666335,-1.320649962004811
-0.18082384129798687,-0.03979011451666335,-1.3169426110237734
-0.18076769129798687,-0.03979011451666335,-1.320649962004811
-0.18071154129798686,-0.03979011451666335,-1.3169426110237734
-0.18065539129798688,-0.03609188966407956,-1.320649962004811
-0.18059924129798688,-0.04718656422183096,-1.320649962004811
-0.18054309129798687,-0.043488339369247155,-1.320649962004811
-0.18048694129798687,-0.03979011451666335,-1.3169426110237734
-0.18043079129798686,-0.03979011451666335,-1.3169426110237734
-0.18037464129798686,-0.03979011451666503,-1.3169426110237734
-0.18031849129798688,-0.043488339369247155,-1.3169426110237734
-0.18026234129798688,-0.03979011451666335,-1.3169426110237734
-0.18020619129798687,-0.043488339369247155,-1.3169426110237734
-0.18015004129798687,-0.043488339369247155,-1.3169426110237734
