10Hz/acq0009.csv

#Digilent WaveForms Oscilloscope Acquisition
#Device Name: Discovery2
#Serial Number: SN:210321AA28BE
#Date Time: 2023-05-24 14:52:13.535
#Sample rate: 17809.4Hz
#Samples: 8192
#Trigger: Source: Channel 1 Type: Edge Condition: Rising Level: 800 mV Hyst.: Auto HoldOff: 100 ns
#Channel 1: Range: 1 V/div Offset: 0 V Attenuation: 1 X Sample Mode: Average
#Channel 2: Range: 1 V/div Offset: 0 V Attenuation: 1 X Sample Mode: Average

Time (s),Channel 1 (V),Channel 2 (V)
-0.19771151073301918,-0.028695439958911956,-1.3169426110237734
-0.19765536073301918,-0.03979011451666335,-1.3169426110237734
-0.19759921073301917,-0.05088478907441475,-1.3169426110237734
-0.19754306073301917,-0.06197946363216615,-1.3169426110237734
-0.1974869107330192,-0.06567768848474995,-1.3132352600427357
-0.19743076073301918,-0.07307413818991755,-1.3169426110237734
-0.19737461073301918,-0.08047058789508515,-1.3132352600427357
-0.19731846073301917,-0.08786703760025275,-1.3169426110237734
-0.19726231073301917,-0.09526348730542035,-1.3169426110237734
-0.19720616073301916,-0.09896171215800582,-1.3169426110237734
-0.1971500107330192,-0.10265993701058794,-1.3169426110237734
-0.19709386073301918,-0.10635816186317175,-1.3169426110237734
-0.19703771073301918,-0.11005638671575554,-1.3169426110237734
-0.19698156073301917,-0.11375461156833934,-1.3169426110237734
-0.19692541073301917,-0.11745283642092315,-1.3169426110237734
-0.1968692607330192,-0.12115106127350526,-1.3169426110237734
-0.1968131107330192,-0.12484928612609074,-1.3169426110237734
-0.19675696073301918,-0.13224573583125834,-1.3169426110237734
-0.19670081073301918,-0.13224573583125834,-1.3169426110237734
-0.19664466073301917,-0.13594396068384215,-1.3169426110237734
-0.19658851073301917,-0.13594396068384215,-1.3169426110237734
-0.1965323607330192,-0.13964218553642593,-1.3169426110237734
-0.19647621073301919,-0.13964218553642593,-1.3169426110237734
-0.19642006073301918,-0.13964218553642593,-1.3169426110237734
-0.19636391073301918,-0.14334041038900974,-1.3169426110237734
-0.19630776073301917,-0.14334041038900974,-1.3169426110237734
-0.19625161073301917,-0.14334041038900974,-1.3169426110237734
-0.1961954607330192,-0.14703863524159355,-1.3169426110237734
-0.19613931073301918,-0.14703863524159355,-1.3169426110237734
-0.19608316073301918,-0.14703863524159355,-1.3169426110237734
-0.19602701073301917,-0.14703863524159355,-1.3169426110237734
-0.19597086073301917,-0.15073686009417733,-1.3169426110237734
-0.19591471073301917,-0.15073686009417733,-1.3169426110237734
-0.1958585607330192,-0.15073686009417733,-1.3169426110237734
-0.19580241073301918,-0.15073686009417733,-1.3169426110237734
-0.19574626073301918,-0.15443508494676114,-1.3169426110237734
-0.19569011073301917,-0.15443508494676114,-1.3169426110237734
-0.19563396073301917,-0.15443508494676114,-1.3169426110237734
-0.1955778107330192,-0.15443508494676114,-1.3169426110237734
-0.1955216607330192,-0.15443508494676114,-1.3169426110237734
-0.19546551073301918,-0.15443508494676114,-1.3169426110237734
-0.19540936073301918,-0.15443508494676114,-1.3169426110237734
-0.19535321073301917,-0.15443508494676114,-1.3169426110237734
-0.19529706073301917,-0.15443508494676114,-1.3169426110237734
-0.1952409107330192,-0.15443508494676114,-1.3169426110237734
-0.19518476073301919,-0.15443508494676114,-1.3169426110237734
-0.19512861073301918,-0.15443508494676114,-1.3169426110237734
-0.19507246073301918,-0.15443508494676114,-1.3132352600427357
-0.19501631073301917,-0.15443508494676114,-1.3169426110237734
-0.19496016073301917,-0.15443508494676114,-1.3169426110237734
-0.1949040107330192,-0.15443508494676114,-1.3169426110237734
-0.19484786073301918,-0.15813330979934495,-1.3169426110237734
-0.19479171073301918,-0.15443508494676114,-1.3169426110237734
-0.19473556073301918,-0.15813330979934495,-1.3169426110237734
-0.19467941073301917,-0.15813330979934495,-1.3169426110237734
-0.19462326073301917,-0.15813330979934495,-1.3169426110237734
-0.1945671107330192,-0.15813330979934495,-1.3169426110237734
-0.19451096073301918,-0.15813330979934495,-1.3169426110237734
-0.19445481073301918,-0.15443508494676114,-1.3169426110237734
-0.19439866073301917,-0.15443508494676114,-1.3169426110237734
-0.19434251073301917,-0.15443508494676114,-1.3169426110237734
-0.1942863607330192,-0.15443508494676114,-1.3169426110237734
-0.1942302107330192,-0.15443508494676114,-1.3169426110237734
-0.19417406073301918,-0.15073686009417733,-1.3169426110237734
-0.19411791073301918,-0.15073686009417733,-1.3169426110237734
-0.19406176073301917,-0.15073686009417733,-1.3169426110237734
-0.19400561073301917,-0.15073686009417733,-1.3169426110237734
-0.1939494607330192,-0.15443508494676114,-1.3169426110237734
-0.1938933107330192,-0.15443508494676114,-1.3169426110237734
-0.19383716073301918,-0.15073686009417733,-1.3169426110237734
-0.19378101073301918,-0.15073686009417733,-1.3169426110237734
-0.19372486073301917,-0.15073686009417733,-1.3169426110237734
-0.19366871073301917,-0.15073686009417733,-1.3169426110237734
-0.1936125607330192,-0.15073686009417733,-1.3169426110237734
-0.19355641073301919,-0.14703863524159355,-1.3169426110237734
-0.19350026073301918,-0.14703863524159355,-1.3169426110237734
-0.19344411073301918,-0.14703863524159355,-1.3169426110237734
-0.19338796073301917,-0.14703863524159355,-1.3169426110237734
-0.19333181073301917,-0.14703863524159355,-1.3169426110237734
-0.1932756607330192,-0.14703863524159355,-1.3169426110237734
-0.19321951073301918,-0.14703863524159355,-1.3169426110237734
-0.19316336073301918,-0.14703863524159355,-1.3169426110237734
-0.19310721073301917,-0.14703863524159355,-1.3169426110237734
-0.19305106073301917,-0.14703863524159355,-1.3169426110237734
-0.19299491073301916,-0.14334041038901144,-1.3169426110237734
-0.1929387607330192,-0.14703863524159355,-1.3169426110237734
-0.19288261073301918,-0.14703863524159355,-1.3169426110237734
-0.19282646073301918,-0.14334041038900974,-1.3169426110237734
-0.19277031073301917,-0.14334041038900974,-1.3169426110237734
-0.19271416073301917,-0.14334041038900974,-1.3169426110237734
-0.1926580107330192,-0.14334041038900974,-1.3169426110237734
-0.1926018607330192,-0.14334041038900974,-1.3169426110237734
-0.19254571073301918,-0.14334041038900974,-1.3169426110237734
-0.19248956073301918,-0.14334041038900974,-1.3169426110237734
-0.19243341073301917,-0.14334041038900974,-1.3169426110237734
-0.19237726073301917,-0.13964218553642593,-1.3169426110237734
-0.1923211107330192,-0.13964218553642593,-1.3169426110237734
-0.19226496073301919,-0.13964218553642593,-1.3169426110237734
-0.19220881073301918,-0.13964218553642593,-1.3169426110237734
-0.19215266073301918,-0.13964218553642593,-1.3169426110237734
-0.19209651073301917,-0.13964218553642593,-1.3169426110237734
-0.19204036073301917,-0.13964218553642593,-1.3169426110237734
-0.1919842107330192,-0.13964218553642593,-1.3169426110237734
-0.19192806073301918,-0.14334041038900974,-1.3169426110237734
-0.19187191073301918,-0.14334041038900974,-1.3169426110237734
-0.19181576073301917,-0.13964218553642593,-1.3169426110237734
-0.19175961073301917,-0.13964218553642593,-1.3169426110237734
-0.19170346073301917,-0.13964218553642593,-1.3169426110237734
-0.1916473107330192,-0.13964218553642593,-1.3169426110237734
-0.19159116073301918,-0.13964218553642593,-1.3169426110237734
-0.19153501073301918,-0.13964218553642593,-1.3169426110237734
-0.19147886073301917,-0.13964218553642593,-1.3169426110237734
-0.19142271073301917,-0.13964218553642593,-1.3169426110237734
-0.1913665607330192,-0.13964218553642593,-1.3169426110237734
-0.1913104107330192,-0.13964218553642593,-1.3169426110237734
-0.19125426073301918,-0.13594396068384215,-1.3169426110237734
-0.19119811073301918,-0.13594396068384215,-1.3169426110237734
-0.19114196073301917,-0.13964218553642593,-1.3169426110237734
-0.19108581073301917,-0.13594396068384215,-1.3169426110237734
-0.1910296607330192,-0.13594396068384215,-1.3169426110237734
-0.19097351073301919,-0.13594396068384215,-1.3169426110237734
-0.19091736073301918,-0.13594396068384215,-1.3169426110237734
-0.19086121073301918,-0.13594396068384215,-1.3169426110237734
-0.19080506073301917,-0.13224573583125834,-1.3169426110237734
-0.19074891073301917,-0.13224573583125834,-1.3169426110237734
-0.1906927607330192,-0.13224573583125834,-1.3169426110237734
-0.19063661073301919,-0.13224573583125834,-1.3169426110237734
-0.19058046073301918,-0.12854751097867453,-1.3169426110237734
-0.19052431073301918,-0.12854751097867453,-1.3169426110237734
-0.19046816073301917,-0.12854751097867453,-1.3169426110237734
-0.19041201073301917,-0.12854751097867453,-1.3169426110237734
-0.1903558607330192,-0.12854751097867453,-1.3169426110237734
-0.19029971073301918,-0.12854751097867453,-1.320649962004811
-0.19024356073301918,-0.12854751097867453,-1.320649962004811
-0.19018741073301917,-0.12484928612609074,-1.3169426110237734
-0.19013126073301917,-0.12484928612609074,-1.3169426110237734
-0.1900751107330192,-0.12484928612609074,-1.3169426110237734
-0.1900189607330192,-0.12115106127350694,-1.3169426110237734
-0.18996281073301918,-0.12115106127350694,-1.3169426110237734
-0.18990666073301918,-0.12115106127350694,-1.3169426110237734
-0.18985051073301917,-0.12115106127350694,-1.3169426110237734
-0.18979436073301917,-0.12115106127350694,-1.3169426110237734
-0.1897382107330192,-0.12115106127350694,-1.3169426110237734
-0.1896820607330192,-0.12115106127350694,-1.3169426110237734
-0.18962591073301918,-0.12115106127350694,-1.3169426110237734
-0.18956976073301918,-0.11745283642092315,-1.3169426110237734
-0.18951361073301917,-0.11745283642092315,-1.3169426110237734
-0.18945746073301917,-0.11375461156833934,-1.3169426110237734
-0.1894013107330192,-0.11745283642092315,-1.3169426110237734
-0.18934516073301919,-0.11745283642092315,-1.3169426110237734
-0.18928901073301918,-0.11375461156833934,-1.3169426110237734
-0.18923286073301918,-0.11375461156833934,-1.3169426110237734
-0.18917671073301917,-0.11375461156833934,-1.3169426110237734
-0.18912056073301917,-0.11375461156833934,-1.3169426110237734
-0.1890644107330192,-0.11005638671575554,-1.3169426110237734
-0.18900826073301918,-0.11005638671575554,-1.3169426110237734
-0.18895211073301918,-0.11375461156833934,-1.3169426110237734
-0.18889596073301917,-0.11375461156833934,-1.3169426110237734
-0.18883981073301917,-0.11375461156833934,-1.3169426110237734
-0.18878366073301917,-0.11375461156833934,-1.3169426110237734
-0.1887275107330192,-0.11375461156833934,-1.3169426110237734
-0.18867136073301918,-0.11005638671575554,-1.3169426110237734
-0.18861521073301918,-0.11005638671575554,-1.3169426110237734
-0.18855906073301917,-0.11005638671575554,-1.3169426110237734
-0.18850291073301917,-0.11005638671575554,-1.3169426110237734
-0.1884467607330192,-0.11005638671575554,-1.3169426110237734
-0.1883906107330192,-0.11005638671575554,-1.3169426110237734
-0.18833446073301918,-0.10635816186317175,-1.3169426110237734
-0.18827831073301918,-0.10635816186317175,-1.3169426110237734
-0.18822216073301917,-0.10635816186317175,-1.3169426110237734
-0.18816601073301917,-0.10635816186317175,-1.3169426110237734
-0.1881098607330192,-0.10635816186317175,-1.3169426110237734
-0.18805371073301919,-0.10265993701058794,-1.3169426110237734
-0.18799756073301918,-0.10265993701058794,-1.3169426110237734
-0.18794141073301918,-0.10265993701058794,-1.3169426110237734
-0.18788526073301917,-0.10265993701058794,-1.3169426110237734
-0.18782911073301917,-0.10265993701058794,-1.3169426110237734
-0.1877729607330192,-0.10265993701058794,-1.3169426110237734
-0.18771681073301918,-0.09896171215800414,-1.3169426110237734
-0.18766066073301918,-0.09896171215800414,-1.3169426110237734
-0.18760451073301918,-0.09896171215800414,-1.3169426110237734
-0.18754836073301917,-0.09526348730542035,-1.3169426110237734
-0.18749221073301917,-0.09526348730541867,-1.3169426110237734
-0.1874360607330192,-0.09156526245283655,-1.3169426110237734
-0.18737991073301918,-0.09156526245283655,-1.3169426110237734
-0.18732376073301918,-0.08786703760025275,-1.3169426110237734
-0.18726761073301917,-0.09156526245283655,-1.3169426110237734
-0.18721146073301917,-0.08786703760025275,-1.3169426110237734
-0.1871553107330192,-0.08786703760025275,-1.3169426110237734
-0.1870991607330192,-0.08786703760025275,-1.3169426110237734
-0.18704301073301918,-0.08786703760025275,-1.3169426110237734
-0.18698686073301918,-0.08416881274766895,-1.3169426110237734
-0.18693071073301917,-0.08416881274766895,-1.3169426110237734
-0.18687456073301917,-0.08416881274766895,-1.3169426110237734
-0.1868184107330192,-0.08416881274766895,-1.3169426110237734
-0.1867622607330192,-0.08416881274766895,-1.3169426110237734
-0.18670611073301918,-0.08047058789508515,-1.3169426110237734
-0.18664996073301918,-0.08047058789508515,-1.3169426110237734
-0.18659381073301917,-0.08047058789508515,-1.3169426110237734
-0.18653766073301917,-0.07677236304250135,-1.3169426110237734
-0.1864815107330192,-0.07677236304250135,-1.3169426110237734
-0.18642536073301919,-0.07677236304250135,-1.3169426110237734
-0.18636921073301918,-0.07307413818991755,-1.3169426110237734
-0.18631306073301918,-0.07307413818991755,-1.3169426110237734
-0.18625691073301917,-0.07307413818991755,-1.3169426110237734
-0.18620076073301917,-0.06937591333733376,-1.3169426110237734
-0.1861446107330192,-0.06937591333733376,-1.3169426110237734
-0.18608846073301918,-0.06937591333733376,-1.3169426110237734
-0.18603231073301918,-0.06937591333733376,-1.3169426110237734
-0.18597616073301917,-0.06937591333733376,-1.3169426110237734
-0.18592001073301917,-0.06567768848474995,-1.3169426110237734
-0.1858638607330192,-0.06567768848474995,-1.3169426110237734
-0.1858077107330192,-0.06567768848474995,-1.3169426110237734
-0.18575156073301918,-0.06197946363216615,-1.3169426110237734
-0.18569541073301918,-0.06197946363216615,-1.3169426110237734
-0.18563926073301917,-0.06197946363216615,-1.3169426110237734
-0.18558311073301917,-0.06197946363216615,-1.3169426110237734
-0.1855269607330192,-0.05828123877958235,-1.3169426110237734
-0.1854708107330192,-0.06197946363216615,-1.3169426110237734
-0.18541466073301918,-0.05828123877958235,-1.3169426110237734
-0.18535851073301918,-0.05828123877958235,-1.3169426110237734
-0.18530236073301917,-0.05828123877958235,-1.3169426110237734
-0.18524621073301917,-0.05828123877958235,-1.3169426110237734
-0.1851900607330192,-0.054583013926998554,-1.3169426110237734
-0.18513391073301919,-0.054583013926998554,-1.3169426110237734
-0.18507776073301918,-0.054583013926998554,-1.3169426110237734
-0.18502161073301918,-0.054583013926998554,-1.3169426110237734
-0.18496546073301917,-0.05088478907441475,-1.3169426110237734
-0.18490931073301917,-0.05088478907441475,-1.3169426110237734
-0.1848531607330192,-0.05088478907441475,-1.3169426110237734
-0.18479701073301918,-0.05088478907441475,-1.3169426110237734
-0.18474086073301918,-0.05088478907441475,-1.3169426110237734
-0.18468471073301918,-0.04718656422183096,-1.3169426110237734
-0.18462856073301917,-0.04718656422183096,-1.3169426110237734
-0.18457241073301917,-0.04718656422183096,-1.3169426110237734
-0.1845162607330192,-0.04718656422183096,-1.3169426110237734
-0.18446011073301918,-0.04718656422183096,-1.3169426110237734
-0.18440396073301918,-0.04718656422183096,-1.3169426110237734
-0.18434781073301917,-0.043488339369247155,-1.320649962004811
-0.18429166073301917,-0.04718656422183096,-1.3169426110237734
-0.1842355107330192,-0.043488339369248834,-1.3206499620048093
-0.1841793607330192,-0.043488339369247155,-1.320649962004811
-0.18412321073301918,-0.03979011451666335,-1.320649962004811
-0.18406706073301918,-0.043488339369247155,-1.3169426110237734
-0.18401091073301917,-0.03979011451666335,-1.3169426110237734
-0.18395476073301917,-0.03979011451666335,-1.3169426110237734
-0.1838986107330192,-0.03979011451666335,-1.3169426110237734
-0.1838424607330192,-0.03979011451666335,-1.3169426110237734
-0.18378631073301918,-0.03979011451666335,-1.3169426110237734
-0.18373016073301918,-0.03609188966407956,-1.320649962004811
-0.18367401073301917,-0.03609188966407956,-1.3169426110237734
-0.18361786073301917,-0.03609188966407956,-1.3169426110237734
-0.1835617107330192,-0.028695439958911956,-1.3169426110237734
-0.18350556073301919,-0.032393664811495755,-1.3169426110237734
-0.18344941073301918,-0.028695439958911956,-1.3169426110237734
-0.18339326073301918,-0.028695439958911956,-1.3169426110237734
-0.18333711073301917,-0.024997215106328158,-1.3169426110237734
-0.18328096073301917,-0.024997215106328158,-1.3169426110237734
-0.1832248107330192,-0.024997215106328158,-1.3169426110237734
-0.18316866073301918,-0.024997215106328158,-1.3169426110237734
-0.18311251073301918,-0.024997215106328158,-1.3169426110237734
-0.18305636073301917,-0.024997215106328158,-1.3169426110237734
-0.18300021073301917,-0.021298990253744356,-1.3169426110237734
-0.1829440607330192,-0.021298990253744356,-1.3169426110237734
-0.1828879107330192,-0.021298990253744356,-1.320649962004811
-0.18283176073301918,-0.021298990253744356,-1.3169426110237734
-0.18277561073301918,-0.021298990253744356,-1.320649962004811
-0.18271946073301917,-0.021298990253744356,-1.320649962004811
-0.18266331073301917,-0.017600765401160557,-1.320649962004811
-0.1826071607330192,-0.017600765401160557,-1.320649962004811
-0.1825510107330192,-0.017600765401160557,-1.320649962004811
-0.18249486073301918,-0.013902540548576758,-1.3169426110237734
-0.18243871073301918,-0.021298990253744356,-1.320649962004811
-0.18238256073301917,-0.021298990253744356,-1.320649962004811
-0.18232641073301917,-0.013902540548576758,-1.320649962004811
-0.1822702607330192,-0.017600765401160557,-1.320649962004811
-0.18221411073301919,-0.013902540548576758,-1.3169426110237734
-0.18215796073301918,-0.013902540548576758,-1.3169426110237734
-0.18210181073301918,-0.013902540548576758,-1.3169426110237734
-0.18204566073301917,-0.013902540548576758,-1.3169426110237734
-0.18198951073301917,-0.013902540548576758,-1.3169426110237752
-0.1819333607330192,-0.013902540548576758,-1.320649962004811
-0.18187721073301918,-0.013902540548576758,-1.320649962004811
-0.18182106073301918,-0.013902540548576758,-1.3169426110237734
-0.18176491073301917,-0.013902540548576758,-1.320649962004811
-0.18170876073301917,-0.013902540548576758,-1.320649962004811
-0.1816526107330192,-0.017600765401158874,-1.320649962004811
-0.1815964607330192,-0.017600765401160557,-1.320649962004811
-0.18154031073301918,-0.013902540548576758,-1.320649962004811
-0.18148416073301918,-0.013902540548576758,-1.320649962004811
-0.18142801073301917,-0.0065060908434091584,-1.320649962004811
-0.18137186073301917,-0.017600765401160557,-1.320649962004811
-0.1813157107330192,-0.013902540548576758,-1.320649962004811
-0.1812595607330192,-0.013902540548576758,-1.320649962004811
-0.18120341073301918,-0.013902540548576758,-1.320649962004811
-0.18114726073301918,-0.013902540548576758,-1.3169426110237734
-0.18109111073301917,-0.013902540548576758,-1.320649962004811
-0.18103496073301917,-0.013902540548576758,-1.320649962004811
-0.1809788107330192,-0.013902540548576758,-1.320649962004811
-0.18092266073301919,-0.013902540548576758,-1.320649962004811
-0.18086651073301918,-0.013902540548576758,-1.320649962004811
-0.18081036073301918,-0.013902540548576758,-1.320649962004811
-0.18075421073301917,-0.013902540548576758,-1.320649962004811
-0.18069806073301917,-0.010204315695992958,-1.320649962004811
-0.1806419107330192,-0.010204315695992958,-1.320649962004811
-0.18058576073301918,-0.013902540548576758,-1.320649962004811
-0.18052961073301918,-0.010204315695992958,-1.320649962004811
-0.18047346073301918,-0.010204315695992958,-1.320649962004811
-0.18041731073301917,-0.010204315695992958,-1.320649962004811
-0.18036116073301917,-0.010204315695992958,-1.320649962004811
-0.1803050107330192,-0.010204315695992958,-1.320649962004811
-0.18024886073301918,-0.010204315695992958,-1.320649962004811
-0.18019271073301918,-0.0065060908434091584,-1.320649962004811
-0.18013656073301917,-0.0065060908434091584,-1.3169426110237734
-0.18008041073301917,-0.010204315695992958,-1.320649962004811
