10Hz/acq0049.csv

#Digilent WaveForms Oscilloscope Acquisition
#Device Name: Discovery2
#Serial Number: SN:210321AA28BE
#Date Time: 2023-05-24 14:52:33.531
#Sample rate: 17809.4Hz
#Samples: 8192
#Trigger: Source: Channel 1 Type: Edge Condition: Rising Level: 800 mV Hyst.: Auto HoldOff: 100 ns
#Channel 1: Range: 1 V/div Offset: 0 V Attenuation: 1 X Sample Mode: Average
#Channel 2: Range: 1 V/div Offset: 0 V Attenuation: 1 X Sample Mode: Average

Time (s),Channel 1 (V),Channel 2 (V)
-0.19771788457611383,-0.08047058789508515,-1.3169426110237734
-0.19766173457611383,-0.08786703760025275,-1.3169426110237734
-0.19760558457611382,-0.09896171215800414,-1.3169426110237734
-0.19754943457611382,-0.10635816186317175,-1.3169426110237734
-0.19749328457611384,-0.11745283642092315,-1.3169426110237734
-0.19743713457611384,-0.12484928612609074,-1.3169426110237734
-0.19738098457611383,-0.13224573583125834,-1.3169426110237734
-0.19732483457611383,-0.14334041038900974,-1.3169426110237734
-0.19726868457611382,-0.14703863524159355,-1.3169426110237734
-0.19721253457611382,-0.1507368600941807,-1.3132352600427375
-0.19715638457611384,-0.15813330979934495,-1.3169426110237734
-0.19710023457611384,-0.15813330979934495,-1.3169426110237734
-0.19704408457611383,-0.16183153465192873,-1.3132352600427357
-0.19698793457611383,-0.16183153465192873,-1.3132352600427357
-0.19693178457611382,-0.16552975950451254,-1.3132352600427357
-0.19687563457611384,-0.17292620920967677,-1.3132352600427357
-0.19681948457611384,-0.17292620920968013,-1.3132352600427357
-0.19676333457611384,-0.17662443406226394,-1.3169426110237734
-0.19670718457611383,-0.18032265891484775,-1.3169426110237734
-0.19665103457611383,-0.18402088376743153,-1.3169426110237734
-0.19659488457611382,-0.18402088376743153,-1.3169426110237734
-0.19653873457611384,-0.18402088376743153,-1.3169426110237734
-0.19648258457611384,-0.18771910862001534,-1.3169426110237734
-0.19642643457611383,-0.18771910862001534,-1.3169426110237734
-0.19637028457611383,-0.18771910862001534,-1.3169426110237734
-0.19631413457611382,-0.19141733347259912,-1.3132352600427357
-0.19625798457611382,-0.19141733347259912,-1.3169426110237734
-0.19620183457611384,-0.19141733347259912,-1.3169426110237734
-0.19614568457611384,-0.19141733347259912,-1.3169426110237734
-0.19608953457611383,-0.19141733347259912,-1.3169426110237734
-0.19603338457611383,-0.19141733347259912,-1.3132352600427357
-0.19597723457611382,-0.19141733347259912,-1.3132352600427357
-0.19592108457611382,-0.19511555832518293,-1.3169426110237734
-0.19586493457611384,-0.19511555832518293,-1.3169426110237734
-0.19580878457611384,-0.19511555832518293,-1.3132352600427357
-0.19575263457611383,-0.19511555832518293,-1.3132352600427357
-0.19569648457611383,-0.19511555832518293,-1.3169426110237734
-0.19564033457611382,-0.19511555832518293,-1.3169426110237734
-0.19558418457611385,-0.19511555832518293,-1.3169426110237734
-0.19552803457611384,-0.19511555832518293,-1.3169426110237734
-0.19547188457611384,-0.19511555832518293,-1.3132352600427357
-0.19541573457611383,-0.19511555832518293,-1.3169426110237734
-0.19535958457611383,-0.19141733347259912,-1.3169426110237734
-0.19530343457611382,-0.19511555832518293,-1.3169426110237734
-0.19524728457611384,-0.19141733347259912,-1.3169426110237734
-0.19519113457611384,-0.19141733347259912,-1.3169426110237734
-0.19513498457611383,-0.19141733347259912,-1.3169426110237734
-0.19507883457611383,-0.19141733347259912,-1.3132352600427357
-0.19502268457611383,-0.18771910862001534,-1.3132352600427357
-0.19496653457611382,-0.18771910862001534,-1.3132352600427357
-0.19491038457611384,-0.18771910862001534,-1.3169426110237734
-0.19485423457611384,-0.18771910862001534,-1.3132352600427357
-0.19479808457611383,-0.18402088376743153,-1.3169426110237734
-0.19474193457611383,-0.18402088376743153,-1.3169426110237734
-0.19468578457611382,-0.18402088376743153,-1.3169426110237734
-0.19462963457611382,-0.18402088376743153,-1.3169426110237734
-0.19457348457611384,-0.18402088376743153,-1.3169426110237734
-0.19451733457611384,-0.18032265891484775,-1.3132352600427357
-0.19446118457611383,-0.17662443406226394,-1.3132352600427357
-0.19440503457611383,-0.17662443406226394,-1.3132352600427357
-0.19434888457611382,-0.17662443406226394,-1.3169426110237734
-0.19429273457611385,-0.17292620920968182,-1.3169426110237734
-0.19423658457611384,-0.17292620920968013,-1.3132352600427357
-0.19418043457611384,-0.17292620920968013,-1.3169426110237734
-0.19412428457611383,-0.17292620920968013,-1.3169426110237734
-0.19406813457611383,-0.16922798435709635,-1.3132352600427357
-0.19401198457611382,-0.16552975950451254,-1.3132352600427357
-0.19395583457611384,-0.16552975950451254,-1.3132352600427357
-0.19389968457611384,-0.16552975950451254,-1.3169426110237734
-0.19384353457611384,-0.16552975950451254,-1.3169426110237734
-0.19378738457611383,-0.16183153465192873,-1.3169426110237734
-0.19373123457611383,-0.16183153465192873,-1.3169426110237734
-0.19367508457611382,-0.15813330979934495,-1.3132352600427357
-0.19361893457611384,-0.15813330979934495,-1.3169426110237734
-0.19356278457611384,-0.15443508494676114,-1.3169426110237734
-0.19350663457611383,-0.15443508494676114,-1.3169426110237734
-0.19345048457611383,-0.15443508494676114,-1.3169426110237734
-0.19339433457611382,-0.15443508494676114,-1.3132352600427357
-0.19333818457611382,-0.15073686009417733,-1.3169426110237734
-0.19328203457611384,-0.15073686009417733,-1.3169426110237734
-0.19322588457611384,-0.14703863524159355,-1.3169426110237734
-0.19316973457611383,-0.14334041038900974,-1.3169426110237734
-0.19311358457611383,-0.14334041038900974,-1.3169426110237734
-0.19305743457611382,-0.13964218553642593,-1.3169426110237734
-0.19300128457611382,-0.13964218553642593,-1.3169426110237734
-0.19294513457611384,-0.13964218553642593,-1.3169426110237734
-0.19288898457611384,-0.13964218553642593,-1.3169426110237734
-0.19283283457611383,-0.13964218553642593,-1.3169426110237734
-0.19277668457611383,-0.13594396068384215,-1.3169426110237734
-0.19272053457611382,-0.13594396068384215,-1.3169426110237734
-0.19266438457611385,-0.13594396068384215,-1.3169426110237734
-0.19260823457611384,-0.13224573583125834,-1.3169426110237734
-0.19255208457611384,-0.13224573583125834,-1.3169426110237734
-0.19249593457611383,-0.13224573583125834,-1.3169426110237734
-0.19243978457611383,-0.13224573583125834,-1.3169426110237734
-0.19238363457611382,-0.12854751097867453,-1.3169426110237734
-0.19232748457611384,-0.12854751097867453,-1.3169426110237734
-0.19227133457611384,-0.12484928612609074,-1.3169426110237734
-0.19221518457611383,-0.12484928612609074,-1.3169426110237734
-0.19215903457611383,-0.12115106127350694,-1.3169426110237734
-0.19210288457611382,-0.12115106127350694,-1.3169426110237734
-0.19204673457611382,-0.12115106127350694,-1.3169426110237734
-0.19199058457611384,-0.12115106127350694,-1.3169426110237734
-0.19193443457611384,-0.11745283642092315,-1.3169426110237734
-0.19187828457611383,-0.11745283642092315,-1.3169426110237734
-0.19182213457611383,-0.11745283642092315,-1.3169426110237734
-0.19176598457611382,-0.11375461156833934,-1.3169426110237734
-0.19170983457611382,-0.11375461156833934,-1.3169426110237734
-0.19165368457611384,-0.11375461156833934,-1.3169426110237734
-0.19159753457611384,-0.11375461156833934,-1.3169426110237734
-0.19154138457611383,-0.11005638671575554,-1.3169426110237734
-0.19148523457611383,-0.11005638671575554,-1.3169426110237734
-0.19142908457611382,-0.10635816186317175,-1.3169426110237734
-0.19137293457611385,-0.10635816186317175,-1.3169426110237734
-0.19131678457611384,-0.10635816186317175,-1.3169426110237734
-0.19126063457611384,-0.10265993701058794,-1.3169426110237734
-0.19120448457611383,-0.10265993701058794,-1.3169426110237734
-0.19114833457611383,-0.10265993701058794,-1.3169426110237734
-0.19109218457611382,-0.10265993701058794,-1.3169426110237734
-0.19103603457611384,-0.09896171215800414,-1.3169426110237734
-0.19097988457611384,-0.09896171215800414,-1.3169426110237734
-0.19092373457611383,-0.09896171215800414,-1.3169426110237734
-0.19086758457611383,-0.09896171215800414,-1.3169426110237734
-0.19081143457611383,-0.09526348730542035,-1.3169426110237734
-0.19075528457611382,-0.09526348730542035,-1.3169426110237734
-0.19069913457611384,-0.09156526245283655,-1.3169426110237734
-0.19064298457611384,-0.09156526245283655,-1.3169426110237734
-0.19058683457611383,-0.08786703760025275,-1.3169426110237734
-0.19053068457611383,-0.08786703760025275,-1.3169426110237734
-0.19047453457611382,-0.08786703760025275,-1.3169426110237734
-0.19041838457611382,-0.08786703760025275,-1.3169426110237734
-0.19036223457611384,-0.08786703760025275,-1.3169426110237734
-0.19030608457611384,-0.08416881274766895,-1.3169426110237734
-0.19024993457611383,-0.08416881274766895,-1.3169426110237734
-0.19019378457611383,-0.08047058789508515,-1.3169426110237734
-0.19013763457611382,-0.08047058789508515,-1.3169426110237734
-0.19008148457611385,-0.08047058789508515,-1.3169426110237734
-0.19002533457611384,-0.07677236304250135,-1.3169426110237734
-0.18996918457611384,-0.07307413818991755,-1.3169426110237734
-0.18991303457611383,-0.07677236304250135,-1.3169426110237734
-0.18985688457611383,-0.07677236304250135,-1.3169426110237734
-0.18980073457611382,-0.07307413818991755,-1.3169426110237734
-0.18974458457611384,-0.07307413818991755,-1.3169426110237734
-0.18968843457611384,-0.07307413818991755,-1.3169426110237734
-0.18963228457611384,-0.07307413818991755,-1.320649962004811
-0.18957613457611383,-0.07307413818991755,-1.3169426110237734
-0.18951998457611383,-0.06937591333733376,-1.3169426110237734
-0.18946383457611382,-0.06937591333733376,-1.3169426110237734
-0.18940768457611384,-0.06937591333733376,-1.3169426110237734
-0.18935153457611384,-0.06937591333733376,-1.3169426110237734
-0.18929538457611383,-0.06937591333733376,-1.3169426110237734
-0.18923923457611383,-0.06937591333733376,-1.3169426110237734
-0.18918308457611382,-0.06567768848474995,-1.3169426110237734
-0.18912693457611382,-0.06567768848474995,-1.3169426110237734
-0.18907078457611384,-0.06567768848474995,-1.3169426110237734
-0.18901463457611384,-0.06197946363216615,-1.3169426110237734
-0.18895848457611383,-0.06197946363216615,-1.3169426110237734
-0.18890233457611383,-0.06197946363216615,-1.3169426110237734
-0.18884618457611382,-0.06197946363216615,-1.3169426110237734
-0.18879003457611382,-0.05828123877958403,-1.3169426110237734
-0.18873388457611384,-0.06197946363216615,-1.3169426110237734
-0.18867773457611384,-0.06197946363216615,-1.3169426110237734
-0.18862158457611383,-0.06197946363216615,-1.3169426110237734
-0.18856543457611383,-0.06197946363216615,-1.3169426110237734
-0.18850928457611382,-0.05828123877958235,-1.3169426110237734
-0.18845313457611385,-0.05828123877958235,-1.3169426110237734
-0.18839698457611384,-0.05828123877958235,-1.3169426110237734
-0.18834083457611384,-0.05828123877958235,-1.3169426110237734
-0.18828468457611383,-0.05828123877958235,-1.3169426110237734
-0.18822853457611383,-0.05828123877958235,-1.3169426110237734
-0.18817238457611382,-0.05828123877958235,-1.3169426110237734
-0.18811623457611384,-0.054583013926998554,-1.3169426110237734
-0.18806008457611384,-0.05828123877958235,-1.3169426110237734
-0.18800393457611383,-0.054583013926998554,-1.3169426110237734
-0.18794778457611383,-0.054583013926998554,-1.3169426110237734
-0.18789163457611383,-0.05828123877958235,-1.3169426110237734
-0.18783548457611382,-0.054583013926998554,-1.3169426110237734
-0.18777933457611384,-0.054583013926998554,-1.3169426110237734
-0.18772318457611384,-0.054583013926998554,-1.3169426110237734
-0.18766703457611383,-0.05088478907441475,-1.3169426110237734
-0.18761088457611383,-0.05088478907441475,-1.3169426110237734
-0.18755473457611382,-0.05088478907441475,-1.3169426110237734
-0.18749858457611382,-0.05088478907441307,-1.3169426110237734
-0.18744243457611384,-0.04718656422183096,-1.3169426110237734
-0.18738628457611384,-0.04718656422183096,-1.3169426110237734
-0.18733013457611383,-0.05088478907441475,-1.3169426110237734
-0.18727398457611383,-0.05088478907441475,-1.3169426110237734
-0.18721783457611382,-0.04718656422183096,-1.3169426110237734
-0.18716168457611385,-0.04718656422183096,-1.3169426110237734
-0.18710553457611384,-0.04718656422183096,-1.3169426110237734
-0.18704938457611384,-0.043488339369247155,-1.3169426110237734
-0.18699323457611383,-0.04718656422183096,-1.3169426110237734
-0.18693708457611383,-0.04718656422183096,-1.3169426110237734
-0.18688093457611382,-0.04718656422183096,-1.3169426110237734
-0.18682478457611384,-0.04718656422183096,-1.3169426110237734
-0.18676863457611384,-0.043488339369247155,-1.3169426110237734
-0.18671248457611384,-0.043488339369247155,-1.3169426110237734
-0.18665633457611383,-0.043488339369247155,-1.3169426110237734
-0.18660018457611383,-0.04718656422183096,-1.3169426110237734
-0.18654403457611382,-0.043488339369247155,-1.3169426110237734
-0.18648788457611384,-0.043488339369247155,-1.3169426110237734
-0.18643173457611384,-0.043488339369247155,-1.3169426110237734
-0.18637558457611383,-0.043488339369247155,-1.3169426110237734
-0.18631943457611383,-0.043488339369247155,-1.3169426110237734
-0.18626328457611382,-0.043488339369247155,-1.3169426110237734
-0.18620713457611382,-0.043488339369247155,-1.3169426110237734
-0.18615098457611384,-0.043488339369247155,-1.3169426110237734
-0.18609483457611384,-0.04718656422183096,-1.3169426110237734
-0.18603868457611383,-0.04718656422183096,-1.3169426110237734
-0.18598253457611383,-0.043488339369247155,-1.3169426110237734
-0.18592638457611382,-0.043488339369247155,-1.3169426110237734
-0.18587023457611385,-0.043488339369247155,-1.3169426110237734
-0.18581408457611384,-0.04718656422183096,-1.3169426110237734
-0.18575793457611384,-0.04718656422183096,-1.3169426110237734
-0.18570178457611383,-0.04718656422183096,-1.3169426110237734
-0.18564563457611383,-0.04718656422183096,-1.3169426110237734
-0.18558948457611382,-0.043488339369247155,-1.3169426110237734
-0.18553333457611385,-0.043488339369247155,-1.3169426110237734
-0.18547718457611384,-0.043488339369247155,-1.3169426110237734
-0.18542103457611384,-0.04718656422183096,-1.3169426110237734
-0.18536488457611383,-0.04718656422183096,-1.3169426110237734
-0.18530873457611383,-0.04718656422183096,-1.3169426110237734
-0.18525258457611382,-0.04718656422183096,-1.3169426110237734
-0.18519643457611384,-0.04718656422183096,-1.3169426110237734
-0.18514028457611384,-0.04718656422183096,-1.3169426110237734
-0.18508413457611383,-0.04718656422183096,-1.3169426110237734
-0.18502798457611383,-0.05088478907441475,-1.3169426110237734
-0.18497183457611382,-0.04718656422183096,-1.3169426110237734
-0.18491568457611382,-0.05088478907441475,-1.3169426110237734
-0.18485953457611384,-0.05088478907441475,-1.3169426110237734
-0.18480338457611384,-0.05088478907441475,-1.3169426110237734
-0.18474723457611383,-0.04718656422183096,-1.3169426110237734
-0.18469108457611383,-0.05088478907441475,-1.3169426110237734
-0.18463493457611382,-0.05088478907441475,-1.3169426110237734
-0.18457878457611382,-0.05088478907441475,-1.3169426110237734
-0.18452263457611384,-0.05088478907441475,-1.3169426110237734
-0.18446648457611384,-0.05088478907441475,-1.3169426110237734
-0.18441033457611383,-0.05088478907441475,-1.3169426110237734
-0.18435418457611383,-0.05088478907441475,-1.3169426110237734
-0.18429803457611382,-0.05088478907441475,-1.3169426110237734
-0.18424188457611385,-0.05088478907441475,-1.3169426110237734
-0.18418573457611384,-0.05088478907441475,-1.3169426110237734
-0.18412958457611384,-0.05088478907441475,-1.3169426110237734
-0.18407343457611383,-0.05088478907441475,-1.3169426110237734
-0.18401728457611383,-0.05088478907441475,-1.3169426110237734
-0.18396113457611382,-0.05088478907441475,-1.3169426110237734
-0.18390498457611384,-0.05088478907441475,-1.3169426110237734
-0.18384883457611384,-0.05088478907441475,-1.3169426110237734
-0.18379268457611384,-0.05088478907441475,-1.3169426110237734
-0.18373653457611383,-0.04718656422183096,-1.3169426110237734
-0.18368038457611383,-0.05088478907441475,-1.3169426110237734
-0.18362423457611382,-0.05088478907441475,-1.3169426110237734
-0.18356808457611384,-0.05088478907441475,-1.3169426110237734
-0.18351193457611384,-0.05088478907441475,-1.3169426110237734
-0.18345578457611383,-0.054583013926998554,-1.3169426110237734
-0.18339963457611383,-0.054583013926998554,-1.3169426110237734
-0.18334348457611382,-0.05088478907441475,-1.3169426110237734
-0.18328733457611382,-0.05088478907441475,-1.3169426110237734
-0.18323118457611384,-0.05088478907441475,-1.3169426110237734
-0.18317503457611384,-0.05088478907441475,-1.3169426110237734
-0.18311888457611383,-0.05088478907441475,-1.3169426110237734
-0.18306273457611383,-0.05088478907441475,-1.3169426110237734
-0.18300658457611382,-0.054583013926998554,-1.3169426110237734
-0.18295043457611385,-0.05088478907441643,-1.3169426110237734
-0.18289428457611384,-0.05088478907441475,-1.3169426110237734
-0.18283813457611384,-0.05088478907441475,-1.3169426110237734
-0.18278198457611383,-0.054583013926998554,-1.3169426110237734
-0.18272583457611383,-0.05088478907441475,-1.320649962004811
-0.18266968457611382,-0.05088478907441475,-1.320649962004811
-0.18261353457611385,-0.054583013926998554,-1.3169426110237734
-0.18255738457611384,-0.054583013926998554,-1.3169426110237734
-0.18250123457611384,-0.054583013926998554,-1.3169426110237734
-0.18244508457611383,-0.054583013926998554,-1.3169426110237734
-0.18238893457611383,-0.054583013926998554,-1.3169426110237734
-0.18233278457611382,-0.054583013926998554,-1.3169426110237734
-0.18227663457611384,-0.054583013926998554,-1.3169426110237734
-0.18222048457611384,-0.054583013926998554,-1.3169426110237734
-0.18216433457611383,-0.05088478907441475,-1.3169426110237734
-0.18210818457611383,-0.054583013926998554,-1.3169426110237734
-0.18205203457611382,-0.054583013926998554,-1.320649962004811
-0.18199588457611382,-0.054583013926998554,-1.3169426110237734
-0.18193973457611384,-0.054583013926998554,-1.3169426110237734
-0.18188358457611384,-0.054583013926998554,-1.3169426110237734
-0.18182743457611383,-0.054583013926998554,-1.3169426110237734
-0.18177128457611383,-0.05828123877958235,-1.3169426110237734
-0.18171513457611382,-0.05828123877958235,-1.3169426110237734
-0.18165898457611385,-0.05828123877958235,-1.3169426110237734
-0.18160283457611384,-0.05828123877958235,-1.3169426110237734
-0.18154668457611384,-0.05828123877958235,-1.3169426110237734
-0.18149053457611383,-0.05828123877958235,-1.320649962004811
-0.18143438457611383,-0.05828123877958235,-1.3169426110237734
-0.18137823457611382,-0.05828123877958235,-1.3169426110237734
-0.18132208457611385,-0.05828123877958235,-1.3169426110237734
-0.18126593457611384,-0.05828123877958235,-1.3169426110237734
-0.18120978457611384,-0.05828123877958235,-1.3169426110237734
-0.18115363457611383,-0.05828123877958235,-1.3169426110237734
-0.18109748457611383,-0.05828123877958235,-1.3169426110237734
-0.18104133457611382,-0.05828123877958235,-1.3169426110237734
-0.18098518457611384,-0.05828123877958235,-1.320649962004811
-0.18092903457611384,-0.05828123877958235,-1.3169426110237734
-0.18087288457611383,-0.05828123877958235,-1.3169426110237734
-0.18081673457611383,-0.05828123877958235,-1.320649962004811
-0.18076058457611383,-0.05828123877958235,-1.3169426110237734
-0.18070443457611382,-0.05828123877958235,-1.320649962004811
-0.18064828457611384,-0.06197946363216615,-1.320649962004811
-0.18059213457611384,-0.05828123877958235,-1.3169426110237734
-0.18053598457611383,-0.05828123877958235,-1.320649962004811
-0.18047983457611383,-0.05828123877958235,-1.3169426110237734
-0.18042368457611382,-0.05828123877958235,-1.3169426110237734
-0.18036753457611382,-0.05458301392700023,-1.320649962004811
-0.18031138457611384,-0.05828123877958235,-1.320649962004811
-0.18025523457611384,-0.054583013926998554,-1.320649962004811
-0.18019908457611383,-0.05828123877958235,-1.3169426110237734
-0.18014293457611383,-0.054583013926998554,-1.3169426110237734
