10Hz/acq0061.csv

#Digilent WaveForms Oscilloscope Acquisition
#Device Name: Discovery2
#Serial Number: SN:210321AA28BE
#Date Time: 2023-05-24 14:52:39.538
#Sample rate: 17809.4Hz
#Samples: 8192
#Trigger: Source: Channel 1 Type: Edge Condition: Rising Level: 800 mV Hyst.: Auto HoldOff: 100 ns
#Channel 1: Range: 1 V/div Offset: 0 V Attenuation: 1 X Sample Mode: Average
#Channel 2: Range: 1 V/div Offset: 0 V Attenuation: 1 X Sample Mode: Average

Time (s),Channel 1 (V),Channel 2 (V)
-0.1977228131947231,-0.07677236304250135,-1.3169426110237734
-0.1976666631947231,-0.08786703760025275,-1.3169426110237734
-0.1976105131947231,-0.09896171215800414,-1.3169426110237734
-0.19755436319472308,-0.11005638671575554,-1.3169426110237734
-0.1974982131947231,-0.11745283642092315,-1.3169426110237734
-0.1974420631947231,-0.12115106127350694,-1.3169426110237734
-0.1973859131947231,-0.12854751097867453,-1.3169426110237734
-0.1973297631947231,-0.13594396068384215,-1.3169426110237734
-0.19727361319472309,-0.13964218553642593,-1.3169426110237734
-0.19721746319472308,-0.14703863524159524,-1.3169426110237734
-0.1971613131947231,-0.15073686009417733,-1.3169426110237734
-0.1971051631947231,-0.15443508494676114,-1.3169426110237734
-0.1970490131947231,-0.15813330979934495,-1.3169426110237734
-0.1969928631947231,-0.16183153465192873,-1.3169426110237734
-0.19693671319472308,-0.16552975950451254,-1.3169426110237734
-0.1968805631947231,-0.16922798435709466,-1.3169426110237734
-0.1968244131947231,-0.16922798435709635,-1.3169426110237734
-0.1967682631947231,-0.17292620920968013,-1.3169426110237734
-0.1967121131947231,-0.17662443406226394,-1.3169426110237734
-0.1966559631947231,-0.17662443406226394,-1.3169426110237734
-0.19659981319472308,-0.18032265891484775,-1.3169426110237734
-0.1965436631947231,-0.18032265891484775,-1.3169426110237734
-0.1964875131947231,-0.18402088376743153,-1.3169426110237734
-0.1964313631947231,-0.18402088376743153,-1.3169426110237734
-0.1963752131947231,-0.18402088376743153,-1.3169426110237734
-0.1963190631947231,-0.18402088376743153,-1.3169426110237734
-0.19626291319472308,-0.18402088376743153,-1.3169426110237734
-0.1962067631947231,-0.18402088376743153,-1.3169426110237734
-0.1961506131947231,-0.18771910862001534,-1.3169426110237734
-0.1960944631947231,-0.18402088376743153,-1.3169426110237734
-0.1960383131947231,-0.18771910862001534,-1.3169426110237734
-0.19598216319472309,-0.18402088376743153,-1.3169426110237734
-0.19592601319472308,-0.18402088376743153,-1.3169426110237716
-0.1958698631947231,-0.18402088376743153,-1.3132352600427357
-0.1958137131947231,-0.18402088376743153,-1.3132352600427357
-0.1957575631947231,-0.18402088376743153,-1.3169426110237734
-0.1957014131947231,-0.18402088376743153,-1.3169426110237734
-0.19564526319472308,-0.18402088376743153,-1.3169426110237734
-0.1955891131947231,-0.18402088376743153,-1.3169426110237734
-0.1955329631947231,-0.18402088376743153,-1.3169426110237734
-0.1954768131947231,-0.18032265891484775,-1.3169426110237734
-0.1954206631947231,-0.18032265891484775,-1.3169426110237734
-0.1953645131947231,-0.18032265891484775,-1.3169426110237734
-0.19530836319472308,-0.18032265891484775,-1.3169426110237734
-0.1952522131947231,-0.17662443406226394,-1.3169426110237734
-0.1951960631947231,-0.17292620920968013,-1.3169426110237734
-0.1951399131947231,-0.17292620920968013,-1.3169426110237734
-0.1950837631947231,-0.17292620920968013,-1.3169426110237734
-0.1950276131947231,-0.16922798435709635,-1.3169426110237734
-0.19497146319472308,-0.16922798435709635,-1.3169426110237734
-0.1949153131947231,-0.16922798435709635,-1.3169426110237734
-0.1948591631947231,-0.16922798435709635,-1.3169426110237734
-0.1948030131947231,-0.16552975950451254,-1.3169426110237734
-0.1947468631947231,-0.16552975950451254,-1.3132352600427357
-0.1946907131947231,-0.16552975950451254,-1.3132352600427357
-0.19463456319472308,-0.16183153465192873,-1.3132352600427357
-0.1945784131947231,-0.16183153465192873,-1.3132352600427357
-0.1945222631947231,-0.15813330979934495,-1.3132352600427357
-0.1944661131947231,-0.15813330979934495,-1.3169426110237734
-0.1944099631947231,-0.15443508494676114,-1.3169426110237734
-0.19435381319472309,-0.15813330979934495,-1.3169426110237734
-0.1942976631947231,-0.15443508494676284,-1.3169426110237734
-0.1942415131947231,-0.15443508494676114,-1.3169426110237734
-0.1941853631947231,-0.15443508494676114,-1.3169426110237734
-0.1941292131947231,-0.15443508494676114,-1.3169426110237734
-0.1940730631947231,-0.15443508494676114,-1.3169426110237734
-0.19401691319472308,-0.15073686009417733,-1.3169426110237734
-0.1939607631947231,-0.15073686009417733,-1.3169426110237734
-0.1939046131947231,-0.14703863524159355,-1.3132352600427357
-0.1938484631947231,-0.14703863524159355,-1.3169426110237734
-0.1937923131947231,-0.14703863524159355,-1.3169426110237734
-0.1937361631947231,-0.14703863524159355,-1.3169426110237734
-0.19368001319472308,-0.14334041038900974,-1.3169426110237734
-0.1936238631947231,-0.14334041038900974,-1.3169426110237734
-0.1935677131947231,-0.14334041038900974,-1.3169426110237734
-0.1935115631947231,-0.13964218553642593,-1.3169426110237734
-0.1934554131947231,-0.13594396068384215,-1.3169426110237734
-0.1933992631947231,-0.13594396068384215,-1.3169426110237734
-0.19334311319472308,-0.13594396068384215,-1.3169426110237734
-0.1932869631947231,-0.13594396068384215,-1.3169426110237734
-0.1932308131947231,-0.13594396068384215,-1.3169426110237734
-0.1931746631947231,-0.13224573583125834,-1.3169426110237734
-0.1931185131947231,-0.13224573583125834,-1.3169426110237734
-0.19306236319472309,-0.13224573583125834,-1.3169426110237734
-0.19300621319472308,-0.12854751097867453,-1.3169426110237734
-0.1929500631947231,-0.12854751097867453,-1.3169426110237734
-0.1928939131947231,-0.12484928612609074,-1.3169426110237734
-0.1928377631947231,-0.12484928612609074,-1.3169426110237734
-0.1927816131947231,-0.12484928612609074,-1.3169426110237734
-0.19272546319472308,-0.12115106127350694,-1.3169426110237734
-0.1926693131947231,-0.12115106127350694,-1.3169426110237734
-0.1926131631947231,-0.11745283642092315,-1.3169426110237734
-0.1925570131947231,-0.11745283642092315,-1.3169426110237734
-0.1925008631947231,-0.11745283642092315,-1.3169426110237734
-0.1924447131947231,-0.11375461156833934,-1.3169426110237734
-0.19238856319472308,-0.11375461156833934,-1.3169426110237734
-0.1923324131947231,-0.11375461156833934,-1.3169426110237734
-0.1922762631947231,-0.11005638671575554,-1.3169426110237734
-0.1922201131947231,-0.11005638671575554,-1.3169426110237734
-0.1921639631947231,-0.10635816186317175,-1.3169426110237734
-0.1921078131947231,-0.10635816186317175,-1.3169426110237734
-0.19205166319472308,-0.10265993701058794,-1.3169426110237734
-0.1919955131947231,-0.10265993701058794,-1.3169426110237734
-0.1919393631947231,-0.10265993701058794,-1.3169426110237734
-0.1918832131947231,-0.09896171215800414,-1.3169426110237734
-0.1918270631947231,-0.09896171215800414,-1.3169426110237734
-0.19177091319472309,-0.09526348730542035,-1.3169426110237734
-0.19171476319472308,-0.09526348730542035,-1.3169426110237734
-0.1916586131947231,-0.09526348730542035,-1.3169426110237734
-0.1916024631947231,-0.09526348730542035,-1.3169426110237734
-0.1915463131947231,-0.09526348730542035,-1.3169426110237734
-0.1914901631947231,-0.09156526245283655,-1.3169426110237734
-0.19143401319472308,-0.09156526245283655,-1.3169426110237734
-0.1913778631947231,-0.08786703760025442,-1.3169426110237734
-0.1913217131947231,-0.09156526245283655,-1.3169426110237734
-0.1912655631947231,-0.09156526245283655,-1.320649962004811
-0.1912094131947231,-0.08786703760025275,-1.3169426110237734
-0.1911532631947231,-0.08416881274766895,-1.3169426110237734
-0.19109711319472308,-0.08416881274766895,-1.3169426110237734
-0.1910409631947231,-0.08416881274766895,-1.3169426110237734
-0.1909848131947231,-0.08416881274766895,-1.3169426110237734
-0.1909286631947231,-0.08416881274766895,-1.3169426110237734
-0.1908725131947231,-0.08047058789508515,-1.3169426110237734
-0.1908163631947231,-0.08047058789508515,-1.3169426110237734
-0.19076021319472308,-0.08047058789508515,-1.3169426110237734
-0.1907040631947231,-0.08047058789508515,-1.3169426110237734
-0.1906479131947231,-0.08047058789508515,-1.3169426110237734
-0.1905917631947231,-0.08047058789508515,-1.3169426110237734
-0.1905356131947231,-0.08047058789508515,-1.3169426110237734
-0.1904794631947231,-0.08047058789508515,-1.3169426110237734
-0.19042331319472308,-0.07677236304250303,-1.3169426110237734
-0.1903671631947231,-0.08047058789508515,-1.3169426110237734
-0.1903110131947231,-0.07677236304250135,-1.3169426110237734
-0.1902548631947231,-0.07677236304250135,-1.3169426110237734
-0.1901987131947231,-0.07677236304250135,-1.3169426110237734
-0.19014256319472309,-0.07677236304250135,-1.3169426110237734
-0.1900864131947231,-0.07307413818991923,-1.3169426110237734
-0.1900302631947231,-0.07677236304250135,-1.3169426110237734
-0.1899741131947231,-0.07677236304250135,-1.3169426110237734
-0.1899179631947231,-0.07677236304250135,-1.320649962004811
-0.1898618131947231,-0.07677236304250135,-1.3169426110237734
-0.18980566319472308,-0.07307413818991755,-1.320649962004811
-0.1897495131947231,-0.07307413818991755,-1.320649962004811
-0.1896933631947231,-0.07307413818991755,-1.320649962004811
-0.1896372131947231,-0.06937591333733376,-1.320649962004811
-0.1895810631947231,-0.06937591333733376,-1.3169426110237734
-0.1895249131947231,-0.06937591333733376,-1.3169426110237734
-0.18946876319472308,-0.06937591333733376,-1.3169426110237734
-0.1894126131947231,-0.06937591333733376,-1.3169426110237734
-0.1893564631947231,-0.06567768848474995,-1.3169426110237734
-0.1893003131947231,-0.06567768848474995,-1.3169426110237734
-0.1892441631947231,-0.06567768848474995,-1.3169426110237734
-0.1891880131947231,-0.06567768848474995,-1.3169426110237734
-0.18913186319472308,-0.06567768848474995,-1.3169426110237734
-0.1890757131947231,-0.06567768848474995,-1.3169426110237734
-0.1890195631947231,-0.06567768848474995,-1.3169426110237734
-0.1889634131947231,-0.06197946363216615,-1.3169426110237734
-0.1889072631947231,-0.06197946363216615,-1.3169426110237734
-0.18885111319472309,-0.06197946363216615,-1.3169426110237734
-0.18879496319472308,-0.06567768848474827,-1.3169426110237734
-0.1887388131947231,-0.06197946363216615,-1.3169426110237734
-0.1886826631947231,-0.06197946363216615,-1.3169426110237734
-0.1886265131947231,-0.06197946363216615,-1.3169426110237734
-0.1885703631947231,-0.06197946363216615,-1.3169426110237734
-0.18851421319472308,-0.06197946363216615,-1.3169426110237734
-0.1884580631947231,-0.06197946363216615,-1.3169426110237734
-0.1884019131947231,-0.06197946363216615,-1.320649962004811
-0.1883457631947231,-0.06197946363216615,-1.3169426110237734
-0.1882896131947231,-0.06197946363216615,-1.3169426110237734
-0.1882334631947231,-0.06197946363216615,-1.3169426110237734
-0.18817731319472308,-0.06197946363216615,-1.3169426110237734
-0.1881211631947231,-0.06197946363216615,-1.3169426110237734
-0.1880650131947231,-0.06197946363216615,-1.3169426110237734
-0.1880088631947231,-0.06197946363216615,-1.320649962004811
-0.1879527131947231,-0.06197946363216615,-1.3169426110237734
-0.1878965631947231,-0.06197946363216615,-1.3169426110237734
-0.18784041319472308,-0.06197946363216615,-1.3169426110237734
-0.1877842631947231,-0.06197946363216615,-1.3169426110237734
-0.1877281131947231,-0.06197946363216615,-1.3169426110237734
-0.1876719631947231,-0.06197946363216615,-1.3169426110237734
-0.1876158131947231,-0.05828123877958235,-1.3169426110237734
-0.1875596631947231,-0.06197946363216615,-1.3169426110237734
-0.18750351319472308,-0.06197946363216615,-1.3169426110237734
-0.1874473631947231,-0.06197946363216615,-1.3169426110237734
-0.1873912131947231,-0.06197946363216615,-1.3169426110237734
-0.1873350631947231,-0.06197946363216615,-1.3169426110237734
-0.1872789131947231,-0.06197946363216615,-1.3169426110237734
-0.18722276319472309,-0.06197946363216615,-1.3169426110237734
-0.1871666131947231,-0.06197946363216615,-1.3169426110237734
-0.1871104631947231,-0.06197946363216615,-1.3169426110237734
-0.1870543131947231,-0.06197946363216615,-1.3169426110237734
-0.1869981631947231,-0.06197946363216615,-1.3169426110237734
-0.1869420131947231,-0.06197946363216615,-1.3169426110237734
-0.18688586319472308,-0.06197946363216615,-1.3169426110237734
-0.1868297131947231,-0.06567768848474995,-1.3169426110237734
-0.1867735631947231,-0.06197946363216615,-1.3169426110237734
-0.1867174131947231,-0.06197946363216615,-1.3169426110237734
-0.1866612631947231,-0.06197946363216615,-1.3169426110237734
-0.1866051131947231,-0.06197946363216615,-1.3169426110237734
-0.18654896319472308,-0.06197946363216615,-1.3169426110237734
-0.1864928131947231,-0.06567768848474995,-1.3169426110237734
-0.1864366631947231,-0.06197946363216615,-1.320649962004811
-0.1863805131947231,-0.06197946363216615,-1.3169426110237734
-0.1863243631947231,-0.06197946363216615,-1.3169426110237734
-0.1862682131947231,-0.06197946363216615,-1.320649962004811
-0.18621206319472308,-0.06567768848474995,-1.3206499620048093
-0.1861559131947231,-0.06567768848474995,-1.3169426110237734
-0.1860997631947231,-0.06197946363216615,-1.3169426110237734
-0.1860436131947231,-0.06197946363216615,-1.3169426110237734
-0.1859874631947231,-0.06197946363216615,-1.320649962004811
-0.18593131319472309,-0.06197946363216615,-1.3169426110237734
-0.1858751631947231,-0.06197946363216615,-1.3169426110237734
-0.1858190131947231,-0.06197946363216615,-1.3169426110237734
-0.1857628631947231,-0.06197946363216615,-1.3169426110237734
-0.1857067131947231,-0.06197946363216615,-1.320649962004811
-0.1856505631947231,-0.06197946363216615,-1.3169426110237734
-0.18559441319472308,-0.06197946363216615,-1.320649962004811
-0.1855382631947231,-0.06197946363216615,-1.3169426110237734
-0.1854821131947231,-0.06197946363216615,-1.3169426110237734
-0.1854259631947231,-0.06197946363216615,-1.3169426110237734
-0.1853698131947231,-0.06197946363216615,-1.3169426110237734
-0.1853136631947231,-0.06197946363216615,-1.320649962004811
-0.18525751319472308,-0.06197946363216615,-1.320649962004811
-0.1852013631947231,-0.06197946363216615,-1.320649962004811
-0.1851452131947231,-0.06197946363216615,-1.3169426110237734
-0.1850890631947231,-0.06567768848474995,-1.3169426110237734
-0.1850329131947231,-0.06197946363216615,-1.3169426110237734
-0.1849767631947231,-0.06567768848474995,-1.320649962004811
-0.18492061319472308,-0.06567768848474995,-1.320649962004811
-0.1848644631947231,-0.06567768848474995,-1.320649962004811
-0.1848083131947231,-0.06567768848474995,-1.320649962004811
-0.1847521631947231,-0.06567768848474995,-1.320649962004811
-0.1846960131947231,-0.06567768848474995,-1.320649962004811
-0.1846398631947231,-0.06197946363216615,-1.320649962004811
-0.18458371319472308,-0.06567768848474995,-1.3169426110237734
-0.1845275631947231,-0.06567768848474995,-1.3169426110237734
-0.1844714131947231,-0.06567768848474995,-1.3169426110237734
-0.1844152631947231,-0.06567768848474995,-1.320649962004811
-0.1843591131947231,-0.06567768848474995,-1.3169426110237734
-0.18430296319472309,-0.06567768848474995,-1.3169426110237734
-0.1842468131947231,-0.06567768848474995,-1.3169426110237734
-0.1841906631947231,-0.06567768848474995,-1.320649962004811
-0.1841345131947231,-0.06567768848474995,-1.3169426110237734
-0.1840783631947231,-0.06567768848474995,-1.3169426110237734
-0.1840222131947231,-0.06937591333733376,-1.3169426110237734
-0.18396606319472308,-0.06567768848474995,-1.3169426110237734
-0.1839099131947231,-0.06567768848474995,-1.3169426110237734
-0.1838537631947231,-0.06567768848474995,-1.3169426110237734
-0.1837976131947231,-0.06937591333733376,-1.3169426110237734
-0.1837414631947231,-0.06937591333733376,-1.3169426110237734
-0.1836853131947231,-0.06567768848474995,-1.3169426110237734
-0.18362916319472308,-0.06937591333733376,-1.320649962004811
-0.1835730131947231,-0.06937591333733376,-1.3169426110237734
-0.1835168631947231,-0.06937591333733376,-1.3169426110237734
-0.1834607131947231,-0.06937591333733376,-1.320649962004811
-0.1834045631947231,-0.06937591333733376,-1.320649962004811
-0.1833484131947231,-0.06937591333733376,-1.320649962004811
-0.18329226319472308,-0.06937591333733376,-1.320649962004811
-0.1832361131947231,-0.06937591333733376,-1.320649962004811
-0.1831799631947231,-0.06937591333733376,-1.320649962004811
-0.1831238131947231,-0.06937591333733376,-1.320649962004811
-0.1830676631947231,-0.06937591333733376,-1.320649962004811
-0.18301151319472309,-0.06937591333733376,-1.3169426110237734
-0.1829553631947231,-0.06937591333733376,-1.3169426110237734
-0.1828992131947231,-0.06937591333733376,-1.3169426110237734
-0.1828430631947231,-0.06937591333733376,-1.3169426110237734
-0.1827869131947231,-0.06937591333733376,-1.3169426110237734
-0.1827307631947231,-0.06937591333733376,-1.320649962004811
-0.18267461319472308,-0.06937591333733376,-1.320649962004811
-0.1826184631947231,-0.06937591333733376,-1.320649962004811
-0.1825623131947231,-0.06937591333733376,-1.3169426110237734
-0.1825061631947231,-0.06937591333733376,-1.320649962004811
-0.1824500131947231,-0.06937591333733376,-1.320649962004811
-0.1823938631947231,-0.06937591333733376,-1.320649962004811
-0.18233771319472308,-0.06937591333733376,-1.3169426110237734
-0.1822815631947231,-0.06567768848474995,-1.3169426110237734
-0.1822254131947231,-0.06567768848474995,-1.3169426110237734
-0.1821692631947231,-0.06567768848474995,-1.3169426110237734
-0.1821131131947231,-0.06567768848474995,-1.320649962004811
-0.1820569631947231,-0.06567768848474995,-1.320649962004811
-0.18200081319472308,-0.06567768848474995,-1.320649962004811
-0.1819446631947231,-0.06567768848474995,-1.320649962004811
-0.1818885131947231,-0.06567768848474995,-1.320649962004811
-0.1818323631947231,-0.06197946363216615,-1.320649962004811
-0.1817762131947231,-0.06197946363216615,-1.320649962004811
-0.18172006319472309,-0.06567768848474995,-1.320649962004811
-0.1816639131947231,-0.06567768848474995,-1.320649962004811
-0.1816077631947231,-0.06197946363216615,-1.320649962004811
-0.1815516131947231,-0.06197946363216615,-1.320649962004811
-0.1814954631947231,-0.06197946363216615,-1.3169426110237734
-0.1814393131947231,-0.06197946363216615,-1.3169426110237734
-0.18138316319472308,-0.06197946363216615,-1.3169426110237734
-0.1813270131947231,-0.06197946363216615,-1.3169426110237734
-0.1812708631947231,-0.06197946363216615,-1.320649962004811
-0.1812147131947231,-0.06197946363216615,-1.320649962004811
-0.1811585631947231,-0.05828123877958235,-1.320649962004811
-0.1811024131947231,-0.06197946363216615,-1.320649962004811
-0.18104626319472308,-0.06197946363216615,-1.3169426110237734
-0.1809901131947231,-0.06197946363216615,-1.3169426110237734
-0.1809339631947231,-0.06197946363216615,-1.320649962004811
-0.1808778131947231,-0.05828123877958235,-1.3169426110237734
-0.1808216631947231,-0.06197946363216615,-1.3169426110237734
-0.1807655131947231,-0.05828123877958235,-1.320649962004811
-0.18070936319472308,-0.05828123877958235,-1.320649962004811
-0.1806532131947231,-0.06197946363216615,-1.320649962004811
-0.1805970631947231,-0.05828123877958235,-1.3169426110237734
-0.1805409131947231,-0.05828123877958235,-1.320649962004811
-0.1804847631947231,-0.05828123877958235,-1.320649962004811
-0.1804286131947231,-0.05828123877958235,-1.3169426110237734
-0.18037246319472308,-0.05828123877958067,-1.3169426110237752
-0.1803163131947231,-0.054583013926998554,-1.320649962004811
-0.1802601631947231,-0.05828123877958235,-1.320649962004811
-0.1802040131947231,-0.054583013926998554,-1.320649962004811
-0.1801478631947231,-0.054583013926998554,-1.3169426110237734
-0.18009171319472309,-0.054583013926998554,-1.320649962004811
-0.1800355631947231,-0.054583013926998554,-1.3169426110237752
-0.1799794131947231,-0.054583013926998554,-1.320649962004811
-0.1799232631947231,-0.05088478907441475,-1.320649962004811
-0.1798671131947231,-0.05088478907441475,-1.320649962004811
-0.1798109631947231,-0.05088478907441475,-1.3169426110237734
