10Hz/acq0038.csv

#Digilent WaveForms Oscilloscope Acquisition
#Device Name: Discovery2
#Serial Number: SN:210321AA28BE
#Date Time: 2023-05-24 14:52:28.034
#Sample rate: 17809.4Hz
#Samples: 8192
#Trigger: Source: Channel 1 Type: Edge Condition: Rising Level: 800 mV Hyst.: Auto HoldOff: 100 ns
#Channel 1: Range: 1 V/div Offset: 0 V Attenuation: 1 X Sample Mode: Average
#Channel 2: Range: 1 V/div Offset: 0 V Attenuation: 1 X Sample Mode: Average

Time (s),Channel 1 (V),Channel 2 (V)
-0.19774035610705834,-0.05828123877958235,-1.3169426110237734
-0.19768420610705834,-0.06937591333733376,-1.3169426110237734
-0.19762805610705833,-0.08047058789508515,-1.3169426110237734
-0.19757190610705833,-0.08786703760025275,-1.3169426110237734
-0.19751575610705835,-0.09896171215800414,-1.3169426110237734
-0.19745960610705834,-0.10635816186317175,-1.3169426110237734
-0.19740345610705834,-0.11375461156833934,-1.3169426110237734
-0.19734730610705833,-0.12115106127350694,-1.3169426110237734
-0.19729115610705833,-0.12854751097867453,-1.3169426110237734
-0.19723500610705832,-0.13594396068384385,-1.3169426110237734
-0.19717885610705835,-0.13964218553642593,-1.3169426110237734
-0.19712270610705834,-0.14334041038900974,-1.3169426110237734
-0.19706655610705834,-0.15073686009417733,-1.3169426110237734
-0.19701040610705833,-0.15443508494676114,-1.3169426110237734
-0.19695425610705833,-0.15443508494676114,-1.3169426110237734
-0.19689810610705835,-0.16183153465192537,-1.3169426110237734
-0.19684195610705835,-0.16552975950451254,-1.3169426110237734
-0.19678580610705834,-0.16922798435709635,-1.3169426110237734
-0.19672965610705834,-0.17292620920968013,-1.3169426110237734
-0.19667350610705833,-0.17662443406226394,-1.3169426110237734
-0.19661735610705833,-0.18032265891484775,-1.3169426110237734
-0.19656120610705835,-0.18032265891484775,-1.3169426110237734
-0.19650505610705835,-0.18402088376743153,-1.3169426110237734
-0.19644890610705834,-0.18402088376743153,-1.3132352600427357
-0.19639275610705834,-0.18402088376743153,-1.3169426110237734
-0.19633660610705833,-0.18771910862001534,-1.3169426110237734
-0.19628045610705833,-0.19141733347259912,-1.3169426110237734
-0.19622430610705835,-0.19141733347259912,-1.3169426110237734
-0.19616815610705834,-0.19141733347259912,-1.3169426110237734
-0.19611200610705834,-0.19511555832518293,-1.3169426110237734
-0.19605585610705833,-0.19141733347259912,-1.3169426110237734
-0.19599970610705833,-0.19141733347259912,-1.3169426110237734
-0.19594355610705833,-0.19141733347259912,-1.3169426110237734
-0.19588740610705835,-0.19141733347259912,-1.3169426110237734
-0.19583125610705834,-0.19141733347259912,-1.3169426110237734
-0.19577510610705834,-0.19511555832518293,-1.3169426110237734
-0.19571895610705833,-0.19511555832518293,-1.3169426110237734
-0.19566280610705833,-0.19511555832518293,-1.3169426110237734
-0.19560665610705835,-0.19511555832518293,-1.3169426110237734
-0.19555050610705835,-0.19511555832518293,-1.3169426110237734
-0.19549435610705834,-0.19511555832518293,-1.3169426110237734
-0.19543820610705834,-0.19511555832518293,-1.3169426110237734
-0.19538205610705833,-0.19511555832518293,-1.3169426110237734
-0.19532590610705833,-0.19141733347259912,-1.3169426110237734
-0.19526975610705835,-0.19511555832518293,-1.3169426110237734
-0.19521360610705835,-0.19511555832518293,-1.3169426110237734
-0.19515745610705834,-0.19141733347259912,-1.3169426110237734
-0.19510130610705834,-0.19141733347259912,-1.3169426110237734
-0.19504515610705833,-0.19141733347259912,-1.3169426110237734
-0.19498900610705833,-0.19141733347259912,-1.3169426110237734
-0.19493285610705835,-0.18771910862001534,-1.3169426110237734
-0.19487670610705835,-0.18771910862001534,-1.3169426110237734
-0.19482055610705834,-0.18771910862001534,-1.3169426110237734
-0.19476440610705834,-0.18771910862001534,-1.3169426110237734
-0.19470825610705833,-0.18771910862001534,-1.3169426110237734
-0.19465210610705833,-0.18402088376743153,-1.3169426110237734
-0.19459595610705835,-0.18402088376743153,-1.3169426110237734
-0.19453980610705834,-0.18402088376743153,-1.3169426110237734
-0.19448365610705834,-0.18402088376743153,-1.3169426110237734
-0.19442750610705833,-0.18402088376743153,-1.3169426110237734
-0.19437135610705833,-0.18032265891484775,-1.3169426110237734
-0.19431520610705835,-0.18032265891484775,-1.3169426110237734
-0.19425905610705835,-0.18032265891484775,-1.3169426110237734
-0.19420290610705834,-0.18032265891484775,-1.3169426110237734
-0.19414675610705834,-0.18032265891484775,-1.3169426110237734
-0.19409060610705833,-0.18032265891484775,-1.3169426110237734
-0.19403445610705833,-0.17662443406226394,-1.3169426110237734
-0.19397830610705835,-0.18032265891484775,-1.3169426110237734
-0.19392215610705835,-0.17662443406226394,-1.3169426110237734
-0.19386600610705834,-0.17662443406226394,-1.3169426110237734
-0.19380985610705834,-0.17662443406226394,-1.3169426110237734
-0.19375370610705833,-0.17292620920968013,-1.3169426110237734
-0.19369755610705833,-0.17662443406226394,-1.3169426110237734
-0.19364140610705835,-0.17292620920968013,-1.3169426110237734
-0.19358525610705835,-0.17292620920968013,-1.3169426110237734
-0.19352910610705834,-0.16922798435709635,-1.3169426110237734
-0.19347295610705834,-0.16922798435709635,-1.3169426110237734
-0.19341680610705833,-0.16922798435709635,-1.3169426110237734
-0.19336065610705833,-0.16552975950451254,-1.3169426110237734
-0.19330450610705835,-0.16552975950451254,-1.3169426110237734
-0.19324835610705834,-0.16552975950451254,-1.3169426110237734
-0.19319220610705834,-0.16552975950451254,-1.3169426110237734
-0.19313605610705833,-0.15813330979934495,-1.3169426110237734
-0.19307990610705833,-0.16183153465192873,-1.3169426110237734
-0.19302375610705833,-0.15813330979934495,-1.3169426110237734
-0.19296760610705835,-0.15813330979934495,-1.3169426110237734
-0.19291145610705834,-0.15443508494676114,-1.3169426110237734
-0.19285530610705834,-0.15443508494676114,-1.3169426110237734
-0.19279915610705833,-0.15443508494676114,-1.3169426110237734
-0.19274300610705833,-0.15073686009417733,-1.3169426110237734
-0.19268685610705835,-0.15073686009417733,-1.3169426110237734
-0.19263070610705835,-0.15073686009417733,-1.3169426110237734
-0.19257455610705834,-0.14703863524159355,-1.3169426110237734
-0.19251840610705834,-0.14703863524159355,-1.3169426110237734
-0.19246225610705833,-0.14703863524159355,-1.3169426110237734
-0.19240610610705833,-0.14334041038900974,-1.3169426110237734
-0.19234995610705835,-0.14334041038900974,-1.3169426110237734
-0.19229380610705835,-0.14334041038900974,-1.3169426110237734
-0.19223765610705834,-0.14334041038900974,-1.3169426110237734
-0.19218150610705834,-0.13964218553642593,-1.3169426110237734
-0.19212535610705833,-0.13964218553642593,-1.3169426110237734
-0.19206920610705833,-0.13594396068384215,-1.3169426110237734
-0.19201305610705835,-0.13594396068384215,-1.3169426110237734
-0.19195690610705834,-0.13594396068384215,-1.3169426110237734
-0.19190075610705834,-0.13594396068384215,-1.3169426110237734
-0.19184460610705834,-0.13224573583125834,-1.3169426110237734
-0.19178845610705833,-0.13224573583125834,-1.3169426110237734
-0.19173230610705833,-0.13224573583125665,-1.3169426110237734
-0.19167615610705835,-0.12854751097867453,-1.3169426110237734
-0.19162000610705834,-0.12854751097867453,-1.3169426110237734
-0.19156385610705834,-0.12484928612609074,-1.3169426110237734
-0.19150770610705833,-0.12484928612609074,-1.3169426110237734
-0.19145155610705833,-0.12115106127350694,-1.3169426110237734
-0.19139540610705835,-0.12115106127350694,-1.3169426110237734
-0.19133925610705835,-0.12115106127350694,-1.3169426110237734
-0.19128310610705834,-0.11745283642092315,-1.3169426110237734
-0.19122695610705834,-0.11745283642092315,-1.3169426110237734
-0.19117080610705833,-0.11745283642092315,-1.3169426110237734
-0.19111465610705833,-0.11745283642092315,-1.3169426110237734
-0.19105850610705835,-0.11375461156833934,-1.3169426110237734
-0.19100235610705835,-0.11375461156833934,-1.3169426110237734
-0.19094620610705834,-0.11375461156833934,-1.3169426110237734
-0.19089005610705834,-0.11005638671575554,-1.3169426110237734
-0.19083390610705833,-0.11005638671575554,-1.3169426110237734
-0.19077775610705833,-0.11005638671575554,-1.3169426110237734
-0.19072160610705835,-0.10635816186317175,-1.3169426110237734
-0.19066545610705835,-0.10635816186317175,-1.3169426110237734
-0.19060930610705834,-0.10635816186317175,-1.3169426110237734
-0.19055315610705834,-0.10635816186317175,-1.3169426110237734
-0.19049700610705833,-0.10265993701058794,-1.3169426110237734
-0.19044085610705833,-0.10265993701058794,-1.3169426110237734
-0.19038470610705835,-0.10265993701058794,-1.3169426110237734
-0.19032855610705834,-0.09896171215800414,-1.3169426110237734
-0.19027240610705834,-0.09896171215800414,-1.3169426110237734
-0.19021625610705833,-0.09896171215800414,-1.3169426110237734
-0.19016010610705833,-0.09896171215800414,-1.3169426110237734
-0.19010395610705835,-0.09526348730542203,-1.3169426110237734
-0.19004780610705835,-0.09526348730542035,-1.3169426110237734
-0.18999165610705834,-0.09156526245283655,-1.3169426110237734
-0.18993550610705834,-0.09156526245283655,-1.3169426110237734
-0.18987935610705833,-0.09156526245283655,-1.3169426110237734
-0.18982320610705833,-0.09156526245283655,-1.3169426110237734
-0.18976705610705835,-0.09156526245283655,-1.3169426110237734
-0.18971090610705835,-0.08786703760025275,-1.3169426110237734
-0.18965475610705834,-0.08786703760025275,-1.3169426110237734
-0.18959860610705834,-0.08786703760025275,-1.3169426110237734
-0.18954245610705833,-0.08786703760025275,-1.3169426110237734
-0.18948630610705833,-0.08416881274766895,-1.3169426110237734
-0.18943015610705835,-0.08786703760025275,-1.3169426110237734
-0.18937400610705835,-0.08416881274766895,-1.3169426110237734
-0.18931785610705834,-0.08416881274766895,-1.3169426110237734
-0.18926170610705834,-0.08047058789508515,-1.3169426110237734
-0.18920555610705833,-0.08047058789508515,-1.3169426110237734
-0.18914940610705833,-0.08047058789508515,-1.3169426110237734
-0.18909325610705835,-0.07677236304250135,-1.3169426110237734
-0.18903710610705834,-0.07677236304250135,-1.3169426110237734
-0.18898095610705834,-0.07677236304250135,-1.3169426110237734
-0.18892480610705834,-0.07677236304250135,-1.3169426110237734
-0.18886865610705833,-0.07307413818991755,-1.3169426110237734
-0.18881250610705833,-0.07307413818991755,-1.3169426110237734
-0.18875635610705835,-0.07307413818991755,-1.3169426110237734
-0.18870020610705834,-0.06937591333733376,-1.3169426110237734
-0.18864405610705834,-0.06937591333733376,-1.3169426110237734
-0.18858790610705833,-0.06937591333733376,-1.3169426110237734
-0.18853175610705833,-0.06567768848474995,-1.3169426110237734
-0.18847560610705835,-0.06567768848474995,-1.3169426110237734
-0.18841945610705835,-0.06197946363216615,-1.3169426110237734
-0.18836330610705834,-0.06197946363216615,-1.3169426110237734
-0.18830715610705834,-0.06197946363216615,-1.3169426110237734
-0.18825100610705833,-0.06197946363216615,-1.3169426110237734
-0.18819485610705833,-0.05828123877958235,-1.3169426110237734
-0.18813870610705835,-0.05828123877958235,-1.3169426110237734
-0.18808255610705835,-0.05828123877958235,-1.3169426110237734
-0.18802640610705834,-0.05828123877958235,-1.3169426110237734
-0.18797025610705834,-0.05828123877958235,-1.3169426110237734
-0.18791410610705833,-0.054583013926998554,-1.3169426110237734
-0.18785795610705833,-0.054583013926998554,-1.3169426110237734
-0.18780180610705835,-0.05828123877958235,-1.3169426110237734
-0.18774565610705835,-0.054583013926998554,-1.3169426110237734
-0.18768950610705834,-0.054583013926998554,-1.3169426110237734
-0.18763335610705834,-0.054583013926998554,-1.3169426110237734
-0.18757720610705833,-0.05088478907441475,-1.3169426110237734
-0.18752105610705833,-0.05088478907441475,-1.3169426110237734
-0.18746490610705835,-0.05088478907441475,-1.3169426110237734
-0.18740875610705834,-0.04718656422183096,-1.3169426110237734
-0.18735260610705834,-0.04718656422183096,-1.3169426110237734
-0.18729645610705833,-0.04718656422183096,-1.3169426110237734
-0.18724030610705833,-0.04718656422183096,-1.3169426110237734
-0.18718415610705835,-0.04718656422183096,-1.3169426110237734
-0.18712800610705835,-0.04718656422183096,-1.3169426110237734
-0.18707185610705834,-0.04718656422183096,-1.3169426110237734
-0.18701570610705834,-0.043488339369247155,-1.3169426110237734
-0.18695955610705833,-0.04718656422183096,-1.3169426110237734
-0.18690340610705833,-0.043488339369247155,-1.3169426110237734
-0.18684725610705835,-0.04718656422183096,-1.3169426110237734
-0.18679110610705835,-0.04718656422183096,-1.3169426110237734
-0.18673495610705834,-0.043488339369247155,-1.3169426110237734
-0.18667880610705834,-0.04718656422183096,-1.3169426110237734
-0.18662265610705833,-0.043488339369247155,-1.320649962004811
-0.18656650610705833,-0.043488339369247155,-1.3169426110237734
-0.18651035610705835,-0.043488339369247155,-1.3169426110237734
-0.18645420610705835,-0.043488339369247155,-1.3169426110237734
-0.18639805610705834,-0.043488339369247155,-1.3169426110237734
-0.18634190610705834,-0.03979011451666335,-1.3169426110237734
-0.18628575610705833,-0.03979011451666335,-1.3169426110237734
-0.18622960610705833,-0.043488339369245475,-1.3169426110237734
-0.18617345610705835,-0.03979011451666335,-1.3169426110237734
-0.18611730610705834,-0.03979011451666335,-1.3169426110237734
-0.18606115610705834,-0.03979011451666335,-1.3169426110237734
-0.18600500610705833,-0.03979011451666335,-1.3169426110237734
-0.18594885610705833,-0.03979011451666335,-1.3169426110237734
-0.18589270610705835,-0.036091889664081236,-1.3206499620048093
-0.18583655610705835,-0.03609188966407956,-1.3169426110237734
-0.18578040610705834,-0.03609188966407956,-1.3169426110237734
-0.18572425610705834,-0.03609188966407956,-1.3169426110237734
-0.18566810610705833,-0.032393664811495755,-1.3169426110237734
-0.18561195610705833,-0.032393664811495755,-1.3169426110237734
-0.18555580610705835,-0.03609188966407956,-1.3169426110237734
-0.18549965610705835,-0.03609188966407956,-1.320649962004811
-0.18544350610705834,-0.03609188966407956,-1.3169426110237734
-0.18538735610705834,-0.03609188966407956,-1.320649962004811
-0.18533120610705833,-0.032393664811495755,-1.320649962004811
-0.18527505610705833,-0.032393664811495755,-1.320649962004811
-0.18521890610705835,-0.03609188966407956,-1.320649962004811
-0.18516275610705835,-0.03609188966407956,-1.3169426110237734
-0.18510660610705834,-0.032393664811495755,-1.320649962004811
-0.18505045610705834,-0.032393664811495755,-1.3169426110237734
-0.18499430610705833,-0.032393664811495755,-1.3169426110237734
-0.18493815610705833,-0.032393664811495755,-1.320649962004811
-0.18488200610705835,-0.032393664811495755,-1.320649962004811
-0.18482585610705835,-0.03609188966407956,-1.3169426110237734
-0.18476970610705834,-0.03609188966407956,-1.3169426110237734
-0.18471355610705834,-0.032393664811495755,-1.3169426110237734
-0.18465740610705833,-0.032393664811495755,-1.320649962004811
-0.18460125610705833,-0.032393664811495755,-1.3206499620048093
-0.18454510610705835,-0.032393664811495755,-1.3169426110237734
-0.18448895610705834,-0.032393664811495755,-1.320649962004811
-0.18443280610705834,-0.032393664811495755,-1.320649962004811
-0.18437665610705833,-0.032393664811495755,-1.3169426110237734
-0.18432050610705833,-0.032393664811495755,-1.3169426110237734
-0.18426435610705835,-0.032393664811495755,-1.3169426110237734
-0.18420820610705835,-0.03609188966407956,-1.320649962004811
-0.18415205610705834,-0.03609188966407956,-1.3169426110237734
-0.18409590610705834,-0.032393664811495755,-1.3169426110237734
-0.18403975610705833,-0.03609188966407956,-1.3169426110237734
-0.18398360610705833,-0.032393664811495755,-1.3169426110237734
-0.18392745610705835,-0.032393664811495755,-1.3169426110237734
-0.18387130610705835,-0.032393664811495755,-1.3169426110237734
-0.18381515610705834,-0.03609188966407956,-1.3169426110237734
-0.18375900610705834,-0.03609188966407956,-1.3169426110237734
-0.18370285610705833,-0.03609188966407956,-1.3169426110237734
-0.18364670610705833,-0.03609188966407956,-1.3169426110237734
-0.18359055610705835,-0.03609188966407956,-1.3169426110237734
-0.18353440610705835,-0.032393664811495755,-1.3169426110237734
-0.18347825610705834,-0.03609188966407956,-1.3169426110237734
-0.18342210610705834,-0.03609188966407956,-1.3169426110237734
-0.18336595610705833,-0.03609188966407956,-1.3169426110237734
-0.18330980610705833,-0.036091889664081236,-1.3206499620048093
-0.18325365610705835,-0.03979011451666335,-1.3169426110237734
-0.18319750610705834,-0.03979011451666335,-1.3169426110237734
-0.18314135610705834,-0.03979011451666335,-1.320649962004811
-0.18308520610705833,-0.03979011451666335,-1.3169426110237734
-0.18302905610705833,-0.03979011451666335,-1.3169426110237734
-0.18297290610705835,-0.03979011451666335,-1.3206499620048093
-0.18291675610705835,-0.03979011451666335,-1.3169426110237734
-0.18286060610705834,-0.043488339369247155,-1.3169426110237734
-0.18280445610705834,-0.03979011451666335,-1.320649962004811
-0.18274830610705833,-0.03979011451666335,-1.3169426110237734
-0.18269215610705833,-0.03979011451666335,-1.3169426110237734
-0.18263600610705835,-0.03979011451666335,-1.3169426110237734
-0.18257985610705835,-0.03979011451666335,-1.320649962004811
-0.18252370610705834,-0.03979011451666335,-1.320649962004811
-0.18246755610705834,-0.03979011451666335,-1.3169426110237734
-0.18241140610705833,-0.03979011451666335,-1.320649962004811
-0.18235525610705833,-0.03979011451666335,-1.320649962004811
-0.18229910610705835,-0.03979011451666335,-1.3169426110237734
-0.18224295610705835,-0.03979011451666335,-1.320649962004811
-0.18218680610705834,-0.03979011451666335,-1.3169426110237734
-0.18213065610705834,-0.03979011451666335,-1.320649962004811
-0.18207450610705833,-0.043488339369247155,-1.320649962004811
-0.18201835610705833,-0.043488339369247155,-1.3169426110237752
-0.18196220610705835,-0.043488339369247155,-1.320649962004811
-0.18190605610705834,-0.043488339369247155,-1.3169426110237734
-0.18184990610705834,-0.043488339369247155,-1.3169426110237734
-0.18179375610705834,-0.043488339369247155,-1.3169426110237734
-0.18173760610705833,-0.043488339369247155,-1.3169426110237734
-0.18168145610705835,-0.043488339369247155,-1.3169426110237734
-0.18162530610705835,-0.043488339369247155,-1.3169426110237734
-0.18156915610705834,-0.043488339369247155,-1.3169426110237734
-0.18151300610705834,-0.043488339369247155,-1.3169426110237734
-0.18145685610705833,-0.043488339369247155,-1.3169426110237734
-0.18140070610705833,-0.043488339369247155,-1.3169426110237734
-0.18134455610705835,-0.043488339369247155,-1.3169426110237734
-0.18128840610705835,-0.043488339369247155,-1.3169426110237734
-0.18123225610705834,-0.043488339369247155,-1.320649962004811
-0.18117610610705834,-0.043488339369247155,-1.320649962004811
-0.18111995610705833,-0.04718656422183096,-1.320649962004811
-0.18106380610705833,-0.04718656422183096,-1.320649962004811
-0.18100765610705835,-0.04718656422183096,-1.3169426110237734
-0.18095150610705835,-0.04718656422183096,-1.320649962004811
-0.18089535610705834,-0.04718656422183096,-1.3169426110237734
-0.18083920610705834,-0.04718656422183096,-1.320649962004811
-0.18078305610705833,-0.04718656422183096,-1.3169426110237734
-0.18072690610705833,-0.04718656422183096,-1.3169426110237734
-0.18067075610705835,-0.04718656422183096,-1.3169426110237734
-0.18061460610705835,-0.05088478907441475,-1.3169426110237734
-0.18055845610705834,-0.05088478907441475,-1.320649962004811
-0.18050230610705834,-0.05088478907441475,-1.320649962004811
-0.18044615610705833,-0.05088478907441475,-1.320649962004811
-0.18039000610705833,-0.05088478907441475,-1.3169426110237734
-0.18033385610705835,-0.05088478907441475,-1.3169426110237734
-0.18027770610705834,-0.05088478907441475,-1.320649962004811
-0.18022155610705834,-0.05088478907441475,-1.320649962004811
-0.18016540610705833,-0.05088478907441475,-1.320649962004811
