10Hz/acq0075.csv

#Digilent WaveForms Oscilloscope Acquisition
#Device Name: Discovery2
#Serial Number: SN:210321AA28BE
#Date Time: 2023-05-24 14:52:46.536
#Sample rate: 17809.4Hz
#Samples: 8192
#Trigger: Source: Channel 1 Type: Edge Condition: Rising Level: 800 mV Hyst.: Auto HoldOff: 100 ns
#Channel 1: Range: 1 V/div Offset: 0 V Attenuation: 1 X Sample Mode: Average
#Channel 2: Range: 1 V/div Offset: 0 V Attenuation: 1 X Sample Mode: Average

Time (s),Channel 1 (V),Channel 2 (V)
-0.19772166165901423,-0.06567768848474995,-1.3169426110237734
-0.19766551165901422,-0.07677236304250135,-1.3169426110237734
-0.19760936165901422,-0.08416881274766895,-1.3169426110237734
-0.1975532116590142,-0.09156526245283655,-1.3169426110237734
-0.19749706165901423,-0.09896171215800414,-1.3132352600427357
-0.19744091165901423,-0.10265993701058794,-1.3169426110237734
-0.19738476165901422,-0.11005638671575554,-1.3169426110237734
-0.19732861165901422,-0.11745283642092315,-1.3169426110237734
-0.19727246165901421,-0.12115106127350694,-1.3169426110237734
-0.1972163116590142,-0.12484928612609242,-1.3132352600427375
-0.19716016165901423,-0.12854751097867453,-1.3169426110237734
-0.19710401165901423,-0.13594396068384215,-1.3169426110237734
-0.19704786165901422,-0.13964218553642593,-1.3169426110237734
-0.19699171165901422,-0.14334041038900974,-1.3169426110237734
-0.1969355616590142,-0.14334041038900974,-1.3169426110237734
-0.19687941165901424,-0.14703863524159186,-1.3169426110237734
-0.19682326165901423,-0.15073686009417733,-1.3169426110237734
-0.19676711165901423,-0.15073686009417733,-1.3169426110237734
-0.19671096165901422,-0.15073686009417733,-1.3169426110237734
-0.19665481165901422,-0.15443508494676114,-1.3169426110237734
-0.1965986616590142,-0.15813330979934495,-1.3169426110237734
-0.19654251165901424,-0.15813330979934495,-1.3169426110237734
-0.19648636165901423,-0.15813330979934495,-1.3169426110237734
-0.19643021165901423,-0.15813330979934495,-1.3132352600427357
-0.19637406165901422,-0.16183153465192873,-1.3169426110237734
-0.19631791165901422,-0.16183153465192873,-1.3169426110237734
-0.1962617616590142,-0.16183153465192873,-1.3169426110237734
-0.19620561165901423,-0.16183153465192873,-1.3169426110237734
-0.19614946165901423,-0.16183153465192873,-1.3169426110237734
-0.19609331165901422,-0.16183153465192873,-1.3169426110237734
-0.19603716165901422,-0.16183153465192873,-1.3169426110237734
-0.19598101165901421,-0.16183153465192873,-1.3169426110237734
-0.1959248616590142,-0.16183153465192873,-1.3169426110237734
-0.19586871165901423,-0.16183153465192873,-1.3169426110237734
-0.19581256165901423,-0.16183153465192873,-1.3169426110237734
-0.19575641165901422,-0.16183153465192873,-1.3169426110237734
-0.19570026165901422,-0.16183153465192873,-1.3169426110237734
-0.1956441116590142,-0.16183153465192873,-1.3169426110237734
-0.19558796165901424,-0.16183153465192873,-1.3169426110237734
-0.19553181165901423,-0.16183153465192873,-1.3169426110237734
-0.19547566165901423,-0.15813330979934495,-1.3169426110237734
-0.19541951165901422,-0.15813330979934495,-1.3169426110237734
-0.19536336165901422,-0.15813330979934495,-1.3169426110237734
-0.1953072116590142,-0.15813330979934495,-1.3169426110237734
-0.19525106165901424,-0.15443508494676114,-1.3169426110237734
-0.19519491165901423,-0.15443508494676114,-1.3169426110237734
-0.19513876165901423,-0.15443508494676114,-1.3169426110237734
-0.19508261165901422,-0.15443508494676114,-1.3169426110237734
-0.19502646165901422,-0.15073686009417733,-1.3169426110237734
-0.1949703116590142,-0.15073686009417733,-1.3132352600427357
-0.19491416165901423,-0.14703863524159355,-1.3169426110237734
-0.19485801165901423,-0.14703863524159355,-1.3169426110237734
-0.19480186165901422,-0.14703863524159355,-1.3169426110237734
-0.19474571165901422,-0.14703863524159355,-1.3169426110237734
-0.19468956165901422,-0.14334041038900974,-1.3169426110237734
-0.1946334116590142,-0.13964218553642593,-1.3169426110237734
-0.19457726165901423,-0.13964218553642593,-1.3169426110237734
-0.19452111165901423,-0.13964218553642593,-1.3169426110237734
-0.19446496165901422,-0.13964218553642593,-1.3169426110237734
-0.19440881165901422,-0.13594396068384215,-1.3132352600427357
-0.19435266165901421,-0.13594396068384215,-1.3169426110237734
-0.19429651165901424,-0.13594396068384215,-1.3169426110237734
-0.19424036165901423,-0.13224573583125834,-1.3169426110237734
-0.19418421165901423,-0.13224573583125834,-1.3169426110237734
-0.19412806165901422,-0.13224573583125834,-1.3169426110237734
-0.19407191165901422,-0.12854751097867453,-1.3169426110237734
-0.1940157616590142,-0.12854751097867453,-1.3169426110237734
-0.19395961165901424,-0.12854751097867453,-1.3169426110237734
-0.19390346165901423,-0.12484928612609074,-1.3169426110237734
-0.19384731165901423,-0.12484928612609074,-1.3169426110237734
-0.19379116165901422,-0.12484928612609074,-1.3169426110237734
-0.19373501165901422,-0.12484928612609074,-1.3169426110237734
-0.1936788616590142,-0.12115106127350694,-1.3169426110237734
-0.19362271165901423,-0.12115106127350694,-1.3169426110237734
-0.19356656165901423,-0.12115106127350694,-1.3169426110237734
-0.19351041165901423,-0.11745283642092315,-1.3169426110237734
-0.19345426165901422,-0.12115106127350694,-1.3169426110237734
-0.19339811165901422,-0.11745283642092315,-1.3169426110237734
-0.1933419616590142,-0.11745283642092315,-1.3169426110237734
-0.19328581165901423,-0.11745283642092315,-1.3169426110237734
-0.19322966165901423,-0.11375461156833934,-1.3169426110237734
-0.19317351165901422,-0.11375461156833934,-1.3169426110237734
-0.19311736165901422,-0.11375461156833934,-1.3169426110237734
-0.19306121165901421,-0.11375461156833934,-1.3169426110237734
-0.1930050616590142,-0.11375461156833934,-1.3169426110237734
-0.19294891165901423,-0.11375461156833934,-1.3169426110237734
-0.19289276165901423,-0.11375461156833934,-1.3169426110237734
-0.19283661165901422,-0.11005638671575554,-1.3169426110237734
-0.19278046165901422,-0.11005638671575554,-1.3169426110237734
-0.1927243116590142,-0.11005638671575554,-1.3169426110237734
-0.19266816165901424,-0.11005638671575554,-1.3169426110237734
-0.19261201165901423,-0.11005638671575554,-1.3169426110237734
-0.19255586165901423,-0.10635816186317175,-1.3169426110237734
-0.19249971165901422,-0.10635816186317175,-1.3169426110237734
-0.19244356165901422,-0.10635816186317175,-1.3169426110237734
-0.1923874116590142,-0.10635816186317175,-1.3169426110237734
-0.19233126165901424,-0.10635816186317175,-1.3169426110237734
-0.19227511165901423,-0.10635816186317175,-1.3169426110237734
-0.19221896165901423,-0.10265993701058794,-1.3169426110237734
-0.19216281165901422,-0.10635816186317175,-1.3169426110237734
-0.19210666165901422,-0.10265993701058794,-1.3169426110237734
-0.1920505116590142,-0.10265993701058794,-1.3169426110237734
-0.19199436165901423,-0.09896171215800414,-1.3169426110237734
-0.19193821165901423,-0.09896171215800414,-1.3169426110237734
-0.19188206165901422,-0.09526348730542035,-1.3169426110237734
-0.19182591165901422,-0.09526348730542035,-1.3169426110237734
-0.19176976165901422,-0.09156526245283655,-1.3169426110237734
-0.1917136116590142,-0.09526348730541867,-1.3169426110237734
-0.19165746165901423,-0.09156526245283655,-1.3169426110237734
-0.19160131165901423,-0.09156526245283655,-1.3169426110237734
-0.19154516165901422,-0.09156526245283655,-1.3169426110237734
-0.19148901165901422,-0.09156526245283655,-1.3169426110237734
-0.19143286165901421,-0.08786703760025275,-1.3169426110237734
-0.19137671165901424,-0.09156526245283488,-1.3169426110237734
-0.19132056165901423,-0.09156526245283655,-1.3169426110237734
-0.19126441165901423,-0.09156526245283655,-1.3169426110237734
-0.19120826165901422,-0.09156526245283655,-1.3169426110237734
-0.19115211165901422,-0.08786703760025275,-1.3169426110237734
-0.1910959616590142,-0.08786703760025275,-1.3169426110237734
-0.19103981165901424,-0.08786703760025275,-1.3169426110237734
-0.19098366165901423,-0.08786703760025275,-1.3169426110237734
-0.19092751165901423,-0.08786703760025275,-1.3169426110237734
-0.19087136165901422,-0.08786703760025275,-1.3169426110237734
-0.19081521165901422,-0.08786703760025275,-1.3169426110237734
-0.1907590616590142,-0.08416881274766895,-1.3169426110237734
-0.19070291165901423,-0.08416881274766895,-1.3169426110237734
-0.19064676165901423,-0.08416881274766895,-1.3169426110237734
-0.19059061165901423,-0.08416881274766895,-1.3169426110237734
-0.19053446165901422,-0.08416881274766895,-1.3169426110237734
-0.19047831165901422,-0.08416881274766895,-1.3169426110237734
-0.1904221616590142,-0.08416881274766895,-1.3169426110237734
-0.19036601165901423,-0.08416881274766895,-1.3169426110237734
-0.19030986165901423,-0.08416881274766895,-1.3169426110237734
-0.19025371165901422,-0.08416881274766895,-1.3169426110237734
-0.19019756165901422,-0.08416881274766895,-1.3169426110237734
-0.19014141165901421,-0.08786703760025275,-1.3169426110237734
-0.19008526165901424,-0.08416881274767063,-1.3169426110237734
-0.19002911165901423,-0.08416881274766895,-1.3169426110237734
-0.18997296165901423,-0.08416881274766895,-1.3169426110237734
-0.18991681165901422,-0.08416881274766895,-1.3169426110237734
-0.18986066165901422,-0.08416881274766895,-1.3169426110237734
-0.1898045116590142,-0.08416881274766895,-1.3169426110237734
-0.18974836165901424,-0.08416881274766895,-1.3169426110237734
-0.18969221165901423,-0.08416881274766895,-1.3169426110237734
-0.18963606165901423,-0.08416881274766895,-1.3169426110237734
-0.18957991165901422,-0.08416881274766895,-1.3169426110237734
-0.18952376165901422,-0.08416881274766895,-1.3169426110237734
-0.1894676116590142,-0.08416881274766895,-1.3169426110237734
-0.18941146165901424,-0.08416881274766895,-1.3169426110237734
-0.18935531165901423,-0.08416881274766895,-1.3169426110237734
-0.18929916165901423,-0.08416881274766895,-1.3169426110237734
-0.18924301165901422,-0.08416881274766895,-1.3169426110237734
-0.18918686165901422,-0.08416881274766895,-1.3169426110237734
-0.1891307116590142,-0.08416881274766895,-1.3169426110237734
-0.18907456165901423,-0.08786703760025275,-1.3169426110237734
-0.18901841165901423,-0.08786703760025275,-1.3169426110237734
-0.18896226165901422,-0.08416881274766895,-1.3169426110237734
-0.18890611165901422,-0.08416881274766895,-1.3169426110237734
-0.18884996165901421,-0.08416881274766895,-1.3169426110237734
-0.1887938116590142,-0.08416881274766895,-1.3169426110237734
-0.18873766165901423,-0.08416881274766895,-1.3169426110237734
-0.18868151165901423,-0.08416881274766895,-1.3169426110237734
-0.18862536165901422,-0.08416881274766895,-1.3169426110237734
-0.18856921165901422,-0.08416881274766895,-1.3169426110237734
-0.1885130616590142,-0.08416881274766895,-1.3169426110237734
-0.18845691165901424,-0.08047058789508683,-1.3169426110237734
-0.18840076165901423,-0.08416881274766895,-1.3169426110237734
-0.18834461165901423,-0.08416881274766895,-1.3169426110237734
-0.18828846165901422,-0.08047058789508515,-1.3169426110237734
-0.18823231165901422,-0.08416881274766895,-1.3169426110237734
-0.1881761616590142,-0.08416881274766895,-1.3169426110237734
-0.18812001165901424,-0.08047058789508515,-1.3169426110237734
-0.18806386165901423,-0.08416881274766895,-1.3169426110237734
-0.18800771165901423,-0.08047058789508515,-1.3169426110237734
-0.18795156165901422,-0.08047058789508515,-1.3169426110237734
-0.18789541165901422,-0.08047058789508515,-1.3169426110237734
-0.1878392616590142,-0.08047058789508515,-1.3169426110237734
-0.18778311165901423,-0.08047058789508515,-1.3169426110237734
-0.18772696165901423,-0.08047058789508515,-1.3169426110237734
-0.18767081165901423,-0.08047058789508515,-1.3169426110237734
-0.18761466165901422,-0.08047058789508515,-1.3169426110237734
-0.18755851165901422,-0.08416881274766895,-1.3169426110237734
-0.1875023616590142,-0.08047058789508515,-1.3169426110237734
-0.18744621165901423,-0.08047058789508515,-1.3169426110237734
-0.18739006165901423,-0.08416881274766895,-1.3169426110237734
-0.18733391165901422,-0.08047058789508515,-1.3169426110237734
-0.18727776165901422,-0.08047058789508515,-1.3169426110237734
-0.18722161165901421,-0.08047058789508515,-1.3169426110237734
-0.18716546165901424,-0.08047058789508515,-1.3169426110237734
-0.18710931165901423,-0.08047058789508515,-1.3169426110237734
-0.18705316165901423,-0.08047058789508515,-1.3169426110237734
-0.18699701165901422,-0.08047058789508515,-1.3169426110237734
-0.18694086165901422,-0.08047058789508515,-1.3169426110237734
-0.1868847116590142,-0.08416881274766895,-1.3169426110237734
-0.18682856165901424,-0.08416881274766895,-1.3169426110237734
-0.18677241165901423,-0.08416881274766895,-1.320649962004811
-0.18671626165901423,-0.08047058789508515,-1.320649962004811
-0.18666011165901422,-0.08416881274766895,-1.3169426110237734
-0.18660396165901422,-0.08416881274766895,-1.3169426110237734
-0.1865478116590142,-0.08416881274766895,-1.3169426110237734
-0.18649166165901424,-0.08416881274766895,-1.3169426110237734
-0.18643551165901423,-0.08416881274766895,-1.3169426110237734
-0.18637936165901423,-0.08416881274766895,-1.3169426110237734
-0.18632321165901422,-0.08047058789508515,-1.3169426110237734
-0.18626706165901422,-0.08416881274766895,-1.3169426110237734
-0.1862109116590142,-0.08416881274766895,-1.3169426110237734
-0.18615476165901423,-0.08416881274766895,-1.3169426110237734
-0.18609861165901423,-0.08416881274766895,-1.3169426110237734
-0.18604246165901422,-0.08416881274766895,-1.3169426110237734
-0.18598631165901422,-0.08416881274766895,-1.3169426110237734
-0.18593016165901421,-0.08416881274766895,-1.3169426110237734
-0.18587401165901424,-0.08416881274766895,-1.3169426110237734
-0.18581786165901423,-0.08416881274766895,-1.3169426110237734
-0.18576171165901423,-0.08416881274766895,-1.3169426110237734
-0.18570556165901422,-0.08416881274766895,-1.3169426110237734
-0.18564941165901422,-0.08416881274766895,-1.3169426110237734
-0.1855932616590142,-0.08416881274766895,-1.3169426110237734
-0.18553711165901424,-0.08416881274766895,-1.3169426110237734
-0.18548096165901423,-0.08416881274766895,-1.3169426110237734
-0.18542481165901423,-0.08416881274766895,-1.320649962004811
-0.18536866165901422,-0.08416881274766895,-1.3169426110237734
-0.18531251165901422,-0.08416881274766895,-1.3169426110237734
-0.1852563616590142,-0.08416881274766895,-1.3169426110237734
-0.18520021165901424,-0.08416881274766895,-1.3169426110237734
-0.18514406165901423,-0.08416881274766895,-1.3169426110237734
-0.18508791165901423,-0.08416881274766895,-1.3169426110237734
-0.18503176165901422,-0.08047058789508515,-1.3169426110237734
-0.18497561165901422,-0.08416881274766895,-1.3169426110237734
-0.1849194616590142,-0.08047058789508515,-1.3169426110237734
-0.18486331165901423,-0.08047058789508515,-1.3169426110237734
-0.18480716165901423,-0.08047058789508515,-1.3169426110237734
-0.18475101165901422,-0.08416881274766895,-1.3169426110237734
-0.18469486165901422,-0.08047058789508515,-1.3169426110237734
-0.18463871165901422,-0.07677236304250135,-1.3169426110237734
-0.1845825616590142,-0.07677236304250135,-1.3169426110237734
-0.18452641165901423,-0.07677236304250135,-1.3169426110237734
-0.18447026165901423,-0.07677236304250135,-1.3169426110237734
-0.18441411165901422,-0.07677236304250135,-1.3169426110237734
-0.18435796165901422,-0.07677236304250135,-1.3169426110237734
-0.18430181165901421,-0.07677236304250135,-1.3169426110237734
-0.18424566165901424,-0.07677236304250135,-1.3169426110237734
-0.18418951165901423,-0.07677236304250135,-1.3169426110237734
-0.18413336165901423,-0.07307413818991755,-1.3169426110237734
-0.18407721165901422,-0.07307413818991755,-1.3169426110237734
-0.18402106165901422,-0.07307413818991755,-1.3169426110237734
-0.1839649116590142,-0.07307413818991755,-1.3169426110237734
-0.18390876165901424,-0.07307413818991755,-1.3169426110237734
-0.18385261165901423,-0.07307413818991755,-1.3169426110237734
-0.18379646165901423,-0.07307413818991755,-1.3169426110237734
-0.18374031165901422,-0.07307413818991755,-1.320649962004811
-0.18368416165901422,-0.06937591333733376,-1.3169426110237734
-0.1836280116590142,-0.06937591333733376,-1.3169426110237734
-0.18357186165901423,-0.06937591333733376,-1.3169426110237734
-0.18351571165901423,-0.06937591333733376,-1.3169426110237734
-0.18345956165901423,-0.07307413818991755,-1.3169426110237734
-0.18340341165901422,-0.06937591333733376,-1.320649962004811
-0.18334726165901422,-0.06937591333733376,-1.3169426110237734
-0.1832911116590142,-0.06937591333733376,-1.3206499620048093
-0.18323496165901423,-0.06937591333733376,-1.3169426110237734
-0.18317881165901423,-0.06937591333733376,-1.3169426110237734
-0.18312266165901422,-0.06937591333733376,-1.3169426110237734
-0.18306651165901422,-0.06937591333733376,-1.320649962004811
-0.18301036165901421,-0.06937591333733376,-1.3169426110237734
-0.18295421165901424,-0.06937591333733376,-1.3206499620048093
-0.18289806165901423,-0.06937591333733376,-1.320649962004811
-0.18284191165901423,-0.06937591333733376,-1.320649962004811
-0.18278576165901422,-0.06937591333733376,-1.3169426110237734
-0.18272961165901422,-0.06567768848474995,-1.3169426110237734
-0.1826734616590142,-0.06567768848474995,-1.3169426110237734
-0.18261731165901424,-0.06567768848474995,-1.3169426110237734
-0.18256116165901423,-0.06567768848474995,-1.3169426110237734
-0.18250501165901423,-0.06567768848474995,-1.3169426110237734
-0.18244886165901422,-0.06567768848474995,-1.3169426110237734
-0.18239271165901422,-0.06567768848474995,-1.320649962004811
-0.1823365616590142,-0.06197946363216615,-1.3169426110237734
-0.18228041165901424,-0.06197946363216615,-1.320649962004811
-0.18222426165901423,-0.06197946363216615,-1.3169426110237734
-0.18216811165901423,-0.05828123877958235,-1.3169426110237734
-0.18211196165901422,-0.05828123877958235,-1.3169426110237734
-0.18205581165901422,-0.05828123877958235,-1.3169426110237734
-0.1819996616590142,-0.05828123877958067,-1.3169426110237734
-0.18194351165901423,-0.054583013926998554,-1.3169426110237734
-0.18188736165901423,-0.05828123877958235,-1.3169426110237734
-0.18183121165901422,-0.054583013926998554,-1.3169426110237734
-0.18177506165901422,-0.054583013926998554,-1.3169426110237734
-0.18171891165901422,-0.054583013926998554,-1.3169426110237734
-0.18166276165901424,-0.05088478907441643,-1.3206499620048093
-0.18160661165901423,-0.05088478907441475,-1.320649962004811
-0.18155046165901423,-0.054583013926998554,-1.320649962004811
-0.18149431165901422,-0.05088478907441475,-1.3169426110237734
-0.18143816165901422,-0.05088478907441475,-1.3169426110237734
-0.18138201165901421,-0.05088478907441475,-1.3169426110237734
-0.18132586165901424,-0.05088478907441475,-1.3169426110237734
-0.18126971165901423,-0.04718656422183096,-1.3169426110237734
-0.18121356165901423,-0.04718656422183096,-1.3169426110237734
-0.18115741165901422,-0.05088478907441475,-1.3169426110237734
-0.18110126165901422,-0.04718656422183096,-1.3169426110237734
-0.1810451116590142,-0.04718656422183096,-1.3169426110237734
-0.18098896165901424,-0.04718656422183096,-1.3169426110237734
-0.18093281165901423,-0.043488339369247155,-1.3169426110237734
-0.18087666165901423,-0.043488339369247155,-1.3169426110237734
-0.18082051165901422,-0.03979011451666335,-1.3169426110237734
-0.18076436165901422,-0.03979011451666335,-1.3169426110237734
-0.1807082116590142,-0.03609188966407956,-1.3169426110237734
-0.18065206165901423,-0.03609188966407956,-1.3169426110237734
-0.18059591165901423,-0.03609188966407956,-1.3169426110237734
-0.18053976165901423,-0.03979011451666335,-1.3169426110237734
-0.18048361165901422,-0.03609188966407956,-1.3169426110237734
-0.18042746165901422,-0.03609188966407956,-1.3169426110237734
-0.1803713116590142,-0.032393664811497434,-1.3169426110237734
-0.18031516165901423,-0.03609188966407956,-1.3169426110237734
-0.18025901165901423,-0.032393664811495755,-1.3169426110237734
-0.18020286165901422,-0.032393664811495755,-1.320649962004811
-0.18014671165901422,-0.032393664811495755,-1.3169426110237734
-0.18009056165901421,-0.032393664811495755,-1.320649962004811
