10Hz/acq0047.csv

#Digilent WaveForms Oscilloscope Acquisition
#Device Name: Discovery2
#Serial Number: SN:210321AA28BE
#Date Time: 2023-05-24 14:52:32.539
#Sample rate: 17809.4Hz
#Samples: 8192
#Trigger: Source: Channel 1 Type: Edge Condition: Rising Level: 800 mV Hyst.: Auto HoldOff: 100 ns
#Channel 1: Range: 1 V/div Offset: 0 V Attenuation: 1 X Sample Mode: Average
#Channel 2: Range: 1 V/div Offset: 0 V Attenuation: 1 X Sample Mode: Average

Time (s),Channel 1 (V),Channel 2 (V)
-0.19772375183775903,-0.07677236304250135,-1.3169426110237734
-0.19766760183775905,-0.08416881274766559,-1.3169426110237734
-0.19761145183775902,-0.10265993701058794,-1.3169426110237734
-0.19755530183775905,-0.11005638671575219,-1.3169426110237734
-0.19749915183775907,-0.11375461156833766,-1.3169426110237734
-0.19744300183775904,-0.12115106127350694,-1.3169426110237734
-0.19738685183775906,-0.12854751097867118,-1.3169426110237734
-0.19733070183775903,-0.13594396068384215,-1.3169426110237734
-0.19727455183775905,-0.13964218553642424,-1.3169426110237734
-0.19721840183775902,-0.14703863524159524,-1.3169426110237734
-0.19716225183775904,-0.15073686009417733,-1.3169426110237734
-0.19710610183775906,-0.1581333097993416,-1.3169426110237734
-0.19704995183775903,-0.16183153465192873,-1.3169426110237734
-0.19699380183775905,-0.16552975950451085,-1.3169426110237734
-0.19693765183775902,-0.16922798435709635,-1.3132352600427357
-0.19688150183775904,-0.17292620920967844,-1.3132352600427357
-0.19682535183775907,-0.17662443406226225,-1.3169426110237716
-0.19676920183775903,-0.17662443406226394,-1.3169426110237734
-0.19671305183775906,-0.18032265891484606,-1.3169426110237734
-0.19665690183775902,-0.18032265891484775,-1.3169426110237734
-0.19660075183775905,-0.18402088376742984,-1.3132352600427375
-0.19654460183775907,-0.18402088376743153,-1.31694261102377
-0.19648845183775904,-0.18771910862001534,-1.3169426110237734
-0.19643230183775906,-0.18771910862001534,-1.3169426110237734
-0.19637615183775903,-0.18771910862001534,-1.3169426110237734
-0.19632000183775905,-0.19141733347259743,-1.3169426110237734
-0.19626385183775902,-0.19141733347259912,-1.3169426110237734
-0.19620770183775904,-0.19141733347259912,-1.3169426110237734
-0.19615155183775906,-0.19141733347259912,-1.3169426110237734
-0.19609540183775903,-0.19511555832518293,-1.3132352600427357
-0.19603925183775905,-0.19511555832518293,-1.3169426110237716
-0.19598310183775902,-0.19141733347259912,-1.3169426110237734
-0.19592695183775904,-0.19511555832518124,-1.3169426110237734
-0.19587080183775907,-0.19511555832518293,-1.3132352600427375
-0.19581465183775904,-0.19511555832518293,-1.3169426110237734
-0.19575850183775906,-0.19511555832518293,-1.3169426110237734
-0.19570235183775903,-0.19511555832518293,-1.3169426110237734
-0.19564620183775905,-0.19511555832518293,-1.3169426110237734
-0.19559005183775907,-0.19511555832518293,-1.3169426110237734
-0.19553390183775904,-0.19511555832518293,-1.3169426110237734
-0.19547775183775906,-0.19881378317776505,-1.3169426110237734
-0.19542160183775903,-0.19511555832518293,-1.3169426110237734
-0.19536545183775905,-0.19511555832518293,-1.3169426110237734
-0.19530930183775902,-0.19511555832518293,-1.3169426110237734
-0.19525315183775904,-0.19511555832518293,-1.3169426110237734
-0.19519700183775907,-0.19141733347260081,-1.3132352600427375
-0.19514085183775903,-0.19141733347259912,-1.3132352600427357
-0.19508470183775906,-0.19141733347259912,-1.3169426110237716
-0.19502855183775902,-0.19141733347259912,-1.3169426110237734
-0.19497240183775905,-0.18771910862001703,-1.3169426110237734
-0.19491625183775907,-0.18771910862001534,-1.3169426110237734
-0.19486010183775904,-0.18771910862001534,-1.3169426110237734
-0.19480395183775906,-0.18771910862001534,-1.3169426110237734
-0.19474780183775903,-0.18402088376743153,-1.3132352600427357
-0.19469165183775905,-0.18402088376743153,-1.3132352600427357
-0.19463550183775902,-0.18402088376742984,-1.3169426110237734
-0.19457935183775904,-0.18032265891484775,-1.3169426110237734
-0.19452320183775906,-0.18402088376742984,-1.3169426110237734
-0.19446705183775903,-0.18032265891484775,-1.3169426110237734
-0.19441090183775905,-0.18032265891484775,-1.3169426110237734
-0.19435475183775902,-0.18032265891484775,-1.3132352600427357
-0.19429860183775904,-0.17662443406226563,-1.3169426110237716
-0.19424245183775907,-0.17662443406226394,-1.3169426110237734
-0.19418630183775903,-0.17292620920968013,-1.3132352600427357
-0.19413015183775906,-0.16922798435709804,-1.3169426110237716
-0.19407400183775902,-0.16922798435709635,-1.3169426110237734
-0.19401785183775905,-0.16922798435709635,-1.3132352600427375
-0.19396170183775907,-0.16922798435709635,-1.31694261102377
-0.19390555183775904,-0.16552975950451254,-1.3169426110237734
-0.19384940183775906,-0.16552975950451254,-1.3169426110237734
-0.19379325183775903,-0.16552975950451254,-1.3169426110237734
-0.19373710183775905,-0.16552975950451254,-1.3169426110237734
-0.19368095183775902,-0.16552975950451254,-1.3169426110237734
-0.19362480183775904,-0.16552975950451254,-1.3169426110237734
-0.19356865183775906,-0.16183153465193043,-1.3169426110237734
-0.19351250183775903,-0.15813330979934495,-1.3169426110237734
-0.19345635183775906,-0.15813330979934495,-1.3169426110237734
-0.19340020183775902,-0.15813330979934495,-1.3169426110237734
-0.19334405183775905,-0.15443508494676284,-1.3169426110237734
-0.19328790183775907,-0.15443508494676114,-1.3169426110237734
-0.19323175183775904,-0.15073686009417733,-1.3169426110237734
-0.19317560183775906,-0.15073686009417733,-1.3169426110237734
-0.19311945183775903,-0.14703863524159355,-1.3169426110237734
-0.19306330183775905,-0.14703863524159355,-1.3169426110237734
-0.19300715183775902,-0.14703863524159186,-1.3169426110237734
-0.19295100183775904,-0.14334041038900974,-1.3169426110237734
-0.19289485183775906,-0.14334041038900974,-1.3169426110237734
-0.19283870183775903,-0.13964218553642593,-1.3169426110237734
-0.19278255183775905,-0.13964218553642593,-1.3169426110237734
-0.19272640183775902,-0.13964218553642593,-1.3169426110237734
-0.19267025183775904,-0.13964218553642593,-1.3169426110237734
-0.19261410183775907,-0.13594396068384385,-1.3169426110237734
-0.19255795183775903,-0.13594396068384215,-1.3132352600427357
-0.19250180183775906,-0.13224573583126004,-1.3169426110237716
-0.19244565183775902,-0.13224573583125834,-1.3169426110237734
-0.19238950183775905,-0.13224573583125834,-1.3169426110237734
-0.19233335183775907,-0.1285475109786779,-1.3169426110237734
-0.19227720183775904,-0.12854751097867453,-1.3169426110237734
-0.19222105183775906,-0.12484928612609242,-1.3169426110237734
-0.19216490183775903,-0.12484928612609074,-1.3169426110237734
-0.19210875183775905,-0.12854751097867284,-1.3169426110237734
-0.19205260183775902,-0.12484928612609074,-1.3169426110237734
-0.19199645183775904,-0.12484928612609074,-1.3169426110237734
-0.19194030183775906,-0.12115106127350862,-1.3169426110237734
-0.19188415183775903,-0.12115106127350694,-1.3169426110237734
-0.19182800183775905,-0.12115106127350694,-1.3169426110237734
-0.19177185183775902,-0.11745283642092315,-1.3169426110237734
-0.19171570183775904,-0.11745283642092315,-1.3169426110237734
-0.19165955183775907,-0.11745283642092315,-1.3169426110237734
-0.19160340183775904,-0.11745283642092315,-1.3169426110237734
-0.19154725183775906,-0.11375461156834102,-1.3169426110237734
-0.19149110183775903,-0.11375461156833934,-1.3169426110237734
-0.19143495183775905,-0.11375461156833934,-1.3169426110237734
-0.19137880183775907,-0.11375461156833934,-1.3169426110237734
-0.19132265183775904,-0.11005638671575554,-1.3169426110237734
-0.19126650183775906,-0.11005638671575554,-1.3169426110237734
-0.19121035183775903,-0.11005638671575554,-1.3169426110237734
-0.19115420183775905,-0.10635816186317343,-1.3169426110237734
-0.19109805183775902,-0.10635816186317175,-1.3169426110237734
-0.19104190183775904,-0.10265993701058794,-1.3169426110237734
-0.19098575183775907,-0.10265993701058794,-1.3169426110237734
-0.19092960183775903,-0.10265993701058794,-1.3169426110237734
-0.19087345183775906,-0.10265993701058794,-1.3169426110237734
-0.19081730183775902,-0.09896171215800414,-1.3169426110237734
-0.19076115183775905,-0.09896171215800414,-1.3169426110237734
-0.19070500183775907,-0.09896171215800414,-1.3169426110237734
-0.19064885183775904,-0.09526348730542035,-1.3169426110237734
-0.19059270183775906,-0.09526348730542035,-1.3169426110237734
-0.19053655183775903,-0.09526348730542035,-1.3169426110237734
-0.19048040183775905,-0.09156526245283823,-1.3169426110237734
-0.19042425183775902,-0.09156526245283488,-1.3169426110237734
-0.19036810183775904,-0.08786703760025275,-1.3169426110237734
-0.19031195183775906,-0.08786703760025275,-1.3169426110237734
-0.19025580183775903,-0.08786703760025275,-1.3169426110237734
-0.19019965183775905,-0.08416881274767063,-1.3169426110237734
-0.19014350183775902,-0.08416881274766895,-1.3169426110237734
-0.19008735183775904,-0.08416881274766895,-1.3169426110237734
-0.19003120183775907,-0.08416881274766895,-1.3169426110237734
-0.18997505183775903,-0.08047058789508515,-1.3169426110237734
-0.18991890183775906,-0.07677236304250303,-1.3169426110237734
-0.18986275183775903,-0.07677236304250135,-1.3169426110237734
-0.18980660183775905,-0.07677236304250135,-1.3169426110237734
-0.18975045183775907,-0.07677236304250135,-1.3169426110237734
-0.18969430183775904,-0.07677236304250135,-1.3169426110237734
-0.18963815183775906,-0.07307413818991923,-1.3169426110237734
-0.18958200183775903,-0.06937591333733376,-1.3169426110237734
-0.18952585183775905,-0.06937591333733376,-1.3169426110237734
-0.18946970183775902,-0.06937591333733376,-1.3169426110237734
-0.18941355183775904,-0.06937591333733376,-1.3169426110237734
-0.18935740183775907,-0.06937591333733376,-1.3169426110237734
-0.18930125183775903,-0.07307413818991755,-1.3169426110237734
-0.18924510183775906,-0.06937591333733543,-1.3169426110237734
-0.18918895183775902,-0.06567768848474995,-1.3169426110237734
-0.18913280183775905,-0.06567768848474995,-1.3169426110237734
-0.18907665183775907,-0.06567768848474995,-1.3169426110237734
-0.18902050183775904,-0.06567768848474995,-1.3169426110237734
-0.18896435183775906,-0.06567768848474995,-1.3169426110237734
-0.18890820183775903,-0.06567768848474995,-1.3169426110237734
-0.18885205183775905,-0.06197946363216783,-1.3169426110237734
-0.18879590183775902,-0.06197946363216615,-1.3169426110237734
-0.18873975183775904,-0.06197946363216615,-1.3169426110237734
-0.18868360183775906,-0.06197946363216615,-1.3169426110237734
-0.18862745183775903,-0.05828123877958235,-1.3132352600427357
-0.18857130183775905,-0.05828123877958235,-1.3169426110237716
-0.18851515183775902,-0.06197946363216615,-1.3169426110237734
-0.18845900183775904,-0.06197946363216615,-1.3169426110237734
-0.18840285183775907,-0.06197946363216615,-1.3169426110237734
-0.18834670183775903,-0.05828123877958235,-1.3169426110237734
-0.18829055183775906,-0.05828123877958235,-1.3169426110237734
-0.18823440183775902,-0.05828123877958235,-1.3169426110237734
-0.18817825183775905,-0.05458301392700023,-1.3169426110237734
-0.18812210183775907,-0.058281238779578984,-1.3169426110237734
-0.18806595183775904,-0.05828123877958235,-1.3169426110237734
-0.18800980183775906,-0.05458301392700023,-1.3169426110237734
-0.18795365183775903,-0.054583013926998554,-1.3169426110237734
-0.18789750183775905,-0.054583013926998554,-1.3169426110237734
-0.18784135183775902,-0.054583013926998554,-1.3169426110237734
-0.18778520183775904,-0.054583013926998554,-1.3169426110237734
-0.18772905183775906,-0.054583013926998554,-1.3169426110237734
-0.18767290183775903,-0.054583013926998554,-1.3169426110237734
-0.18761675183775905,-0.054583013926998554,-1.3169426110237734
-0.18756060183775902,-0.05088478907441475,-1.3169426110237734
-0.18750445183775905,-0.05088478907441475,-1.3169426110237734
-0.18744830183775907,-0.05088478907441475,-1.3169426110237734
-0.18739215183775904,-0.05088478907441475,-1.3169426110237734
-0.18733600183775906,-0.05088478907441475,-1.3169426110237734
-0.18727985183775903,-0.05088478907441475,-1.3169426110237734
-0.18722370183775905,-0.05088478907441475,-1.3169426110237734
-0.18716755183775907,-0.04718656422183432,-1.3169426110237734
-0.18711140183775904,-0.04718656422183096,-1.3169426110237734
-0.18705525183775906,-0.04718656422183096,-1.3169426110237734
-0.18699910183775903,-0.04718656422183096,-1.3169426110237734
-0.18694295183775905,-0.04718656422183096,-1.3169426110237734
-0.18688680183775902,-0.043488339369247155,-1.3169426110237734
-0.18683065183775904,-0.043488339369247155,-1.3169426110237734
-0.18677450183775907,-0.03979011451666503,-1.3169426110237734
-0.18671835183775903,-0.043488339369247155,-1.3169426110237734
-0.18666220183775906,-0.043488339369247155,-1.3169426110237734
-0.18660605183775902,-0.043488339369247155,-1.3169426110237734
-0.18654990183775905,-0.03979011451666503,-1.3169426110237734
-0.18649375183775907,-0.04348833936924379,-1.3169426110237734
-0.18643760183775904,-0.043488339369247155,-1.3169426110237734
-0.18638145183775906,-0.043488339369247155,-1.3169426110237734
-0.18632530183775903,-0.043488339369247155,-1.3169426110237734
-0.18626915183775905,-0.043488339369247155,-1.3169426110237734
-0.18621300183775902,-0.043488339369247155,-1.3169426110237734
-0.18615685183775904,-0.043488339369247155,-1.3169426110237734
-0.18610070183775906,-0.043488339369247155,-1.3169426110237734
-0.18604455183775903,-0.043488339369247155,-1.3169426110237734
-0.18598840183775905,-0.043488339369247155,-1.3169426110237734
-0.18593225183775902,-0.043488339369247155,-1.3169426110237734
-0.18587610183775904,-0.043488339369247155,-1.3169426110237734
-0.18581995183775907,-0.043488339369247155,-1.3169426110237734
-0.18576380183775903,-0.043488339369247155,-1.3169426110237734
-0.18570765183775906,-0.043488339369247155,-1.3206499620048093
-0.18565150183775903,-0.04718656422183096,-1.320649962004811
-0.18559535183775905,-0.043488339369248834,-1.3169426110237752
-0.18553920183775907,-0.043488339369247155,-1.3169426110237734
-0.18548305183775904,-0.043488339369247155,-1.3169426110237734
-0.18542690183775906,-0.043488339369247155,-1.3169426110237734
-0.18537075183775903,-0.043488339369247155,-1.3169426110237734
-0.18531460183775905,-0.043488339369247155,-1.3169426110237734
-0.18525845183775902,-0.043488339369247155,-1.3169426110237734
-0.18520230183775904,-0.043488339369247155,-1.3169426110237734
-0.18514615183775907,-0.043488339369247155,-1.3169426110237734
-0.18509000183775903,-0.04718656422183096,-1.3169426110237734
-0.18503385183775906,-0.043488339369248834,-1.3169426110237734
-0.18497770183775902,-0.04718656422183096,-1.3169426110237734
-0.18492155183775905,-0.043488339369248834,-1.3169426110237734
-0.18486540183775907,-0.04718656422182928,-1.3169426110237734
-0.18480925183775904,-0.04718656422183096,-1.3169426110237734
-0.18475310183775906,-0.04718656422183096,-1.3169426110237734
-0.18469695183775903,-0.04718656422183096,-1.3169426110237734
-0.18464080183775905,-0.04718656422183096,-1.3169426110237734
-0.18458465183775902,-0.05088478907441475,-1.3169426110237734
-0.18452850183775904,-0.05088478907441475,-1.3169426110237734
-0.18447235183775906,-0.05088478907441475,-1.3169426110237734
-0.18441620183775903,-0.04718656422183096,-1.3169426110237734
-0.18436005183775905,-0.05088478907441307,-1.3169426110237734
-0.18430390183775902,-0.04718656422183096,-1.3169426110237734
-0.18424775183775904,-0.05088478907441307,-1.3169426110237734
-0.18419160183775907,-0.05088478907441475,-1.3169426110237734
-0.18413545183775903,-0.04718656422183096,-1.3169426110237734
-0.18407930183775906,-0.043488339369248834,-1.3169426110237734
-0.18402315183775902,-0.04718656422183096,-1.3169426110237734
-0.18396700183775905,-0.04718656422183096,-1.3206499620048093
-0.18391085183775907,-0.04718656422183096,-1.3169426110237767
-0.18385470183775904,-0.04718656422183096,-1.3169426110237734
-0.18379855183775906,-0.04718656422183096,-1.3169426110237734
-0.18374240183775903,-0.04718656422183096,-1.3169426110237734
-0.18368625183775905,-0.04718656422183096,-1.3169426110237734
-0.18363010183775902,-0.04718656422183096,-1.3169426110237734
-0.18357395183775904,-0.04718656422183096,-1.3169426110237734
-0.18351780183775906,-0.04718656422183096,-1.3169426110237734
-0.18346165183775903,-0.04718656422183096,-1.3169426110237734
-0.18340550183775906,-0.04718656422183096,-1.3169426110237734
-0.18334935183775902,-0.04718656422183096,-1.3169426110237734
-0.18329320183775905,-0.04718656422183096,-1.3206499620048093
-0.18323705183775907,-0.04718656422183096,-1.3169426110237752
-0.18318090183775904,-0.04718656422183096,-1.3169426110237734
-0.18312475183775906,-0.05088478907441307,-1.3169426110237734
-0.18306860183775903,-0.05088478907441475,-1.3169426110237734
-0.18301245183775905,-0.05088478907441475,-1.3169426110237734
-0.18295630183775907,-0.04718656422183432,-1.3169426110237734
-0.18290015183775904,-0.05088478907441475,-1.3169426110237734
-0.18284400183775906,-0.05088478907441475,-1.3169426110237734
-0.18278785183775903,-0.05088478907441475,-1.3169426110237734
-0.18273170183775905,-0.05088478907441475,-1.3206499620048093
-0.18267555183775902,-0.05088478907441475,-1.3169426110237734
-0.18261940183775904,-0.05088478907441475,-1.3169426110237734
-0.18256325183775907,-0.05088478907441475,-1.3169426110237734
-0.18250710183775903,-0.05088478907441475,-1.3169426110237734
-0.18245095183775906,-0.05088478907441475,-1.3169426110237734
-0.18239480183775902,-0.05088478907441475,-1.3169426110237734
-0.18233865183775905,-0.05088478907441475,-1.3206499620048093
-0.18228250183775907,-0.05458301392699519,-1.3169426110237767
-0.18222635183775904,-0.05088478907441475,-1.3169426110237734
-0.18217020183775906,-0.054583013926996875,-1.3169426110237734
-0.18211405183775903,-0.054583013926998554,-1.320649962004811
-0.18205790183775905,-0.054583013926998554,-1.3169426110237752
-0.18200175183775902,-0.054583013926998554,-1.3169426110237734
-0.18194560183775904,-0.054583013926998554,-1.3169426110237734
-0.18188945183775906,-0.054583013926998554,-1.3169426110237734
-0.18183330183775903,-0.054583013926998554,-1.320649962004811
-0.18177715183775905,-0.054583013926998554,-1.3169426110237752
-0.18172100183775902,-0.054583013926998554,-1.3169426110237734
-0.18166485183775904,-0.05828123877958067,-1.3206499620048093
-0.18160870183775907,-0.05828123877958235,-1.3169426110237752
-0.18155255183775904,-0.05828123877958235,-1.3169426110237734
-0.18149640183775906,-0.05828123877958235,-1.3169426110237734
-0.18144025183775903,-0.05828123877958235,-1.3169426110237734
-0.18138410183775905,-0.05828123877958235,-1.3169426110237734
-0.18132795183775907,-0.05828123877958235,-1.3169426110237734
-0.18127180183775904,-0.05828123877958235,-1.3169426110237734
-0.18121565183775906,-0.05828123877958235,-1.3169426110237734
-0.18115950183775903,-0.06197946363216615,-1.3169426110237734
-0.18110335183775905,-0.05828123877958403,-1.3206499620048093
-0.18104720183775902,-0.05828123877958235,-1.320649962004811
-0.18099105183775904,-0.05828123877958235,-1.320649962004811
-0.18093490183775907,-0.05828123877958235,-1.3169426110237752
-0.18087875183775903,-0.05828123877958235,-1.3169426110237734
-0.18082260183775906,-0.05828123877958235,-1.3169426110237734
-0.18076645183775902,-0.06197946363216615,-1.320649962004811
-0.18071030183775905,-0.06197946363216615,-1.3169426110237752
-0.18065415183775907,-0.05828123877958403,-1.3169426110237734
-0.18059800183775904,-0.05828123877958235,-1.3169426110237734
-0.18054185183775906,-0.06197946363216447,-1.3169426110237734
-0.18048570183775903,-0.05828123877958235,-1.3169426110237734
-0.18042955183775905,-0.05828123877958235,-1.3169426110237734
-0.18037340183775902,-0.05828123877958235,-1.320649962004811
-0.18031725183775904,-0.05828123877958235,-1.320649962004811
-0.18026110183775906,-0.05828123877958235,-1.3169426110237752
-0.18020495183775903,-0.05828123877958235,-1.3169426110237734
-0.18014880183775905,-0.05828123877958235,-1.3169426110237734
