10Hz/acq0040.csv

#Digilent WaveForms Oscilloscope Acquisition
#Device Name: Discovery2
#Serial Number: SN:210321AA28BE
#Date Time: 2023-05-24 14:52:29.034
#Sample rate: 17809.4Hz
#Samples: 8192
#Trigger: Source: Channel 1 Type: Edge Condition: Rising Level: 800 mV Hyst.: Auto HoldOff: 100 ns
#Channel 1: Range: 1 V/div Offset: 0 V Attenuation: 1 X Sample Mode: Average
#Channel 2: Range: 1 V/div Offset: 0 V Attenuation: 1 X Sample Mode: Average

Time (s),Channel 1 (V),Channel 2 (V)
-0.1977244783858842,-0.06937591333733376,-1.3169426110237734
-0.19766832838588416,-0.0767723630425064,-1.3169426110237734
-0.19761217838588419,-0.08786703760025275,-1.3169426110237734
-0.19755602838588415,-0.09526348730543044,-1.3169426110237734
-0.19749987838588418,-0.10635816186317511,-1.3169426110237734
-0.1974437283858842,-0.11375461156833934,-1.3169426110237734
-0.19738757838588417,-0.1211510612735103,-1.3169426110237734
-0.1973314283858842,-0.12854751097867453,-1.3169426110237734
-0.19727527838588416,-0.1322457358312617,-1.3169426110237734
-0.19721912838588418,-0.1396421855364293,-1.3169426110237734
-0.1971629783858842,-0.14703863524159355,-1.3169426110237734
-0.19710682838588417,-0.15073686009417903,-1.3169426110237734
-0.1970506783858842,-0.15443508494676114,-1.3169426110237734
-0.19699452838588416,-0.1581333097993483,-1.3132352600427375
-0.19693837838588418,-0.16552975950451254,-1.3169426110237734
-0.1968822283858842,-0.16922798435709466,-1.3169426110237734
-0.19682607838588417,-0.17292620920968182,-1.3169426110237734
-0.1967699283858842,-0.17662443406226394,-1.3169426110237734
-0.19671377838588416,-0.17662443406226563,-1.3132352600427375
-0.1966576283858842,-0.18032265891484775,-1.3169426110237734
-0.19660147838588415,-0.18402088376743153,-1.3169426110237734
-0.19654532838588418,-0.18402088376743322,-1.3169426110237734
-0.1964891783858842,-0.18771910862001534,-1.3169426110237734
-0.19643302838588417,-0.18771910862001703,-1.3132352600427375
-0.1963768783858842,-0.19141733347259912,-1.3169426110237734
-0.19632072838588416,-0.19141733347259912,-1.3169426110237734
-0.19626457838588418,-0.19141733347259912,-1.3169426110237734
-0.1962084283858842,-0.19141733347259912,-1.3169426110237734
-0.19615227838588417,-0.19511555832518293,-1.3169426110237734
-0.1960961283858842,-0.19511555832518293,-1.3169426110237734
-0.19603997838588416,-0.19511555832518462,-1.3169426110237734
-0.19598382838588418,-0.19881378317776674,-1.3169426110237734
-0.19592767838588415,-0.1951155583251863,-1.3169426110237734
-0.19587152838588417,-0.19881378317776505,-1.3169426110237734
-0.1958153783858842,-0.19511555832518293,-1.3169426110237734
-0.19575922838588417,-0.19881378317776505,-1.3169426110237734
-0.1957030783858842,-0.19511555832518293,-1.3169426110237734
-0.19564692838588416,-0.19511555832518293,-1.3169426110237734
-0.19559077838588418,-0.19511555832518293,-1.3169426110237734
-0.1955346283858842,-0.19511555832518293,-1.3169426110237734
-0.19547847838588417,-0.19511555832518124,-1.3169426110237734
-0.1954223283858842,-0.19141733347259912,-1.3169426110237734
-0.19536617838588416,-0.19511555832518124,-1.3169426110237734
-0.19531002838588418,-0.19141733347259912,-1.3169426110237734
-0.1952538783858842,-0.19141733347259912,-1.3169426110237734
-0.19519772838588417,-0.19141733347259912,-1.3169426110237734
-0.1951415783858842,-0.19141733347259912,-1.3169426110237734
-0.19508542838588416,-0.19141733347259912,-1.3169426110237734
-0.19502927838588419,-0.19141733347259912,-1.3169426110237734
-0.19497312838588415,-0.19141733347259912,-1.3169426110237734
-0.19491697838588418,-0.19141733347259912,-1.3169426110237734
-0.1948608283858842,-0.19141733347259912,-1.3169426110237734
-0.19480467838588417,-0.18771910862001534,-1.3169426110237734
-0.1947485283858842,-0.18771910862001534,-1.3169426110237734
-0.19469237838588416,-0.18771910862001365,-1.3169426110237734
-0.19463622838588418,-0.18402088376743153,-1.3169426110237734
-0.1945800783858842,-0.18402088376743153,-1.3169426110237734
-0.19452392838588417,-0.18402088376743153,-1.3169426110237734
-0.1944677783858842,-0.18402088376743153,-1.3169426110237734
-0.19441162838588416,-0.18402088376743153,-1.3169426110237734
-0.19435547838588418,-0.18402088376743153,-1.3169426110237734
-0.1942993283858842,-0.18402088376743153,-1.3169426110237734
-0.19424317838588417,-0.18032265891484775,-1.3169426110237734
-0.1941870283858842,-0.18032265891484775,-1.3169426110237734
-0.19413087838588416,-0.18032265891484775,-1.3169426110237734
-0.1940747283858842,-0.18032265891484775,-1.3169426110237734
-0.19401857838588416,-0.18032265891484775,-1.3169426110237734
-0.19396242838588418,-0.18032265891484606,-1.3169426110237734
-0.1939062783858842,-0.17662443406226394,-1.3169426110237734
-0.19385012838588417,-0.17292620920968182,-1.3169426110237734
-0.1937939783858842,-0.17662443406226394,-1.3169426110237734
-0.19373782838588416,-0.17662443406226225,-1.3169426110237734
-0.19368167838588418,-0.17292620920968013,-1.3169426110237734
-0.1936255283858842,-0.16922798435709635,-1.3169426110237734
-0.19356937838588417,-0.17292620920967844,-1.3169426110237734
-0.1935132283858842,-0.16922798435709635,-1.3169426110237734
-0.19345707838588416,-0.16552975950451254,-1.3169426110237734
-0.19340092838588419,-0.16552975950451254,-1.3169426110237734
-0.19334477838588415,-0.16552975950450918,-1.313235260042739
-0.19328862838588418,-0.16183153465192873,-1.3169426110237734
-0.1932324783858842,-0.16183153465192873,-1.3169426110237734
-0.19317632838588417,-0.16183153465192704,-1.3169426110237734
-0.1931201783858842,-0.15813330979934495,-1.3169426110237734
-0.19306402838588416,-0.15813330979934495,-1.3169426110237734
-0.19300787838588418,-0.15813330979934495,-1.3169426110237734
-0.1929517283858842,-0.15813330979934495,-1.3169426110237734
-0.19289557838588417,-0.15443508494676114,-1.3169426110237734
-0.1928394283858842,-0.15443508494676114,-1.3169426110237734
-0.19278327838588416,-0.15443508494675945,-1.3169426110237734
-0.19272712838588418,-0.15073686009417733,-1.3169426110237734
-0.1926709783858842,-0.15073686009417733,-1.3169426110237734
-0.19261482838588417,-0.15073686009417733,-1.3169426110237734
-0.1925586783858842,-0.15073686009417733,-1.3169426110237734
-0.19250252838588416,-0.14703863524159355,-1.3169426110237734
-0.1924463783858842,-0.14703863524159355,-1.3169426110237734
-0.19239022838588415,-0.1470386352415902,-1.3169426110237734
-0.19233407838588418,-0.14334041038900974,-1.3169426110237734
-0.1922779283858842,-0.14334041038900974,-1.3169426110237734
-0.19222177838588417,-0.13964218553642593,-1.3169426110237734
-0.1921656283858842,-0.13964218553642593,-1.3169426110237734
-0.19210947838588416,-0.13964218553642424,-1.3169426110237734
-0.19205332838588418,-0.13594396068384215,-1.3169426110237734
-0.1919971783858842,-0.13594396068384215,-1.3169426110237734
-0.19194102838588417,-0.13594396068384046,-1.3169426110237734
-0.1918848783858842,-0.13224573583125834,-1.3169426110237734
-0.19182872838588416,-0.12854751097867453,-1.3169426110237734
-0.19177257838588418,-0.12854751097867453,-1.3169426110237734
-0.19171642838588415,-0.12484928612609074,-1.3169426110237734
-0.19166027838588418,-0.12484928612609074,-1.3169426110237734
-0.1916041283858842,-0.12484928612609074,-1.3169426110237734
-0.19154797838588417,-0.12484928612609074,-1.3169426110237734
-0.1914918283858842,-0.12484928612609074,-1.3169426110237734
-0.19143567838588416,-0.12115106127350694,-1.3169426110237734
-0.19137952838588418,-0.12115106127350526,-1.3169426110237734
-0.1913233783858842,-0.11745283642092315,-1.3169426110237734
-0.19126722838588417,-0.11745283642092147,-1.3169426110237734
-0.1912110783858842,-0.11375461156833934,-1.3169426110237734
-0.19115492838588416,-0.11375461156833766,-1.3169426110237734
-0.19109877838588418,-0.11005638671575554,-1.3169426110237734
-0.1910426283858842,-0.11375461156833934,-1.3169426110237734
-0.19098647838588417,-0.11005638671575554,-1.3169426110237734
-0.1909303283858842,-0.11005638671575554,-1.3169426110237734
-0.19087417838588416,-0.11005638671575387,-1.3169426110237734
-0.1908180283858842,-0.10635816186317175,-1.3169426110237734
-0.19076187838588415,-0.10635816186317175,-1.3169426110237734
-0.19070572838588418,-0.10635816186317175,-1.3169426110237734
-0.1906495783858842,-0.10635816186317175,-1.3169426110237734
-0.19059342838588417,-0.10265993701058794,-1.3169426110237734
-0.1905372783858842,-0.10265993701058794,-1.3169426110237734
-0.19048112838588416,-0.09896171215800414,-1.3169426110237734
-0.19042497838588418,-0.09896171215800414,-1.3169426110237734
-0.1903688283858842,-0.09896171215800414,-1.3169426110237734
-0.19031267838588417,-0.09896171215800414,-1.3169426110237734
-0.1902565283858842,-0.09896171215800414,-1.3169426110237734
-0.19020037838588416,-0.09526348730541867,-1.3169426110237734
-0.19014422838588418,-0.09156526245283655,-1.3169426110237734
-0.1900880783858842,-0.09156526245283655,-1.3169426110237734
-0.19003192838588417,-0.09156526245283655,-1.3169426110237734
-0.1899757783858842,-0.09156526245283655,-1.3169426110237734
-0.18991962838588416,-0.09156526245283655,-1.3169426110237734
-0.1898634783858842,-0.09156526245283655,-1.3169426110237734
-0.18980732838588416,-0.08786703760025107,-1.3169426110237734
-0.18975117838588418,-0.08416881274767063,-1.3169426110237734
-0.1896950283858842,-0.08786703760025275,-1.3169426110237734
-0.18963887838588417,-0.08416881274766895,-1.3169426110237734
-0.1895827283858842,-0.08416881274766895,-1.3169426110237734
-0.18952657838588416,-0.08416881274766727,-1.3169426110237734
-0.18947042838588418,-0.08047058789508515,-1.3169426110237734
-0.1894142783858842,-0.08047058789508515,-1.3169426110237734
-0.18935812838588417,-0.07677236304250135,-1.3169426110237734
-0.1893019783858842,-0.07677236304250135,-1.3169426110237734
-0.18924582838588416,-0.07677236304250135,-1.3169426110237734
-0.18918967838588419,-0.07677236304250135,-1.3169426110237734
-0.18913352838588415,-0.07307413818991755,-1.3169426110237734
-0.18907737838588418,-0.07307413818991755,-1.3169426110237734
-0.1890212283858842,-0.07307413818991755,-1.3169426110237734
-0.18896507838588417,-0.07307413818991755,-1.3169426110237734
-0.1889089283858842,-0.07307413818991755,-1.3169426110237734
-0.18885277838588416,-0.06937591333733376,-1.320649962004811
-0.18879662838588418,-0.06937591333733208,-1.3206499620048093
-0.1887404783858842,-0.06567768848474995,-1.3169426110237734
-0.18868432838588417,-0.06567768848474995,-1.3169426110237734
-0.1886281783858842,-0.06567768848474995,-1.3169426110237734
-0.18857202838588416,-0.06197946363216447,-1.3169426110237734
-0.18851587838588418,-0.05828123877958235,-1.3169426110237734
-0.1884597283858842,-0.05828123877958235,-1.3169426110237734
-0.18840357838588417,-0.05828123877958235,-1.3169426110237734
-0.1883474283858842,-0.05828123877958235,-1.3169426110237734
-0.18829127838588416,-0.05828123877958235,-1.3206499620048093
-0.1882351283858842,-0.05828123877958235,-1.3169426110237734
-0.18817897838588415,-0.05828123877958235,-1.3169426110237734
-0.18812282838588418,-0.05828123877958235,-1.3169426110237734
-0.1880666783858842,-0.05828123877958235,-1.3169426110237734
-0.18801052838588417,-0.054583013926998554,-1.3169426110237734
-0.1879543783858842,-0.054583013926998554,-1.3169426110237734
-0.18789822838588416,-0.054583013926998554,-1.3169426110237752
-0.18784207838588418,-0.054583013926998554,-1.320649962004811
-0.1877859283858842,-0.054583013926998554,-1.320649962004811
-0.18772977838588417,-0.05088478907441475,-1.320649962004811
-0.1876736283858842,-0.05088478907441475,-1.320649962004811
-0.18761747838588416,-0.05088478907441475,-1.320649962004811
-0.18756132838588419,-0.05088478907441475,-1.320649962004811
-0.18750517838588415,-0.05088478907441475,-1.3169426110237767
-0.18744902838588418,-0.05088478907441475,-1.320649962004811
-0.1873928783858842,-0.05088478907441475,-1.320649962004811
-0.18733672838588417,-0.04718656422183096,-1.320649962004811
-0.1872805783858842,-0.04718656422183096,-1.320649962004811
-0.18722442838588416,-0.05088478907441475,-1.3169426110237752
-0.18716827838588418,-0.05088478907441307,-1.3206499620048093
-0.1871121283858842,-0.04718656422183096,-1.3169426110237734
-0.18705597838588417,-0.04718656422183096,-1.3206499620048093
-0.1869998283858842,-0.04718656422183096,-1.3169426110237734
-0.18694367838588416,-0.04718656422183096,-1.3169426110237734
-0.18688752838588418,-0.04718656422183096,-1.3169426110237734
-0.1868313783858842,-0.043488339369247155,-1.3169426110237734
-0.18677522838588417,-0.043488339369248834,-1.320649962004811
-0.1867190783858842,-0.04718656422183096,-1.320649962004811
-0.18666292838588416,-0.043488339369247155,-1.320649962004811
-0.1866067783858842,-0.043488339369247155,-1.320649962004811
-0.18655062838588415,-0.043488339369247155,-1.3169426110237767
-0.18649447838588418,-0.043488339369247155,-1.320649962004811
-0.1864383283858842,-0.043488339369247155,-1.320649962004811
-0.18638217838588417,-0.043488339369247155,-1.320649962004811
-0.1863260283858842,-0.043488339369247155,-1.320649962004811
-0.18626987838588416,-0.043488339369245475,-1.3169426110237734
-0.18621372838588418,-0.03979011451666335,-1.3169426110237734
-0.1861575783858842,-0.03979011451666335,-1.3169426110237734
-0.18610142838588417,-0.03979011451666335,-1.3169426110237734
-0.1860452783858842,-0.03979011451666335,-1.3169426110237734
-0.18598912838588416,-0.03979011451666167,-1.3169426110237734
-0.18593297838588418,-0.03609188966407956,-1.3169426110237734
-0.1858768283858842,-0.03979011451666167,-1.3169426110237734
-0.18582067838588417,-0.03609188966407956,-1.3169426110237752
-0.1857645283858842,-0.03609188966407956,-1.320649962004811
-0.18570837838588417,-0.03609188966407956,-1.320649962004811
-0.1856522283858842,-0.03609188966407956,-1.320649962004811
-0.18559607838588416,-0.03609188966407956,-1.3206499620048093
-0.18553992838588418,-0.03609188966407956,-1.3169426110237734
-0.1854837783858842,-0.03609188966407956,-1.3169426110237734
-0.18542762838588417,-0.032393664811497434,-1.3169426110237752
-0.1853714783858842,-0.03609188966407956,-1.320649962004811
-0.18531532838588416,-0.03609188966407956,-1.3169426110237752
-0.18525917838588418,-0.03609188966407956,-1.320649962004811
-0.1852030283858842,-0.03609188966407956,-1.320649962004811
-0.18514687838588417,-0.03609188966407956,-1.3206499620048093
-0.1850907283858842,-0.03609188966407956,-1.3169426110237734
-0.18503457838588416,-0.032393664811497434,-1.3169426110237734
-0.18497842838588419,-0.03609188966407956,-1.3169426110237734
-0.18492227838588415,-0.03609188966407956,-1.3169426110237767
-0.18486612838588418,-0.03609188966407956,-1.3206499620048093
-0.1848099783858842,-0.03609188966407956,-1.3169426110237734
-0.18475382838588417,-0.03609188966407956,-1.3169426110237734
-0.1846976783858842,-0.03609188966407956,-1.3169426110237734
-0.18464152838588416,-0.03609188966407956,-1.3169426110237734
-0.18458537838588418,-0.03609188966407956,-1.3169426110237752
-0.1845292283858842,-0.03609188966407956,-1.320649962004811
-0.18447307838588417,-0.03609188966407956,-1.3206499620048093
-0.1844169283858842,-0.03609188966407956,-1.3169426110237734
-0.18436077838588416,-0.03609188966407956,-1.320649962004811
-0.18430462838588418,-0.03609188966407956,-1.320649962004811
-0.1842484783858842,-0.032393664811497434,-1.3169426110237752
-0.18419232838588417,-0.032393664811495755,-1.3206499620048093
-0.1841361783858842,-0.032393664811495755,-1.3169426110237734
-0.18408002838588416,-0.03609188966407956,-1.3169426110237752
-0.1840238783858842,-0.03609188966407956,-1.320649962004811
-0.18396772838588415,-0.03609188966407956,-1.320649962004811
-0.18391157838588418,-0.03609188966407956,-1.3206499620048093
-0.1838554283858842,-0.03609188966407956,-1.3169426110237734
-0.18379927838588417,-0.03979011451666167,-1.320649962004811
-0.1837431283858842,-0.03609188966407956,-1.320649962004811
-0.18368697838588416,-0.03979011451666335,-1.320649962004811
-0.18363082838588418,-0.03979011451666335,-1.320649962004811
-0.1835746783858842,-0.03979011451666335,-1.320649962004811
-0.18351852838588417,-0.03979011451666335,-1.3169426110237734
-0.1834623783858842,-0.03979011451666335,-1.3169426110237734
-0.18340622838588416,-0.03979011451666335,-1.3169426110237734
-0.18335007838588419,-0.03979011451666335,-1.3169426110237734
-0.18329392838588415,-0.03979011451666335,-1.3169426110237734
-0.18323777838588418,-0.03979011451666335,-1.3169426110237734
-0.1831816283858842,-0.03979011451666335,-1.3169426110237734
-0.18312547838588417,-0.043488339369247155,-1.3206499620048093
-0.1830693283858842,-0.043488339369247155,-1.3169426110237734
-0.18301317838588416,-0.03979011451666503,-1.3206499620048093
-0.18295702838588418,-0.043488339369247155,-1.3169426110237752
-0.1829008783858842,-0.043488339369247155,-1.320649962004811
-0.18284472838588417,-0.03979011451666503,-1.320649962004811
-0.1827885783858842,-0.043488339369247155,-1.320649962004811
-0.18273242838588416,-0.043488339369247155,-1.3169426110237752
-0.18267627838588418,-0.043488339369247155,-1.320649962004811
-0.1826201283858842,-0.043488339369247155,-1.3169426110237734
-0.18256397838588417,-0.043488339369247155,-1.320649962004811
-0.1825078283858842,-0.043488339369247155,-1.320649962004811
-0.18245167838588416,-0.043488339369247155,-1.3206499620048093
-0.1823955283858842,-0.043488339369247155,-1.3169426110237734
-0.18233937838588415,-0.043488339369247155,-1.3169426110237767
-0.18228322838588418,-0.043488339369245475,-1.320649962004811
-0.1822270783858842,-0.03979011451666335,-1.320649962004811
-0.18217092838588417,-0.043488339369247155,-1.320649962004811
-0.1821147783858842,-0.043488339369247155,-1.320649962004811
-0.18205862838588416,-0.043488339369247155,-1.320649962004811
-0.18200247838588418,-0.043488339369248834,-1.320649962004811
-0.1819463283858842,-0.04718656422183096,-1.320649962004811
-0.18189017838588417,-0.04718656422183096,-1.320649962004811
-0.1818340283858842,-0.04718656422183096,-1.320649962004811
-0.18177787838588416,-0.04718656422183096,-1.320649962004811
-0.18172172838588418,-0.04718656422183096,-1.320649962004811
-0.1816655783858842,-0.043488339369248834,-1.320649962004811
-0.18160942838588418,-0.043488339369247155,-1.320649962004811
-0.1815532783858842,-0.043488339369247155,-1.320649962004811
-0.18149712838588417,-0.043488339369247155,-1.320649962004811
-0.1814409783858842,-0.043488339369247155,-1.320649962004811
-0.18138482838588416,-0.04718656422183096,-1.320649962004811
-0.18132867838588418,-0.04718656422183096,-1.320649962004811
-0.1812725283858842,-0.04718656422183096,-1.320649962004811
-0.18121637838588417,-0.043488339369248834,-1.320649962004811
-0.1811602283858842,-0.04718656422183096,-1.320649962004811
-0.18110407838588416,-0.04718656422183096,-1.3206499620048093
-0.18104792838588418,-0.04718656422183096,-1.3169426110237734
-0.1809917783858842,-0.04718656422183096,-1.320649962004811
-0.18093562838588417,-0.047186564221832636,-1.3206499620048093
-0.1808794783858842,-0.05088478907441475,-1.3169426110237734
-0.18082332838588416,-0.04718656422183096,-1.3169426110237752
-0.1807671783858842,-0.04718656422183096,-1.320649962004811
-0.18071102838588415,-0.04718656422183432,-1.3169426110237767
-0.18065487838588418,-0.05088478907441475,-1.320649962004811
-0.1805987283858842,-0.05088478907441475,-1.320649962004811
-0.18054257838588417,-0.05088478907441475,-1.3206499620048093
-0.1804864283858842,-0.05088478907441475,-1.3169426110237734
-0.18043027838588416,-0.05088478907441475,-1.3206499620048093
-0.18037412838588418,-0.05088478907441475,-1.3169426110237734
-0.1803179783858842,-0.05088478907441475,-1.3169426110237734
-0.18026182838588417,-0.05088478907441643,-1.320649962004811
-0.1802056783858842,-0.054583013926998554,-1.320649962004811
-0.18014952838588416,-0.054583013926998554,-1.320649962004811
-0.18009337838588418,-0.054583013926998554,-1.320649962004811
-0.1800372283858842,-0.054583013926998554,-1.320649962004811
-0.17998107838588417,-0.05828123877958067,-1.320649962004811
