10Hz/acq0065.csv

#Digilent WaveForms Oscilloscope Acquisition
#Device Name: Discovery2
#Serial Number: SN:210321AA28BE
#Date Time: 2023-05-24 14:52:41.540
#Sample rate: 17809.4Hz
#Samples: 8192
#Trigger: Source: Channel 1 Type: Edge Condition: Rising Level: 800 mV Hyst.: Auto HoldOff: 100 ns
#Channel 1: Range: 1 V/div Offset: 0 V Attenuation: 1 X Sample Mode: Average
#Channel 2: Range: 1 V/div Offset: 0 V Attenuation: 1 X Sample Mode: Average

Time (s),Channel 1 (V),Channel 2 (V)
-0.19774608697916665,-0.07677236304250135,-1.3169426110237734
-0.19768993697916665,-0.08416881274766895,-1.3169426110237734
-0.19763378697916664,-0.09156526245283655,-1.3169426110237734
-0.19757763697916664,-0.10265993701058794,-1.3169426110237734
-0.19752148697916666,-0.11005638671575554,-1.3169426110237734
-0.19746533697916666,-0.11745283642092315,-1.3169426110237734
-0.19740918697916665,-0.12484928612609074,-1.3169426110237734
-0.19735303697916665,-0.12854751097867453,-1.3169426110237734
-0.19729688697916664,-0.13594396068384215,-1.3169426110237734
-0.19724073697916664,-0.13964218553642763,-1.3169426110237734
-0.19718458697916666,-0.14334041038900974,-1.3169426110237734
-0.19712843697916665,-0.15073686009417733,-1.3169426110237734
-0.19707228697916665,-0.15443508494676114,-1.3169426110237734
-0.19701613697916665,-0.15813330979934495,-1.3169426110237734
-0.19695998697916664,-0.16183153465192873,-1.3169426110237734
-0.19690383697916666,-0.16552975950451085,-1.3169426110237734
-0.19684768697916666,-0.16552975950451254,-1.3169426110237734
-0.19679153697916665,-0.16922798435709635,-1.3169426110237734
-0.19673538697916665,-0.17292620920968013,-1.3169426110237734
-0.19667923697916664,-0.17292620920968013,-1.3169426110237734
-0.19662308697916664,-0.17662443406226394,-1.3169426110237734
-0.19656693697916666,-0.17662443406226394,-1.3169426110237734
-0.19651078697916666,-0.17662443406226394,-1.3169426110237734
-0.19645463697916665,-0.18032265891484775,-1.3169426110237734
-0.19639848697916665,-0.18032265891484775,-1.3169426110237734
-0.19634233697916664,-0.18032265891484775,-1.3169426110237734
-0.19628618697916664,-0.18032265891484775,-1.3169426110237734
-0.19623003697916666,-0.18402088376743153,-1.3169426110237734
-0.19617388697916666,-0.18032265891484775,-1.3169426110237734
-0.19611773697916665,-0.18032265891484775,-1.3169426110237734
-0.19606158697916665,-0.18032265891484775,-1.3169426110237734
-0.19600543697916664,-0.18032265891484775,-1.3169426110237734
-0.19594928697916664,-0.18032265891484775,-1.3169426110237734
-0.19589313697916666,-0.18032265891484775,-1.3169426110237734
-0.19583698697916666,-0.18032265891484775,-1.3169426110237734
-0.19578083697916665,-0.17662443406226394,-1.3169426110237734
-0.19572468697916665,-0.17662443406226394,-1.3169426110237734
-0.19566853697916664,-0.17292620920968013,-1.3169426110237734
-0.19561238697916666,-0.17292620920968013,-1.3169426110237734
-0.19555623697916666,-0.17292620920968013,-1.3169426110237734
-0.19550008697916665,-0.17662443406226394,-1.3169426110237734
-0.19544393697916665,-0.17662443406226394,-1.3169426110237734
-0.19538778697916664,-0.17292620920968013,-1.3169426110237734
-0.19533163697916664,-0.17292620920968013,-1.3169426110237734
-0.19527548697916666,-0.16922798435709635,-1.3169426110237734
-0.19521933697916666,-0.16922798435709635,-1.3169426110237734
-0.19516318697916665,-0.16922798435709635,-1.3169426110237734
-0.19510703697916665,-0.16922798435709635,-1.3169426110237734
-0.19505088697916664,-0.16552975950451254,-1.3169426110237734
-0.19499473697916664,-0.16552975950451254,-1.3169426110237734
-0.19493858697916666,-0.16552975950451254,-1.3169426110237734
-0.19488243697916666,-0.16183153465192873,-1.3169426110237734
-0.19482628697916665,-0.16183153465192873,-1.3169426110237734
-0.19477013697916665,-0.16183153465192873,-1.3169426110237734
-0.19471398697916664,-0.16183153465192873,-1.3169426110237734
-0.19465783697916664,-0.15813330979934495,-1.3169426110237734
-0.19460168697916666,-0.15813330979934495,-1.3169426110237734
-0.19454553697916666,-0.15443508494676114,-1.3132352600427357
-0.19448938697916665,-0.15443508494676114,-1.3169426110237734
-0.19443323697916665,-0.15443508494676114,-1.3169426110237734
-0.19437708697916664,-0.15443508494676114,-1.3169426110237734
-0.19432093697916666,-0.15443508494676114,-1.3169426110237734
-0.19426478697916666,-0.15073686009417733,-1.3169426110237734
-0.19420863697916665,-0.15073686009417733,-1.3169426110237734
-0.19415248697916665,-0.14703863524159355,-1.3169426110237734
-0.19409633697916664,-0.14703863524159355,-1.3169426110237734
-0.19404018697916664,-0.14334041038900974,-1.3169426110237734
-0.19398403697916666,-0.14334041038900974,-1.3169426110237734
-0.19392788697916666,-0.14334041038900974,-1.3169426110237734
-0.19387173697916665,-0.14334041038900974,-1.320649962004811
-0.19381558697916665,-0.14334041038900974,-1.3169426110237734
-0.19375943697916664,-0.14334041038900974,-1.3169426110237734
-0.19370328697916664,-0.14334041038900974,-1.3169426110237734
-0.19364713697916666,-0.13964218553642593,-1.3169426110237734
-0.19359098697916666,-0.13964218553642593,-1.3169426110237734
-0.19353483697916665,-0.13594396068384215,-1.3169426110237734
-0.19347868697916665,-0.13224573583125834,-1.3169426110237734
-0.19342253697916664,-0.13224573583125834,-1.3169426110237734
-0.19336638697916664,-0.13224573583125834,-1.3169426110237734
-0.19331023697916666,-0.13224573583125834,-1.3169426110237734
-0.19325408697916666,-0.12854751097867453,-1.3169426110237734
-0.19319793697916665,-0.12854751097867453,-1.3169426110237734
-0.19314178697916665,-0.12854751097867453,-1.3169426110237734
-0.19308563697916664,-0.12484928612609074,-1.3169426110237734
-0.19302948697916664,-0.12484928612609074,-1.3169426110237734
-0.19297333697916666,-0.12484928612609074,-1.3169426110237734
-0.19291718697916665,-0.12115106127350694,-1.3169426110237734
-0.19286103697916665,-0.11745283642092315,-1.3169426110237734
-0.19280488697916665,-0.12115106127350694,-1.3169426110237734
-0.19274873697916664,-0.11375461156833934,-1.3169426110237734
-0.19269258697916666,-0.11375461156833934,-1.3169426110237734
-0.19263643697916666,-0.11375461156833934,-1.3169426110237734
-0.19258028697916665,-0.11375461156833934,-1.3169426110237734
-0.19252413697916665,-0.11005638671575554,-1.3169426110237734
-0.19246798697916664,-0.11005638671575554,-1.3169426110237734
-0.19241183697916664,-0.11005638671575554,-1.3169426110237734
-0.19235568697916666,-0.10635816186317175,-1.3169426110237734
-0.19229953697916666,-0.10635816186317175,-1.3169426110237734
-0.19224338697916665,-0.10265993701058794,-1.320649962004811
-0.19218723697916665,-0.10265993701058794,-1.320649962004811
-0.19213108697916664,-0.10265993701058794,-1.320649962004811
-0.19207493697916664,-0.09896171215800414,-1.3169426110237734
-0.19201878697916666,-0.10265993701058794,-1.3169426110237734
-0.19196263697916666,-0.09896171215800414,-1.3169426110237734
-0.19190648697916665,-0.09896171215800414,-1.3169426110237734
-0.19185033697916665,-0.09526348730542035,-1.3169426110237734
-0.19179418697916664,-0.09156526245283655,-1.3169426110237734
-0.19173803697916664,-0.09156526245283655,-1.3169426110237734
-0.19168188697916666,-0.09156526245283655,-1.3169426110237734
-0.19162573697916666,-0.09156526245283655,-1.3169426110237734
-0.19156958697916665,-0.09156526245283655,-1.3169426110237734
-0.19151343697916665,-0.08786703760025275,-1.3169426110237734
-0.19145728697916664,-0.08786703760025275,-1.3169426110237734
-0.19140113697916666,-0.08786703760025275,-1.3169426110237734
-0.19134498697916666,-0.08786703760025275,-1.3169426110237734
-0.19128883697916665,-0.08786703760025275,-1.3169426110237734
-0.19123268697916665,-0.08786703760025275,-1.3169426110237734
-0.19117653697916664,-0.08786703760025275,-1.3169426110237734
-0.19112038697916664,-0.08786703760025275,-1.3169426110237734
-0.19106423697916666,-0.08786703760025275,-1.3169426110237734
-0.19100808697916666,-0.08416881274766895,-1.3169426110237734
-0.19095193697916665,-0.08416881274766895,-1.3169426110237734
-0.19089578697916665,-0.08416881274766895,-1.3169426110237734
-0.19083963697916664,-0.08416881274766895,-1.3169426110237734
-0.19078348697916664,-0.08416881274766895,-1.3169426110237734
-0.19072733697916666,-0.08047058789508515,-1.3169426110237734
-0.19067118697916666,-0.08416881274766895,-1.3169426110237734
-0.19061503697916665,-0.08416881274766895,-1.3169426110237734
-0.19055888697916665,-0.08047058789508515,-1.3169426110237734
-0.19050273697916664,-0.08047058789508515,-1.3169426110237734
-0.19044658697916664,-0.08047058789508348,-1.3169426110237734
-0.19039043697916666,-0.07677236304250135,-1.3169426110237734
-0.19033428697916666,-0.07677236304250135,-1.3169426110237734
-0.19027813697916665,-0.08047058789508515,-1.3169426110237734
-0.19022198697916665,-0.07677236304250135,-1.3169426110237734
-0.19016583697916664,-0.07677236304250135,-1.3169426110237734
-0.19010968697916666,-0.07677236304250135,-1.3169426110237734
-0.19005353697916666,-0.07307413818991755,-1.3169426110237734
-0.18999738697916665,-0.07307413818991755,-1.3169426110237734
-0.18994123697916665,-0.07307413818991755,-1.3169426110237734
-0.18988508697916665,-0.07307413818991755,-1.3169426110237734
-0.18982893697916664,-0.07307413818991755,-1.3169426110237734
-0.18977278697916666,-0.07307413818991755,-1.3169426110237734
-0.18971663697916666,-0.06937591333733376,-1.3169426110237734
-0.18966048697916665,-0.06937591333733376,-1.3169426110237734
-0.18960433697916665,-0.07307413818991755,-1.3169426110237734
-0.18954818697916664,-0.06937591333733376,-1.3169426110237734
-0.18949203697916664,-0.06937591333733376,-1.3169426110237734
-0.18943588697916666,-0.06937591333733376,-1.3169426110237734
-0.18937973697916666,-0.06937591333733376,-1.3169426110237734
-0.18932358697916665,-0.06937591333733376,-1.3169426110237734
-0.18926743697916665,-0.06937591333733376,-1.320649962004811
-0.18921128697916664,-0.06937591333733376,-1.3169426110237734
-0.18915513697916664,-0.06937591333733376,-1.3169426110237734
-0.18909898697916666,-0.06567768848474995,-1.3169426110237734
-0.18904283697916666,-0.06937591333733376,-1.3169426110237734
-0.18898668697916665,-0.06937591333733376,-1.3169426110237734
-0.18893053697916665,-0.06567768848474995,-1.3169426110237734
-0.18887438697916664,-0.06937591333733376,-1.3169426110237734
-0.18881823697916664,-0.06567768848474995,-1.3169426110237734
-0.18876208697916666,-0.06567768848474995,-1.3169426110237734
-0.18870593697916666,-0.06567768848474995,-1.3169426110237734
-0.18864978697916665,-0.06567768848474995,-1.3169426110237734
-0.18859363697916665,-0.06567768848474995,-1.3169426110237734
-0.18853748697916664,-0.06937591333733376,-1.3169426110237734
-0.18848133697916666,-0.06937591333733376,-1.3169426110237734
-0.18842518697916666,-0.06567768848474995,-1.3169426110237734
-0.18836903697916665,-0.06567768848474995,-1.3169426110237734
-0.18831288697916665,-0.06567768848474995,-1.3169426110237734
-0.18825673697916664,-0.06567768848474995,-1.3169426110237734
-0.18820058697916664,-0.06567768848474995,-1.3169426110237734
-0.18814443697916666,-0.06567768848474995,-1.3169426110237734
-0.18808828697916666,-0.06567768848474995,-1.3169426110237734
-0.18803213697916665,-0.06567768848474995,-1.3169426110237734
-0.18797598697916665,-0.06567768848474995,-1.3169426110237734
-0.18791983697916664,-0.06567768848474995,-1.3169426110237734
-0.18786368697916664,-0.06567768848474995,-1.3169426110237734
-0.18780753697916666,-0.06567768848474995,-1.3169426110237734
-0.18775138697916666,-0.06567768848474995,-1.3169426110237734
-0.18769523697916665,-0.06567768848474995,-1.3169426110237734
-0.18763908697916665,-0.06567768848474995,-1.3169426110237734
-0.18758293697916664,-0.06567768848474995,-1.3169426110237734
-0.18752678697916664,-0.06567768848474995,-1.3169426110237734
-0.18747063697916666,-0.06567768848474995,-1.3169426110237734
-0.18741448697916666,-0.06567768848474995,-1.3169426110237734
-0.18735833697916665,-0.06937591333733376,-1.3169426110237734
-0.18730218697916665,-0.06937591333733376,-1.3169426110237734
-0.18724603697916664,-0.06937591333733376,-1.3169426110237734
-0.18718988697916666,-0.06937591333733376,-1.3169426110237734
-0.18713373697916666,-0.06937591333733376,-1.3169426110237734
-0.18707758697916665,-0.06937591333733376,-1.3169426110237734
-0.18702143697916665,-0.06937591333733376,-1.3169426110237734
-0.18696528697916664,-0.06937591333733376,-1.3169426110237734
-0.18690913697916664,-0.06937591333733376,-1.3169426110237734
-0.18685298697916666,-0.06937591333733376,-1.3169426110237734
-0.18679683697916666,-0.06937591333733376,-1.3169426110237734
-0.18674068697916665,-0.06937591333733376,-1.3169426110237734
-0.18668453697916665,-0.06567768848474995,-1.3169426110237734
-0.18662838697916664,-0.06567768848474995,-1.3169426110237734
-0.18657223697916664,-0.06937591333733376,-1.3169426110237734
-0.18651608697916666,-0.06567768848474995,-1.3169426110237734
-0.18645993697916666,-0.06937591333733376,-1.3169426110237734
-0.18640378697916665,-0.06567768848474995,-1.3169426110237734
-0.18634763697916665,-0.06567768848474995,-1.3169426110237734
-0.18629148697916664,-0.06567768848474995,-1.320649962004811
-0.18623533697916664,-0.06567768848475163,-1.3206499620048093
-0.18617918697916666,-0.06937591333733376,-1.3169426110237734
-0.18612303697916666,-0.06937591333733376,-1.3169426110237734
-0.18606688697916665,-0.06937591333733376,-1.3169426110237734
-0.18601073697916665,-0.06937591333733376,-1.3169426110237734
-0.18595458697916664,-0.06937591333733376,-1.3169426110237734
-0.18589843697916666,-0.06937591333733376,-1.3169426110237734
-0.18584228697916666,-0.06937591333733376,-1.3169426110237734
-0.18578613697916666,-0.06937591333733376,-1.3169426110237734
-0.18572998697916665,-0.06937591333733376,-1.3169426110237734
-0.18567383697916665,-0.06567768848474995,-1.3169426110237734
-0.18561768697916664,-0.06937591333733376,-1.320649962004811
-0.18556153697916666,-0.06567768848474995,-1.3169426110237734
-0.18550538697916666,-0.06937591333733376,-1.3169426110237734
-0.18544923697916665,-0.06937591333733376,-1.3169426110237734
-0.18539308697916665,-0.06937591333733376,-1.3169426110237734
-0.18533693697916664,-0.06567768848474995,-1.320649962004811
-0.18528078697916664,-0.06937591333733376,-1.3169426110237734
-0.18522463697916666,-0.06937591333733376,-1.3169426110237734
-0.18516848697916666,-0.06937591333733376,-1.3169426110237734
-0.18511233697916665,-0.06937591333733376,-1.3169426110237734
-0.18505618697916665,-0.06937591333733376,-1.320649962004811
-0.18500003697916664,-0.06937591333733376,-1.3169426110237734
-0.18494388697916664,-0.06937591333733376,-1.3169426110237734
-0.18488773697916666,-0.06937591333733376,-1.320649962004811
-0.18483158697916666,-0.07307413818991755,-1.3169426110237734
-0.18477543697916665,-0.06937591333733376,-1.3169426110237734
-0.18471928697916665,-0.06937591333733376,-1.320649962004811
-0.18466313697916664,-0.06937591333733376,-1.3169426110237734
-0.18460698697916664,-0.06937591333733543,-1.3169426110237734
-0.18455083697916666,-0.07307413818991755,-1.3169426110237734
-0.18449468697916666,-0.06937591333733376,-1.3169426110237734
-0.18443853697916665,-0.07307413818991755,-1.3169426110237734
-0.18438238697916665,-0.07307413818991755,-1.3169426110237734
-0.18432623697916664,-0.06937591333733376,-1.3169426110237734
-0.18427008697916666,-0.07307413818991587,-1.3169426110237734
-0.18421393697916666,-0.07307413818991755,-1.3169426110237734
-0.18415778697916665,-0.07307413818991755,-1.3169426110237734
-0.18410163697916665,-0.07307413818991755,-1.3169426110237734
-0.18404548697916664,-0.07307413818991755,-1.3169426110237734
-0.18398933697916664,-0.07307413818991755,-1.3169426110237734
-0.18393318697916666,-0.07307413818991755,-1.3169426110237734
-0.18387703697916666,-0.07307413818991755,-1.3169426110237734
-0.18382088697916665,-0.07307413818991755,-1.3169426110237734
-0.18376473697916665,-0.07307413818991755,-1.3169426110237734
-0.18370858697916664,-0.06937591333733376,-1.3169426110237734
-0.18365243697916664,-0.06937591333733376,-1.3169426110237734
-0.18359628697916666,-0.06937591333733376,-1.320649962004811
-0.18354013697916666,-0.07307413818991755,-1.3169426110237734
-0.18348398697916665,-0.07307413818991755,-1.3169426110237734
-0.18342783697916665,-0.07307413818991755,-1.3169426110237734
-0.18337168697916664,-0.06937591333733376,-1.3169426110237734
-0.18331553697916664,-0.06937591333733376,-1.3169426110237734
-0.18325938697916666,-0.06937591333733376,-1.3169426110237734
-0.18320323697916666,-0.06937591333733376,-1.3169426110237734
-0.18314708697916665,-0.07307413818991755,-1.3169426110237734
-0.18309093697916665,-0.06937591333733376,-1.3169426110237734
-0.18303478697916664,-0.06937591333733376,-1.3169426110237734
-0.18297863697916666,-0.06937591333733376,-1.3169426110237734
-0.18292248697916666,-0.06937591333733376,-1.3169426110237734
-0.18286633697916665,-0.06937591333733376,-1.3169426110237734
-0.18281018697916665,-0.06937591333733376,-1.3169426110237734
-0.18275403697916665,-0.06937591333733376,-1.3169426110237734
-0.18269788697916664,-0.06567768848474995,-1.3169426110237734
-0.18264173697916666,-0.06567768848474995,-1.3169426110237734
-0.18258558697916666,-0.06567768848474995,-1.320649962004811
-0.18252943697916665,-0.06937591333733376,-1.320649962004811
-0.18247328697916665,-0.06567768848474995,-1.320649962004811
-0.18241713697916664,-0.06567768848474995,-1.3169426110237734
-0.18236098697916664,-0.06567768848474995,-1.3169426110237734
-0.18230483697916666,-0.06567768848474995,-1.3169426110237734
-0.18224868697916666,-0.06567768848474995,-1.3169426110237734
-0.18219253697916665,-0.06567768848474995,-1.320649962004811
-0.18213638697916665,-0.06567768848474995,-1.3169426110237734
-0.18208023697916664,-0.06197946363216615,-1.3169426110237734
-0.18202408697916664,-0.06197946363216783,-1.3169426110237734
-0.18196793697916666,-0.06567768848474995,-1.3169426110237734
-0.18191178697916666,-0.06197946363216615,-1.3169426110237734
-0.18185563697916665,-0.06197946363216615,-1.3169426110237734
-0.18179948697916665,-0.06197946363216615,-1.3169426110237734
-0.18174333697916664,-0.06197946363216615,-1.3169426110237734
-0.18168718697916666,-0.06197946363216615,-1.3169426110237734
-0.18163103697916666,-0.06197946363216615,-1.3169426110237734
-0.18157488697916666,-0.06197946363216615,-1.3169426110237734
-0.18151873697916665,-0.06197946363216615,-1.3169426110237734
-0.18146258697916665,-0.06197946363216615,-1.3169426110237734
-0.18140643697916664,-0.06197946363216615,-1.3169426110237734
-0.18135028697916666,-0.06197946363216615,-1.3169426110237734
-0.18129413697916666,-0.06197946363216615,-1.3169426110237734
-0.18123798697916665,-0.06197946363216615,-1.3169426110237734
-0.18118183697916665,-0.06197946363216615,-1.3169426110237734
-0.18112568697916664,-0.05828123877958235,-1.3169426110237734
-0.18106953697916664,-0.05828123877958235,-1.3169426110237734
-0.18101338697916666,-0.05828123877958235,-1.3169426110237734
-0.18095723697916666,-0.05828123877958235,-1.320649962004811
-0.18090108697916665,-0.05828123877958235,-1.320649962004811
-0.18084493697916665,-0.05828123877958235,-1.3169426110237734
-0.18078878697916664,-0.05828123877958235,-1.320649962004811
-0.18073263697916664,-0.05828123877958235,-1.3169426110237734
-0.18067648697916666,-0.054583013926998554,-1.3169426110237734
-0.18062033697916666,-0.054583013926998554,-1.3169426110237734
-0.18056418697916665,-0.054583013926998554,-1.320649962004811
-0.18050803697916665,-0.054583013926998554,-1.3169426110237734
-0.18045188697916664,-0.054583013926998554,-1.3169426110237734
-0.18039573697916664,-0.05088478907441475,-1.320649962004811
-0.18033958697916666,-0.05088478907441475,-1.320649962004811
-0.18028343697916666,-0.05088478907441475,-1.3169426110237734
-0.18022728697916665,-0.05088478907441475,-1.320649962004811
-0.18017113697916665,-0.05088478907441475,-1.320649962004811
-0.18011498697916664,-0.05088478907441475,-1.320649962004811
