10Hz/acq0068.csv

#Digilent WaveForms Oscilloscope Acquisition
#Device Name: Discovery2
#Serial Number: SN:210321AA28BE
#Date Time: 2023-05-24 14:52:43.039
#Sample rate: 17809.4Hz
#Samples: 8192
#Trigger: Source: Channel 1 Type: Edge Condition: Rising Level: 800 mV Hyst.: Auto HoldOff: 100 ns
#Channel 1: Range: 1 V/div Offset: 0 V Attenuation: 1 X Sample Mode: Average
#Channel 2: Range: 1 V/div Offset: 0 V Attenuation: 1 X Sample Mode: Average

Time (s),Channel 1 (V),Channel 2 (V)
-0.19772213073401163,-0.07307413818991755,-1.3169426110237734
-0.1976659807340116,-0.084168812747674,-1.3169426110237734
-0.19760983073401162,-0.09526348730542035,-1.3169426110237734
-0.19755368073401158,-0.10265993701059467,-1.3169426110237734
-0.1974975307340116,-0.1100563867157589,-1.3169426110237734
-0.19744138073401163,-0.11745283642092315,-1.3169426110237734
-0.1973852307340116,-0.1211510612735103,-1.3169426110237734
-0.19732908073401162,-0.12854751097867453,-1.3169426110237734
-0.1972729307340116,-0.1322457358312617,-1.3169426110237734
-0.1972167807340116,-0.13964218553642763,-1.3169426110237734
-0.19716063073401163,-0.14334041038900974,-1.3169426110237734
-0.1971044807340116,-0.14703863524159524,-1.3169426110237734
-0.19704833073401162,-0.15073686009417733,-1.3169426110237734
-0.1969921807340116,-0.15443508494676284,-1.3169426110237734
-0.1969360307340116,-0.15813330979934495,-1.3169426110237734
-0.19687988073401164,-0.16183153465192704,-1.3169426110237734
-0.1968237307340116,-0.16183153465193043,-1.3169426110237734
-0.19676758073401163,-0.16552975950451254,-1.3169426110237734
-0.1967114307340116,-0.16552975950451423,-1.3169426110237734
-0.19665528073401162,-0.16922798435709635,-1.3169426110237734
-0.19659913073401158,-0.16922798435709635,-1.3169426110237734
-0.1965429807340116,-0.16922798435709804,-1.3169426110237734
-0.19648683073401163,-0.17292620920968013,-1.3169426110237734
-0.1964306807340116,-0.17292620920968013,-1.3169426110237734
-0.19637453073401162,-0.17292620920968013,-1.3169426110237734
-0.1963183807340116,-0.17292620920968013,-1.3169426110237734
-0.1962622307340116,-0.17292620920968013,-1.3169426110237734
-0.19620608073401163,-0.17292620920968013,-1.3169426110237734
-0.1961499307340116,-0.17292620920968013,-1.3132352600427375
-0.19609378073401162,-0.17292620920968013,-1.3169426110237734
-0.1960376307340116,-0.17292620920968013,-1.3169426110237734
-0.19598148073401161,-0.17292620920968013,-1.3169426110237734
-0.19592533073401158,-0.17292620920968013,-1.3169426110237734
-0.1958691807340116,-0.17292620920968013,-1.3169426110237734
-0.19581303073401163,-0.17292620920968013,-1.3169426110237734
-0.1957568807340116,-0.17292620920967844,-1.3169426110237734
-0.19570073073401162,-0.16922798435709635,-1.3169426110237734
-0.19564458073401159,-0.16922798435709635,-1.3169426110237734
-0.1955884307340116,-0.16922798435709635,-1.3169426110237734
-0.19553228073401163,-0.16922798435709635,-1.3169426110237734
-0.1954761307340116,-0.16552975950451254,-1.3169426110237716
-0.19541998073401162,-0.16552975950451254,-1.3132352600427357
-0.1953638307340116,-0.16552975950451254,-1.3132352600427357
-0.1953076807340116,-0.16552975950451254,-1.3132352600427357
-0.19525153073401164,-0.16552975950451254,-1.3132352600427357
-0.1951953807340116,-0.16552975950451254,-1.3169426110237734
-0.19513923073401163,-0.16552975950451254,-1.3169426110237734
-0.1950830807340116,-0.16552975950451254,-1.3169426110237734
-0.19502693073401162,-0.16552975950451254,-1.3169426110237734
-0.19497078073401158,-0.16183153465192873,-1.3169426110237734
-0.1949146307340116,-0.16183153465192704,-1.3169426110237734
-0.19485848073401163,-0.15813330979934495,-1.3169426110237734
-0.1948023307340116,-0.15813330979934495,-1.3169426110237734
-0.19474618073401162,-0.15813330979934495,-1.3169426110237734
-0.1946900307340116,-0.15443508494676114,-1.3169426110237734
-0.1946338807340116,-0.15443508494676114,-1.3169426110237734
-0.19457773073401163,-0.15443508494676114,-1.3169426110237734
-0.1945215807340116,-0.15443508494675945,-1.3169426110237734
-0.19446543073401162,-0.15073686009417733,-1.3169426110237734
-0.1944092807340116,-0.15073686009417733,-1.3169426110237734
-0.19435313073401161,-0.15073686009417733,-1.3169426110237734
-0.19429698073401164,-0.15073686009417733,-1.3169426110237734
-0.1942408307340116,-0.14703863524159355,-1.3169426110237716
-0.19418468073401163,-0.14703863524159355,-1.3132352600427357
-0.1941285307340116,-0.14334041038900974,-1.3169426110237734
-0.19407238073401162,-0.14334041038900974,-1.3169426110237734
-0.19401623073401159,-0.14334041038900974,-1.3169426110237734
-0.1939600807340116,-0.14334041038900805,-1.3169426110237734
-0.19390393073401163,-0.13964218553642593,-1.3169426110237734
-0.1938477807340116,-0.13594396068384215,-1.3169426110237734
-0.19379163073401162,-0.13594396068384215,-1.3169426110237734
-0.1937354807340116,-0.13594396068384046,-1.3169426110237734
-0.1936793307340116,-0.13224573583125834,-1.3169426110237734
-0.19362318073401164,-0.13224573583125834,-1.3169426110237734
-0.1935670307340116,-0.13224573583125665,-1.3169426110237734
-0.19351088073401163,-0.12854751097867453,-1.3169426110237734
-0.1934547307340116,-0.12854751097867453,-1.3169426110237734
-0.19339858073401162,-0.12854751097867453,-1.3169426110237734
-0.19334243073401158,-0.12484928612608738,-1.313235260042739
-0.1932862807340116,-0.12115106127350694,-1.3169426110237734
-0.19323013073401163,-0.12115106127350694,-1.3169426110237734
-0.1931739807340116,-0.11745283642092315,-1.3169426110237734
-0.19311783073401162,-0.11745283642092315,-1.3169426110237734
-0.1930616807340116,-0.11745283642092315,-1.3169426110237734
-0.1930055307340116,-0.11745283642092147,-1.3169426110237734
-0.19294938073401163,-0.11375461156833934,-1.3169426110237734
-0.1928932307340116,-0.11375461156833766,-1.3169426110237734
-0.19283708073401162,-0.11005638671575554,-1.3169426110237734
-0.1927809307340116,-0.11005638671575554,-1.3169426110237734
-0.1927247807340116,-0.11005638671575554,-1.3169426110237734
-0.19266863073401164,-0.11005638671575554,-1.3169426110237734
-0.1926124807340116,-0.11005638671575387,-1.3169426110237734
-0.19255633073401163,-0.10635816186317175,-1.3169426110237734
-0.1925001807340116,-0.10635816186317175,-1.3169426110237734
-0.19244403073401162,-0.10635816186317175,-1.3169426110237734
-0.19238788073401158,-0.10265993701058794,-1.3169426110237734
-0.1923317307340116,-0.10265993701058794,-1.3169426110237734
-0.19227558073401163,-0.10265993701058794,-1.3169426110237734
-0.1922194307340116,-0.10265993701058626,-1.3169426110237734
-0.19216328073401162,-0.09896171215800414,-1.3169426110237734
-0.1921071307340116,-0.09896171215800414,-1.3169426110237734
-0.1920509807340116,-0.09896171215800414,-1.3169426110237734
-0.19199483073401163,-0.09526348730542035,-1.3169426110237734
-0.1919386807340116,-0.09526348730542035,-1.3169426110237734
-0.19188253073401162,-0.09526348730542035,-1.3169426110237734
-0.1918263807340116,-0.09526348730542035,-1.3169426110237734
-0.19177023073401162,-0.09526348730542035,-1.3169426110237734
-0.19171408073401158,-0.09526348730542035,-1.3169426110237734
-0.1916579307340116,-0.09526348730542035,-1.3169426110237716
-0.19160178073401163,-0.09526348730542035,-1.3132352600427357
-0.1915456307340116,-0.09526348730542035,-1.3169426110237734
-0.19148948073401162,-0.09526348730542035,-1.3169426110237734
-0.1914333307340116,-0.09156526245283655,-1.3169426110237734
-0.1913771807340116,-0.09156526245283655,-1.3169426110237734
-0.19132103073401163,-0.09156526245283655,-1.3169426110237734
-0.1912648807340116,-0.09156526245283488,-1.3169426110237734
-0.19120873073401162,-0.08786703760025275,-1.3169426110237734
-0.1911525807340116,-0.08786703760025275,-1.3169426110237734
-0.1910964307340116,-0.08786703760025275,-1.3169426110237734
-0.19104028073401164,-0.08786703760025275,-1.3169426110237734
-0.1909841307340116,-0.08416881274766895,-1.3169426110237734
-0.19092798073401163,-0.08416881274766895,-1.3169426110237734
-0.1908718307340116,-0.08416881274766895,-1.3169426110237734
-0.19081568073401162,-0.08416881274766895,-1.3169426110237734
-0.19075953073401158,-0.08416881274766895,-1.3169426110237734
-0.1907033807340116,-0.08416881274766727,-1.3169426110237734
-0.19064723073401163,-0.08047058789508515,-1.3169426110237734
-0.1905910807340116,-0.08047058789508515,-1.3169426110237734
-0.19053493073401162,-0.08047058789508515,-1.3169426110237734
-0.1904787807340116,-0.08047058789508348,-1.3169426110237734
-0.1904226307340116,-0.07677236304250135,-1.3169426110237734
-0.19036648073401163,-0.07677236304250135,-1.3169426110237734
-0.1903103307340116,-0.07677236304249967,-1.3169426110237734
-0.19025418073401162,-0.07307413818991755,-1.3169426110237734
-0.1901980307340116,-0.07677236304249967,-1.3169426110237734
-0.19014188073401161,-0.07307413818991755,-1.3169426110237734
-0.19008573073401164,-0.07307413818991755,-1.3169426110237734
-0.1900295807340116,-0.07307413818991755,-1.3169426110237734
-0.18997343073401163,-0.07307413818991755,-1.3169426110237734
-0.1899172807340116,-0.07307413818991755,-1.3169426110237734
-0.18986113073401162,-0.07307413818991755,-1.3169426110237734
-0.18980498073401159,-0.07307413818991755,-1.3169426110237734
-0.1897488307340116,-0.07307413818991755,-1.3169426110237734
-0.18969268073401163,-0.07307413818991755,-1.3169426110237734
-0.1896365307340116,-0.07307413818991755,-1.3169426110237734
-0.18958038073401162,-0.07307413818991755,-1.3169426110237734
-0.1895242307340116,-0.07307413818991755,-1.3169426110237734
-0.1894680807340116,-0.07307413818991755,-1.3169426110237734
-0.18941193073401164,-0.07307413818991755,-1.3169426110237734
-0.1893557807340116,-0.07307413818991755,-1.3169426110237734
-0.18929963073401163,-0.07307413818991755,-1.3169426110237734
-0.1892434807340116,-0.07307413818991755,-1.3169426110237734
-0.18918733073401162,-0.07307413818991755,-1.3169426110237734
-0.18913118073401158,-0.07307413818991755,-1.3169426110237734
-0.1890750307340116,-0.07307413818991755,-1.3169426110237734
-0.18901888073401163,-0.07307413818991755,-1.3169426110237734
-0.1889627307340116,-0.07677236304249967,-1.3169426110237734
-0.18890658073401162,-0.07307413818991755,-1.3169426110237734
-0.1888504307340116,-0.07307413818991755,-1.3169426110237734
-0.1887942807340116,-0.07307413818991755,-1.3169426110237734
-0.18873813073401163,-0.07307413818991755,-1.3169426110237734
-0.1886819807340116,-0.07307413818991587,-1.3169426110237734
-0.18862583073401162,-0.06937591333733376,-1.3169426110237734
-0.1885696807340116,-0.07307413818991755,-1.3169426110237734
-0.18851353073401161,-0.07307413818991755,-1.3169426110237734
-0.18845738073401164,-0.07307413818991755,-1.3169426110237734
-0.1884012307340116,-0.07307413818991755,-1.3169426110237734
-0.18834508073401163,-0.07307413818991755,-1.3169426110237734
-0.1882889307340116,-0.07307413818991755,-1.3169426110237734
-0.18823278073401162,-0.07307413818991755,-1.3169426110237734
-0.18817663073401159,-0.07307413818991755,-1.3169426110237734
-0.1881204807340116,-0.07307413818991755,-1.3169426110237734
-0.18806433073401163,-0.07307413818991755,-1.3169426110237734
-0.1880081807340116,-0.07307413818991923,-1.3169426110237734
-0.18795203073401162,-0.07677236304250135,-1.3169426110237734
-0.1878958807340116,-0.07307413818991755,-1.3169426110237734
-0.1878397307340116,-0.07307413818991755,-1.3169426110237734
-0.18778358073401163,-0.07307413818991755,-1.3169426110237734
-0.1877274307340116,-0.07307413818991755,-1.3169426110237734
-0.18767128073401163,-0.07307413818991755,-1.3169426110237734
-0.1876151307340116,-0.07307413818991755,-1.3169426110237734
-0.18755898073401162,-0.07307413818991755,-1.3169426110237734
-0.18750283073401158,-0.07307413818991755,-1.3169426110237734
-0.1874466807340116,-0.07307413818991923,-1.3169426110237734
-0.18739053073401163,-0.07677236304250135,-1.3169426110237734
-0.1873343807340116,-0.07677236304249967,-1.3169426110237734
-0.18727823073401162,-0.07307413818991755,-1.3169426110237734
-0.1872220807340116,-0.07307413818991755,-1.3169426110237734
-0.1871659307340116,-0.07307413818991755,-1.3169426110237734
-0.18710978073401163,-0.07307413818991755,-1.3169426110237734
-0.1870536307340116,-0.07307413818991755,-1.3169426110237734
-0.18699748073401162,-0.07307413818991755,-1.3169426110237734
-0.1869413307340116,-0.07307413818991755,-1.3169426110237734
-0.1868851807340116,-0.07307413818991755,-1.3169426110237734
-0.18682903073401164,-0.07307413818991755,-1.3169426110237734
-0.1867728807340116,-0.06937591333733543,-1.3169426110237734
-0.18671673073401163,-0.07307413818991755,-1.3169426110237734
-0.1866605807340116,-0.06937591333733543,-1.3169426110237734
-0.18660443073401162,-0.07307413818991755,-1.3169426110237734
-0.18654828073401158,-0.07307413818991755,-1.3169426110237734
-0.1864921307340116,-0.07307413818991587,-1.3169426110237734
-0.18643598073401163,-0.06937591333733376,-1.3169426110237734
-0.1863798307340116,-0.06937591333733376,-1.3169426110237734
-0.18632368073401162,-0.06937591333733376,-1.3169426110237734
-0.1862675307340116,-0.06937591333733543,-1.3169426110237734
-0.1862113807340116,-0.07307413818991587,-1.3169426110237734
-0.18615523073401163,-0.06937591333733376,-1.3169426110237734
-0.1860990807340116,-0.06937591333733376,-1.3169426110237734
-0.18604293073401162,-0.06937591333733376,-1.3169426110237734
-0.1859867807340116,-0.06937591333733376,-1.3169426110237734
-0.18593063073401161,-0.06937591333733376,-1.3169426110237734
-0.18587448073401164,-0.06937591333733376,-1.3169426110237734
-0.1858183307340116,-0.06937591333733376,-1.3169426110237734
-0.18576218073401163,-0.06937591333733376,-1.3169426110237734
-0.1857060307340116,-0.06937591333733543,-1.3169426110237734
-0.18564988073401162,-0.07307413818991755,-1.3169426110237734
-0.18559373073401159,-0.06937591333733376,-1.3169426110237752
-0.1855375807340116,-0.06937591333733376,-1.3206499620048093
-0.18548143073401163,-0.06937591333733376,-1.3169426110237734
-0.1854252807340116,-0.06937591333733543,-1.3169426110237734
-0.18536913073401162,-0.07307413818991755,-1.3169426110237734
-0.1853129807340116,-0.07307413818991755,-1.3169426110237734
-0.1852568307340116,-0.07307413818991755,-1.3169426110237734
-0.18520068073401164,-0.07307413818991755,-1.3169426110237734
-0.1851445307340116,-0.07307413818991755,-1.3169426110237734
-0.18508838073401163,-0.07307413818991755,-1.3169426110237734
-0.1850322307340116,-0.07307413818991923,-1.3169426110237752
-0.18497608073401162,-0.07677236304250135,-1.320649962004811
-0.18491993073401158,-0.07677236304250135,-1.3169426110237734
-0.1848637807340116,-0.07677236304250135,-1.3169426110237734
-0.18480763073401163,-0.07677236304250135,-1.3169426110237734
-0.1847514807340116,-0.07677236304250135,-1.3169426110237734
-0.18469533073401162,-0.07677236304250135,-1.3169426110237734
-0.1846391807340116,-0.07677236304250135,-1.3169426110237734
-0.1845830307340116,-0.07677236304250135,-1.3169426110237734
-0.18452688073401163,-0.07677236304250135,-1.3169426110237734
-0.1844707307340116,-0.07677236304250135,-1.3169426110237734
-0.18441458073401162,-0.07677236304250135,-1.3169426110237734
-0.1843584307340116,-0.07677236304250135,-1.3169426110237734
-0.18430228073401161,-0.07677236304250135,-1.3169426110237734
-0.18424613073401164,-0.07677236304250135,-1.3169426110237734
-0.1841899807340116,-0.07677236304250135,-1.3169426110237734
-0.18413383073401163,-0.07677236304250135,-1.3169426110237734
-0.1840776807340116,-0.07677236304250135,-1.3169426110237734
-0.18402153073401162,-0.07677236304250135,-1.3169426110237734
-0.18396538073401159,-0.07677236304250135,-1.3169426110237734
-0.1839092307340116,-0.07677236304250135,-1.3169426110237734
-0.18385308073401163,-0.07677236304250135,-1.3169426110237734
-0.1837969307340116,-0.07677236304250135,-1.3169426110237734
-0.18374078073401162,-0.07677236304250135,-1.3169426110237734
-0.1836846307340116,-0.07677236304250135,-1.3169426110237752
-0.1836284807340116,-0.07677236304250135,-1.320649962004811
-0.18357233073401164,-0.07677236304250135,-1.320649962004811
-0.1835161807340116,-0.07307413818991755,-1.320649962004811
-0.18346003073401163,-0.07307413818991755,-1.320649962004811
-0.1834038807340116,-0.07307413818991755,-1.3169426110237734
-0.18334773073401162,-0.07307413818991755,-1.3169426110237734
-0.18329158073401158,-0.07307413818991755,-1.3169426110237734
-0.1832354307340116,-0.07307413818991587,-1.3169426110237734
-0.18317928073401163,-0.06937591333733376,-1.3169426110237734
-0.1831231307340116,-0.06937591333733376,-1.3169426110237734
-0.18306698073401162,-0.06937591333733376,-1.3169426110237734
-0.1830108307340116,-0.06937591333733376,-1.3169426110237734
-0.1829546807340116,-0.06937591333733376,-1.3169426110237734
-0.18289853073401163,-0.06937591333733376,-1.3169426110237734
-0.1828423807340116,-0.06937591333733376,-1.3169426110237734
-0.18278623073401162,-0.06937591333733376,-1.3169426110237734
-0.1827300807340116,-0.06937591333733376,-1.3169426110237734
-0.1826739307340116,-0.06937591333733376,-1.3169426110237734
-0.18261778073401164,-0.06937591333733376,-1.320649962004811
-0.1825616307340116,-0.06937591333733376,-1.3169426110237752
-0.18250548073401163,-0.06937591333733376,-1.320649962004811
-0.1824493307340116,-0.06937591333733208,-1.3169426110237734
-0.18239318073401162,-0.06567768848474995,-1.3169426110237734
-0.18233703073401158,-0.06567768848474995,-1.3169426110237734
-0.1822808807340116,-0.06567768848474995,-1.3169426110237734
-0.18222473073401163,-0.06567768848474995,-1.3169426110237734
-0.1821685807340116,-0.06567768848474995,-1.3169426110237734
-0.18211243073401162,-0.06567768848474995,-1.3169426110237734
-0.1820562807340116,-0.06567768848474995,-1.3169426110237734
-0.1820001307340116,-0.06567768848474827,-1.3169426110237734
-0.18194398073401163,-0.06197946363216615,-1.3169426110237734
-0.1818878307340116,-0.06197946363216783,-1.3169426110237734
-0.18183168073401162,-0.06567768848474995,-1.3169426110237734
-0.1817755307340116,-0.06567768848474995,-1.3169426110237734
-0.18171938073401162,-0.06567768848474995,-1.3169426110237734
-0.18166323073401164,-0.06197946363216783,-1.3169426110237734
-0.1816070807340116,-0.06197946363216615,-1.3169426110237734
-0.18155093073401163,-0.06197946363216615,-1.3169426110237734
-0.1814947807340116,-0.06197946363216615,-1.3169426110237734
-0.18143863073401162,-0.06197946363216615,-1.3169426110237734
-0.1813824807340116,-0.05828123877958235,-1.3169426110237734
-0.1813263307340116,-0.05828123877958235,-1.3169426110237734
-0.18127018073401163,-0.05828123877958235,-1.3169426110237734
-0.1812140307340116,-0.05828123877958235,-1.3169426110237734
-0.18115788073401162,-0.05828123877958235,-1.3169426110237734
-0.1811017307340116,-0.05828123877958235,-1.3169426110237734
-0.1810455807340116,-0.05828123877958235,-1.3169426110237734
-0.18098943073401164,-0.05828123877958235,-1.3169426110237734
-0.1809332807340116,-0.05828123877958067,-1.3169426110237734
-0.18087713073401163,-0.054583013926998554,-1.3169426110237734
-0.1808209807340116,-0.054583013926998554,-1.3169426110237734
-0.18076483073401162,-0.054583013926998554,-1.3169426110237734
-0.18070868073401158,-0.05458301392699519,-1.3169426110237734
-0.1806525307340116,-0.05088478907441643,-1.3169426110237734
-0.18059638073401163,-0.054583013926998554,-1.3169426110237734
-0.1805402307340116,-0.05088478907441475,-1.3169426110237734
-0.18048408073401162,-0.05088478907441475,-1.3169426110237734
-0.1804279307340116,-0.05088478907441475,-1.3169426110237734
-0.1803717807340116,-0.05088478907441475,-1.3169426110237734
-0.18031563073401163,-0.05088478907441475,-1.3169426110237734
-0.1802594807340116,-0.04718656422183096,-1.3169426110237734
-0.18020333073401162,-0.04718656422183096,-1.3169426110237734
-0.1801471807340116,-0.04718656422183096,-1.3169426110237752
-0.18009103073401161,-0.04718656422183096,-1.320649962004811
-0.18003488073401164,-0.04718656422183096,-1.3169426110237752
-0.1799787307340116,-0.043488339369247155,-1.3169426110237752
