10Hz/acq0025.csv

#Digilent WaveForms Oscilloscope Acquisition
#Device Name: Discovery2
#Serial Number: SN:210321AA28BE
#Date Time: 2023-05-24 14:52:21.531
#Sample rate: 17809.4Hz
#Samples: 8192
#Trigger: Source: Channel 1 Type: Edge Condition: Rising Level: 800 mV Hyst.: Auto HoldOff: 100 ns
#Channel 1: Range: 1 V/div Offset: 0 V Attenuation: 1 X Sample Mode: Average
#Channel 2: Range: 1 V/div Offset: 0 V Attenuation: 1 X Sample Mode: Average

Time (s),Channel 1 (V),Channel 2 (V)
-0.19773252275365774,-0.043488339369247155,-1.3169426110237734
-0.19767637275365774,-0.05088478907441475,-1.3169426110237734
-0.19762022275365773,-0.06197946363216615,-1.3169426110237734
-0.19756407275365773,-0.07307413818991755,-1.3169426110237734
-0.19750792275365775,-0.08047058789508515,-1.3169426110237734
-0.19745177275365774,-0.09156526245283655,-1.3169426110237734
-0.19739562275365774,-0.09526348730542035,-1.3169426110237734
-0.19733947275365774,-0.10635816186317175,-1.3169426110237734
-0.19728332275365773,-0.11005638671575554,-1.3169426110237734
-0.19722717275365773,-0.11745283642092483,-1.3169426110237734
-0.19717102275365775,-0.12115106127350694,-1.3169426110237734
-0.19711487275365774,-0.12484928612609074,-1.3169426110237734
-0.19705872275365774,-0.12854751097867453,-1.3169426110237734
-0.19700257275365773,-0.13224573583125834,-1.3169426110237734
-0.19694642275365773,-0.14334041038900974,-1.3169426110237734
-0.19689027275365775,-0.14334041038900974,-1.3169426110237734
-0.19683412275365775,-0.14703863524159355,-1.3169426110237734
-0.19677797275365774,-0.15443508494676114,-1.3169426110237734
-0.19672182275365774,-0.15073686009417733,-1.3169426110237734
-0.19666567275365773,-0.15073686009417733,-1.3169426110237734
-0.19660952275365773,-0.15443508494676114,-1.3169426110237734
-0.19655337275365775,-0.15813330979934495,-1.3169426110237734
-0.19649722275365775,-0.15813330979934495,-1.3169426110237734
-0.19644107275365774,-0.16183153465192873,-1.3169426110237734
-0.19638492275365774,-0.16552975950451254,-1.3169426110237734
-0.19632877275365773,-0.16552975950451254,-1.3169426110237734
-0.19627262275365773,-0.16552975950451254,-1.3169426110237734
-0.19621647275365775,-0.16922798435709635,-1.3169426110237734
-0.19616032275365775,-0.16922798435709635,-1.3169426110237734
-0.19610417275365774,-0.17662443406226394,-1.3169426110237734
-0.19604802275365774,-0.17662443406226394,-1.3169426110237734
-0.19599187275365773,-0.17292620920968013,-1.3169426110237734
-0.19593572275365773,-0.17292620920968013,-1.3169426110237734
-0.19587957275365775,-0.17292620920968013,-1.3169426110237734
-0.19582342275365774,-0.17662443406226394,-1.3169426110237734
-0.19576727275365774,-0.17662443406226394,-1.3169426110237734
-0.19571112275365773,-0.17662443406226394,-1.3169426110237734
-0.19565497275365773,-0.17662443406226394,-1.3169426110237734
-0.19559882275365775,-0.18032265891484606,-1.3169426110237734
-0.19554267275365775,-0.18032265891484775,-1.3169426110237734
-0.19548652275365774,-0.18032265891484775,-1.3169426110237734
-0.19543037275365774,-0.18032265891484775,-1.3169426110237734
-0.19537422275365773,-0.17662443406226394,-1.3169426110237734
-0.19531807275365773,-0.18032265891484775,-1.3169426110237734
-0.19526192275365775,-0.18032265891484775,-1.3169426110237734
-0.19520577275365775,-0.18032265891484775,-1.3169426110237734
-0.19514962275365774,-0.18032265891484775,-1.3169426110237734
-0.19509347275365774,-0.18032265891484775,-1.3169426110237734
-0.19503732275365773,-0.18032265891484775,-1.3169426110237734
-0.19498117275365773,-0.18032265891484775,-1.3169426110237734
-0.19492502275365775,-0.18032265891484775,-1.3169426110237734
-0.19486887275365775,-0.18032265891484775,-1.3169426110237734
-0.19481272275365774,-0.18032265891484775,-1.3169426110237734
-0.19475657275365774,-0.18032265891484775,-1.3169426110237734
-0.19470042275365773,-0.18032265891484775,-1.3169426110237734
-0.19464427275365773,-0.18032265891484606,-1.3169426110237734
-0.19458812275365775,-0.17662443406226394,-1.3169426110237734
-0.19453197275365774,-0.18402088376743153,-1.3169426110237734
-0.19447582275365774,-0.18032265891484775,-1.3169426110237734
-0.19441967275365774,-0.18032265891484775,-1.3169426110237734
-0.19436352275365773,-0.17662443406226394,-1.3169426110237734
-0.19430737275365775,-0.18032265891484606,-1.3169426110237734
-0.19425122275365775,-0.17662443406226394,-1.3169426110237734
-0.19419507275365774,-0.17662443406226394,-1.3169426110237734
-0.19413892275365774,-0.17662443406226394,-1.3169426110237734
-0.19408277275365773,-0.18032265891484775,-1.3169426110237734
-0.19402662275365773,-0.17662443406226394,-1.3169426110237734
-0.19397047275365775,-0.17662443406226394,-1.3169426110237734
-0.19391432275365775,-0.17662443406226394,-1.3169426110237734
-0.19385817275365774,-0.17662443406226394,-1.3169426110237734
-0.19380202275365774,-0.17662443406226394,-1.3169426110237734
-0.19374587275365773,-0.17292620920968013,-1.3169426110237734
-0.19368972275365773,-0.17292620920968013,-1.3169426110237734
-0.19363357275365775,-0.17292620920968013,-1.3169426110237734
-0.19357742275365775,-0.17292620920968013,-1.3169426110237734
-0.19352127275365774,-0.16922798435709635,-1.3169426110237734
-0.19346512275365774,-0.16922798435709635,-1.3169426110237734
-0.19340897275365773,-0.16922798435709635,-1.3169426110237734
-0.19335282275365773,-0.16922798435709635,-1.3169426110237734
-0.19329667275365775,-0.16922798435709635,-1.3169426110237734
-0.19324052275365775,-0.16922798435709635,-1.3169426110237734
-0.19318437275365774,-0.16922798435709635,-1.3169426110237734
-0.19312822275365774,-0.16552975950451254,-1.3169426110237734
-0.19307207275365773,-0.16552975950451254,-1.3169426110237734
-0.19301592275365773,-0.16183153465192873,-1.3169426110237734
-0.19295977275365775,-0.16183153465192873,-1.3169426110237734
-0.19290362275365774,-0.16183153465192873,-1.3169426110237734
-0.19284747275365774,-0.16183153465192873,-1.3169426110237734
-0.19279132275365773,-0.15813330979934495,-1.3169426110237734
-0.19273517275365773,-0.15813330979934495,-1.3169426110237734
-0.19267902275365775,-0.15813330979934495,-1.3169426110237734
-0.19262287275365775,-0.15443508494676114,-1.3169426110237734
-0.19256672275365774,-0.15443508494676114,-1.3169426110237734
-0.19251057275365774,-0.15443508494676114,-1.3169426110237734
-0.19245442275365773,-0.15443508494676114,-1.3169426110237734
-0.19239827275365773,-0.15443508494676114,-1.3169426110237734
-0.19234212275365775,-0.15443508494676114,-1.3169426110237734
-0.19228597275365775,-0.15443508494676114,-1.3169426110237734
-0.19222982275365774,-0.15443508494676114,-1.3169426110237734
-0.19217367275365774,-0.15073686009417733,-1.3169426110237734
-0.19211752275365773,-0.15073686009417733,-1.3169426110237734
-0.19206137275365773,-0.15073686009417733,-1.3169426110237734
-0.19200522275365775,-0.15073686009417733,-1.3169426110237734
-0.19194907275365775,-0.14703863524159355,-1.3169426110237734
-0.19189292275365774,-0.14703863524159355,-1.3169426110237734
-0.19183677275365774,-0.15073686009417733,-1.3169426110237734
-0.19178062275365773,-0.15443508494676114,-1.3169426110237734
-0.19172447275365773,-0.14703863524159355,-1.3169426110237734
-0.19166832275365775,-0.14703863524159355,-1.3169426110237734
-0.19161217275365774,-0.14703863524159355,-1.3169426110237734
-0.19155602275365774,-0.14703863524159355,-1.3169426110237734
-0.19149987275365773,-0.14334041038900974,-1.3169426110237734
-0.19144372275365773,-0.14334041038900974,-1.3169426110237734
-0.19138757275365775,-0.14703863524159186,-1.3169426110237734
-0.19133142275365775,-0.14334041038900974,-1.3169426110237734
-0.19127527275365774,-0.13964218553642593,-1.3169426110237734
-0.19121912275365774,-0.13964218553642593,-1.3169426110237734
-0.19116297275365773,-0.13964218553642593,-1.3169426110237734
-0.19110682275365773,-0.13594396068384215,-1.3169426110237734
-0.19105067275365775,-0.13594396068384215,-1.3169426110237734
-0.19099452275365775,-0.13594396068384215,-1.3169426110237734
-0.19093837275365774,-0.13594396068384215,-1.3169426110237734
-0.19088222275365774,-0.13224573583125834,-1.3169426110237734
-0.19082607275365773,-0.13224573583125834,-1.3169426110237734
-0.19076992275365773,-0.13224573583125834,-1.3169426110237734
-0.19071377275365775,-0.12854751097867453,-1.3169426110237734
-0.19065762275365775,-0.12854751097867453,-1.3169426110237734
-0.19060147275365774,-0.12854751097867453,-1.3169426110237734
-0.19054532275365774,-0.12484928612609074,-1.3169426110237734
-0.19048917275365773,-0.12484928612609074,-1.3169426110237734
-0.19043302275365773,-0.12484928612609074,-1.3169426110237734
-0.19037687275365775,-0.12484928612609074,-1.3169426110237734
-0.19032072275365775,-0.12115106127350694,-1.3169426110237734
-0.19026457275365774,-0.12115106127350694,-1.3169426110237734
-0.19020842275365774,-0.11745283642092315,-1.3169426110237734
-0.19015227275365773,-0.12115106127350694,-1.3169426110237734
-0.19009612275365775,-0.11745283642092483,-1.3169426110237734
-0.19003997275365775,-0.11745283642092315,-1.3169426110237734
-0.18998382275365774,-0.11745283642092315,-1.3169426110237734
-0.18992767275365774,-0.11375461156833934,-1.3169426110237734
-0.18987152275365773,-0.11375461156833934,-1.3169426110237734
-0.18981537275365773,-0.11375461156833934,-1.3169426110237734
-0.18975922275365775,-0.11375461156833934,-1.3169426110237734
-0.18970307275365775,-0.11375461156833934,-1.3169426110237734
-0.18964692275365774,-0.11375461156833934,-1.3169426110237734
-0.18959077275365774,-0.11005638671575554,-1.3169426110237734
-0.18953462275365773,-0.10635816186317175,-1.3169426110237734
-0.18947847275365773,-0.10635816186317175,-1.3169426110237734
-0.18942232275365775,-0.10635816186317175,-1.3169426110237734
-0.18936617275365775,-0.10635816186317175,-1.3169426110237734
-0.18931002275365774,-0.10265993701058794,-1.3169426110237734
-0.18925387275365774,-0.09896171215800414,-1.3169426110237734
-0.18919772275365773,-0.10265993701058794,-1.320649962004811
-0.18914157275365773,-0.09896171215800414,-1.3169426110237734
-0.18908542275365775,-0.09526348730542035,-1.3169426110237734
-0.18902927275365775,-0.09156526245283655,-1.320649962004811
-0.18897312275365774,-0.09156526245283655,-1.3169426110237734
-0.18891697275365774,-0.09156526245283655,-1.3169426110237734
-0.18886082275365773,-0.09156526245283655,-1.3169426110237734
-0.18880467275365773,-0.09156526245283655,-1.3169426110237734
-0.18874852275365775,-0.09156526245283655,-1.3169426110237734
-0.18869237275365774,-0.08786703760025275,-1.3169426110237734
-0.18863622275365774,-0.08786703760025275,-1.3169426110237734
-0.18858007275365773,-0.08786703760025275,-1.3169426110237734
-0.18852392275365773,-0.08786703760025275,-1.3169426110237734
-0.18846777275365775,-0.08416881274767063,-1.3206499620048093
-0.18841162275365775,-0.08416881274766895,-1.3169426110237734
-0.18835547275365774,-0.08416881274766895,-1.3169426110237734
-0.18829932275365774,-0.08416881274766895,-1.3169426110237734
-0.18824317275365773,-0.08416881274766895,-1.3169426110237734
-0.18818702275365773,-0.08047058789508515,-1.3169426110237734
-0.18813087275365775,-0.08047058789508515,-1.3169426110237734
-0.18807472275365775,-0.08047058789508515,-1.3169426110237734
-0.18801857275365774,-0.07677236304250135,-1.3169426110237734
-0.18796242275365774,-0.07677236304250135,-1.3169426110237734
-0.18790627275365773,-0.07677236304250135,-1.3169426110237734
-0.18785012275365773,-0.07677236304250135,-1.320649962004811
-0.18779397275365775,-0.07677236304250135,-1.3169426110237734
-0.18773782275365775,-0.07677236304250135,-1.3169426110237734
-0.18768167275365774,-0.07677236304250135,-1.3169426110237734
-0.18762552275365774,-0.07307413818991755,-1.3169426110237734
-0.18756937275365773,-0.07307413818991755,-1.3169426110237734
-0.18751322275365773,-0.07307413818991587,-1.320649962004811
-0.18745707275365775,-0.06937591333733376,-1.320649962004811
-0.18740092275365774,-0.06937591333733376,-1.3169426110237734
-0.18734477275365774,-0.06937591333733376,-1.3169426110237734
-0.18728862275365774,-0.06937591333733376,-1.3169426110237734
-0.18723247275365773,-0.06567768848474995,-1.3169426110237734
-0.18717632275365775,-0.06567768848474995,-1.3169426110237734
-0.18712017275365775,-0.06567768848474995,-1.3169426110237734
-0.18706402275365774,-0.06567768848474995,-1.3169426110237734
-0.18700787275365774,-0.06197946363216615,-1.3169426110237734
-0.18695172275365773,-0.06197946363216615,-1.3169426110237734
-0.18689557275365773,-0.05828123877958235,-1.3169426110237734
-0.18683942275365775,-0.05828123877958235,-1.3169426110237734
-0.18678327275365775,-0.05828123877958235,-1.3169426110237734
-0.18672712275365774,-0.05828123877958235,-1.3169426110237734
-0.18667097275365774,-0.054583013926998554,-1.3169426110237734
-0.18661482275365773,-0.05088478907441475,-1.3169426110237734
-0.18655867275365773,-0.05088478907441475,-1.3169426110237734
-0.18650252275365775,-0.05088478907441475,-1.3169426110237734
-0.18644637275365775,-0.04718656422183096,-1.3169426110237734
-0.18639022275365774,-0.04718656422183096,-1.3169426110237734
-0.18633407275365774,-0.04718656422183096,-1.3169426110237734
-0.18627792275365773,-0.04718656422183096,-1.3169426110237734
-0.18622177275365773,-0.04718656422182928,-1.3169426110237752
-0.18616562275365775,-0.043488339369247155,-1.320649962004811
-0.18610947275365775,-0.043488339369247155,-1.320649962004811
-0.18605332275365774,-0.04718656422183096,-1.320649962004811
-0.18599717275365774,-0.043488339369247155,-1.3169426110237734
-0.18594102275365773,-0.03979011451666335,-1.3169426110237734
-0.18588487275365775,-0.03979011451666335,-1.3169426110237734
-0.18582872275365775,-0.03609188966407956,-1.3169426110237734
-0.18577257275365774,-0.03609188966407956,-1.3169426110237734
-0.18571642275365774,-0.03609188966407956,-1.3169426110237734
-0.18566027275365773,-0.03609188966407956,-1.3169426110237734
-0.18560412275365773,-0.03609188966407956,-1.3169426110237734
-0.18554797275365775,-0.03979011451666335,-1.320649962004811
-0.18549182275365775,-0.03609188966407956,-1.320649962004811
-0.18543567275365774,-0.03609188966407956,-1.320649962004811
-0.18537952275365774,-0.03609188966407956,-1.320649962004811
-0.18532337275365773,-0.03609188966407956,-1.320649962004811
-0.18526722275365773,-0.03609188966407956,-1.320649962004811
-0.18521107275365775,-0.032393664811495755,-1.3169426110237734
-0.18515492275365775,-0.032393664811495755,-1.3169426110237734
-0.18509877275365774,-0.032393664811495755,-1.3169426110237734
-0.18504262275365774,-0.032393664811495755,-1.3169426110237734
-0.18498647275365773,-0.028695439958911956,-1.3169426110237734
-0.18493032275365773,-0.032393664811495755,-1.3169426110237734
-0.18487417275365775,-0.028695439958911956,-1.3169426110237734
-0.18481802275365775,-0.032393664811495755,-1.3169426110237734
-0.18476187275365774,-0.032393664811495755,-1.3169426110237734
-0.18470572275365774,-0.028695439958911956,-1.3169426110237734
-0.18464957275365773,-0.028695439958911956,-1.320649962004811
-0.18459342275365773,-0.028695439958911956,-1.3206499620048093
-0.18453727275365775,-0.028695439958911956,-1.3169426110237734
-0.18448112275365774,-0.028695439958911956,-1.3169426110237734
-0.18442497275365774,-0.028695439958911956,-1.320649962004811
-0.18436882275365774,-0.028695439958911956,-1.320649962004811
-0.18431267275365773,-0.024997215106328158,-1.3169426110237734
-0.18425652275365775,-0.024997215106328158,-1.3169426110237734
-0.18420037275365775,-0.028695439958911956,-1.3169426110237734
-0.18414422275365774,-0.028695439958911956,-1.320649962004811
-0.18408807275365774,-0.028695439958911956,-1.320649962004811
-0.18403192275365773,-0.028695439958911956,-1.320649962004811
-0.18397577275365773,-0.028695439958911956,-1.320649962004811
-0.18391962275365775,-0.028695439958911956,-1.320649962004811
-0.18386347275365775,-0.024997215106328158,-1.3169426110237734
-0.18380732275365774,-0.024997215106328158,-1.320649962004811
-0.18375117275365774,-0.024997215106328158,-1.3169426110237734
-0.18369502275365773,-0.021298990253744356,-1.3169426110237734
-0.18363887275365773,-0.021298990253744356,-1.3169426110237734
-0.18358272275365775,-0.021298990253744356,-1.3169426110237734
-0.18352657275365775,-0.021298990253744356,-1.320649962004811
-0.18347042275365774,-0.021298990253744356,-1.320649962004811
-0.18341427275365774,-0.021298990253744356,-1.320649962004811
-0.18335812275365773,-0.021298990253744356,-1.320649962004811
-0.18330197275365773,-0.021298990253744356,-1.3169426110237752
-0.18324582275365775,-0.021298990253744356,-1.320649962004811
-0.18318967275365775,-0.021298990253744356,-1.320649962004811
-0.18313352275365774,-0.017600765401160557,-1.3169426110237734
-0.18307737275365774,-0.021298990253744356,-1.320649962004811
-0.18302122275365773,-0.017600765401160557,-1.320649962004811
-0.18296507275365775,-0.021298990253742673,-1.320649962004811
-0.18290892275365775,-0.021298990253744356,-1.320649962004811
-0.18285277275365774,-0.021298990253744356,-1.320649962004811
-0.18279662275365774,-0.021298990253744356,-1.320649962004811
-0.18274047275365773,-0.021298990253744356,-1.320649962004811
-0.18268432275365773,-0.021298990253744356,-1.3169426110237734
-0.18262817275365775,-0.021298990253744356,-1.320649962004811
-0.18257202275365775,-0.021298990253744356,-1.320649962004811
-0.18251587275365774,-0.021298990253744356,-1.320649962004811
-0.18245972275365774,-0.021298990253744356,-1.320649962004811
-0.18240357275365773,-0.017600765401160557,-1.320649962004811
-0.18234742275365773,-0.017600765401160557,-1.3169426110237734
-0.18229127275365775,-0.017600765401160557,-1.3169426110237734
-0.18223512275365775,-0.017600765401160557,-1.3169426110237734
-0.18217897275365774,-0.021298990253744356,-1.3169426110237734
-0.18212282275365774,-0.021298990253744356,-1.320649962004811
-0.18206667275365773,-0.021298990253744356,-1.320649962004811
-0.18201052275365773,-0.021298990253744356,-1.320649962004811
-0.18195437275365775,-0.021298990253744356,-1.320649962004811
-0.18189822275365775,-0.024997215106328158,-1.320649962004811
-0.18184207275365774,-0.024997215106328158,-1.320649962004811
-0.18178592275365774,-0.021298990253744356,-1.320649962004811
-0.18172977275365773,-0.024997215106328158,-1.320649962004811
-0.18167362275365775,-0.02129899025374604,-1.320649962004811
-0.18161747275365775,-0.024997215106328158,-1.3169426110237734
-0.18156132275365774,-0.024997215106328158,-1.3169426110237734
-0.18150517275365774,-0.024997215106328158,-1.3169426110237734
-0.18144902275365773,-0.024997215106328158,-1.320649962004811
-0.18139287275365773,-0.024997215106328158,-1.320649962004811
-0.18133672275365775,-0.024997215106328158,-1.320649962004811
-0.18128057275365775,-0.024997215106328158,-1.3169426110237734
-0.18122442275365774,-0.024997215106328158,-1.320649962004811
-0.18116827275365774,-0.028695439958911956,-1.3169426110237734
-0.18111212275365773,-0.028695439958911956,-1.3169426110237734
-0.18105597275365773,-0.028695439958911956,-1.320649962004811
-0.18099982275365775,-0.028695439958911956,-1.3169426110237734
-0.18094367275365775,-0.028695439958911956,-1.320649962004811
-0.18088752275365774,-0.032393664811495755,-1.320649962004811
-0.18083137275365774,-0.032393664811495755,-1.320649962004811
-0.18077522275365773,-0.032393664811495755,-1.320649962004811
-0.18071907275365773,-0.032393664811495755,-1.3169426110237734
-0.18066292275365775,-0.032393664811495755,-1.320649962004811
-0.18060677275365775,-0.032393664811495755,-1.3169426110237734
-0.18055062275365774,-0.028695439958911956,-1.3169426110237734
-0.18049447275365774,-0.032393664811495755,-1.3169426110237734
-0.18043832275365773,-0.028695439958911956,-1.3169426110237734
-0.18038217275365773,-0.032393664811495755,-1.3169426110237752
-0.18032602275365775,-0.032393664811495755,-1.320649962004811
-0.18026987275365774,-0.032393664811495755,-1.3169426110237734
-0.18021372275365774,-0.032393664811495755,-1.3169426110237734
-0.18015757275365774,-0.032393664811495755,-1.320649962004811
