10Hz/acq0019.csv

#Digilent WaveForms Oscilloscope Acquisition
#Device Name: Discovery2
#Serial Number: SN:210321AA28BE
#Date Time: 2023-05-24 14:52:18.534
#Sample rate: 17809.4Hz
#Samples: 8192
#Trigger: Source: Channel 1 Type: Edge Condition: Rising Level: 800 mV Hyst.: Auto HoldOff: 100 ns
#Channel 1: Range: 1 V/div Offset: 0 V Attenuation: 1 X Sample Mode: Average
#Channel 2: Range: 1 V/div Offset: 0 V Attenuation: 1 X Sample Mode: Average

Time (s),Channel 1 (V),Channel 2 (V)
-0.1977267056039969,-0.032393664811495755,-1.3169426110237734
-0.19767055560399693,-0.04348833936924211,-1.3169426110237734
-0.1976144056039969,-0.054583013926998554,-1.3169426110237734
-0.19755825560399692,-0.0656776884847449,-1.3169426110237734
-0.19750210560399695,-0.07307413818991419,-1.3169426110237734
-0.19744595560399691,-0.08047058789508515,-1.3169426110237734
-0.19738980560399694,-0.08786703760024939,-1.3169426110237734
-0.1973336556039969,-0.09526348730542035,-1.3169426110237734
-0.19727750560399693,-0.09896171215800247,-1.3169426110237734
-0.1972213556039969,-0.10635816186317511,-1.3169426110237734
-0.19716520560399692,-0.11375461156833934,-1.3169426110237734
-0.19710905560399694,-0.11745283642092147,-1.3169426110237734
-0.1970529056039969,-0.12115106127350694,-1.3169426110237734
-0.19699675560399693,-0.12484928612608906,-1.3169426110237734
-0.1969406056039969,-0.12854751097867453,-1.3169426110237734
-0.19688445560399692,-0.13224573583125665,-1.3169426110237734
-0.19682830560399694,-0.13594396068384046,-1.3169426110237734
-0.1967721556039969,-0.13964218553642593,-1.3169426110237734
-0.19671600560399694,-0.13964218553642593,-1.3169426110237734
-0.1966598556039969,-0.14334041038900974,-1.3169426110237734
-0.19660370560399693,-0.14703863524159186,-1.3169426110237734
-0.19654755560399695,-0.15073686009417397,-1.3169426110237734
-0.19649140560399692,-0.15443508494676114,-1.3169426110237734
-0.19643525560399694,-0.16183153465192537,-1.3169426110237734
-0.1963791056039969,-0.16183153465192873,-1.3169426110237734
-0.19632295560399693,-0.15813330979934664,-1.3169426110237734
-0.1962668056039969,-0.15813330979934495,-1.3169426110237734
-0.19621065560399692,-0.16183153465192873,-1.3169426110237734
-0.19615450560399694,-0.16552975950451085,-1.3169426110237734
-0.1960983556039969,-0.16552975950451254,-1.3169426110237734
-0.19604220560399693,-0.16552975950451254,-1.3169426110237734
-0.1959860556039969,-0.16552975950451254,-1.3169426110237734
-0.19592990560399692,-0.16922798435709466,-1.3169426110237734
-0.19587375560399695,-0.16922798435709635,-1.3169426110237734
-0.1958176056039969,-0.16922798435709635,-1.3169426110237734
-0.19576145560399694,-0.17292620920967844,-1.3169426110237734
-0.1957053056039969,-0.16922798435709635,-1.3169426110237734
-0.19564915560399693,-0.16922798435709635,-1.3169426110237734
-0.19559300560399695,-0.16922798435709635,-1.3169426110237734
-0.19553685560399692,-0.17292620920968013,-1.3132352600427357
-0.19548070560399694,-0.16922798435709804,-1.3132352600427357
-0.1954245556039969,-0.16922798435709635,-1.3169426110237734
-0.19536840560399693,-0.16922798435709635,-1.3169426110237734
-0.1953122556039969,-0.16922798435709635,-1.3169426110237734
-0.19525610560399692,-0.16922798435709635,-1.3169426110237734
-0.19519995560399694,-0.16922798435709635,-1.3169426110237734
-0.1951438056039969,-0.16922798435709635,-1.3169426110237734
-0.19508765560399693,-0.16922798435709635,-1.3169426110237734
-0.1950315056039969,-0.16922798435709635,-1.3169426110237734
-0.19497535560399692,-0.16922798435709635,-1.3169426110237734
-0.19491920560399695,-0.16922798435709635,-1.3169426110237734
-0.19486305560399692,-0.16922798435709635,-1.3169426110237734
-0.19480690560399694,-0.16922798435709635,-1.3169426110237734
-0.1947507556039969,-0.17292620920968013,-1.3132352600427357
-0.19469460560399693,-0.16922798435709804,-1.3169426110237716
-0.1946384556039969,-0.16922798435709635,-1.3169426110237734
-0.19458230560399692,-0.16922798435709635,-1.3169426110237734
-0.19452615560399694,-0.16922798435709635,-1.3169426110237734
-0.1944700056039969,-0.16922798435709635,-1.3169426110237734
-0.19441385560399693,-0.16922798435709635,-1.3169426110237734
-0.1943577056039969,-0.16922798435709635,-1.3169426110237734
-0.19430155560399692,-0.16552975950451423,-1.3169426110237734
-0.19424540560399695,-0.16552975950451254,-1.3169426110237734
-0.1941892556039969,-0.16552975950451254,-1.3169426110237734
-0.19413310560399694,-0.16922798435709466,-1.3169426110237734
-0.1940769556039969,-0.16552975950451254,-1.3169426110237734
-0.19402080560399693,-0.16552975950451254,-1.3169426110237734
-0.19396465560399695,-0.16552975950451254,-1.3169426110237734
-0.19390850560399692,-0.16552975950451254,-1.3169426110237734
-0.19385235560399694,-0.16552975950451254,-1.3169426110237734
-0.1937962056039969,-0.16922798435709635,-1.3169426110237734
-0.19374005560399693,-0.16552975950451423,-1.3169426110237734
-0.1936839056039969,-0.16552975950451254,-1.3169426110237734
-0.19362775560399692,-0.16552975950451254,-1.3169426110237734
-0.19357160560399694,-0.16552975950451254,-1.3169426110237734
-0.1935154556039969,-0.16552975950451254,-1.3169426110237734
-0.19345930560399693,-0.16183153465193043,-1.3169426110237734
-0.1934031556039969,-0.16552975950451254,-1.3169426110237734
-0.19334700560399692,-0.16552975950451254,-1.3169426110237734
-0.19329085560399695,-0.16552975950451254,-1.3169426110237734
-0.19323470560399691,-0.16552975950451254,-1.3169426110237734
-0.19317855560399694,-0.16552975950451254,-1.3169426110237734
-0.1931224056039969,-0.16552975950451254,-1.3169426110237734
-0.19306625560399693,-0.16552975950451254,-1.3169426110237734
-0.1930101056039969,-0.16183153465192873,-1.3169426110237734
-0.19295395560399692,-0.16183153465192873,-1.3169426110237734
-0.19289780560399694,-0.16183153465192873,-1.3169426110237734
-0.1928416556039969,-0.15813330979934495,-1.3169426110237734
-0.19278550560399693,-0.15813330979934495,-1.3169426110237734
-0.1927293556039969,-0.15813330979934495,-1.3169426110237734
-0.19267320560399692,-0.15813330979934495,-1.3169426110237734
-0.19261705560399695,-0.15443508494676284,-1.3169426110237734
-0.1925609056039969,-0.15443508494676114,-1.3169426110237734
-0.19250475560399694,-0.15443508494676114,-1.3169426110237734
-0.1924486056039969,-0.15443508494676114,-1.3169426110237734
-0.19239245560399693,-0.15813330979934326,-1.3169426110237734
-0.19233630560399695,-0.15813330979934495,-1.3169426110237734
-0.19228015560399692,-0.15443508494676114,-1.3169426110237734
-0.19222400560399694,-0.15443508494676114,-1.3169426110237734
-0.1921678556039969,-0.15443508494676114,-1.3169426110237734
-0.19211170560399693,-0.15443508494676114,-1.3169426110237734
-0.1920555556039969,-0.15073686009417733,-1.3169426110237734
-0.19199940560399692,-0.15073686009417733,-1.3169426110237734
-0.19194325560399694,-0.14703863524159524,-1.3169426110237734
-0.1918871056039969,-0.15073686009417733,-1.3169426110237734
-0.19183095560399693,-0.14703863524159524,-1.3169426110237734
-0.1917748056039969,-0.14703863524159355,-1.3169426110237734
-0.19171865560399692,-0.14703863524159355,-1.3169426110237734
-0.19166250560399695,-0.14703863524159355,-1.3169426110237734
-0.19160635560399691,-0.14334041038900974,-1.3169426110237734
-0.19155020560399694,-0.14334041038900974,-1.3169426110237734
-0.1914940556039969,-0.14334041038900974,-1.3169426110237734
-0.19143790560399693,-0.13964218553642763,-1.3169426110237734
-0.19138175560399695,-0.13964218553642593,-1.3169426110237734
-0.19132560560399692,-0.13964218553642593,-1.3169426110237734
-0.19126945560399694,-0.13964218553642593,-1.3169426110237734
-0.1912133056039969,-0.13964218553642593,-1.3169426110237734
-0.19115715560399693,-0.13594396068384385,-1.3169426110237734
-0.1911010056039969,-0.13964218553642593,-1.3169426110237734
-0.19104485560399692,-0.13594396068384215,-1.3169426110237734
-0.19098870560399694,-0.13594396068384215,-1.3169426110237734
-0.1909325556039969,-0.13594396068384215,-1.3169426110237734
-0.19087640560399693,-0.13594396068384215,-1.3169426110237734
-0.1908202556039969,-0.13594396068384215,-1.3169426110237734
-0.19076410560399693,-0.13594396068384215,-1.3169426110237734
-0.19070795560399695,-0.1322457358312617,-1.3169426110237734
-0.19065180560399692,-0.13224573583125834,-1.3169426110237734
-0.19059565560399694,-0.13224573583125834,-1.3169426110237734
-0.1905395056039969,-0.13224573583125834,-1.3169426110237734
-0.19048335560399693,-0.13224573583125834,-1.3169426110237734
-0.1904272056039969,-0.13224573583125834,-1.3169426110237734
-0.19037105560399692,-0.13224573583125834,-1.3169426110237734
-0.19031490560399694,-0.13224573583125834,-1.3169426110237734
-0.1902587556039969,-0.12854751097867453,-1.3169426110237734
-0.19020260560399693,-0.12854751097867453,-1.3169426110237734
-0.1901464556039969,-0.12484928612609074,-1.3169426110237734
-0.19009030560399692,-0.12484928612609074,-1.3169426110237734
-0.19003415560399695,-0.12484928612609074,-1.3169426110237734
-0.1899780056039969,-0.12854751097867453,-1.3169426110237734
-0.18992185560399694,-0.12484928612609242,-1.3169426110237734
-0.1898657056039969,-0.12484928612609074,-1.3169426110237734
-0.18980955560399693,-0.12115106127350862,-1.3169426110237734
-0.18975340560399695,-0.12115106127350694,-1.3169426110237734
-0.18969725560399692,-0.12115106127350694,-1.3169426110237734
-0.18964110560399694,-0.12115106127350694,-1.3169426110237734
-0.1895849556039969,-0.11745283642092315,-1.3169426110237734
-0.18952880560399693,-0.11745283642092315,-1.3169426110237734
-0.1894726556039969,-0.11375461156833934,-1.3169426110237734
-0.18941650560399692,-0.11375461156833934,-1.3169426110237734
-0.18936035560399694,-0.11005638671575722,-1.3169426110237734
-0.1893042056039969,-0.11005638671575554,-1.3169426110237734
-0.18924805560399693,-0.11005638671575554,-1.3169426110237734
-0.1891919056039969,-0.11005638671575554,-1.3169426110237734
-0.18913575560399692,-0.11005638671575554,-1.3169426110237734
-0.18907960560399695,-0.10635816186317343,-1.3169426110237734
-0.18902345560399691,-0.10635816186317175,-1.3169426110237734
-0.18896730560399694,-0.10635816186317175,-1.3169426110237734
-0.1889111556039969,-0.10635816186317175,-1.3169426110237734
-0.18885500560399693,-0.10265993701058962,-1.3169426110237734
-0.1887988556039969,-0.10635816186317007,-1.3169426110237734
-0.18874270560399692,-0.10265993701058794,-1.3169426110237734
-0.18868655560399694,-0.10265993701058794,-1.3169426110237734
-0.1886304056039969,-0.09896171215800414,-1.3169426110237734
-0.18857425560399693,-0.09896171215800414,-1.3169426110237734
-0.1885181056039969,-0.09896171215800414,-1.3169426110237734
-0.18846195560399692,-0.09526348730542203,-1.3169426110237734
-0.18840580560399695,-0.09526348730542035,-1.3169426110237734
-0.1883496556039969,-0.09526348730542035,-1.3169426110237734
-0.18829350560399694,-0.09156526245283823,-1.3169426110237734
-0.1882373556039969,-0.09156526245283655,-1.3169426110237734
-0.18818120560399693,-0.08786703760025442,-1.3169426110237734
-0.18812505560399695,-0.08786703760025275,-1.3169426110237734
-0.18806890560399692,-0.08416881274766895,-1.3169426110237734
-0.18801275560399694,-0.08416881274766895,-1.3169426110237734
-0.1879566056039969,-0.08416881274766895,-1.3169426110237734
-0.18790045560399693,-0.08416881274766895,-1.3169426110237734
-0.1878443056039969,-0.08047058789508515,-1.3169426110237734
-0.18778815560399692,-0.08047058789508515,-1.3169426110237734
-0.18773200560399694,-0.08047058789508515,-1.3169426110237734
-0.1876758556039969,-0.08047058789508515,-1.3169426110237734
-0.18761970560399693,-0.07677236304250303,-1.3169426110237734
-0.1875635556039969,-0.07677236304250135,-1.3169426110237734
-0.18750740560399692,-0.07677236304250135,-1.3169426110237734
-0.18745125560399695,-0.07677236304250135,-1.3169426110237734
-0.18739510560399691,-0.07677236304250135,-1.3169426110237734
-0.18733895560399694,-0.07677236304250135,-1.3169426110237734
-0.1872828056039969,-0.07307413818991755,-1.3169426110237734
-0.18722665560399693,-0.07307413818991755,-1.3169426110237734
-0.18717050560399695,-0.07307413818991755,-1.3169426110237734
-0.18711435560399692,-0.06937591333733376,-1.3169426110237734
-0.18705820560399694,-0.07307413818991587,-1.3169426110237734
-0.1870020556039969,-0.06937591333733376,-1.3169426110237734
-0.18694590560399693,-0.06937591333733376,-1.3169426110237734
-0.1868897556039969,-0.06937591333733376,-1.3169426110237734
-0.18683360560399692,-0.06937591333733376,-1.3169426110237734
-0.18677745560399694,-0.06567768848475163,-1.3169426110237734
-0.1867213056039969,-0.06567768848474995,-1.3169426110237734
-0.18666515560399694,-0.06567768848474995,-1.3169426110237734
-0.1866090056039969,-0.06567768848474995,-1.320649962004811
-0.18655285560399693,-0.06197946363216783,-1.3169426110237752
-0.18649670560399695,-0.06197946363216615,-1.3169426110237734
-0.18644055560399692,-0.06197946363216615,-1.3169426110237734
-0.18638440560399694,-0.06197946363216615,-1.3169426110237734
-0.1863282556039969,-0.05828123877958235,-1.3169426110237734
-0.18627210560399693,-0.05828123877958235,-1.3169426110237734
-0.1862159556039969,-0.05828123877958235,-1.3169426110237734
-0.18615980560399692,-0.05828123877958235,-1.3169426110237734
-0.18610365560399694,-0.05828123877958235,-1.3169426110237734
-0.1860475056039969,-0.054583013926998554,-1.3169426110237734
-0.18599135560399693,-0.054583013926998554,-1.3169426110237734
-0.1859352056039969,-0.054583013926998554,-1.3169426110237734
-0.18587905560399692,-0.054583013926998554,-1.3169426110237734
-0.18582290560399695,-0.05088478907441643,-1.3169426110237734
-0.1857667556039969,-0.05088478907441475,-1.3169426110237734
-0.18571060560399694,-0.05088478907441475,-1.3206499620048093
-0.1856544556039969,-0.04718656422183096,-1.3169426110237734
-0.18559830560399693,-0.04718656422183096,-1.3206499620048093
-0.18554215560399695,-0.04718656422183096,-1.3169426110237767
-0.18548600560399692,-0.04718656422183096,-1.3169426110237734
-0.18542985560399694,-0.043488339369248834,-1.3169426110237734
-0.1853737056039969,-0.043488339369247155,-1.3169426110237734
-0.18531755560399693,-0.043488339369247155,-1.3169426110237734
-0.1852614056039969,-0.043488339369247155,-1.3169426110237734
-0.18520525560399692,-0.043488339369247155,-1.3169426110237734
-0.18514910560399694,-0.043488339369247155,-1.3169426110237734
-0.1850929556039969,-0.03979011451666335,-1.3169426110237734
-0.18503680560399693,-0.03979011451666335,-1.3169426110237734
-0.1849806556039969,-0.03609188966407956,-1.3169426110237734
-0.18492450560399692,-0.03609188966407956,-1.3169426110237734
-0.18486835560399695,-0.03609188966407956,-1.3169426110237734
-0.18481220560399692,-0.03609188966407956,-1.3169426110237734
-0.18475605560399694,-0.032393664811497434,-1.3169426110237734
-0.1846999056039969,-0.032393664811495755,-1.3169426110237734
-0.18464375560399693,-0.032393664811495755,-1.3206499620048093
-0.1845876056039969,-0.032393664811495755,-1.3169426110237734
-0.18453145560399692,-0.032393664811495755,-1.3169426110237734
-0.18447530560399694,-0.032393664811495755,-1.3169426110237734
-0.1844191556039969,-0.028695439958911956,-1.3169426110237734
-0.18436300560399693,-0.028695439958911956,-1.3169426110237734
-0.1843068556039969,-0.028695439958911956,-1.3169426110237734
-0.18425070560399692,-0.028695439958911956,-1.3169426110237734
-0.18419455560399695,-0.02499721510632984,-1.3169426110237734
-0.1841384056039969,-0.028695439958911956,-1.3169426110237734
-0.18408225560399694,-0.02499721510632984,-1.3169426110237734
-0.1840261056039969,-0.028695439958911956,-1.3169426110237734
-0.18396995560399693,-0.02499721510632984,-1.3169426110237734
-0.18391380560399695,-0.024997215106328158,-1.3169426110237734
-0.18385765560399692,-0.024997215106328158,-1.3169426110237734
-0.18380150560399694,-0.02129899025374604,-1.3169426110237734
-0.1837453556039969,-0.021298990253744356,-1.3169426110237734
-0.18368920560399693,-0.021298990253744356,-1.3169426110237734
-0.1836330556039969,-0.021298990253744356,-1.3169426110237734
-0.18357690560399692,-0.021298990253744356,-1.3169426110237734
-0.18352075560399694,-0.024997215106326475,-1.3169426110237734
-0.1834646056039969,-0.024997215106328158,-1.3169426110237734
-0.18340845560399693,-0.02129899025374604,-1.3169426110237734
-0.1833523056039969,-0.021298990253744356,-1.3169426110237734
-0.18329615560399692,-0.021298990253744356,-1.3169426110237734
-0.18324000560399695,-0.021298990253744356,-1.3169426110237734
-0.18318385560399691,-0.021298990253744356,-1.3169426110237734
-0.18312770560399694,-0.021298990253744356,-1.3169426110237734
-0.1830715556039969,-0.021298990253744356,-1.3169426110237734
-0.18301540560399693,-0.021298990253744356,-1.3169426110237734
-0.18295925560399695,-0.021298990253744356,-1.3206499620048078
-0.18290310560399692,-0.021298990253744356,-1.3169426110237734
-0.18284695560399694,-0.021298990253744356,-1.3169426110237734
-0.1827908056039969,-0.017600765401160557,-1.3169426110237734
-0.18273465560399693,-0.017600765401160557,-1.3206499620048093
-0.1826785056039969,-0.017600765401160557,-1.320649962004811
-0.18262235560399692,-0.017600765401160557,-1.320649962004811
-0.18256620560399694,-0.017600765401160557,-1.3169426110237752
-0.1825100556039969,-0.017600765401160557,-1.3169426110237734
-0.18245390560399694,-0.017600765401160557,-1.3169426110237734
-0.1823977556039969,-0.013902540548576758,-1.3169426110237734
-0.18234160560399693,-0.013902540548576758,-1.3169426110237734
-0.18228545560399695,-0.013902540548576758,-1.3206499620048078
-0.18222930560399692,-0.013902540548576758,-1.3169426110237734
-0.18217315560399694,-0.013902540548576758,-1.3206499620048093
-0.1821170056039969,-0.013902540548576758,-1.3169426110237734
-0.18206085560399693,-0.013902540548576758,-1.3169426110237734
-0.1820047056039969,-0.010204315695994639,-1.3169426110237752
-0.18194855560399692,-0.013902540548576758,-1.320649962004811
-0.18189240560399694,-0.013902540548576758,-1.320649962004811
-0.1818362556039969,-0.013902540548576758,-1.320649962004811
-0.18178010560399693,-0.013902540548576758,-1.320649962004811
-0.1817239556039969,-0.013902540548576758,-1.320649962004811
-0.18166780560399692,-0.013902540548576758,-1.320649962004811
-0.18161165560399695,-0.013902540548576758,-1.320649962004811
-0.18155550560399691,-0.013902540548576758,-1.3169426110237734
-0.18149935560399694,-0.013902540548576758,-1.3206499620048093
-0.1814432056039969,-0.013902540548576758,-1.320649962004811
-0.18138705560399693,-0.013902540548576758,-1.3169426110237752
-0.18133090560399695,-0.013902540548576758,-1.3206499620048078
-0.18127475560399692,-0.013902540548576758,-1.320649962004811
-0.18121860560399694,-0.013902540548576758,-1.320649962004811
-0.1811624556039969,-0.013902540548576758,-1.3169426110237734
-0.18110630560399693,-0.017600765401158874,-1.3169426110237734
-0.1810501556039969,-0.013902540548576758,-1.3169426110237734
-0.18099400560399692,-0.017600765401160557,-1.3169426110237734
-0.18093785560399694,-0.017600765401160557,-1.3169426110237734
-0.1808817056039969,-0.017600765401160557,-1.3169426110237734
-0.18082555560399693,-0.017600765401160557,-1.3169426110237734
-0.1807694056039969,-0.017600765401160557,-1.3169426110237734
-0.18071325560399693,-0.017600765401160557,-1.3169426110237734
-0.18065710560399695,-0.013902540548578441,-1.3169426110237734
-0.18060095560399692,-0.017600765401160557,-1.3169426110237734
-0.18054480560399694,-0.017600765401160557,-1.3206499620048093
-0.1804886556039969,-0.017600765401160557,-1.3169426110237734
-0.18043250560399693,-0.017600765401160557,-1.3169426110237734
-0.1803763556039969,-0.01760076540116224,-1.3206499620048093
-0.18032020560399692,-0.021298990253744356,-1.3169426110237734
-0.18026405560399694,-0.01760076540116224,-1.3169426110237734
-0.1802079056039969,-0.017600765401160557,-1.3169426110237734
-0.18015175560399693,-0.017600765401160557,-1.3169426110237734
-0.1800956056039969,-0.021298990253744356,-1.3169426110237734
