10Hz/acq0044.csv

#Digilent WaveForms Oscilloscope Acquisition
#Device Name: Discovery2
#Serial Number: SN:210321AA28BE
#Date Time: 2023-05-24 14:52:31.032
#Sample rate: 17809.4Hz
#Samples: 8192
#Trigger: Source: Channel 1 Type: Edge Condition: Rising Level: 800 mV Hyst.: Auto HoldOff: 100 ns
#Channel 1: Range: 1 V/div Offset: 0 V Attenuation: 1 X Sample Mode: Average
#Channel 2: Range: 1 V/div Offset: 0 V Attenuation: 1 X Sample Mode: Average

Time (s),Channel 1 (V),Channel 2 (V)
-0.19775843717597924,-0.06567768848474995,-1.3132352600427357
-0.19770228717597924,-0.07677236304250135,-1.3132352600427357
-0.19764613717597923,-0.08786703760025275,-1.3132352600427357
-0.19758998717597923,-0.09526348730542035,-1.3132352600427357
-0.19753383717597925,-0.10635816186317175,-1.3132352600427357
-0.19747768717597924,-0.11745283642092315,-1.3132352600427357
-0.19742153717597924,-0.12484928612609074,-1.3132352600427357
-0.19736538717597923,-0.13224573583125834,-1.3132352600427357
-0.19730923717597923,-0.13594396068384215,-1.3132352600427357
-0.19725308717597922,-0.14334041038901144,-1.3132352600427357
-0.19719693717597925,-0.14703863524159355,-1.3132352600427357
-0.19714078717597924,-0.15073686009417733,-1.3132352600427357
-0.19708463717597924,-0.15443508494676114,-1.3132352600427357
-0.19702848717597923,-0.15813330979934495,-1.3132352600427357
-0.19697233717597923,-0.16552975950451254,-1.3132352600427357
-0.19691618717597925,-0.16552975950451254,-1.3132352600427357
-0.19686003717597925,-0.16922798435709635,-1.3132352600427357
-0.19680388717597924,-0.17292620920968013,-1.3132352600427357
-0.19674773717597924,-0.17662443406226394,-1.3132352600427357
-0.19669158717597923,-0.18032265891484775,-1.3169426110237734
-0.19663543717597923,-0.18402088376743153,-1.3169426110237734
-0.19657928717597925,-0.18771910862001534,-1.3169426110237734
-0.19652313717597925,-0.18771910862001534,-1.3169426110237734
-0.19646698717597924,-0.18771910862001534,-1.3132352600427357
-0.19641083717597924,-0.18771910862001534,-1.3132352600427357
-0.19635468717597923,-0.18771910862001534,-1.3132352600427357
-0.19629853717597923,-0.18771910862001534,-1.3169426110237734
-0.19624238717597925,-0.18771910862001534,-1.3132352600427357
-0.19618623717597924,-0.19141733347259912,-1.3132352600427357
-0.19613008717597924,-0.19141733347259912,-1.3132352600427357
-0.19607393717597923,-0.19141733347259912,-1.3132352600427357
-0.19601778717597923,-0.19141733347259912,-1.3169426110237734
-0.19596163717597923,-0.19141733347260081,-1.3169426110237734
-0.19590548717597925,-0.19511555832518293,-1.3169426110237734
-0.19584933717597924,-0.19511555832518293,-1.3169426110237734
-0.19579318717597924,-0.19511555832518293,-1.3132352600427357
-0.19573703717597923,-0.19511555832518293,-1.3132352600427357
-0.19568088717597923,-0.19141733347259912,-1.3169426110237734
-0.19562473717597925,-0.19141733347259912,-1.3169426110237734
-0.19556858717597925,-0.19141733347259912,-1.3132352600427357
-0.19551243717597924,-0.19141733347259912,-1.3132352600427357
-0.19545628717597924,-0.19141733347259912,-1.3132352600427357
-0.19540013717597923,-0.19141733347259912,-1.3169426110237734
-0.19534398717597923,-0.19141733347259912,-1.3132352600427357
-0.19528783717597925,-0.19141733347259912,-1.3132352600427357
-0.19523168717597925,-0.19141733347259912,-1.3132352600427357
-0.19517553717597924,-0.19141733347259912,-1.3132352600427357
-0.19511938717597924,-0.19141733347259912,-1.3169426110237734
-0.19506323717597923,-0.19141733347259912,-1.3169426110237734
-0.19500708717597923,-0.19141733347259912,-1.3169426110237734
-0.19495093717597925,-0.19141733347259912,-1.3132352600427357
-0.19489478717597924,-0.18771910862001534,-1.3132352600427357
-0.19483863717597924,-0.19141733347259912,-1.3169426110237734
-0.19478248717597924,-0.18771910862001534,-1.3132352600427357
-0.19472633717597923,-0.19141733347259912,-1.3132352600427357
-0.19467018717597923,-0.18771910862001534,-1.3169426110237734
-0.19461403717597925,-0.18771910862001534,-1.3169426110237734
-0.19455788717597924,-0.18771910862001534,-1.3169426110237734
-0.19450173717597924,-0.18402088376743153,-1.3169426110237734
-0.19444558717597923,-0.18402088376743153,-1.3169426110237734
-0.19438943717597923,-0.18402088376743153,-1.3132352600427357
-0.19433328717597925,-0.18402088376743153,-1.3132352600427357
-0.19427713717597925,-0.18032265891484775,-1.3132352600427357
-0.19422098717597924,-0.18032265891484775,-1.3169426110237734
-0.19416483717597924,-0.18032265891484775,-1.3169426110237734
-0.19410868717597923,-0.17662443406226394,-1.3132352600427357
-0.19405253717597923,-0.17662443406226394,-1.3169426110237734
-0.19399638717597925,-0.17662443406226394,-1.3169426110237734
-0.19394023717597925,-0.17662443406226394,-1.3169426110237734
-0.19388408717597924,-0.17292620920968013,-1.3169426110237734
-0.19382793717597924,-0.17292620920968013,-1.3132352600427357
-0.19377178717597923,-0.16922798435709635,-1.3132352600427357
-0.19371563717597923,-0.16552975950451254,-1.3132352600427357
-0.19365948717597925,-0.16552975950451254,-1.3132352600427357
-0.19360333717597925,-0.16183153465192873,-1.3169426110237734
-0.19354718717597924,-0.16183153465192873,-1.3169426110237734
-0.19349103717597924,-0.16183153465192873,-1.3132352600427357
-0.19343488717597923,-0.15813330979934495,-1.3132352600427357
-0.19337873717597923,-0.15813330979934495,-1.3132352600427357
-0.19332258717597925,-0.15813330979934495,-1.3169426110237734
-0.19326643717597924,-0.15813330979934495,-1.3132352600427357
-0.19321028717597924,-0.15443508494676114,-1.3169426110237734
-0.19315413717597923,-0.15443508494676114,-1.3132352600427357
-0.19309798717597923,-0.15443508494676114,-1.3132352600427357
-0.19304183717597923,-0.15073686009417733,-1.3132352600427357
-0.19298568717597925,-0.15073686009417733,-1.3132352600427357
-0.19292953717597924,-0.14703863524159355,-1.3132352600427357
-0.19287338717597924,-0.14703863524159355,-1.3132352600427357
-0.19281723717597923,-0.14334041038900974,-1.3169426110237734
-0.19276108717597923,-0.14334041038900974,-1.3132352600427357
-0.19270493717597925,-0.14334041038900974,-1.3132352600427357
-0.19264878717597925,-0.14334041038900974,-1.3169426110237734
-0.19259263717597924,-0.13964218553642593,-1.3169426110237734
-0.19253648717597924,-0.13594396068384215,-1.3169426110237734
-0.19248033717597923,-0.13594396068384215,-1.3169426110237734
-0.19242418717597923,-0.13224573583125834,-1.3169426110237734
-0.19236803717597925,-0.13224573583125834,-1.3132352600427357
-0.19231188717597925,-0.13224573583125834,-1.3169426110237734
-0.19225573717597924,-0.13224573583125834,-1.3169426110237734
-0.19219958717597924,-0.13224573583125834,-1.3169426110237734
-0.19214343717597923,-0.12854751097867453,-1.3169426110237734
-0.19208728717597923,-0.12854751097867453,-1.3169426110237734
-0.19203113717597925,-0.12854751097867453,-1.3169426110237734
-0.19197498717597924,-0.12854751097867453,-1.3169426110237734
-0.19191883717597924,-0.12484928612609074,-1.3169426110237734
-0.19186268717597924,-0.12484928612609074,-1.3169426110237734
-0.19180653717597923,-0.12115106127350694,-1.3169426110237734
-0.19175038717597923,-0.12115106127350694,-1.3169426110237734
-0.19169423717597925,-0.12115106127350694,-1.3169426110237734
-0.19163808717597924,-0.11745283642092315,-1.3132352600427357
-0.19158193717597924,-0.12115106127350694,-1.3169426110237734
-0.19152578717597923,-0.11745283642092315,-1.3169426110237734
-0.19146963717597923,-0.11745283642092315,-1.3169426110237734
-0.19141348717597925,-0.11375461156834102,-1.3169426110237734
-0.19135733717597925,-0.11375461156833934,-1.3132352600427357
-0.19130118717597924,-0.11375461156833934,-1.3169426110237734
-0.19124503717597924,-0.11375461156833934,-1.3132352600427357
-0.19118888717597923,-0.11005638671575554,-1.3169426110237734
-0.19113273717597923,-0.11005638671575554,-1.3169426110237734
-0.19107658717597925,-0.11005638671575554,-1.3169426110237734
-0.19102043717597925,-0.10635816186317175,-1.3169426110237734
-0.19096428717597924,-0.10635816186317175,-1.3169426110237734
-0.19090813717597924,-0.10635816186317175,-1.3169426110237734
-0.19085198717597923,-0.10265993701058794,-1.3169426110237734
-0.19079583717597923,-0.10265993701058794,-1.3169426110237734
-0.19073968717597925,-0.09896171215800414,-1.3169426110237734
-0.19068353717597925,-0.09896171215800414,-1.3169426110237734
-0.19062738717597924,-0.09896171215800414,-1.3169426110237734
-0.19057123717597924,-0.09896171215800414,-1.3169426110237734
-0.19051508717597923,-0.09896171215800414,-1.3169426110237734
-0.19045893717597923,-0.09526348730542035,-1.3169426110237734
-0.19040278717597925,-0.09526348730542035,-1.3169426110237734
-0.19034663717597924,-0.09526348730542035,-1.3169426110237734
-0.19029048717597924,-0.09526348730542035,-1.3169426110237734
-0.19023433717597923,-0.09156526245283655,-1.3169426110237734
-0.19017818717597923,-0.09156526245283655,-1.3169426110237734
-0.19012203717597925,-0.08786703760025442,-1.3169426110237734
-0.19006588717597925,-0.08786703760025275,-1.3169426110237734
-0.19000973717597924,-0.08786703760025275,-1.3169426110237734
-0.18995358717597924,-0.08416881274766895,-1.3169426110237734
-0.18989743717597923,-0.08416881274766895,-1.3169426110237734
-0.18984128717597923,-0.08416881274766895,-1.3169426110237734
-0.18978513717597925,-0.08047058789508515,-1.3169426110237734
-0.18972898717597925,-0.08047058789508515,-1.3169426110237734
-0.18967283717597924,-0.08047058789508515,-1.3169426110237734
-0.18961668717597924,-0.08047058789508515,-1.3169426110237734
-0.18956053717597923,-0.07677236304250135,-1.3169426110237734
-0.18950438717597923,-0.07677236304250135,-1.3169426110237734
-0.18944823717597925,-0.07677236304250135,-1.3169426110237734
-0.18939208717597925,-0.07677236304250135,-1.3169426110237734
-0.18933593717597924,-0.07307413818991755,-1.3169426110237734
-0.18927978717597924,-0.07307413818991755,-1.3169426110237734
-0.18922363717597923,-0.06937591333733376,-1.3169426110237734
-0.18916748717597923,-0.06937591333733376,-1.3169426110237734
-0.18911133717597925,-0.06567768848474995,-1.3169426110237734
-0.18905518717597924,-0.06567768848474995,-1.3169426110237734
-0.18899903717597924,-0.06567768848474995,-1.3169426110237734
-0.18894288717597923,-0.06567768848474995,-1.3169426110237734
-0.18888673717597923,-0.06567768848474995,-1.3169426110237734
-0.18883058717597923,-0.06567768848474827,-1.3169426110237734
-0.18877443717597925,-0.06197946363216615,-1.3169426110237734
-0.18871828717597924,-0.06197946363216615,-1.3169426110237734
-0.18866213717597924,-0.06197946363216615,-1.3169426110237734
-0.18860598717597923,-0.06197946363216615,-1.3169426110237734
-0.18854983717597923,-0.05828123877958235,-1.3169426110237734
-0.18849368717597925,-0.05828123877958235,-1.3169426110237734
-0.18843753717597925,-0.05828123877958235,-1.3169426110237734
-0.18838138717597924,-0.05828123877958235,-1.3169426110237734
-0.18832523717597924,-0.054583013926998554,-1.3169426110237734
-0.18826908717597923,-0.054583013926998554,-1.3169426110237734
-0.18821293717597923,-0.054583013926998554,-1.3169426110237734
-0.18815678717597925,-0.054583013926998554,-1.3169426110237734
-0.18810063717597925,-0.054583013926998554,-1.3169426110237734
-0.18804448717597924,-0.054583013926998554,-1.3169426110237734
-0.18798833717597924,-0.054583013926998554,-1.3169426110237734
-0.18793218717597923,-0.054583013926998554,-1.3169426110237734
-0.18787603717597923,-0.054583013926998554,-1.3169426110237734
-0.18781988717597925,-0.05088478907441475,-1.3132352600427357
-0.18776373717597925,-0.05088478907441475,-1.3169426110237734
-0.18770758717597924,-0.054583013926998554,-1.3169426110237734
-0.18765143717597924,-0.05088478907441475,-1.3132352600427357
-0.18759528717597923,-0.05088478907441475,-1.3169426110237734
-0.18753913717597923,-0.05088478907441475,-1.3169426110237734
-0.18748298717597925,-0.05088478907441475,-1.3169426110237734
-0.18742683717597924,-0.05088478907441475,-1.3169426110237734
-0.18737068717597924,-0.04718656422183096,-1.3169426110237734
-0.18731453717597923,-0.04718656422183096,-1.3169426110237734
-0.18725838717597923,-0.05088478907441475,-1.3169426110237734
-0.18720223717597925,-0.05088478907441475,-1.3169426110237734
-0.18714608717597925,-0.04718656422183096,-1.3169426110237734
-0.18708993717597924,-0.04718656422183096,-1.3169426110237734
-0.18703378717597924,-0.04718656422183096,-1.3169426110237734
-0.18697763717597923,-0.04718656422183096,-1.3169426110237734
-0.18692148717597923,-0.04718656422183096,-1.3169426110237734
-0.18686533717597925,-0.04718656422183096,-1.3169426110237734
-0.18680918717597925,-0.04718656422183096,-1.3169426110237734
-0.18675303717597924,-0.043488339369247155,-1.3169426110237734
-0.18669688717597924,-0.043488339369247155,-1.3169426110237734
-0.18664073717597923,-0.043488339369247155,-1.3169426110237734
-0.18658458717597923,-0.043488339369247155,-1.3169426110237734
-0.18652843717597925,-0.043488339369247155,-1.3169426110237734
-0.18647228717597925,-0.03979011451666335,-1.3169426110237734
-0.18641613717597924,-0.03979011451666335,-1.3169426110237734
-0.18635998717597924,-0.03979011451666335,-1.3169426110237734
-0.18630383717597923,-0.03979011451666335,-1.3169426110237734
-0.18624768717597923,-0.03979011451666335,-1.3169426110237734
-0.18619153717597925,-0.03979011451666335,-1.3169426110237734
-0.18613538717597924,-0.03979011451666335,-1.3169426110237734
-0.18607923717597924,-0.03979011451666335,-1.3169426110237734
-0.18602308717597923,-0.03979011451666335,-1.3169426110237734
-0.18596693717597923,-0.03979011451666335,-1.3169426110237734
-0.18591078717597925,-0.03979011451666335,-1.3169426110237734
-0.18585463717597925,-0.03979011451666335,-1.3169426110237734
-0.18579848717597924,-0.03979011451666335,-1.3169426110237734
-0.18574233717597924,-0.03979011451666335,-1.3169426110237734
-0.18568618717597923,-0.03979011451666335,-1.3169426110237734
-0.18563003717597923,-0.03979011451666335,-1.3169426110237734
-0.18557388717597925,-0.03979011451666335,-1.3169426110237734
-0.18551773717597925,-0.03979011451666335,-1.3169426110237734
-0.18546158717597924,-0.043488339369247155,-1.3169426110237734
-0.18540543717597924,-0.03979011451666335,-1.3169426110237734
-0.18534928717597923,-0.03979011451666335,-1.3169426110237734
-0.18529313717597923,-0.03979011451666335,-1.3169426110237734
-0.18523698717597925,-0.03979011451666335,-1.3169426110237734
-0.18518083717597925,-0.043488339369247155,-1.3169426110237734
-0.18512468717597924,-0.03979011451666335,-1.3169426110237734
-0.18506853717597924,-0.043488339369247155,-1.3169426110237734
-0.18501238717597923,-0.03979011451666335,-1.3169426110237734
-0.18495623717597923,-0.03979011451666335,-1.3169426110237734
-0.18490008717597925,-0.03979011451666335,-1.3169426110237734
-0.18484393717597924,-0.03979011451666335,-1.3169426110237734
-0.18478778717597924,-0.03979011451666335,-1.3169426110237734
-0.18473163717597924,-0.03979011451666335,-1.3169426110237734
-0.18467548717597923,-0.03979011451666335,-1.3169426110237734
-0.18461933717597923,-0.03979011451666335,-1.3169426110237734
-0.18456318717597925,-0.03979011451666335,-1.3169426110237734
-0.18450703717597924,-0.03979011451666335,-1.3169426110237734
-0.18445088717597924,-0.03979011451666335,-1.3169426110237734
-0.18439473717597923,-0.043488339369247155,-1.3169426110237734
-0.18433858717597923,-0.043488339369247155,-1.3169426110237734
-0.18428243717597925,-0.043488339369247155,-1.3169426110237734
-0.18422628717597925,-0.043488339369247155,-1.3169426110237734
-0.18417013717597924,-0.04718656422183096,-1.3169426110237734
-0.18411398717597924,-0.04718656422183096,-1.3169426110237734
-0.18405783717597923,-0.04718656422183096,-1.3169426110237734
-0.18400168717597923,-0.043488339369247155,-1.3169426110237734
-0.18394553717597925,-0.04718656422183096,-1.3169426110237734
-0.18388938717597925,-0.04718656422183096,-1.3169426110237734
-0.18383323717597924,-0.04718656422183096,-1.3169426110237734
-0.18377708717597924,-0.04718656422183096,-1.3169426110237734
-0.18372093717597923,-0.04718656422183096,-1.3169426110237734
-0.18366478717597923,-0.04718656422183096,-1.3169426110237734
-0.18360863717597925,-0.04718656422183096,-1.3169426110237734
-0.18355248717597925,-0.04718656422183096,-1.3169426110237734
-0.18349633717597924,-0.043488339369247155,-1.3169426110237734
-0.18344018717597924,-0.043488339369247155,-1.3169426110237734
-0.18338403717597923,-0.043488339369247155,-1.3169426110237734
-0.18332788717597923,-0.043488339369247155,-1.3169426110237716
-0.18327173717597925,-0.043488339369247155,-1.3132352600427357
-0.18321558717597924,-0.04718656422183096,-1.3169426110237734
-0.18315943717597924,-0.04718656422183096,-1.3169426110237734
-0.18310328717597923,-0.04718656422183096,-1.3169426110237734
-0.18304713717597923,-0.04718656422183096,-1.3169426110237734
-0.18299098717597925,-0.04718656422183096,-1.3169426110237734
-0.18293483717597925,-0.04718656422183096,-1.320649962004811
-0.18287868717597924,-0.04718656422183096,-1.3169426110237734
-0.18282253717597924,-0.04718656422183096,-1.3169426110237734
-0.18276638717597923,-0.04718656422183096,-1.3169426110237734
-0.18271023717597923,-0.04718656422183096,-1.3169426110237734
-0.18265408717597925,-0.04718656422183096,-1.3169426110237734
-0.18259793717597925,-0.04718656422183096,-1.3169426110237734
-0.18254178717597924,-0.04718656422183096,-1.3169426110237734
-0.18248563717597924,-0.04718656422183096,-1.3169426110237734
-0.18242948717597923,-0.04718656422183096,-1.3169426110237734
-0.18237333717597923,-0.04718656422183096,-1.320649962004811
-0.18231718717597925,-0.04718656422183096,-1.3169426110237734
-0.18226103717597925,-0.05088478907441475,-1.3169426110237734
-0.18220488717597924,-0.05088478907441475,-1.3169426110237734
-0.18214873717597924,-0.05088478907441475,-1.3169426110237734
-0.18209258717597923,-0.04718656422183096,-1.3169426110237734
-0.18203643717597923,-0.05088478907441475,-1.3169426110237734
-0.18198028717597925,-0.05088478907441475,-1.3169426110237734
-0.18192413717597924,-0.06197946363216615,-1.3169426110237734
-0.18186798717597924,-0.05828123877958235,-1.320649962004811
-0.18181183717597924,-0.06197946363216615,-1.3169426110237734
-0.18175568717597923,-0.05828123877958235,-1.3169426110237734
-0.18169953717597925,-0.06197946363216447,-1.3169426110237734
-0.18164338717597925,-0.05828123877958235,-1.3169426110237734
-0.18158723717597924,-0.05828123877958235,-1.3169426110237734
-0.18153108717597924,-0.05828123877958235,-1.3169426110237734
-0.18147493717597923,-0.05828123877958235,-1.3169426110237734
-0.18141878717597923,-0.05828123877958235,-1.3169426110237734
-0.18136263717597925,-0.06197946363216615,-1.3169426110237734
-0.18130648717597925,-0.054583013926998554,-1.3169426110237734
-0.18125033717597924,-0.06197946363216615,-1.3169426110237734
-0.18119418717597924,-0.05828123877958235,-1.3169426110237734
-0.18113803717597923,-0.06197946363216615,-1.3169426110237734
-0.18108188717597923,-0.06197946363216615,-1.3169426110237734
-0.18102573717597925,-0.05828123877958235,-1.3169426110237734
-0.18096958717597925,-0.05088478907441475,-1.3169426110237734
-0.18091343717597924,-0.04718656422183096,-1.3169426110237734
-0.18085728717597924,-0.05088478907441475,-1.3169426110237734
-0.18080113717597923,-0.04718656422183096,-1.3169426110237734
-0.18074498717597923,-0.04718656422183096,-1.3169426110237734
-0.18068883717597925,-0.05088478907441475,-1.3169426110237734
-0.18063268717597925,-0.05088478907441475,-1.3169426110237734
-0.18057653717597924,-0.05088478907441475,-1.3169426110237734
-0.18052038717597924,-0.054583013926998554,-1.3169426110237734
-0.18046423717597923,-0.054583013926998554,-1.3169426110237734
-0.18040808717597923,-0.05088478907441475,-1.3169426110237734
-0.18035193717597925,-0.05088478907441475,-1.3169426110237734
-0.18029578717597924,-0.05088478907441475,-1.3169426110237734
-0.18023963717597924,-0.05088478907441475,-1.3169426110237734
-0.18018348717597923,-0.054583013926998554,-1.3169426110237734
