10Hz/acq0035.csv

#Digilent WaveForms Oscilloscope Acquisition
#Device Name: Discovery2
#Serial Number: SN:210321AA28BE
#Date Time: 2023-05-24 14:52:26.539
#Sample rate: 17809.4Hz
#Samples: 8192
#Trigger: Source: Channel 1 Type: Edge Condition: Rising Level: 800 mV Hyst.: Auto HoldOff: 100 ns
#Channel 1: Range: 1 V/div Offset: 0 V Attenuation: 1 X Sample Mode: Average
#Channel 2: Range: 1 V/div Offset: 0 V Attenuation: 1 X Sample Mode: Average

Time (s),Channel 1 (V),Channel 2 (V)
-0.19771807161560456,-0.06197946363216615,-1.3169426110237734
-0.19766192161560456,-0.07307413818991755,-1.3169426110237734
-0.19760577161560455,-0.08047058789508515,-1.3169426110237734
-0.19754962161560455,-0.09156526245283655,-1.3169426110237734
-0.19749347161560457,-0.09896171215800414,-1.3169426110237734
-0.19743732161560457,-0.10265993701058794,-1.3169426110237734
-0.19738117161560456,-0.12115106127350694,-1.3169426110237734
-0.19732502161560456,-0.12115106127350694,-1.3169426110237734
-0.19726887161560455,-0.12854751097867453,-1.3169426110237734
-0.19721272161560455,-0.13594396068384385,-1.3169426110237734
-0.19715657161560457,-0.13964218553642593,-1.3169426110237734
-0.19710042161560457,-0.14703863524159355,-1.3169426110237734
-0.19704427161560456,-0.14703863524159355,-1.3169426110237734
-0.19698812161560456,-0.15073686009417733,-1.3169426110237734
-0.19693197161560455,-0.15443508494676114,-1.3132352600427357
-0.19687582161560457,-0.15813330979934326,-1.3132352600427357
-0.19681967161560457,-0.16183153465192873,-1.3169426110237734
-0.19676352161560456,-0.16552975950451254,-1.3169426110237734
-0.19670737161560456,-0.16922798435709635,-1.3169426110237734
-0.19665122161560455,-0.16922798435709635,-1.3169426110237734
-0.19659507161560455,-0.17292620920968013,-1.3169426110237734
-0.19653892161560457,-0.17662443406226394,-1.3169426110237734
-0.19648277161560457,-0.18032265891484775,-1.3169426110237734
-0.19642662161560456,-0.18402088376743153,-1.3169426110237734
-0.19637047161560456,-0.18402088376743153,-1.3169426110237734
-0.19631432161560455,-0.18402088376743153,-1.3169426110237734
-0.19625817161560455,-0.18402088376743153,-1.3169426110237734
-0.19620202161560457,-0.18771910862001534,-1.3169426110237734
-0.19614587161560457,-0.18771910862001534,-1.3169426110237734
-0.19608972161560456,-0.19141733347259912,-1.3169426110237734
-0.19603357161560456,-0.19141733347259912,-1.3169426110237734
-0.19597742161560455,-0.19141733347259912,-1.3169426110237734
-0.19592127161560455,-0.19141733347259912,-1.3169426110237734
-0.19586512161560457,-0.19141733347259912,-1.3169426110237734
-0.19580897161560457,-0.19141733347259912,-1.3169426110237734
-0.19575282161560456,-0.19511555832518293,-1.3169426110237734
-0.19569667161560456,-0.19511555832518293,-1.3169426110237734
-0.19564052161560455,-0.19511555832518293,-1.3169426110237734
-0.19558437161560457,-0.19511555832518293,-1.3169426110237734
-0.19552822161560457,-0.19511555832518293,-1.3169426110237734
-0.19547207161560456,-0.19141733347259912,-1.3169426110237734
-0.19541592161560456,-0.19141733347259912,-1.3169426110237734
-0.19535977161560455,-0.19141733347259912,-1.3169426110237734
-0.19530362161560455,-0.19511555832518293,-1.3169426110237734
-0.19524747161560457,-0.19141733347259912,-1.3169426110237734
-0.19519132161560457,-0.19141733347259912,-1.3169426110237734
-0.19513517161560456,-0.19511555832518293,-1.3169426110237734
-0.19507902161560456,-0.19141733347259912,-1.3169426110237734
-0.19502287161560455,-0.19511555832518293,-1.3169426110237734
-0.19496672161560455,-0.19141733347259912,-1.3169426110237734
-0.19491057161560457,-0.18771910862001534,-1.3169426110237734
-0.19485442161560457,-0.19141733347259912,-1.3169426110237734
-0.19479827161560456,-0.18771910862001534,-1.3169426110237734
-0.19474212161560456,-0.18771910862001534,-1.3169426110237734
-0.19468597161560455,-0.18771910862001534,-1.3169426110237734
-0.19462982161560455,-0.18771910862001365,-1.3169426110237734
-0.19457367161560457,-0.18402088376743153,-1.3169426110237734
-0.19451752161560457,-0.18402088376743153,-1.3169426110237734
-0.19446137161560456,-0.18402088376743153,-1.3169426110237734
-0.19440522161560456,-0.18402088376743153,-1.3169426110237734
-0.19434907161560455,-0.18402088376743153,-1.3132352600427357
-0.19429292161560457,-0.18402088376743153,-1.3169426110237716
-0.19423677161560457,-0.18402088376743153,-1.3169426110237734
-0.19418062161560457,-0.18032265891484775,-1.3169426110237734
-0.19412447161560456,-0.18032265891484775,-1.3169426110237734
-0.19406832161560456,-0.18032265891484775,-1.3169426110237734
-0.19401217161560455,-0.17662443406226394,-1.3169426110237734
-0.19395602161560457,-0.18032265891484775,-1.3169426110237734
-0.19389987161560457,-0.17662443406226394,-1.3169426110237734
-0.19384372161560456,-0.17292620920968013,-1.3169426110237734
-0.19378757161560456,-0.17662443406226394,-1.3169426110237734
-0.19373142161560455,-0.17292620920968013,-1.3169426110237734
-0.19367527161560455,-0.17292620920968013,-1.3169426110237734
-0.19361912161560457,-0.17292620920968013,-1.3169426110237734
-0.19356297161560457,-0.17292620920968013,-1.3169426110237734
-0.19350682161560456,-0.16922798435709635,-1.3169426110237734
-0.19345067161560456,-0.16922798435709635,-1.3169426110237734
-0.19339452161560455,-0.16922798435709635,-1.3169426110237734
-0.19333837161560455,-0.16922798435709635,-1.3169426110237734
-0.19328222161560457,-0.16922798435709635,-1.3169426110237734
-0.19322607161560457,-0.16922798435709635,-1.3169426110237734
-0.19316992161560456,-0.16922798435709635,-1.3169426110237734
-0.19311377161560456,-0.16922798435709635,-1.3169426110237734
-0.19305762161560455,-0.16552975950451254,-1.3169426110237734
-0.19300147161560455,-0.16183153465192873,-1.3169426110237734
-0.19294532161560457,-0.16183153465192873,-1.3169426110237734
-0.19288917161560457,-0.16183153465192873,-1.3169426110237734
-0.19283302161560456,-0.16183153465192873,-1.3169426110237734
-0.19277687161560456,-0.15813330979934495,-1.3169426110237734
-0.19272072161560455,-0.15813330979934495,-1.3169426110237734
-0.19266457161560457,-0.15813330979934495,-1.3169426110237734
-0.19260842161560457,-0.15813330979934495,-1.3169426110237734
-0.19255227161560456,-0.15443508494676114,-1.3169426110237734
-0.19249612161560456,-0.15443508494676114,-1.3169426110237734
-0.19243997161560455,-0.15443508494676114,-1.3169426110237734
-0.19238382161560455,-0.15073686009417733,-1.3169426110237734
-0.19232767161560457,-0.15073686009417733,-1.3169426110237734
-0.19227152161560457,-0.14703863524159355,-1.3169426110237734
-0.19221537161560456,-0.14703863524159355,-1.3169426110237734
-0.19215922161560456,-0.14334041038900974,-1.3169426110237734
-0.19210307161560455,-0.14334041038900974,-1.3169426110237734
-0.19204692161560455,-0.14334041038900974,-1.3169426110237734
-0.19199077161560457,-0.13964218553642593,-1.3169426110237734
-0.19193462161560457,-0.13964218553642593,-1.3169426110237734
-0.19187847161560456,-0.13964218553642593,-1.3169426110237734
-0.19182232161560456,-0.13964218553642593,-1.3169426110237734
-0.19176617161560455,-0.13594396068384215,-1.3169426110237734
-0.19171002161560455,-0.13594396068384046,-1.3169426110237734
-0.19165387161560457,-0.13224573583125834,-1.3169426110237734
-0.19159772161560457,-0.13224573583125834,-1.3169426110237734
-0.19154157161560456,-0.13224573583125834,-1.3169426110237734
-0.19148542161560456,-0.12854751097867453,-1.3169426110237734
-0.19142927161560455,-0.12854751097867453,-1.320649962004811
-0.19137312161560457,-0.12484928612609242,-1.3169426110237752
-0.19131697161560457,-0.12484928612609074,-1.3169426110237734
-0.19126082161560456,-0.12854751097867453,-1.3169426110237734
-0.19120467161560456,-0.12484928612609074,-1.3169426110237734
-0.19114852161560456,-0.12484928612609074,-1.3169426110237734
-0.19109237161560455,-0.12115106127350694,-1.3169426110237734
-0.19103622161560457,-0.12115106127350694,-1.3169426110237734
-0.19098007161560457,-0.12115106127350694,-1.3169426110237734
-0.19092392161560456,-0.11745283642092315,-1.3169426110237734
-0.19086777161560456,-0.11375461156833934,-1.3169426110237734
-0.19081162161560455,-0.11375461156833934,-1.3169426110237734
-0.19075547161560455,-0.11375461156833934,-1.3169426110237734
-0.19069932161560457,-0.11005638671575554,-1.3169426110237734
-0.19064317161560457,-0.11005638671575554,-1.3169426110237734
-0.19058702161560456,-0.11005638671575554,-1.3169426110237734
-0.19053087161560456,-0.11005638671575554,-1.3169426110237734
-0.19047472161560455,-0.10635816186317175,-1.3169426110237734
-0.19041857161560455,-0.10635816186317007,-1.3169426110237734
-0.19036242161560457,-0.10265993701058794,-1.3169426110237734
-0.19030627161560457,-0.11745283642092315,-1.3169426110237734
-0.19025012161560456,-0.11745283642092315,-1.3169426110237734
-0.19019397161560456,-0.11375461156833934,-1.3169426110237734
-0.19013782161560455,-0.11375461156833934,-1.3169426110237734
-0.19008167161560457,-0.11005638671575722,-1.3169426110237734
-0.19002552161560457,-0.11005638671575554,-1.3169426110237734
-0.18996937161560457,-0.10635816186317175,-1.3169426110237734
-0.18991322161560456,-0.10265993701058794,-1.3169426110237734
-0.18985707161560456,-0.10635816186317175,-1.320649962004811
-0.18980092161560455,-0.10265993701058794,-1.3169426110237734
-0.18974477161560457,-0.10265993701058794,-1.3169426110237734
-0.18968862161560457,-0.09896171215800414,-1.3169426110237734
-0.18963247161560456,-0.09896171215800414,-1.3169426110237734
-0.18957632161560456,-0.09526348730542035,-1.3169426110237734
-0.18952017161560455,-0.09156526245283655,-1.3169426110237734
-0.18946402161560455,-0.09156526245283655,-1.3169426110237734
-0.18940787161560457,-0.07677236304250135,-1.3169426110237734
-0.18935172161560457,-0.07307413818991755,-1.3169426110237734
-0.18929557161560456,-0.06937591333733376,-1.3169426110237734
-0.18923942161560456,-0.07307413818991755,-1.3169426110237734
-0.18918327161560455,-0.07307413818991755,-1.3169426110237734
-0.18912712161560455,-0.07307413818991755,-1.3169426110237734
-0.18907097161560457,-0.07677236304250135,-1.320649962004811
-0.18901482161560457,-0.07307413818991755,-1.3169426110237734
-0.18895867161560456,-0.07307413818991755,-1.3169426110237734
-0.18890252161560456,-0.06937591333733376,-1.3169426110237734
-0.18884637161560455,-0.07307413818991755,-1.320649962004811
-0.18879022161560455,-0.07307413818991587,-1.3169426110237734
-0.18873407161560457,-0.06937591333733376,-1.3169426110237734
-0.18867792161560457,-0.06567768848474995,-1.3169426110237734
-0.18862177161560456,-0.06937591333733376,-1.3169426110237734
-0.18856562161560456,-0.06937591333733376,-1.3169426110237734
-0.18850947161560455,-0.06567768848474995,-1.3169426110237734
-0.18845332161560457,-0.06567768848474995,-1.3169426110237734
-0.18839717161560457,-0.06567768848474995,-1.3169426110237734
-0.18834102161560456,-0.06567768848474995,-1.3169426110237734
-0.18828487161560456,-0.06197946363216615,-1.3169426110237734
-0.18822872161560456,-0.06197946363216615,-1.3169426110237734
-0.18817257161560455,-0.06197946363216615,-1.3169426110237734
-0.18811642161560457,-0.05828123877958235,-1.3169426110237734
-0.18806027161560457,-0.06197946363216615,-1.3169426110237734
-0.18800412161560456,-0.05828123877958235,-1.3169426110237734
-0.18794797161560456,-0.05828123877958235,-1.3169426110237734
-0.18789182161560455,-0.054583013926998554,-1.3169426110237734
-0.18783567161560455,-0.054583013926998554,-1.3169426110237734
-0.18777952161560457,-0.054583013926998554,-1.3169426110237734
-0.18772337161560457,-0.054583013926998554,-1.320649962004811
-0.18766722161560456,-0.05088478907441475,-1.3169426110237734
-0.18761107161560456,-0.05088478907441475,-1.3169426110237734
-0.18755492161560455,-0.05088478907441475,-1.3169426110237734
-0.18749877161560455,-0.05088478907441475,-1.3169426110237734
-0.18744262161560457,-0.05088478907441475,-1.3169426110237734
-0.18738647161560457,-0.04718656422183096,-1.3169426110237734
-0.18733032161560456,-0.04718656422183096,-1.3169426110237734
-0.18727417161560456,-0.04718656422183096,-1.3169426110237734
-0.18721802161560455,-0.04718656422183096,-1.3169426110237734
-0.18716187161560457,-0.04718656422183096,-1.3169426110237734
-0.18710572161560457,-0.043488339369247155,-1.3169426110237734
-0.18704957161560457,-0.04718656422183096,-1.3169426110237734
-0.18699342161560456,-0.043488339369247155,-1.3169426110237734
-0.18693727161560456,-0.043488339369247155,-1.320649962004811
-0.18688112161560455,-0.043488339369247155,-1.3169426110237734
-0.18682497161560457,-0.043488339369247155,-1.3169426110237734
-0.18676882161560457,-0.043488339369247155,-1.3169426110237734
-0.18671267161560456,-0.03979011451666335,-1.3169426110237734
-0.18665652161560456,-0.03979011451666335,-1.320649962004811
-0.18660037161560455,-0.03979011451666335,-1.320649962004811
-0.18654422161560455,-0.03979011451666335,-1.3169426110237734
-0.18648807161560457,-0.03979011451666335,-1.3169426110237734
-0.18643192161560457,-0.03979011451666335,-1.3169426110237734
-0.18637577161560456,-0.043488339369247155,-1.3169426110237734
-0.18631962161560456,-0.03979011451666335,-1.3169426110237734
-0.18626347161560455,-0.03979011451666335,-1.3169426110237734
-0.18620732161560455,-0.03979011451666335,-1.3169426110237734
-0.18615117161560457,-0.03979011451666335,-1.3169426110237734
-0.18609502161560457,-0.03609188966407956,-1.3169426110237734
-0.18603887161560456,-0.03609188966407956,-1.3169426110237734
-0.18598272161560456,-0.03609188966407956,-1.3169426110237734
-0.18592657161560455,-0.03979011451666335,-1.320649962004811
-0.18587042161560458,-0.036091889664081236,-1.320649962004811
-0.18581427161560457,-0.03609188966407956,-1.320649962004811
-0.18575812161560457,-0.03609188966407956,-1.3169426110237734
-0.18570197161560456,-0.03609188966407956,-1.3169426110237734
-0.18564582161560456,-0.03609188966407956,-1.3169426110237734
-0.18558967161560455,-0.03609188966407956,-1.3169426110237734
-0.18553352161560457,-0.03609188966407956,-1.320649962004811
-0.18547737161560457,-0.03609188966407956,-1.3169426110237734
-0.18542122161560456,-0.032393664811495755,-1.3169426110237734
-0.18536507161560456,-0.032393664811495755,-1.3169426110237734
-0.18530892161560455,-0.032393664811495755,-1.3169426110237734
-0.18525277161560455,-0.032393664811495755,-1.3169426110237734
-0.18519662161560457,-0.032393664811495755,-1.320649962004811
-0.18514047161560457,-0.032393664811495755,-1.320649962004811
-0.18508432161560456,-0.032393664811495755,-1.3169426110237734
-0.18502817161560456,-0.032393664811495755,-1.320649962004811
-0.18497202161560455,-0.028695439958911956,-1.3169426110237734
-0.18491587161560455,-0.028695439958911956,-1.3169426110237734
-0.18485972161560457,-0.028695439958911956,-1.3169426110237734
-0.18480357161560457,-0.032393664811495755,-1.320649962004811
-0.18474742161560456,-0.032393664811495755,-1.3169426110237734
-0.18469127161560456,-0.032393664811495755,-1.3169426110237734
-0.18463512161560455,-0.032393664811495755,-1.320649962004811
-0.18457897161560455,-0.032393664811495755,-1.3169426110237734
-0.18452282161560457,-0.032393664811495755,-1.3169426110237734
-0.18446667161560457,-0.032393664811495755,-1.320649962004811
-0.18441052161560456,-0.032393664811495755,-1.320649962004811
-0.18435437161560456,-0.032393664811495755,-1.320649962004811
-0.18429822161560455,-0.032393664811495755,-1.3169426110237734
-0.18424207161560457,-0.032393664811495755,-1.3206499620048093
-0.18418592161560457,-0.032393664811495755,-1.320649962004811
-0.18412977161560456,-0.032393664811495755,-1.320649962004811
-0.18407362161560456,-0.028695439958911956,-1.320649962004811
-0.18401747161560456,-0.028695439958911956,-1.320649962004811
-0.18396132161560455,-0.028695439958911956,-1.320649962004811
-0.18390517161560457,-0.032393664811495755,-1.320649962004811
-0.18384902161560457,-0.032393664811495755,-1.3169426110237734
-0.18379287161560456,-0.032393664811495755,-1.3169426110237734
-0.18373672161560456,-0.032393664811495755,-1.3169426110237734
-0.18368057161560455,-0.032393664811495755,-1.320649962004811
-0.18362442161560455,-0.03609188966407956,-1.320649962004811
-0.18356827161560457,-0.032393664811495755,-1.320649962004811
-0.18351212161560457,-0.032393664811495755,-1.3169426110237734
-0.18345597161560456,-0.032393664811495755,-1.320649962004811
-0.18339982161560456,-0.03609188966407956,-1.320649962004811
-0.18334367161560455,-0.032393664811495755,-1.320649962004811
-0.18328752161560455,-0.032393664811495755,-1.320649962004811
-0.18323137161560457,-0.032393664811495755,-1.320649962004811
-0.18317522161560457,-0.03609188966407956,-1.320649962004811
-0.18311907161560456,-0.03609188966407956,-1.320649962004811
-0.18306292161560456,-0.03609188966407956,-1.320649962004811
-0.18300677161560455,-0.03609188966407956,-1.320649962004811
-0.18295062161560458,-0.032393664811497434,-1.320649962004811
-0.18289447161560457,-0.03609188966407956,-1.320649962004811
-0.18283832161560457,-0.03609188966407956,-1.320649962004811
-0.18278217161560456,-0.03609188966407956,-1.3169426110237734
-0.18272602161560456,-0.03609188966407956,-1.3169426110237734
-0.18266987161560455,-0.03979011451666335,-1.3169426110237734
-0.18261372161560457,-0.03979011451666335,-1.320649962004811
-0.18255757161560457,-0.03979011451666335,-1.320649962004811
-0.18250142161560456,-0.03979011451666335,-1.3169426110237734
-0.18244527161560456,-0.03979011451666335,-1.3169426110237734
-0.18238912161560455,-0.043488339369247155,-1.320649962004811
-0.18233297161560455,-0.043488339369247155,-1.320649962004811
-0.18227682161560457,-0.03979011451666335,-1.320649962004811
-0.18222067161560457,-0.03979011451666335,-1.3169426110237734
-0.18216452161560456,-0.03979011451666335,-1.320649962004811
-0.18210837161560456,-0.03979011451666335,-1.320649962004811
-0.18205222161560455,-0.03979011451666335,-1.320649962004811
-0.18199607161560455,-0.03979011451666335,-1.3169426110237734
-0.18193992161560457,-0.03979011451666335,-1.3169426110237734
-0.18188377161560457,-0.03979011451666335,-1.320649962004811
-0.18182762161560456,-0.03979011451666335,-1.320649962004811
-0.18177147161560456,-0.03979011451666335,-1.320649962004811
-0.18171532161560455,-0.03979011451666335,-1.320649962004811
-0.18165917161560458,-0.03979011451666335,-1.320649962004811
-0.18160302161560457,-0.03979011451666335,-1.3169426110237734
-0.18154687161560457,-0.03979011451666335,-1.320649962004811
-0.18149072161560456,-0.03979011451666335,-1.320649962004811
-0.18143457161560456,-0.03979011451666335,-1.320649962004811
-0.18137842161560455,-0.03979011451666335,-1.320649962004811
-0.18132227161560457,-0.043488339369247155,-1.320649962004811
-0.18126612161560457,-0.03979011451666335,-1.320649962004811
-0.18120997161560456,-0.043488339369247155,-1.320649962004811
-0.18115382161560456,-0.043488339369247155,-1.320649962004811
-0.18109767161560456,-0.043488339369247155,-1.320649962004811
-0.18104152161560455,-0.043488339369247155,-1.3169426110237734
-0.18098537161560457,-0.043488339369247155,-1.3169426110237734
-0.18092922161560457,-0.043488339369247155,-1.3169426110237734
-0.18087307161560456,-0.03979011451666335,-1.320649962004811
-0.18081692161560456,-0.043488339369247155,-1.3169426110237734
-0.18076077161560455,-0.043488339369247155,-1.320649962004811
-0.18070462161560455,-0.043488339369247155,-1.3169426110237734
-0.18064847161560457,-0.043488339369247155,-1.320649962004811
-0.18059232161560457,-0.04718656422183096,-1.320649962004811
-0.18053617161560456,-0.04718656422183096,-1.320649962004811
-0.18048002161560456,-0.043488339369247155,-1.320649962004811
-0.18042387161560455,-0.043488339369247155,-1.320649962004811
-0.18036772161560455,-0.0434883393692892,-1.320649962004811
-0.18031157161560457,-0.13594396068384215,-1.320649962004811
-0.18025542161560457,-0.13594396068384215,-1.3169426110237734
-0.18019927161560456,-0.13594396068384215,-1.3169426110237734
-0.18014312161560456,-0.11745283642092315,-1.320649962004811
-0.18008697161560455,-0.11745283642092315,-1.320649962004811
