10Hz/acq0076.csv

#Digilent WaveForms Oscilloscope Acquisition
#Device Name: Discovery2
#Serial Number: SN:210321AA28BE
#Date Time: 2023-05-24 14:52:47.032
#Sample rate: 17809.4Hz
#Samples: 8192
#Trigger: Source: Channel 1 Type: Edge Condition: Rising Level: 800 mV Hyst.: Auto HoldOff: 100 ns
#Channel 1: Range: 1 V/div Offset: 0 V Attenuation: 1 X Sample Mode: Average
#Channel 2: Range: 1 V/div Offset: 0 V Attenuation: 1 X Sample Mode: Average

Time (s),Channel 1 (V),Channel 2 (V)
-0.19771878584134614,-0.06567768848474995,-1.3169426110237734
-0.19766263584134613,-0.07307413818991755,-1.3169426110237734
-0.19760648584134613,-0.08047058789508515,-1.3169426110237734
-0.19755033584134613,-0.08786703760025275,-1.3132352600427357
-0.19749418584134615,-0.09526348730542035,-1.3169426110237734
-0.19743803584134614,-0.10265993701058794,-1.3169426110237734
-0.19738188584134614,-0.11005638671575554,-1.3169426110237734
-0.19732573584134613,-0.11745283642092315,-1.3169426110237734
-0.19726958584134613,-0.12115106127350694,-1.3132352600427357
-0.19721343584134612,-0.12854751097867623,-1.3169426110237734
-0.19715728584134615,-0.13224573583125834,-1.3169426110237734
-0.19710113584134614,-0.13594396068384215,-1.3169426110237734
-0.19704498584134614,-0.13964218553642593,-1.3169426110237734
-0.19698883584134613,-0.14334041038900974,-1.3169426110237734
-0.19693268584134613,-0.14334041038900974,-1.3169426110237734
-0.19687653584134615,-0.14703863524159186,-1.3169426110237734
-0.19682038584134615,-0.15073686009417733,-1.3132352600427357
-0.19676423584134614,-0.15073686009417733,-1.3169426110237734
-0.19670808584134614,-0.15443508494676114,-1.3169426110237734
-0.19665193584134613,-0.15813330979934495,-1.3132352600427357
-0.19659578584134613,-0.15813330979934495,-1.3132352600427357
-0.19653963584134615,-0.15813330979934495,-1.3169426110237734
-0.19648348584134614,-0.16183153465192873,-1.3132352600427357
-0.19642733584134614,-0.15813330979934495,-1.3132352600427357
-0.19637118584134614,-0.16183153465192873,-1.3169426110237734
-0.19631503584134613,-0.16183153465192873,-1.3169426110237734
-0.19625888584134613,-0.16183153465192873,-1.3169426110237734
-0.19620273584134615,-0.16183153465192873,-1.3169426110237734
-0.19614658584134614,-0.16183153465192873,-1.3132352600427357
-0.19609043584134614,-0.16183153465192873,-1.3132352600427357
-0.19603428584134613,-0.16183153465192873,-1.3132352600427357
-0.19597813584134613,-0.16183153465192873,-1.3132352600427357
-0.19592198584134612,-0.16183153465192873,-1.3132352600427375
-0.19586583584134615,-0.16183153465192873,-1.3169426110237734
-0.19580968584134614,-0.16183153465192873,-1.3169426110237734
-0.19575353584134614,-0.16183153465192873,-1.3169426110237734
-0.19569738584134613,-0.16183153465192873,-1.3169426110237734
-0.19564123584134613,-0.16183153465192873,-1.3169426110237734
-0.19558508584134615,-0.15813330979934664,-1.3169426110237734
-0.19552893584134615,-0.15813330979934495,-1.3169426110237734
-0.19547278584134614,-0.16183153465192873,-1.3169426110237734
-0.19541663584134614,-0.15813330979934495,-1.3132352600427357
-0.19536048584134613,-0.15443508494676114,-1.3169426110237734
-0.19530433584134613,-0.15443508494676114,-1.3169426110237734
-0.19524818584134615,-0.15443508494676114,-1.3169426110237734
-0.19519203584134615,-0.15443508494676114,-1.3169426110237734
-0.19513588584134614,-0.15073686009417733,-1.3169426110237734
-0.19507973584134614,-0.15073686009417733,-1.3169426110237734
-0.19502358584134613,-0.15073686009417733,-1.3169426110237734
-0.19496743584134613,-0.14703863524159355,-1.3132352600427357
-0.19491128584134615,-0.14703863524159355,-1.3132352600427357
-0.19485513584134614,-0.14334041038900974,-1.3169426110237734
-0.19479898584134614,-0.14334041038900974,-1.3169426110237734
-0.19474283584134613,-0.14334041038900974,-1.3169426110237734
-0.19468668584134613,-0.14334041038900974,-1.3169426110237734
-0.19463053584134613,-0.14334041038900805,-1.3169426110237734
-0.19457438584134615,-0.13964218553642593,-1.3169426110237734
-0.19451823584134614,-0.13964218553642593,-1.3169426110237734
-0.19446208584134614,-0.13964218553642593,-1.3169426110237734
-0.19440593584134613,-0.13594396068384215,-1.3169426110237734
-0.19434978584134613,-0.13224573583125834,-1.3169426110237734
-0.19429363584134615,-0.13224573583125834,-1.3169426110237734
-0.19423748584134615,-0.13224573583125834,-1.3169426110237734
-0.19418133584134614,-0.13224573583125834,-1.3169426110237734
-0.19412518584134614,-0.12854751097867453,-1.3132352600427357
-0.19406903584134613,-0.12854751097867453,-1.3169426110237734
-0.19401288584134613,-0.12854751097867453,-1.3169426110237734
-0.19395673584134615,-0.12854751097867453,-1.3169426110237734
-0.19390058584134615,-0.12484928612609074,-1.3169426110237734
-0.19384443584134614,-0.12484928612609074,-1.3169426110237734
-0.19378828584134614,-0.12484928612609074,-1.3169426110237734
-0.19373213584134613,-0.12115106127350694,-1.3169426110237734
-0.19367598584134613,-0.12115106127350694,-1.3169426110237734
-0.19361983584134615,-0.12115106127350694,-1.3169426110237734
-0.19356368584134614,-0.12115106127350694,-1.3169426110237734
-0.19350753584134614,-0.11745283642092315,-1.3169426110237734
-0.19345138584134614,-0.12115106127350694,-1.3169426110237734
-0.19339523584134613,-0.11745283642092315,-1.3169426110237734
-0.19333908584134613,-0.11745283642092315,-1.3169426110237734
-0.19328293584134615,-0.11745283642092315,-1.3169426110237734
-0.19322678584134614,-0.11375461156833934,-1.3169426110237734
-0.19317063584134614,-0.11375461156833934,-1.3169426110237734
-0.19311448584134613,-0.11375461156833934,-1.3169426110237734
-0.19305833584134613,-0.11375461156833934,-1.3169426110237734
-0.19300218584134612,-0.11375461156833934,-1.3169426110237734
-0.19294603584134615,-0.11375461156833934,-1.3169426110237734
-0.19288988584134614,-0.11375461156833934,-1.3169426110237734
-0.19283373584134614,-0.11005638671575554,-1.3169426110237734
-0.19277758584134613,-0.11005638671575554,-1.3169426110237734
-0.19272143584134613,-0.11005638671575554,-1.3169426110237734
-0.19266528584134615,-0.10635816186317343,-1.3169426110237734
-0.19260913584134615,-0.11005638671575554,-1.3169426110237734
-0.19255298584134614,-0.10635816186317175,-1.3169426110237734
-0.19249683584134614,-0.10635816186317175,-1.3169426110237734
-0.19244068584134613,-0.10635816186317175,-1.3169426110237734
-0.19238453584134613,-0.10265993701058794,-1.3169426110237734
-0.19232838584134615,-0.10265993701058794,-1.3169426110237734
-0.19227223584134615,-0.10265993701058794,-1.3169426110237734
-0.19221608584134614,-0.10265993701058794,-1.3169426110237734
-0.19215993584134614,-0.10265993701058794,-1.3169426110237734
-0.19210378584134613,-0.10265993701058794,-1.3169426110237734
-0.19204763584134613,-0.10265993701058794,-1.3169426110237734
-0.19199148584134615,-0.10265993701058794,-1.3169426110237734
-0.19193533584134614,-0.09896171215800414,-1.3169426110237734
-0.19187918584134614,-0.09896171215800414,-1.3169426110237734
-0.19182303584134613,-0.09896171215800414,-1.3169426110237734
-0.19176688584134613,-0.09526348730542035,-1.3169426110237734
-0.19171073584134612,-0.09526348730542035,-1.3169426110237734
-0.19165458584134615,-0.09526348730542035,-1.3169426110237734
-0.19159843584134614,-0.09526348730542035,-1.3169426110237734
-0.19154228584134614,-0.09156526245283655,-1.3169426110237734
-0.19148613584134613,-0.09156526245283655,-1.3169426110237734
-0.19142998584134613,-0.09156526245283655,-1.3169426110237734
-0.19137383584134615,-0.09156526245283655,-1.3169426110237734
-0.19131768584134615,-0.09156526245283655,-1.3169426110237734
-0.19126153584134614,-0.09156526245283655,-1.3169426110237734
-0.19120538584134614,-0.09156526245283655,-1.3169426110237734
-0.19114923584134613,-0.08786703760025275,-1.3169426110237734
-0.19109308584134613,-0.08786703760025275,-1.3169426110237734
-0.19103693584134615,-0.08786703760025275,-1.3169426110237734
-0.19098078584134615,-0.08786703760025275,-1.3169426110237734
-0.19092463584134614,-0.08786703760025275,-1.3169426110237734
-0.19086848584134614,-0.08416881274766895,-1.3169426110237734
-0.19081233584134613,-0.08786703760025275,-1.3169426110237734
-0.19075618584134613,-0.08786703760025275,-1.3169426110237734
-0.19070003584134615,-0.08786703760025275,-1.3169426110237734
-0.19064388584134614,-0.08786703760025275,-1.3169426110237734
-0.19058773584134614,-0.08786703760025275,-1.3169426110237734
-0.19053158584134613,-0.08786703760025275,-1.3169426110237734
-0.19047543584134613,-0.08786703760025275,-1.3169426110237734
-0.19041928584134613,-0.08786703760025275,-1.3169426110237734
-0.19036313584134615,-0.08786703760025275,-1.3169426110237734
-0.19030698584134614,-0.08786703760025275,-1.3169426110237734
-0.19025083584134614,-0.08786703760025275,-1.3169426110237734
-0.19019468584134613,-0.08416881274766895,-1.3169426110237734
-0.19013853584134613,-0.08786703760025275,-1.3169426110237734
-0.19008238584134615,-0.08786703760025275,-1.3169426110237734
-0.19002623584134615,-0.08786703760025275,-1.3169426110237734
-0.18997008584134614,-0.08786703760025275,-1.3169426110237734
-0.18991393584134614,-0.08786703760025275,-1.3169426110237734
-0.18985778584134613,-0.08786703760025275,-1.3169426110237734
-0.18980163584134613,-0.08416881274766895,-1.3169426110237734
-0.18974548584134615,-0.08416881274766895,-1.3169426110237734
-0.18968933584134615,-0.08416881274766895,-1.3169426110237734
-0.18963318584134614,-0.08786703760025275,-1.3169426110237734
-0.18957703584134614,-0.08786703760025275,-1.3169426110237734
-0.18952088584134613,-0.08786703760025275,-1.3169426110237734
-0.18946473584134613,-0.08786703760025275,-1.3169426110237734
-0.18940858584134615,-0.08786703760025275,-1.3169426110237734
-0.18935243584134615,-0.08786703760025275,-1.3169426110237734
-0.18929628584134614,-0.08786703760025275,-1.3169426110237734
-0.18924013584134614,-0.08786703760025275,-1.3169426110237734
-0.18918398584134613,-0.08786703760025275,-1.3169426110237734
-0.18912783584134613,-0.08786703760025275,-1.3169426110237734
-0.18907168584134615,-0.09156526245283655,-1.3169426110237734
-0.18901553584134614,-0.08786703760025275,-1.3169426110237734
-0.18895938584134614,-0.08786703760025275,-1.3169426110237734
-0.18890323584134613,-0.08786703760025275,-1.3169426110237734
-0.18884708584134613,-0.08786703760025275,-1.3169426110237734
-0.18879093584134612,-0.08786703760025275,-1.3169426110237734
-0.18873478584134615,-0.08786703760025275,-1.3169426110237734
-0.18867863584134614,-0.08786703760025275,-1.3169426110237734
-0.18862248584134614,-0.08786703760025275,-1.3169426110237734
-0.18856633584134613,-0.08786703760025275,-1.3169426110237734
-0.18851018584134613,-0.08786703760025275,-1.3169426110237734
-0.18845403584134615,-0.08786703760025275,-1.3169426110237734
-0.18839788584134615,-0.08416881274766895,-1.3169426110237734
-0.18834173584134614,-0.08416881274766895,-1.3169426110237734
-0.18828558584134614,-0.08416881274766895,-1.3169426110237734
-0.18822943584134613,-0.08416881274766895,-1.3169426110237734
-0.18817328584134613,-0.08416881274766895,-1.3169426110237734
-0.18811713584134615,-0.08416881274766895,-1.3169426110237734
-0.18806098584134615,-0.08416881274766895,-1.3169426110237734
-0.18800483584134614,-0.08416881274766895,-1.3169426110237734
-0.18794868584134614,-0.08416881274766895,-1.3169426110237734
-0.18789253584134613,-0.08416881274766895,-1.3169426110237734
-0.18783638584134613,-0.08416881274766895,-1.3169426110237734
-0.18778023584134615,-0.08416881274766895,-1.3169426110237734
-0.18772408584134614,-0.08047058789508515,-1.3169426110237734
-0.18766793584134614,-0.08416881274766895,-1.3169426110237734
-0.18761178584134613,-0.08416881274766895,-1.3169426110237734
-0.18755563584134613,-0.08416881274766895,-1.3169426110237734
-0.18749948584134613,-0.08416881274766895,-1.3169426110237734
-0.18744333584134615,-0.08416881274766895,-1.3169426110237734
-0.18738718584134614,-0.08416881274766895,-1.3169426110237734
-0.18733103584134614,-0.08416881274766895,-1.3169426110237734
-0.18727488584134613,-0.08416881274766895,-1.3169426110237734
-0.18721873584134613,-0.08416881274766895,-1.3169426110237734
-0.18716258584134615,-0.08047058789508683,-1.3169426110237734
-0.18710643584134615,-0.08416881274766895,-1.3169426110237734
-0.18705028584134614,-0.08047058789508515,-1.3169426110237734
-0.18699413584134614,-0.08416881274766895,-1.3169426110237734
-0.18693798584134613,-0.08416881274766895,-1.3169426110237734
-0.18688183584134613,-0.08416881274766895,-1.3169426110237734
-0.18682568584134615,-0.08416881274766895,-1.3169426110237734
-0.18676953584134615,-0.08416881274766895,-1.3169426110237734
-0.18671338584134614,-0.08416881274766895,-1.3169426110237734
-0.18665723584134614,-0.08416881274766895,-1.3169426110237734
-0.18660108584134613,-0.08416881274766895,-1.3169426110237734
-0.18654493584134613,-0.08416881274766895,-1.3169426110237734
-0.18648878584134615,-0.08416881274766895,-1.3169426110237734
-0.18643263584134614,-0.08416881274766895,-1.3169426110237734
-0.18637648584134614,-0.08416881274766895,-1.3169426110237734
-0.18632033584134614,-0.08416881274766895,-1.3169426110237734
-0.18626418584134613,-0.08786703760025275,-1.3169426110237734
-0.18620803584134613,-0.08786703760025107,-1.3169426110237734
-0.18615188584134615,-0.08416881274766895,-1.3169426110237734
-0.18609573584134614,-0.08416881274766895,-1.3169426110237734
-0.18603958584134614,-0.08786703760025275,-1.3169426110237734
-0.18598343584134613,-0.08416881274766895,-1.3169426110237734
-0.18592728584134613,-0.08786703760025275,-1.3169426110237734
-0.18587113584134615,-0.08416881274767063,-1.3169426110237734
-0.18581498584134615,-0.08786703760025275,-1.3169426110237734
-0.18575883584134614,-0.08786703760025275,-1.3169426110237734
-0.18570268584134614,-0.08786703760025275,-1.3169426110237734
-0.18564653584134613,-0.08416881274766895,-1.3169426110237734
-0.18559038584134613,-0.08416881274766895,-1.3169426110237734
-0.18553423584134615,-0.08416881274766895,-1.3169426110237734
-0.18547808584134615,-0.08416881274766895,-1.3169426110237734
-0.18542193584134614,-0.08416881274766895,-1.3169426110237734
-0.18536578584134614,-0.08416881274766895,-1.3169426110237734
-0.18530963584134613,-0.08416881274766895,-1.3169426110237734
-0.18525348584134613,-0.08416881274766895,-1.3169426110237734
-0.18519733584134615,-0.08416881274766895,-1.3169426110237734
-0.18514118584134615,-0.08416881274766895,-1.3169426110237734
-0.18508503584134614,-0.08416881274766895,-1.3169426110237734
-0.18502888584134614,-0.08047058789508515,-1.3169426110237734
-0.18497273584134613,-0.08416881274766895,-1.3169426110237734
-0.18491658584134613,-0.08416881274766895,-1.3169426110237734
-0.18486043584134615,-0.08416881274766895,-1.3169426110237734
-0.18480428584134614,-0.08047058789508515,-1.3169426110237734
-0.18474813584134614,-0.08047058789508515,-1.3169426110237734
-0.18469198584134613,-0.08047058789508515,-1.320649962004811
-0.18463583584134613,-0.07677236304250135,-1.3169426110237734
-0.18457968584134612,-0.07677236304250135,-1.3169426110237734
-0.18452353584134615,-0.07677236304250135,-1.3169426110237734
-0.18446738584134614,-0.07677236304250135,-1.3169426110237734
-0.18441123584134614,-0.07677236304250135,-1.3169426110237734
-0.18435508584134613,-0.07677236304250135,-1.320649962004811
-0.18429893584134613,-0.08047058789508515,-1.3169426110237734
-0.18424278584134615,-0.07677236304250303,-1.3206499620048093
-0.18418663584134615,-0.07677236304250135,-1.3169426110237734
-0.18413048584134614,-0.07677236304250135,-1.3169426110237734
-0.18407433584134614,-0.07307413818991755,-1.3169426110237734
-0.18401818584134613,-0.07307413818991755,-1.3169426110237734
-0.18396203584134613,-0.07307413818991755,-1.3169426110237734
-0.18390588584134615,-0.07307413818991755,-1.3169426110237734
-0.18384973584134615,-0.07307413818991755,-1.3169426110237734
-0.18379358584134614,-0.07307413818991755,-1.3169426110237734
-0.18373743584134614,-0.07307413818991755,-1.3169426110237734
-0.18368128584134613,-0.07307413818991755,-1.3169426110237734
-0.18362513584134613,-0.07307413818991755,-1.3169426110237734
-0.18356898584134615,-0.07307413818991755,-1.3169426110237734
-0.18351283584134614,-0.07307413818991755,-1.320649962004811
-0.18345668584134614,-0.07307413818991755,-1.3169426110237734
-0.18340053584134614,-0.07307413818991755,-1.320649962004811
-0.18334438584134613,-0.07307413818991755,-1.3169426110237734
-0.18328823584134613,-0.07307413818991755,-1.3169426110237734
-0.18323208584134615,-0.07307413818991755,-1.3169426110237734
-0.18317593584134614,-0.07307413818991755,-1.3169426110237734
-0.18311978584134614,-0.07307413818991755,-1.3169426110237734
-0.18306363584134613,-0.06937591333733376,-1.3169426110237734
-0.18300748584134613,-0.06937591333733376,-1.3169426110237734
-0.18295133584134615,-0.06937591333733376,-1.3169426110237734
-0.18289518584134615,-0.06937591333733376,-1.320649962004811
-0.18283903584134614,-0.06937591333733376,-1.3169426110237734
-0.18278288584134614,-0.06937591333733376,-1.320649962004811
-0.18272673584134613,-0.06937591333733376,-1.320649962004811
-0.18267058584134613,-0.06567768848474995,-1.320649962004811
-0.18261443584134615,-0.06567768848474995,-1.3169426110237734
-0.18255828584134615,-0.06567768848474995,-1.320649962004811
-0.18250213584134614,-0.06567768848474995,-1.3169426110237734
-0.18244598584134614,-0.06567768848474995,-1.3169426110237734
-0.18238983584134613,-0.06197946363216615,-1.3169426110237734
-0.18233368584134613,-0.06197946363216615,-1.3169426110237734
-0.18227753584134615,-0.06197946363216615,-1.3169426110237734
-0.18222138584134615,-0.05828123877958235,-1.3169426110237734
-0.18216523584134614,-0.05828123877958235,-1.3169426110237734
-0.18210908584134614,-0.05828123877958235,-1.320649962004811
-0.18205293584134613,-0.05828123877958235,-1.320649962004811
-0.18199678584134613,-0.054583013926998554,-1.320649962004811
-0.18194063584134615,-0.054583013926998554,-1.320649962004811
-0.18188448584134614,-0.054583013926998554,-1.3169426110237734
-0.18182833584134614,-0.054583013926998554,-1.320649962004811
-0.18177218584134613,-0.054583013926998554,-1.3169426110237734
-0.18171603584134613,-0.05088478907441475,-1.320649962004811
-0.18165988584134615,-0.05088478907441475,-1.320649962004811
-0.18160373584134615,-0.05088478907441475,-1.320649962004811
-0.18154758584134614,-0.05088478907441475,-1.320649962004811
-0.18149143584134614,-0.05088478907441475,-1.320649962004811
-0.18143528584134613,-0.04718656422183096,-1.320649962004811
-0.18137913584134613,-0.04718656422183096,-1.320649962004811
-0.18132298584134615,-0.04718656422183096,-1.3169426110237734
-0.18126683584134615,-0.04718656422183096,-1.3169426110237734
-0.18121068584134614,-0.043488339369247155,-1.3169426110237734
-0.18115453584134614,-0.043488339369247155,-1.3169426110237734
-0.18109838584134613,-0.043488339369247155,-1.3169426110237734
-0.18104223584134613,-0.03979011451666335,-1.3169426110237734
-0.18098608584134615,-0.03979011451666335,-1.3169426110237734
-0.18092993584134615,-0.03979011451666335,-1.320649962004811
-0.18087378584134614,-0.03979011451666335,-1.320649962004811
-0.18081763584134614,-0.03979011451666335,-1.320649962004811
-0.18076148584134613,-0.03979011451666335,-1.320649962004811
-0.18070533584134613,-0.03979011451666335,-1.320649962004811
-0.18064918584134615,-0.03609188966407956,-1.320649962004811
-0.18059303584134614,-0.03609188966407956,-1.3169426110237734
-0.18053688584134614,-0.03609188966407956,-1.3169426110237734
-0.18048073584134613,-0.032393664811495755,-1.3169426110237734
-0.18042458584134613,-0.032393664811495755,-1.3169426110237734
-0.18036843584134613,-0.032393664811495755,-1.3169426110237734
-0.18031228584134615,-0.032393664811495755,-1.3169426110237734
-0.18025613584134614,-0.032393664811495755,-1.3169426110237734
-0.18019998584134614,-0.032393664811495755,-1.3169426110237734
-0.18014383584134613,-0.03609188966407956,-1.3169426110237734
-0.18008768584134613,-0.032393664811495755,-1.320649962004811
