10Hz/acq0042.csv

#Digilent WaveForms Oscilloscope Acquisition
#Device Name: Discovery2
#Serial Number: SN:210321AA28BE
#Date Time: 2023-05-24 14:52:30.031
#Sample rate: 17809.4Hz
#Samples: 8192
#Trigger: Source: Channel 1 Type: Edge Condition: Rising Level: 800 mV Hyst.: Auto HoldOff: 100 ns
#Channel 1: Range: 1 V/div Offset: 0 V Attenuation: 1 X Sample Mode: Average
#Channel 2: Range: 1 V/div Offset: 0 V Attenuation: 1 X Sample Mode: Average

Time (s),Channel 1 (V),Channel 2 (V)
-0.19771819605805835,-0.07677236304250135,-1.3169426110237734
-0.19766204605805834,-0.08047058789508515,-1.3169426110237734
-0.19760589605805834,-0.09156526245283655,-1.3169426110237734
-0.19754974605805833,-0.09896171215800414,-1.3169426110237734
-0.19749359605805836,-0.11005638671575554,-1.3132352600427357
-0.19743744605805835,-0.11745283642092315,-1.3169426110237734
-0.19738129605805835,-0.12484928612609074,-1.3169426110237734
-0.19732514605805834,-0.13224573583125834,-1.3169426110237734
-0.19726899605805834,-0.13594396068384215,-1.3169426110237734
-0.19721284605805833,-0.1433404103890131,-1.3169426110237734
-0.19715669605805836,-0.15073686009417733,-1.3169426110237734
-0.19710054605805835,-0.15813330979934495,-1.3169426110237734
-0.19704439605805835,-0.16183153465192873,-1.3169426110237734
-0.19698824605805834,-0.16552975950451254,-1.3169426110237734
-0.19693209605805834,-0.16922798435709635,-1.3132352600427357
-0.19687594605805836,-0.17292620920967844,-1.3132352600427357
-0.19681979605805835,-0.17292620920968013,-1.3132352600427357
-0.19676364605805835,-0.17662443406226394,-1.3169426110237734
-0.19670749605805835,-0.18032265891484775,-1.3132352600427357
-0.19665134605805834,-0.18032265891484775,-1.3169426110237734
-0.19659519605805834,-0.18402088376743153,-1.3169426110237734
-0.19653904605805836,-0.18771910862001534,-1.3169426110237734
-0.19648289605805835,-0.18771910862001534,-1.3169426110237734
-0.19642674605805835,-0.18771910862001534,-1.3132352600427357
-0.19637059605805834,-0.19141733347259912,-1.3169426110237734
-0.19631444605805834,-0.19141733347259912,-1.3169426110237734
-0.19625829605805833,-0.19141733347259912,-1.3132352600427357
-0.19620214605805836,-0.19511555832518293,-1.3132352600427357
-0.19614599605805835,-0.19511555832518293,-1.3169426110237734
-0.19608984605805835,-0.19511555832518293,-1.3169426110237734
-0.19603369605805834,-0.19511555832518293,-1.3169426110237734
-0.19597754605805834,-0.19511555832518293,-1.3169426110237734
-0.19592139605805833,-0.19511555832518293,-1.3169426110237734
-0.19586524605805836,-0.19511555832518293,-1.3169426110237734
-0.19580909605805835,-0.19511555832518293,-1.3169426110237734
-0.19575294605805835,-0.19511555832518293,-1.3169426110237734
-0.19569679605805834,-0.19511555832518293,-1.3169426110237734
-0.19564064605805834,-0.19511555832518293,-1.3169426110237734
-0.19558449605805836,-0.19511555832518293,-1.3169426110237734
-0.19552834605805836,-0.19141733347259912,-1.3169426110237734
-0.19547219605805835,-0.19511555832518293,-1.3132352600427357
-0.19541604605805835,-0.19511555832518293,-1.3169426110237734
-0.19535989605805834,-0.19141733347259912,-1.3169426110237734
-0.19530374605805834,-0.19141733347259912,-1.3169426110237734
-0.19524759605805836,-0.19141733347259912,-1.3169426110237734
-0.19519144605805835,-0.19141733347259912,-1.3132352600427357
-0.19513529605805835,-0.19141733347259912,-1.3169426110237734
-0.19507914605805834,-0.19141733347259912,-1.3169426110237734
-0.19502299605805834,-0.19141733347259912,-1.3169426110237734
-0.19496684605805834,-0.19141733347259912,-1.3169426110237734
-0.19491069605805836,-0.18771910862001534,-1.3169426110237734
-0.19485454605805835,-0.18771910862001534,-1.3169426110237734
-0.19479839605805835,-0.18771910862001534,-1.3169426110237734
-0.19474224605805834,-0.18771910862001534,-1.3169426110237734
-0.19468609605805834,-0.18771910862001534,-1.3169426110237734
-0.19462994605805833,-0.18771910862001534,-1.3169426110237734
-0.19457379605805836,-0.18771910862001534,-1.3169426110237734
-0.19451764605805835,-0.18771910862001534,-1.3169426110237734
-0.19446149605805835,-0.18771910862001534,-1.3169426110237734
-0.19440534605805834,-0.18402088376743153,-1.3169426110237734
-0.19434919605805834,-0.18402088376743153,-1.3169426110237734
-0.19429304605805836,-0.18402088376743153,-1.3169426110237734
-0.19423689605805836,-0.18402088376743153,-1.3169426110237734
-0.19418074605805835,-0.18402088376743153,-1.3169426110237734
-0.19412459605805835,-0.18032265891484775,-1.3169426110237734
-0.19406844605805834,-0.18032265891484775,-1.3169426110237734
-0.19401229605805834,-0.18032265891484775,-1.3169426110237734
-0.19395614605805836,-0.17662443406226394,-1.3169426110237734
-0.19389999605805835,-0.17662443406226394,-1.3169426110237734
-0.19384384605805835,-0.17662443406226394,-1.3169426110237734
-0.19378769605805835,-0.17292620920968013,-1.3169426110237734
-0.19373154605805834,-0.17292620920968013,-1.3132352600427357
-0.19367539605805834,-0.16922798435709635,-1.3169426110237734
-0.19361924605805836,-0.16922798435709635,-1.3169426110237734
-0.19356309605805835,-0.16552975950451254,-1.3169426110237734
-0.19350694605805835,-0.16552975950451254,-1.3169426110237734
-0.19345079605805834,-0.16552975950451254,-1.3169426110237734
-0.19339464605805834,-0.16183153465192873,-1.3169426110237734
-0.19333849605805833,-0.16183153465192873,-1.3169426110237734
-0.19328234605805836,-0.16183153465192873,-1.3169426110237734
-0.19322619605805835,-0.15813330979934495,-1.3169426110237734
-0.19317004605805835,-0.15813330979934495,-1.3169426110237734
-0.19311389605805834,-0.15813330979934495,-1.3169426110237734
-0.19305774605805834,-0.15443508494676114,-1.3169426110237734
-0.19300159605805833,-0.15443508494675945,-1.3169426110237734
-0.19294544605805836,-0.15073686009417733,-1.3169426110237734
-0.19288929605805835,-0.15073686009417733,-1.3169426110237734
-0.19283314605805835,-0.14703863524159355,-1.3169426110237734
-0.19277699605805834,-0.14703863524159355,-1.3169426110237734
-0.19272084605805834,-0.14703863524159355,-1.3169426110237734
-0.19266469605805836,-0.14703863524159355,-1.3169426110237734
-0.19260854605805836,-0.14334041038900974,-1.3169426110237734
-0.19255239605805835,-0.14334041038900974,-1.3169426110237734
-0.19249624605805835,-0.14334041038900974,-1.3169426110237734
-0.19244009605805834,-0.14334041038900974,-1.3169426110237734
-0.19238394605805834,-0.13964218553642593,-1.3169426110237734
-0.19232779605805836,-0.13964218553642593,-1.3169426110237734
-0.19227164605805835,-0.13594396068384215,-1.3169426110237734
-0.19221549605805835,-0.13594396068384215,-1.3169426110237734
-0.19215934605805834,-0.13224573583125834,-1.3169426110237734
-0.19210319605805834,-0.13224573583125834,-1.3169426110237734
-0.19204704605805833,-0.13224573583125834,-1.3169426110237734
-0.19199089605805836,-0.12854751097867453,-1.3169426110237734
-0.19193474605805835,-0.12854751097867453,-1.3169426110237734
-0.19187859605805835,-0.12854751097867453,-1.3169426110237734
-0.19182244605805834,-0.12484928612609074,-1.3169426110237734
-0.19176629605805834,-0.12484928612609074,-1.3169426110237734
-0.19171014605805833,-0.12484928612608906,-1.3169426110237734
-0.19165399605805836,-0.12115106127350694,-1.3169426110237734
-0.19159784605805835,-0.12115106127350694,-1.3169426110237734
-0.19154169605805835,-0.11745283642092315,-1.3169426110237734
-0.19148554605805834,-0.11745283642092315,-1.3169426110237734
-0.19142939605805834,-0.11745283642092315,-1.3169426110237734
-0.19137324605805836,-0.11375461156834102,-1.3169426110237734
-0.19131709605805836,-0.11375461156833934,-1.3169426110237734
-0.19126094605805835,-0.11375461156833934,-1.3169426110237734
-0.19120479605805835,-0.11375461156833934,-1.3169426110237734
-0.19114864605805834,-0.11005638671575554,-1.3169426110237734
-0.19109249605805834,-0.11005638671575554,-1.3169426110237734
-0.19103634605805836,-0.11005638671575554,-1.3169426110237734
-0.19098019605805835,-0.11005638671575554,-1.3169426110237734
-0.19092404605805835,-0.10635816186317175,-1.3169426110237734
-0.19086789605805835,-0.10635816186317175,-1.3169426110237734
-0.19081174605805834,-0.10635816186317175,-1.3169426110237734
-0.19075559605805834,-0.10635816186317175,-1.3169426110237734
-0.19069944605805836,-0.10265993701058794,-1.3169426110237734
-0.19064329605805835,-0.10265993701058794,-1.3169426110237734
-0.19058714605805835,-0.09896171215800414,-1.3169426110237734
-0.19053099605805834,-0.09896171215800414,-1.3169426110237734
-0.19047484605805834,-0.09896171215800414,-1.3169426110237734
-0.19041869605805833,-0.09896171215800247,-1.3169426110237734
-0.19036254605805836,-0.09526348730542035,-1.3169426110237734
-0.19030639605805835,-0.09526348730542035,-1.3169426110237734
-0.19025024605805835,-0.09526348730542035,-1.3169426110237734
-0.19019409605805834,-0.09156526245283655,-1.3169426110237734
-0.19013794605805834,-0.09156526245283655,-1.3169426110237734
-0.19008179605805836,-0.09156526245283655,-1.3169426110237734
-0.19002564605805836,-0.09156526245283655,-1.3169426110237734
-0.18996949605805835,-0.09156526245283655,-1.3169426110237734
-0.18991334605805835,-0.08786703760025275,-1.3169426110237734
-0.18985719605805834,-0.08786703760025275,-1.3169426110237734
-0.18980104605805834,-0.08786703760025275,-1.3169426110237734
-0.18974489605805836,-0.08416881274766895,-1.3169426110237734
-0.18968874605805836,-0.08416881274766895,-1.3169426110237734
-0.18963259605805835,-0.08047058789508515,-1.3169426110237734
-0.18957644605805835,-0.08047058789508515,-1.3169426110237734
-0.18952029605805834,-0.08047058789508515,-1.3169426110237734
-0.18946414605805834,-0.07677236304250135,-1.3169426110237734
-0.18940799605805836,-0.07677236304250135,-1.3169426110237734
-0.18935184605805835,-0.07307413818991755,-1.3169426110237734
-0.18929569605805835,-0.07677236304250135,-1.3169426110237734
-0.18923954605805834,-0.07307413818991755,-1.3169426110237734
-0.18918339605805834,-0.06937591333733376,-1.3169426110237734
-0.18912724605805833,-0.06567768848474995,-1.3169426110237734
-0.18907109605805836,-0.06567768848474995,-1.3169426110237734
-0.18901494605805835,-0.06567768848474995,-1.3169426110237734
-0.18895879605805835,-0.06567768848474995,-1.3169426110237734
-0.18890264605805834,-0.06567768848474995,-1.3169426110237734
-0.18884649605805834,-0.06567768848474995,-1.3169426110237734
-0.18879034605805833,-0.06197946363216615,-1.3169426110237734
-0.18873419605805836,-0.06197946363216615,-1.3169426110237734
-0.18867804605805835,-0.06197946363216615,-1.3169426110237734
-0.18862189605805835,-0.06197946363216615,-1.3169426110237734
-0.18856574605805834,-0.06197946363216615,-1.3169426110237734
-0.18850959605805834,-0.05828123877958235,-1.3169426110237734
-0.18845344605805836,-0.05828123877958235,-1.3169426110237734
-0.18839729605805836,-0.05828123877958235,-1.3169426110237734
-0.18834114605805835,-0.05828123877958235,-1.3169426110237734
-0.18828499605805835,-0.05828123877958235,-1.3169426110237734
-0.18822884605805834,-0.054583013926998554,-1.3169426110237734
-0.18817269605805834,-0.054583013926998554,-1.3169426110237734
-0.18811654605805836,-0.054583013926998554,-1.3169426110237734
-0.18806039605805835,-0.054583013926998554,-1.3169426110237734
-0.18800424605805835,-0.05088478907441475,-1.3169426110237734
-0.18794809605805834,-0.05088478907441475,-1.3169426110237734
-0.18789194605805834,-0.054583013926998554,-1.3169426110237734
-0.18783579605805834,-0.05088478907441475,-1.3169426110237734
-0.18777964605805836,-0.05088478907441475,-1.3169426110237734
-0.18772349605805835,-0.04718656422183096,-1.3169426110237734
-0.18766734605805835,-0.04718656422183096,-1.3169426110237734
-0.18761119605805834,-0.04718656422183096,-1.3169426110237734
-0.18755504605805834,-0.05088478907441475,-1.3169426110237734
-0.18749889605805833,-0.04718656422183096,-1.3169426110237734
-0.18744274605805836,-0.04718656422183096,-1.3169426110237734
-0.18738659605805835,-0.04718656422183096,-1.3169426110237734
-0.18733044605805835,-0.05088478907441475,-1.3169426110237734
-0.18727429605805834,-0.04718656422183096,-1.3169426110237734
-0.18721814605805834,-0.04718656422183096,-1.3169426110237734
-0.18716199605805836,-0.04718656422183096,-1.3169426110237734
-0.18710584605805836,-0.04718656422183096,-1.3169426110237734
-0.18704969605805835,-0.043488339369247155,-1.3169426110237734
-0.18699354605805835,-0.043488339369247155,-1.3169426110237734
-0.18693739605805834,-0.04718656422183096,-1.320649962004811
-0.18688124605805834,-0.043488339369247155,-1.3169426110237734
-0.18682509605805836,-0.043488339369247155,-1.3169426110237734
-0.18676894605805835,-0.043488339369247155,-1.3169426110237734
-0.18671279605805835,-0.043488339369247155,-1.3169426110237734
-0.18665664605805835,-0.043488339369247155,-1.3169426110237734
-0.18660049605805834,-0.03979011451666335,-1.3169426110237734
-0.18654434605805834,-0.03979011451666335,-1.3169426110237734
-0.18648819605805836,-0.03979011451666335,-1.3169426110237734
-0.18643204605805835,-0.03979011451666335,-1.3169426110237734
-0.18637589605805835,-0.03979011451666335,-1.3169426110237734
-0.18631974605805834,-0.03979011451666335,-1.3169426110237734
-0.18626359605805834,-0.03979011451666335,-1.3169426110237734
-0.18620744605805833,-0.03979011451666335,-1.3169426110237734
-0.18615129605805836,-0.03979011451666335,-1.3169426110237734
-0.18609514605805835,-0.03609188966407956,-1.3169426110237734
-0.18603899605805835,-0.03609188966407956,-1.3169426110237734
-0.18598284605805834,-0.03609188966407956,-1.3169426110237734
-0.18592669605805834,-0.03609188966407956,-1.3169426110237734
-0.18587054605805836,-0.03609188966407956,-1.3169426110237734
-0.18581439605805836,-0.03979011451666335,-1.3169426110237734
-0.18575824605805835,-0.03609188966407956,-1.3169426110237734
-0.18570209605805835,-0.03609188966407956,-1.3169426110237734
-0.18564594605805834,-0.03979011451666335,-1.3169426110237734
-0.18558979605805834,-0.03979011451666335,-1.3169426110237734
-0.18553364605805836,-0.03609188966407956,-1.3169426110237734
-0.18547749605805836,-0.03609188966407956,-1.3169426110237734
-0.18542134605805835,-0.03609188966407956,-1.3169426110237734
-0.18536519605805835,-0.03609188966407956,-1.3169426110237734
-0.18530904605805834,-0.03609188966407956,-1.3169426110237734
-0.18525289605805834,-0.03609188966407956,-1.3169426110237734
-0.18519674605805836,-0.03609188966407956,-1.3169426110237734
-0.18514059605805835,-0.03609188966407956,-1.3169426110237734
-0.18508444605805835,-0.03609188966407956,-1.3169426110237734
-0.18502829605805834,-0.03609188966407956,-1.3169426110237734
-0.18497214605805834,-0.03979011451666335,-1.3169426110237734
-0.18491599605805834,-0.03979011451666335,-1.3169426110237734
-0.18485984605805836,-0.03979011451666335,-1.3169426110237734
-0.18480369605805835,-0.03979011451666335,-1.3169426110237734
-0.18474754605805835,-0.03979011451666335,-1.3169426110237734
-0.18469139605805834,-0.03979011451666335,-1.3169426110237734
-0.18463524605805834,-0.03609188966407956,-1.3169426110237734
-0.18457909605805833,-0.03609188966407956,-1.3169426110237734
-0.18452294605805836,-0.03609188966407956,-1.3169426110237734
-0.18446679605805835,-0.03609188966407956,-1.3169426110237734
-0.18441064605805835,-0.03979011451666335,-1.3169426110237734
-0.18435449605805834,-0.03979011451666335,-1.3169426110237734
-0.18429834605805834,-0.03979011451666335,-1.3169426110237734
-0.18424219605805836,-0.03979011451666335,-1.3169426110237734
-0.18418604605805836,-0.03979011451666335,-1.3169426110237734
-0.18412989605805835,-0.03979011451666335,-1.3169426110237734
-0.18407374605805835,-0.043488339369247155,-1.320649962004811
-0.18401759605805834,-0.043488339369247155,-1.3169426110237734
-0.18396144605805834,-0.043488339369247155,-1.3169426110237734
-0.18390529605805836,-0.043488339369247155,-1.3169426110237734
-0.18384914605805835,-0.043488339369247155,-1.3169426110237734
-0.18379299605805835,-0.04718656422183096,-1.3169426110237734
-0.18373684605805835,-0.04718656422183096,-1.3169426110237734
-0.18368069605805834,-0.04718656422183096,-1.320649962004811
-0.18362454605805834,-0.043488339369247155,-1.3169426110237734
-0.18356839605805836,-0.043488339369247155,-1.3169426110237734
-0.18351224605805835,-0.043488339369247155,-1.3169426110237734
-0.18345609605805835,-0.043488339369247155,-1.3169426110237734
-0.18339994605805834,-0.043488339369247155,-1.3169426110237734
-0.18334379605805834,-0.043488339369247155,-1.3169426110237734
-0.18328764605805833,-0.043488339369247155,-1.3169426110237734
-0.18323149605805836,-0.043488339369247155,-1.3169426110237734
-0.18317534605805835,-0.043488339369247155,-1.3169426110237734
-0.18311919605805835,-0.043488339369247155,-1.3169426110237734
-0.18306304605805834,-0.043488339369247155,-1.3169426110237734
-0.18300689605805834,-0.04718656422183096,-1.3169426110237734
-0.18295074605805836,-0.043488339369248834,-1.3169426110237734
-0.18289459605805836,-0.043488339369247155,-1.3169426110237734
-0.18283844605805835,-0.04718656422183096,-1.3169426110237734
-0.18278229605805835,-0.043488339369247155,-1.3169426110237734
-0.18272614605805834,-0.043488339369247155,-1.3169426110237734
-0.18266999605805834,-0.04718656422183096,-1.3169426110237734
-0.18261384605805836,-0.043488339369247155,-1.3169426110237734
-0.18255769605805836,-0.043488339369247155,-1.3169426110237734
-0.18250154605805835,-0.043488339369247155,-1.3169426110237734
-0.18244539605805835,-0.043488339369247155,-1.3169426110237734
-0.18238924605805834,-0.04718656422183096,-1.3169426110237734
-0.18233309605805834,-0.04718656422183096,-1.320649962004811
-0.18227694605805836,-0.04718656422183096,-1.320649962004811
-0.18222079605805835,-0.04718656422183096,-1.3169426110237734
-0.18216464605805835,-0.04718656422183096,-1.320649962004811
-0.18210849605805834,-0.04718656422183096,-1.320649962004811
-0.18205234605805834,-0.04718656422183096,-1.320649962004811
-0.18199619605805833,-0.04718656422183096,-1.3169426110237734
-0.18194004605805836,-0.04718656422183096,-1.3169426110237734
-0.18188389605805835,-0.04718656422183096,-1.3169426110237734
-0.18182774605805835,-0.04718656422183096,-1.3169426110237734
-0.18177159605805834,-0.04718656422183096,-1.3169426110237734
-0.18171544605805834,-0.04718656422183096,-1.3169426110237734
-0.18165929605805836,-0.04718656422183096,-1.3169426110237734
-0.18160314605805836,-0.04718656422183096,-1.320649962004811
-0.18154699605805835,-0.04718656422183096,-1.320649962004811
-0.18149084605805835,-0.05088478907441475,-1.320649962004811
-0.18143469605805834,-0.05088478907441475,-1.320649962004811
-0.18137854605805834,-0.05088478907441475,-1.3169426110237734
-0.18132239605805836,-0.05088478907441475,-1.320649962004811
-0.18126624605805836,-0.05088478907441475,-1.320649962004811
-0.18121009605805835,-0.05088478907441475,-1.3169426110237734
-0.18115394605805835,-0.05088478907441475,-1.3169426110237734
-0.18109779605805834,-0.05088478907441475,-1.3169426110237734
-0.18104164605805834,-0.05088478907441475,-1.3169426110237734
-0.18098549605805836,-0.054583013926998554,-1.3169426110237734
-0.18092934605805835,-0.05088478907441475,-1.3169426110237734
-0.18087319605805835,-0.05088478907441475,-1.3169426110237734
-0.18081704605805834,-0.054583013926998554,-1.320649962004811
-0.18076089605805834,-0.054583013926998554,-1.3169426110237734
-0.18070474605805834,-0.054583013926998554,-1.3169426110237734
-0.18064859605805836,-0.054583013926998554,-1.3169426110237734
-0.18059244605805835,-0.054583013926998554,-1.320649962004811
-0.18053629605805835,-0.054583013926998554,-1.3169426110237734
-0.18048014605805834,-0.05828123877958235,-1.3169426110237734
-0.18042399605805834,-0.05828123877958235,-1.3169426110237734
-0.18036784605805833,-0.05828123877958235,-1.3169426110237734
-0.18031169605805836,-0.05828123877958235,-1.3169426110237734
-0.18025554605805835,-0.05828123877958235,-1.3169426110237734
-0.18019939605805835,-0.05828123877958235,-1.3169426110237734
-0.18014324605805834,-0.054583013926998554,-1.3169426110237734
