10Hz/acq0072.csv

#Digilent WaveForms Oscilloscope Acquisition
#Device Name: Discovery2
#Serial Number: SN:210321AA28BE
#Date Time: 2023-05-24 14:52:45.037
#Sample rate: 17809.4Hz
#Samples: 8192
#Trigger: Source: Channel 1 Type: Edge Condition: Rising Level: 800 mV Hyst.: Auto HoldOff: 100 ns
#Channel 1: Range: 1 V/div Offset: 0 V Attenuation: 1 X Sample Mode: Average
#Channel 2: Range: 1 V/div Offset: 0 V Attenuation: 1 X Sample Mode: Average

Time (s),Channel 1 (V),Channel 2 (V)
-0.19774293754006408,-0.06567768848474995,-1.3169426110237734
-0.19768678754006408,-0.07307413818991755,-1.3169426110237734
-0.19763063754006407,-0.08416881274766895,-1.3169426110237734
-0.19757448754006407,-0.09156526245283655,-1.3169426110237734
-0.1975183375400641,-0.09896171215800414,-1.3169426110237734
-0.1974621875400641,-0.10635816186317175,-1.3169426110237734
-0.19740603754006408,-0.11375461156833934,-1.3169426110237734
-0.19734988754006408,-0.12115106127350694,-1.3169426110237734
-0.19729373754006407,-0.12854751097867453,-1.3169426110237734
-0.19723758754006407,-0.13224573583126004,-1.3169426110237734
-0.1971814375400641,-0.13594396068384215,-1.3169426110237734
-0.1971252875400641,-0.13964218553642593,-1.3169426110237734
-0.19706913754006408,-0.14334041038900974,-1.3132352600427357
-0.19701298754006408,-0.14334041038900974,-1.3169426110237734
-0.19695683754006407,-0.14703863524159355,-1.3169426110237734
-0.1969006875400641,-0.15073686009417564,-1.3169426110237734
-0.1968445375400641,-0.15443508494676114,-1.3169426110237734
-0.19678838754006409,-0.15443508494676114,-1.3169426110237734
-0.19673223754006408,-0.15813330979934495,-1.3169426110237734
-0.19667608754006408,-0.16183153465192873,-1.3169426110237734
-0.19661993754006407,-0.16183153465192873,-1.3169426110237734
-0.1965637875400641,-0.16552975950451254,-1.3169426110237734
-0.1965076375400641,-0.16552975950451254,-1.3169426110237734
-0.19645148754006408,-0.16552975950451254,-1.3169426110237734
-0.19639533754006408,-0.16552975950451254,-1.3169426110237734
-0.19633918754006408,-0.16552975950451254,-1.3169426110237734
-0.19628303754006407,-0.16552975950451254,-1.3169426110237734
-0.1962268875400641,-0.16552975950451254,-1.3169426110237734
-0.1961707375400641,-0.16552975950451254,-1.3169426110237734
-0.19611458754006408,-0.16922798435709635,-1.3169426110237734
-0.19605843754006408,-0.16922798435709635,-1.3169426110237734
-0.19600228754006407,-0.16922798435709635,-1.3169426110237734
-0.19594613754006407,-0.16922798435709635,-1.3132352600427375
-0.1958899875400641,-0.16922798435709635,-1.3169426110237734
-0.1958338375400641,-0.16552975950451254,-1.3132352600427357
-0.19577768754006408,-0.16922798435709635,-1.3169426110237734
-0.19572153754006408,-0.16552975950451254,-1.3132352600427357
-0.19566538754006407,-0.16552975950451254,-1.3169426110237734
-0.1956092375400641,-0.16552975950451254,-1.3132352600427375
-0.1955530875400641,-0.16552975950451254,-1.3169426110237734
-0.1954969375400641,-0.16183153465192873,-1.3169426110237734
-0.19544078754006408,-0.16183153465192873,-1.3169426110237734
-0.19538463754006408,-0.16183153465192873,-1.3169426110237734
-0.19532848754006407,-0.16183153465192873,-1.3169426110237734
-0.1952723375400641,-0.15813330979934495,-1.3169426110237734
-0.1952161875400641,-0.15813330979934495,-1.3169426110237734
-0.19516003754006409,-0.15813330979934495,-1.3169426110237734
-0.19510388754006408,-0.15813330979934495,-1.3132352600427357
-0.19504773754006408,-0.15813330979934495,-1.3169426110237734
-0.19499158754006407,-0.15813330979934495,-1.3169426110237734
-0.1949354375400641,-0.15813330979934495,-1.3169426110237734
-0.1948792875400641,-0.15443508494676114,-1.3169426110237734
-0.19482313754006408,-0.15443508494676114,-1.3132352600427357
-0.19476698754006408,-0.15073686009417733,-1.3132352600427357
-0.19471083754006407,-0.15073686009417733,-1.3169426110237734
-0.19465468754006407,-0.15073686009417564,-1.3169426110237734
-0.1945985375400641,-0.14703863524159355,-1.3169426110237734
-0.1945423875400641,-0.15073686009417733,-1.3132352600427357
-0.19448623754006408,-0.14703863524159355,-1.3169426110237734
-0.19443008754006408,-0.14334041038900974,-1.3169426110237734
-0.19437393754006407,-0.14334041038900974,-1.3169426110237734
-0.1943177875400641,-0.14334041038900974,-1.3169426110237734
-0.1942616375400641,-0.14334041038900974,-1.3169426110237734
-0.1942054875400641,-0.14334041038900974,-1.3169426110237734
-0.19414933754006408,-0.13964218553642593,-1.3169426110237734
-0.19409318754006408,-0.13964218553642593,-1.3169426110237734
-0.19403703754006407,-0.13594396068384215,-1.3169426110237734
-0.1939808875400641,-0.13594396068384215,-1.3169426110237734
-0.1939247375400641,-0.13224573583125834,-1.3169426110237734
-0.19386858754006409,-0.12854751097867453,-1.3169426110237734
-0.19381243754006408,-0.12854751097867453,-1.3169426110237734
-0.19375628754006408,-0.12854751097867453,-1.3132352600427357
-0.19370013754006407,-0.12854751097867453,-1.3169426110237734
-0.1936439875400641,-0.12484928612609074,-1.3169426110237734
-0.1935878375400641,-0.12484928612609074,-1.3169426110237734
-0.19353168754006408,-0.12484928612609074,-1.3169426110237734
-0.19347553754006408,-0.12115106127350694,-1.3169426110237734
-0.19341938754006407,-0.12115106127350694,-1.3169426110237734
-0.19336323754006407,-0.12115106127350694,-1.3169426110237734
-0.1933070875400641,-0.12115106127350694,-1.3169426110237734
-0.1932509375400641,-0.11745283642092315,-1.3169426110237734
-0.19319478754006408,-0.11745283642092315,-1.3169426110237734
-0.19313863754006408,-0.11375461156833934,-1.3169426110237734
-0.19308248754006407,-0.11375461156833934,-1.3169426110237734
-0.19302633754006407,-0.11375461156833934,-1.3169426110237734
-0.1929701875400641,-0.11375461156833934,-1.3169426110237734
-0.1929140375400641,-0.11005638671575554,-1.3169426110237734
-0.19285788754006408,-0.11005638671575554,-1.3169426110237734
-0.19280173754006408,-0.11005638671575554,-1.3169426110237734
-0.19274558754006407,-0.11005638671575554,-1.3169426110237734
-0.1926894375400641,-0.10635816186317343,-1.3169426110237734
-0.1926332875400641,-0.10635816186317175,-1.3169426110237734
-0.1925771375400641,-0.10265993701058794,-1.3132352600427357
-0.19252098754006408,-0.10635816186317175,-1.3132352600427357
-0.19246483754006408,-0.10635816186317175,-1.3169426110237734
-0.19240868754006407,-0.10635816186317175,-1.3132352600427357
-0.1923525375400641,-0.10635816186317175,-1.3169426110237734
-0.1922963875400641,-0.10635816186317175,-1.3169426110237734
-0.19224023754006409,-0.10265993701058794,-1.3169426110237734
-0.19218408754006408,-0.10265993701058794,-1.3132352600427357
-0.19212793754006408,-0.10265993701058794,-1.3169426110237734
-0.19207178754006407,-0.10265993701058794,-1.3169426110237734
-0.1920156375400641,-0.09896171215800414,-1.3169426110237734
-0.1919594875400641,-0.09896171215800414,-1.3169426110237734
-0.19190333754006408,-0.09896171215800414,-1.3169426110237734
-0.19184718754006408,-0.09896171215800414,-1.3169426110237734
-0.19179103754006407,-0.09896171215800414,-1.3169426110237734
-0.19173488754006407,-0.09896171215800247,-1.3169426110237734
-0.1916787375400641,-0.09526348730542035,-1.3169426110237734
-0.1916225875400641,-0.09526348730542035,-1.3169426110237734
-0.19156643754006408,-0.09526348730542035,-1.3169426110237734
-0.19151028754006408,-0.09526348730542035,-1.3169426110237734
-0.19145413754006407,-0.09526348730542035,-1.3169426110237734
-0.1913979875400641,-0.09156526245283823,-1.3169426110237734
-0.1913418375400641,-0.09156526245283655,-1.3169426110237734
-0.1912856875400641,-0.09156526245283655,-1.3169426110237734
-0.19122953754006408,-0.09156526245283655,-1.3169426110237734
-0.19117338754006408,-0.08786703760025275,-1.3169426110237734
-0.19111723754006407,-0.08786703760025275,-1.3169426110237734
-0.1910610875400641,-0.08786703760025275,-1.3169426110237734
-0.1910049375400641,-0.08786703760025275,-1.3169426110237734
-0.19094878754006409,-0.08786703760025275,-1.3169426110237734
-0.19089263754006408,-0.08416881274766895,-1.3169426110237734
-0.19083648754006408,-0.08416881274766895,-1.3169426110237734
-0.19078033754006407,-0.08416881274766895,-1.3169426110237734
-0.1907241875400641,-0.08416881274766895,-1.3169426110237734
-0.1906680375400641,-0.08416881274766895,-1.3132352600427357
-0.19061188754006408,-0.08416881274766895,-1.3169426110237734
-0.19055573754006408,-0.08416881274766895,-1.3169426110237734
-0.19049958754006407,-0.08416881274766895,-1.3169426110237734
-0.19044343754006407,-0.08047058789508515,-1.3169426110237734
-0.1903872875400641,-0.08047058789508515,-1.3169426110237734
-0.1903311375400641,-0.08047058789508515,-1.3169426110237734
-0.19027498754006408,-0.08047058789508515,-1.3169426110237734
-0.19021883754006408,-0.08047058789508515,-1.3169426110237734
-0.19016268754006407,-0.08047058789508515,-1.3169426110237734
-0.1901065375400641,-0.08047058789508515,-1.3169426110237734
-0.1900503875400641,-0.08047058789508515,-1.3169426110237734
-0.1899942375400641,-0.08047058789508515,-1.3169426110237734
-0.18993808754006408,-0.08047058789508515,-1.3169426110237734
-0.18988193754006408,-0.07677236304250135,-1.3169426110237734
-0.18982578754006407,-0.08047058789508515,-1.3169426110237734
-0.1897696375400641,-0.08047058789508515,-1.3169426110237734
-0.1897134875400641,-0.08047058789508515,-1.3169426110237734
-0.18965733754006409,-0.08047058789508515,-1.3169426110237734
-0.18960118754006408,-0.08047058789508515,-1.3169426110237734
-0.18954503754006408,-0.07677236304250135,-1.3169426110237734
-0.18948888754006407,-0.07677236304250135,-1.3169426110237734
-0.1894327375400641,-0.07677236304250135,-1.3169426110237734
-0.1893765875400641,-0.07677236304250135,-1.3169426110237734
-0.18932043754006408,-0.07677236304250135,-1.3169426110237734
-0.18926428754006408,-0.07677236304250135,-1.3169426110237734
-0.18920813754006408,-0.07677236304250135,-1.3169426110237734
-0.18915198754006407,-0.07677236304250135,-1.3169426110237734
-0.1890958375400641,-0.07677236304250135,-1.3169426110237734
-0.1890396875400641,-0.07677236304250135,-1.3169426110237734
-0.18898353754006408,-0.07677236304250135,-1.3169426110237734
-0.18892738754006408,-0.07677236304250135,-1.3169426110237734
-0.18887123754006407,-0.07677236304250135,-1.3169426110237734
-0.18881508754006407,-0.07677236304250303,-1.3169426110237734
-0.1887589375400641,-0.08047058789508515,-1.3169426110237734
-0.1887027875400641,-0.08047058789508515,-1.3169426110237734
-0.18864663754006408,-0.08047058789508515,-1.3169426110237734
-0.18859048754006408,-0.08047058789508515,-1.3169426110237734
-0.18853433754006407,-0.08047058789508515,-1.3169426110237734
-0.1884781875400641,-0.08047058789508515,-1.3169426110237734
-0.1884220375400641,-0.08047058789508515,-1.3169426110237734
-0.1883658875400641,-0.08047058789508515,-1.3169426110237734
-0.18830973754006408,-0.08047058789508515,-1.3169426110237734
-0.18825358754006408,-0.07677236304250135,-1.3169426110237734
-0.18819743754006407,-0.07677236304250135,-1.3169426110237734
-0.1881412875400641,-0.07677236304250135,-1.3169426110237734
-0.1880851375400641,-0.07677236304250135,-1.3169426110237734
-0.18802898754006409,-0.07677236304250135,-1.3169426110237734
-0.18797283754006408,-0.08047058789508515,-1.3169426110237734
-0.18791668754006408,-0.07677236304250135,-1.3169426110237734
-0.18786053754006407,-0.07677236304250135,-1.3169426110237734
-0.1878043875400641,-0.07677236304250135,-1.3169426110237734
-0.1877482375400641,-0.07677236304250135,-1.3169426110237734
-0.18769208754006408,-0.08047058789508515,-1.3169426110237734
-0.18763593754006408,-0.08047058789508515,-1.3169426110237734
-0.18757978754006407,-0.07677236304250135,-1.3169426110237734
-0.18752363754006407,-0.07677236304250135,-1.3169426110237734
-0.1874674875400641,-0.07677236304250135,-1.3169426110237734
-0.1874113375400641,-0.07677236304250135,-1.3169426110237734
-0.18735518754006408,-0.07677236304250135,-1.3169426110237734
-0.18729903754006408,-0.07677236304250135,-1.3169426110237734
-0.18724288754006407,-0.07677236304250135,-1.3169426110237734
-0.1871867375400641,-0.07677236304250135,-1.3169426110237734
-0.1871305875400641,-0.07307413818991755,-1.3169426110237734
-0.1870744375400641,-0.07307413818991755,-1.3169426110237734
-0.18701828754006408,-0.07677236304250135,-1.3169426110237734
-0.18696213754006408,-0.07677236304250135,-1.3169426110237734
-0.18690598754006407,-0.07677236304250135,-1.3169426110237734
-0.1868498375400641,-0.07677236304250135,-1.320649962004811
-0.1867936875400641,-0.07307413818991755,-1.3169426110237734
-0.18673753754006409,-0.07677236304250135,-1.320649962004811
-0.18668138754006408,-0.07677236304250135,-1.3169426110237734
-0.18662523754006408,-0.07677236304250135,-1.3169426110237734
-0.18656908754006407,-0.07677236304250135,-1.3169426110237734
-0.1865129375400641,-0.07677236304250135,-1.3169426110237734
-0.1864567875400641,-0.07307413818991755,-1.3169426110237734
-0.18640063754006408,-0.07677236304250135,-1.3169426110237734
-0.18634448754006408,-0.07677236304250135,-1.3169426110237734
-0.18628833754006408,-0.07677236304250135,-1.3169426110237734
-0.18623218754006407,-0.07677236304250135,-1.3169426110237734
-0.1861760375400641,-0.07677236304250135,-1.3169426110237734
-0.1861198875400641,-0.07677236304250135,-1.3169426110237734
-0.18606373754006408,-0.07677236304250135,-1.3169426110237734
-0.18600758754006408,-0.07677236304250135,-1.3169426110237734
-0.18595143754006407,-0.07677236304250135,-1.3169426110237734
-0.1858952875400641,-0.07677236304250135,-1.3169426110237734
-0.1858391375400641,-0.08047058789508515,-1.3169426110237734
-0.1857829875400641,-0.08047058789508515,-1.3169426110237734
-0.18572683754006408,-0.07677236304250135,-1.3169426110237734
-0.18567068754006408,-0.08047058789508515,-1.3169426110237734
-0.18561453754006407,-0.08047058789508515,-1.320649962004811
-0.1855583875400641,-0.08047058789508515,-1.3169426110237734
-0.1855022375400641,-0.08047058789508515,-1.3169426110237734
-0.1854460875400641,-0.08047058789508515,-1.3169426110237734
-0.18538993754006408,-0.08047058789508515,-1.3169426110237734
-0.18533378754006408,-0.08047058789508515,-1.3169426110237734
-0.18527763754006407,-0.08047058789508515,-1.3169426110237734
-0.1852214875400641,-0.08047058789508515,-1.3169426110237734
-0.1851653375400641,-0.08416881274766895,-1.3169426110237734
-0.18510918754006409,-0.08047058789508515,-1.320649962004811
-0.18505303754006408,-0.08047058789508515,-1.3169426110237734
-0.18499688754006408,-0.08047058789508515,-1.3169426110237734
-0.18494073754006407,-0.08047058789508515,-1.3169426110237734
-0.1848845875400641,-0.08047058789508515,-1.3169426110237734
-0.1848284375400641,-0.08047058789508515,-1.3169426110237734
-0.18477228754006408,-0.08047058789508515,-1.3169426110237734
-0.18471613754006408,-0.08047058789508515,-1.3169426110237734
-0.18465998754006407,-0.08047058789508515,-1.3169426110237734
-0.18460383754006407,-0.08047058789508515,-1.3169426110237734
-0.1845476875400641,-0.08047058789508515,-1.3169426110237734
-0.1844915375400641,-0.08047058789508515,-1.3169426110237734
-0.18443538754006408,-0.07677236304250135,-1.3169426110237734
-0.18437923754006408,-0.08047058789508515,-1.3169426110237734
-0.18432308754006407,-0.08047058789508515,-1.3169426110237734
-0.1842669375400641,-0.07677236304250303,-1.3169426110237734
-0.1842107875400641,-0.07677236304250135,-1.3169426110237734
-0.1841546375400641,-0.07677236304250135,-1.3169426110237734
-0.18409848754006408,-0.07677236304250135,-1.3169426110237734
-0.18404233754006408,-0.07677236304250135,-1.320649962004811
-0.18398618754006407,-0.07677236304250135,-1.3169426110237734
-0.1839300375400641,-0.07307413818991755,-1.320649962004811
-0.1838738875400641,-0.07307413818991755,-1.3169426110237734
-0.18381773754006409,-0.07307413818991755,-1.3169426110237734
-0.18376158754006408,-0.07307413818991755,-1.3169426110237734
-0.18370543754006408,-0.07307413818991755,-1.3169426110237734
-0.18364928754006407,-0.07307413818991755,-1.3169426110237734
-0.1835931375400641,-0.07307413818991755,-1.3169426110237734
-0.1835369875400641,-0.07307413818991755,-1.3169426110237734
-0.18348083754006408,-0.07307413818991755,-1.3169426110237734
-0.18342468754006408,-0.06937591333733376,-1.3169426110237734
-0.18336853754006407,-0.07307413818991755,-1.3169426110237734
-0.18331238754006407,-0.07307413818991755,-1.3169426110237752
-0.1832562375400641,-0.07307413818991755,-1.320649962004811
-0.1832000875400641,-0.06937591333733376,-1.320649962004811
-0.18314393754006408,-0.06937591333733376,-1.3169426110237734
-0.18308778754006408,-0.06937591333733376,-1.3169426110237734
-0.18303163754006407,-0.06937591333733376,-1.3169426110237734
-0.1829754875400641,-0.06937591333733376,-1.3206499620048093
-0.1829193375400641,-0.07307413818991755,-1.3169426110237734
-0.1828631875400641,-0.06937591333733376,-1.3169426110237734
-0.18280703754006408,-0.06937591333733376,-1.320649962004811
-0.18275088754006408,-0.07307413818991755,-1.3169426110237734
-0.18269473754006407,-0.06937591333733376,-1.3169426110237734
-0.1826385875400641,-0.06937591333733376,-1.3169426110237734
-0.1825824375400641,-0.06937591333733376,-1.3169426110237734
-0.18252628754006409,-0.06937591333733376,-1.3169426110237734
-0.18247013754006408,-0.06937591333733376,-1.3169426110237734
-0.18241398754006408,-0.06937591333733376,-1.3169426110237734
-0.18235783754006407,-0.06567768848474995,-1.3169426110237734
-0.1823016875400641,-0.06567768848474995,-1.3169426110237734
-0.1822455375400641,-0.06567768848474995,-1.3169426110237734
-0.18218938754006408,-0.06567768848474995,-1.3169426110237734
-0.18213323754006408,-0.06567768848474995,-1.3169426110237734
-0.18207708754006408,-0.06567768848474995,-1.3169426110237734
-0.18202093754006407,-0.06197946363216615,-1.3169426110237734
-0.1819647875400641,-0.06197946363216615,-1.3169426110237734
-0.1819086375400641,-0.05828123877958235,-1.3169426110237734
-0.18185248754006408,-0.06197946363216615,-1.3169426110237734
-0.18179633754006408,-0.05828123877958235,-1.3169426110237734
-0.18174018754006407,-0.05828123877958235,-1.3169426110237734
-0.1816840375400641,-0.05828123877958235,-1.3169426110237734
-0.1816278875400641,-0.05828123877958235,-1.3169426110237734
-0.1815717375400641,-0.054583013926998554,-1.3169426110237734
-0.18151558754006408,-0.054583013926998554,-1.3169426110237734
-0.18145943754006408,-0.054583013926998554,-1.3169426110237734
-0.18140328754006407,-0.054583013926998554,-1.320649962004811
-0.1813471375400641,-0.054583013926998554,-1.3169426110237734
-0.1812909875400641,-0.05088478907441475,-1.3169426110237734
-0.1812348375400641,-0.054583013926998554,-1.320649962004811
-0.18117868754006408,-0.054583013926998554,-1.3169426110237734
-0.18112253754006408,-0.05088478907441475,-1.3169426110237734
-0.18106638754006407,-0.05088478907441475,-1.3169426110237734
-0.1810102375400641,-0.05088478907441475,-1.3169426110237734
-0.1809540875400641,-0.05088478907441475,-1.3169426110237734
-0.18089793754006409,-0.05088478907441475,-1.3169426110237734
-0.18084178754006408,-0.05088478907441475,-1.3169426110237734
-0.18078563754006408,-0.04718656422183096,-1.3169426110237734
-0.18072948754006407,-0.04718656422183096,-1.3169426110237734
-0.1806733375400641,-0.04718656422183096,-1.3169426110237734
-0.1806171875400641,-0.04718656422183096,-1.320649962004811
-0.18056103754006408,-0.04718656422183096,-1.3169426110237734
-0.18050488754006408,-0.043488339369247155,-1.3169426110237734
-0.18044873754006407,-0.043488339369247155,-1.3169426110237734
-0.18039258754006407,-0.043488339369245475,-1.3169426110237734
-0.1803364375400641,-0.03979011451666335,-1.3169426110237734
-0.1802802875400641,-0.03979011451666335,-1.3169426110237734
-0.18022413754006408,-0.03979011451666335,-1.3169426110237734
-0.18016798754006408,-0.03609188966407956,-1.3169426110237734
-0.18011183754006407,-0.03609188966407956,-1.320649962004811
-0.1800556875400641,-0.03609188966407956,-1.320649962004811
-0.1799995375400641,-0.03609188966407956,-1.3169426110237734
