10Hz/acq0074.csv

#Digilent WaveForms Oscilloscope Acquisition
#Device Name: Discovery2
#Serial Number: SN:210321AA28BE
#Date Time: 2023-05-24 14:52:46.039
#Sample rate: 17809.4Hz
#Samples: 8192
#Trigger: Source: Channel 1 Type: Edge Condition: Rising Level: 800 mV Hyst.: Auto HoldOff: 100 ns
#Channel 1: Range: 1 V/div Offset: 0 V Attenuation: 1 X Sample Mode: Average
#Channel 2: Range: 1 V/div Offset: 0 V Attenuation: 1 X Sample Mode: Average

Time (s),Channel 1 (V),Channel 2 (V)
-0.19772552964212792,-0.06937591333733376,-1.3169426110237734
-0.19766937964212794,-0.07677236304249799,-1.3169426110237734
-0.1976132296421279,-0.08416881274766895,-1.3169426110237734
-0.19755707964212793,-0.0915652624528332,-1.3169426110237734
-0.19750092964212795,-0.09896171215800079,-1.3169426110237734
-0.19744477964212792,-0.10635816186317175,-1.3169426110237734
-0.19738862964212794,-0.11375461156833598,-1.3169426110237734
-0.1973324796421279,-0.11375461156833934,-1.3169426110237734
-0.19727632964212793,-0.1248492861260857,-1.3169426110237734
-0.1972201796421279,-0.13224573583125834,-1.3169426110237734
-0.19716402964212792,-0.13224573583125834,-1.3169426110237734
-0.19710787964212795,-0.13594396068384046,-1.3169426110237734
-0.19705172964212792,-0.13964218553642593,-1.3169426110237734
-0.19699557964212794,-0.14334041038900805,-1.3169426110237734
-0.1969394296421279,-0.14703863524159355,-1.3132352600427357
-0.19688327964212793,-0.15073686009417564,-1.3132352600427357
-0.19682712964212795,-0.15443508494675945,-1.3169426110237716
-0.19677097964212792,-0.15443508494676114,-1.3132352600427357
-0.19671482964212794,-0.15813330979934326,-1.3169426110237716
-0.1966586796421279,-0.15813330979934495,-1.3169426110237734
-0.19660252964212793,-0.15813330979934495,-1.3169426110237734
-0.19654637964212796,-0.16183153465192537,-1.313235260042739
-0.19649022964212792,-0.16183153465192873,-1.3169426110237734
-0.19643407964212795,-0.16183153465192873,-1.3169426110237734
-0.1963779296421279,-0.16552975950451254,-1.3169426110237734
-0.19632177964212794,-0.16552975950451254,-1.3169426110237734
-0.1962656296421279,-0.16552975950451254,-1.3169426110237734
-0.19620947964212793,-0.16552975950451254,-1.3169426110237734
-0.19615332964212795,-0.16922798435709466,-1.3132352600427375
-0.19609717964212792,-0.16922798435709635,-1.3169426110237734
-0.19604102964212794,-0.16552975950451423,-1.3169426110237734
-0.1959848796421279,-0.16552975950451254,-1.3169426110237734
-0.19592872964212793,-0.16552975950451254,-1.3169426110237734
-0.19587257964212795,-0.16552975950451254,-1.3169426110237734
-0.19581642964212792,-0.16552975950451254,-1.3169426110237734
-0.19576027964212794,-0.16552975950451254,-1.3169426110237734
-0.1957041296421279,-0.16552975950451254,-1.3169426110237734
-0.19564797964212793,-0.16552975950451254,-1.3169426110237734
-0.19559182964212796,-0.16552975950451254,-1.3169426110237734
-0.19553567964212792,-0.16552975950451254,-1.3169426110237734
-0.19547952964212795,-0.16183153465193043,-1.3169426110237734
-0.19542337964212791,-0.16183153465192873,-1.3169426110237734
-0.19536722964212794,-0.16183153465192873,-1.3169426110237734
-0.1953110796421279,-0.16183153465192873,-1.3169426110237734
-0.19525492964212793,-0.15813330979934495,-1.3132352600427357
-0.19519877964212795,-0.15813330979934495,-1.3132352600427357
-0.19514262964212792,-0.15813330979934495,-1.3132352600427357
-0.19508647964212794,-0.15813330979934495,-1.3169426110237716
-0.1950303296421279,-0.15813330979934495,-1.3132352600427357
-0.19497417964212793,-0.15443508494676284,-1.3169426110237716
-0.19491802964212795,-0.15443508494676114,-1.313235260042739
-0.19486187964212792,-0.15443508494676114,-1.3169426110237734
-0.19480572964212794,-0.15073686009417903,-1.3169426110237734
-0.1947495796421279,-0.15073686009417733,-1.3169426110237734
-0.19469342964212794,-0.14703863524159524,-1.3169426110237734
-0.1946372796421279,-0.14703863524159355,-1.3169426110237734
-0.19458112964212793,-0.14703863524159355,-1.3169426110237734
-0.19452497964212795,-0.14334041038901144,-1.3169426110237734
-0.19446882964212792,-0.14334041038900974,-1.3169426110237734
-0.19441267964212794,-0.14334041038900974,-1.3169426110237734
-0.1943565296421279,-0.13964218553642593,-1.3169426110237734
-0.19430037964212793,-0.13964218553642593,-1.3169426110237734
-0.19424422964212795,-0.13964218553642593,-1.3169426110237734
-0.19418807964212792,-0.13594396068384215,-1.3169426110237734
-0.19413192964212794,-0.13594396068384215,-1.3169426110237734
-0.1940757796421279,-0.13224573583125834,-1.3169426110237734
-0.19401962964212793,-0.12854751097867623,-1.3169426110237734
-0.19396347964212796,-0.12854751097867453,-1.3169426110237734
-0.19390732964212792,-0.12854751097867453,-1.3169426110237734
-0.19385117964212795,-0.12854751097867453,-1.3169426110237734
-0.19379502964212791,-0.12484928612609074,-1.3169426110237734
-0.19373887964212794,-0.12484928612609074,-1.3169426110237734
-0.1936827296421279,-0.12484928612609074,-1.3169426110237734
-0.19362657964212793,-0.12484928612609074,-1.3169426110237734
-0.19357042964212795,-0.12115106127350862,-1.3169426110237734
-0.19351427964212792,-0.12115106127350694,-1.3169426110237734
-0.19345812964212794,-0.12115106127350694,-1.3169426110237734
-0.1934019796421279,-0.12115106127350694,-1.3169426110237734
-0.19334582964212793,-0.12115106127350694,-1.3169426110237734
-0.19328967964212795,-0.11745283642092483,-1.3169426110237734
-0.19323352964212792,-0.11375461156833934,-1.3169426110237734
-0.19317737964212794,-0.11375461156833934,-1.3169426110237734
-0.1931212296421279,-0.11375461156833934,-1.3169426110237734
-0.19306507964212793,-0.11375461156833934,-1.3169426110237734
-0.1930089296421279,-0.11005638671575554,-1.3169426110237734
-0.19295277964212793,-0.11005638671575554,-1.3169426110237734
-0.19289662964212795,-0.11005638671575554,-1.3206499620048093
-0.19284047964212792,-0.11005638671575554,-1.3169426110237734
-0.19278432964212794,-0.11005638671575554,-1.3169426110237734
-0.1927281796421279,-0.11005638671575554,-1.3169426110237734
-0.19267202964212793,-0.11005638671575554,-1.3169426110237734
-0.19261587964212795,-0.10635816186317343,-1.3169426110237734
-0.19255972964212792,-0.10635816186317175,-1.3169426110237734
-0.19250357964212794,-0.10635816186317175,-1.3169426110237734
-0.1924474296421279,-0.10635816186317175,-1.3169426110237734
-0.19239127964212793,-0.10635816186317175,-1.3169426110237734
-0.19233512964212796,-0.1026599370105913,-1.3169426110237734
-0.19227897964212792,-0.10265993701058794,-1.3169426110237734
-0.19222282964212795,-0.10265993701058794,-1.3169426110237734
-0.1921666796421279,-0.10265993701058794,-1.3169426110237734
-0.19211052964212794,-0.10265993701058794,-1.3169426110237734
-0.1920543796421279,-0.10265993701058794,-1.3169426110237734
-0.19199822964212793,-0.10265993701058794,-1.3169426110237734
-0.19194207964212795,-0.10265993701058794,-1.3169426110237734
-0.19188592964212792,-0.09896171215800414,-1.3169426110237734
-0.19182977964212794,-0.09896171215800414,-1.3169426110237734
-0.1917736296421279,-0.09896171215800414,-1.3169426110237734
-0.19171747964212793,-0.09896171215800414,-1.3169426110237734
-0.19166132964212795,-0.09526348730542203,-1.3169426110237734
-0.19160517964212792,-0.09526348730542035,-1.3169426110237734
-0.19154902964212794,-0.09526348730542035,-1.3169426110237734
-0.1914928796421279,-0.09526348730542035,-1.3169426110237734
-0.19143672964212793,-0.09526348730542035,-1.3169426110237734
-0.19138057964212796,-0.09156526245283991,-1.3169426110237734
-0.19132442964212792,-0.09156526245283655,-1.3169426110237734
-0.19126827964212795,-0.09156526245283655,-1.3169426110237734
-0.19121212964212791,-0.08786703760025275,-1.3169426110237734
-0.19115597964212794,-0.08786703760025275,-1.3169426110237734
-0.1910998296421279,-0.08786703760025275,-1.3169426110237734
-0.19104367964212793,-0.08786703760025275,-1.3169426110237734
-0.19098752964212795,-0.08786703760025275,-1.3169426110237734
-0.19093137964212792,-0.08786703760025275,-1.3169426110237734
-0.19087522964212794,-0.08786703760025275,-1.3169426110237734
-0.1908190796421279,-0.08786703760025275,-1.3169426110237734
-0.19076292964212793,-0.08416881274767063,-1.3169426110237734
-0.19070677964212795,-0.08416881274766895,-1.3169426110237734
-0.19065062964212792,-0.08416881274766895,-1.3169426110237734
-0.19059447964212795,-0.08416881274766895,-1.3169426110237734
-0.1905383296421279,-0.08416881274766895,-1.3169426110237734
-0.19048217964212794,-0.08416881274766895,-1.3169426110237734
-0.1904260296421279,-0.08416881274766895,-1.3169426110237734
-0.19036987964212793,-0.08416881274766895,-1.3169426110237734
-0.19031372964212795,-0.08416881274766895,-1.3169426110237734
-0.19025757964212792,-0.08416881274766895,-1.3169426110237734
-0.19020142964212794,-0.08416881274766895,-1.3169426110237734
-0.1901452796421279,-0.08416881274766895,-1.3169426110237734
-0.19008912964212793,-0.08416881274766895,-1.3169426110237734
-0.19003297964212795,-0.08416881274766895,-1.3169426110237734
-0.18997682964212792,-0.08416881274766895,-1.3169426110237734
-0.18992067964212794,-0.08416881274766895,-1.3169426110237734
-0.1898645296421279,-0.08047058789508515,-1.3169426110237734
-0.18980837964212793,-0.08416881274766727,-1.3169426110237734
-0.18975222964212796,-0.08416881274766895,-1.3169426110237734
-0.18969607964212792,-0.08416881274766895,-1.3169426110237734
-0.18963992964212795,-0.08416881274766895,-1.3169426110237734
-0.18958377964212791,-0.08416881274766895,-1.3169426110237734
-0.18952762964212794,-0.08416881274766895,-1.3169426110237734
-0.1894714796421279,-0.08047058789508515,-1.3169426110237734
-0.18941532964212793,-0.08047058789508515,-1.3169426110237734
-0.18935917964212795,-0.08047058789508515,-1.3169426110237734
-0.18930302964212792,-0.08416881274766895,-1.3169426110237734
-0.18924687964212794,-0.08416881274766895,-1.3169426110237734
-0.1891907296421279,-0.08047058789508515,-1.3169426110237734
-0.18913457964212793,-0.08047058789508515,-1.3169426110237734
-0.18907842964212795,-0.08416881274766727,-1.3169426110237734
-0.18902227964212792,-0.08047058789508515,-1.3169426110237734
-0.18896612964212794,-0.08047058789508515,-1.3169426110237734
-0.1889099796421279,-0.08416881274766895,-1.3169426110237734
-0.18885382964212793,-0.08416881274766895,-1.3169426110237734
-0.1887976796421279,-0.08416881274766895,-1.3169426110237734
-0.18874152964212793,-0.08416881274766895,-1.3169426110237734
-0.18868537964212795,-0.08416881274766895,-1.3169426110237734
-0.18862922964212792,-0.08416881274766895,-1.3169426110237734
-0.18857307964212794,-0.08416881274766895,-1.3169426110237734
-0.1885169296421279,-0.08047058789508515,-1.3169426110237734
-0.18846077964212793,-0.08047058789508515,-1.3169426110237734
-0.18840462964212795,-0.08047058789508515,-1.3169426110237734
-0.18834847964212792,-0.08416881274766895,-1.3169426110237734
-0.18829232964212794,-0.08047058789508683,-1.3169426110237734
-0.1882361796421279,-0.08047058789508515,-1.3169426110237734
-0.18818002964212793,-0.08047058789508515,-1.3169426110237734
-0.18812387964212796,-0.08047058789508515,-1.3169426110237734
-0.18806772964212792,-0.08416881274766895,-1.3169426110237734
-0.18801157964212795,-0.08047058789508683,-1.3169426110237734
-0.1879554296421279,-0.08047058789508515,-1.3169426110237734
-0.18789927964212794,-0.08047058789508515,-1.3169426110237734
-0.1878431296421279,-0.08047058789508515,-1.3169426110237734
-0.18778697964212793,-0.08047058789508515,-1.3169426110237734
-0.18773082964212795,-0.08047058789508515,-1.3169426110237734
-0.18767467964212792,-0.08047058789508515,-1.3169426110237734
-0.18761852964212794,-0.08047058789508515,-1.3169426110237734
-0.1875623796421279,-0.08047058789508515,-1.3169426110237734
-0.18750622964212793,-0.08047058789508515,-1.3169426110237734
-0.18745007964212795,-0.08047058789508515,-1.3169426110237734
-0.18739392964212792,-0.08047058789508515,-1.3169426110237734
-0.18733777964212794,-0.08047058789508515,-1.3169426110237734
-0.1872816296421279,-0.08047058789508515,-1.3169426110237734
-0.18722547964212793,-0.08047058789508515,-1.3169426110237734
-0.18716932964212796,-0.08047058789508515,-1.3169426110237734
-0.18711317964212792,-0.08047058789508515,-1.3169426110237734
-0.18705702964212795,-0.08047058789508515,-1.3169426110237734
-0.18700087964212792,-0.08047058789508515,-1.3169426110237734
-0.18694472964212794,-0.08047058789508515,-1.3169426110237734
-0.1868885796421279,-0.08047058789508515,-1.3169426110237734
-0.18683242964212793,-0.08047058789508515,-1.3169426110237734
-0.18677627964212795,-0.08047058789508515,-1.3169426110237734
-0.18672012964212792,-0.07677236304250135,-1.3169426110237734
-0.18666397964212794,-0.08047058789508348,-1.3169426110237734
-0.1866078296421279,-0.08047058789508515,-1.3169426110237734
-0.18655167964212793,-0.08047058789508515,-1.3169426110237734
-0.18649552964212796,-0.08047058789508515,-1.3169426110237734
-0.18643937964212792,-0.08047058789508515,-1.3169426110237734
-0.18638322964212795,-0.08047058789508515,-1.3169426110237734
-0.1863270796421279,-0.08047058789508515,-1.3169426110237734
-0.18627092964212794,-0.08047058789508515,-1.3169426110237734
-0.1862147796421279,-0.08047058789508515,-1.3169426110237734
-0.18615862964212793,-0.08047058789508515,-1.3169426110237734
-0.18610247964212795,-0.08047058789508515,-1.3169426110237734
-0.18604632964212792,-0.08047058789508515,-1.3169426110237734
-0.18599017964212794,-0.08047058789508515,-1.3169426110237734
-0.1859340296421279,-0.08047058789508515,-1.3169426110237734
-0.18587787964212793,-0.08047058789508515,-1.3169426110237734
-0.18582172964212795,-0.08416881274766727,-1.3169426110237734
-0.18576557964212792,-0.08416881274766895,-1.3169426110237734
-0.18570942964212794,-0.08416881274766895,-1.3169426110237734
-0.1856532796421279,-0.08416881274766895,-1.3169426110237734
-0.18559712964212793,-0.08416881274766895,-1.3169426110237734
-0.18554097964212796,-0.08416881274766895,-1.3169426110237734
-0.18548482964212792,-0.08416881274766895,-1.3169426110237734
-0.18542867964212795,-0.08416881274766895,-1.3169426110237734
-0.18537252964212791,-0.08416881274766895,-1.3169426110237734
-0.18531637964212794,-0.08416881274766895,-1.3169426110237734
-0.1852602296421279,-0.08416881274766895,-1.3169426110237734
-0.18520407964212793,-0.08416881274766895,-1.3169426110237734
-0.18514792964212795,-0.08416881274766895,-1.3169426110237734
-0.18509177964212792,-0.08416881274766895,-1.3169426110237734
-0.18503562964212794,-0.08047058789508683,-1.3169426110237734
-0.1849794796421279,-0.08047058789508515,-1.3169426110237734
-0.18492332964212793,-0.08047058789508515,-1.3169426110237734
-0.18486717964212795,-0.08416881274766727,-1.3169426110237734
-0.18481102964212792,-0.08047058789508515,-1.3169426110237734
-0.18475487964212794,-0.08047058789508515,-1.3169426110237734
-0.1846987296421279,-0.08047058789508515,-1.3169426110237734
-0.18464257964212794,-0.08047058789508515,-1.3169426110237734
-0.1845864296421279,-0.08047058789508515,-1.3169426110237734
-0.18453027964212793,-0.08047058789508515,-1.3169426110237734
-0.18447412964212795,-0.07677236304250303,-1.3169426110237734
-0.18441797964212792,-0.07677236304250135,-1.3169426110237734
-0.18436182964212794,-0.07677236304250135,-1.3169426110237734
-0.1843056796421279,-0.07307413818991755,-1.3169426110237734
-0.18424952964212793,-0.07307413818991755,-1.3169426110237734
-0.18419337964212795,-0.07677236304249967,-1.3169426110237734
-0.18413722964212792,-0.07677236304250135,-1.3169426110237734
-0.18408107964212794,-0.07677236304250135,-1.3169426110237734
-0.1840249296421279,-0.07307413818991755,-1.3169426110237734
-0.18396877964212793,-0.07677236304249967,-1.3169426110237734
-0.18391262964212796,-0.07677236304250135,-1.3169426110237734
-0.18385647964212792,-0.07677236304250135,-1.320649962004811
-0.18380032964212795,-0.07677236304250135,-1.320649962004811
-0.1837441796421279,-0.07307413818991755,-1.3169426110237734
-0.18368802964212794,-0.07307413818991755,-1.3169426110237734
-0.1836318796421279,-0.06937591333733376,-1.3169426110237734
-0.18357572964212793,-0.06937591333733376,-1.3169426110237734
-0.18351957964212795,-0.06937591333733376,-1.3169426110237734
-0.18346342964212792,-0.07307413818991755,-1.3169426110237734
-0.18340727964212794,-0.07307413818991755,-1.3169426110237734
-0.1833511296421279,-0.07307413818991755,-1.3169426110237734
-0.18329497964212793,-0.06937591333733543,-1.3169426110237734
-0.18323882964212795,-0.07307413818991587,-1.3169426110237734
-0.18318267964212792,-0.07307413818991755,-1.3169426110237734
-0.18312652964212794,-0.07307413818991755,-1.3169426110237734
-0.1830703796421279,-0.07307413818991755,-1.3169426110237734
-0.18301422964212793,-0.06937591333733543,-1.3169426110237734
-0.18295807964212796,-0.06937591333733376,-1.3169426110237734
-0.18290192964212793,-0.06937591333733376,-1.3169426110237734
-0.18284577964212795,-0.06937591333733376,-1.3169426110237734
-0.18278962964212792,-0.06937591333733376,-1.3169426110237734
-0.18273347964212794,-0.06937591333733376,-1.3169426110237734
-0.1826773296421279,-0.06937591333733376,-1.3169426110237734
-0.18262117964212793,-0.06937591333733376,-1.320649962004811
-0.18256502964212795,-0.06937591333733376,-1.3169426110237752
-0.18250887964212792,-0.06567768848474995,-1.3169426110237734
-0.18245272964212794,-0.06567768848474995,-1.3169426110237734
-0.1823965796421279,-0.06567768848474995,-1.3169426110237734
-0.18234042964212793,-0.06567768848474995,-1.3169426110237734
-0.18228427964212796,-0.06567768848474995,-1.3169426110237734
-0.18222812964212792,-0.06197946363216615,-1.3169426110237734
-0.18217197964212795,-0.06197946363216615,-1.3169426110237734
-0.1821158296421279,-0.06197946363216615,-1.3169426110237734
-0.18205967964212794,-0.06197946363216615,-1.3169426110237734
-0.1820035296421279,-0.05828123877958235,-1.3169426110237734
-0.18194737964212793,-0.05828123877958235,-1.3169426110237734
-0.18189122964212795,-0.05828123877958235,-1.3169426110237734
-0.18183507964212792,-0.05828123877958235,-1.3169426110237734
-0.18177892964212794,-0.05828123877958235,-1.3169426110237734
-0.1817227796421279,-0.05828123877958235,-1.3169426110237734
-0.18166662964212793,-0.05458301392700023,-1.3169426110237734
-0.18161047964212795,-0.05828123877958067,-1.3169426110237734
-0.18155432964212792,-0.054583013926998554,-1.3169426110237734
-0.18149817964212794,-0.054583013926998554,-1.3169426110237734
-0.1814420296421279,-0.054583013926998554,-1.3169426110237734
-0.18138587964212793,-0.054583013926998554,-1.3169426110237734
-0.18132972964212796,-0.054583013926998554,-1.3169426110237734
-0.18127357964212792,-0.05088478907441475,-1.3169426110237734
-0.18121742964212795,-0.05088478907441475,-1.3169426110237734
-0.18116127964212791,-0.05088478907441475,-1.3169426110237734
-0.18110512964212794,-0.05088478907441475,-1.3169426110237734
-0.1810489796421279,-0.05088478907441475,-1.3169426110237734
-0.18099282964212793,-0.05088478907441475,-1.3169426110237734
-0.18093667964212795,-0.047186564221832636,-1.3169426110237734
-0.18088052964212792,-0.04718656422183096,-1.3169426110237734
-0.18082437964212794,-0.04718656422183096,-1.3169426110237734
-0.1807682296421279,-0.04718656422183096,-1.3169426110237734
-0.18071207964212793,-0.043488339369248834,-1.3169426110237734
-0.18065592964212795,-0.043488339369247155,-1.3169426110237734
-0.18059977964212792,-0.03979011451666335,-1.3169426110237734
-0.18054362964212795,-0.043488339369245475,-1.3169426110237734
-0.1804874796421279,-0.03979011451666335,-1.3169426110237734
-0.18043132964212794,-0.03979011451666335,-1.3169426110237734
-0.1803751796421279,-0.03979011451666167,-1.3169426110237734
-0.18031902964212793,-0.03609188966407956,-1.3169426110237734
-0.18026287964212795,-0.03609188966407956,-1.3169426110237734
-0.18020672964212792,-0.03609188966407956,-1.3169426110237734
-0.18015057964212794,-0.03609188966407956,-1.3169426110237734
-0.1800944296421279,-0.032393664811495755,-1.3169426110237734
-0.18003827964212793,-0.032393664811495755,-1.3206499620048093
