10Hz/acq0053.csv

#Digilent WaveForms Oscilloscope Acquisition
#Device Name: Discovery2
#Serial Number: SN:210321AA28BE
#Date Time: 2023-05-24 14:52:35.538
#Sample rate: 17809.4Hz
#Samples: 8192
#Trigger: Source: Channel 1 Type: Edge Condition: Rising Level: 800 mV Hyst.: Auto HoldOff: 100 ns
#Channel 1: Range: 1 V/div Offset: 0 V Attenuation: 1 X Sample Mode: Average
#Channel 2: Range: 1 V/div Offset: 0 V Attenuation: 1 X Sample Mode: Average

Time (s),Channel 1 (V),Channel 2 (V)
-0.19772814775168218,-0.07677236304250135,-1.3169426110237734
-0.19767199775168218,-0.08786703760025275,-1.3169426110237734
-0.19761584775168217,-0.09896171215800414,-1.3169426110237734
-0.19755969775168217,-0.10265993701058794,-1.3169426110237734
-0.1975035477516822,-0.11375461156833934,-1.3169426110237734
-0.19744739775168219,-0.12115106127350694,-1.3169426110237734
-0.19739124775168218,-0.12854751097867453,-1.3169426110237734
-0.19733509775168218,-0.13224573583125834,-1.3169426110237734
-0.19727894775168217,-0.13964218553642593,-1.3169426110237734
-0.19722279775168217,-0.14703863524159524,-1.3169426110237734
-0.1971666477516822,-0.15073686009417733,-1.3169426110237734
-0.19711049775168218,-0.15443508494676114,-1.3169426110237734
-0.19705434775168218,-0.15813330979934495,-1.3169426110237734
-0.19699819775168217,-0.16183153465192873,-1.3169426110237734
-0.19694204775168217,-0.16552975950451254,-1.3132352600427357
-0.1968858977516822,-0.16922798435709466,-1.3132352600427357
-0.1968297477516822,-0.17292620920968013,-1.3132352600427357
-0.19677359775168218,-0.17662443406226394,-1.3169426110237734
-0.19671744775168218,-0.17662443406226394,-1.3132352600427357
-0.19666129775168217,-0.18032265891484775,-1.3132352600427357
-0.19660514775168217,-0.18402088376743153,-1.3169426110237734
-0.1965489977516822,-0.18402088376743153,-1.3169426110237734
-0.1964928477516822,-0.18771910862001534,-1.3169426110237734
-0.19643669775168218,-0.18771910862001534,-1.3169426110237734
-0.19638054775168218,-0.18771910862001534,-1.3169426110237734
-0.19632439775168217,-0.19141733347259912,-1.3169426110237734
-0.19626824775168217,-0.19141733347259912,-1.3169426110237734
-0.1962120977516822,-0.19511555832518293,-1.3169426110237734
-0.19615594775168219,-0.19141733347259912,-1.3169426110237734
-0.19609979775168218,-0.19511555832518293,-1.3169426110237734
-0.19604364775168218,-0.19511555832518293,-1.3169426110237734
-0.19598749775168217,-0.19511555832518293,-1.3169426110237734
-0.19593134775168217,-0.19511555832518293,-1.3132352600427357
-0.1958751977516822,-0.19511555832518293,-1.3132352600427357
-0.19581904775168218,-0.19511555832518293,-1.3169426110237734
-0.19576289775168218,-0.19511555832518293,-1.3132352600427357
-0.19570674775168218,-0.19141733347259912,-1.3169426110237734
-0.19565059775168217,-0.19141733347259912,-1.3169426110237734
-0.1955944477516822,-0.19511555832518124,-1.3169426110237734
-0.1955382977516822,-0.19141733347259912,-1.3169426110237734
-0.19548214775168218,-0.19141733347259912,-1.3169426110237734
-0.19542599775168218,-0.19141733347259912,-1.3169426110237734
-0.19536984775168217,-0.19141733347259912,-1.3169426110237734
-0.19531369775168217,-0.19141733347259912,-1.3169426110237734
-0.1952575477516822,-0.19141733347259912,-1.3132352600427357
-0.1952013977516822,-0.19141733347259912,-1.3169426110237734
-0.19514524775168218,-0.18771910862001534,-1.3132352600427357
-0.19508909775168218,-0.18402088376743153,-1.3169426110237734
-0.19503294775168217,-0.18402088376743153,-1.3169426110237734
-0.19497679775168217,-0.18402088376743153,-1.3169426110237734
-0.1949206477516822,-0.18402088376743153,-1.3169426110237734
-0.1948644977516822,-0.18402088376743153,-1.3169426110237734
-0.19480834775168218,-0.18032265891484775,-1.3169426110237734
-0.19475219775168218,-0.18032265891484775,-1.3169426110237734
-0.19469604775168217,-0.17662443406226394,-1.3169426110237734
-0.19463989775168217,-0.17662443406226394,-1.3169426110237734
-0.1945837477516822,-0.17662443406226394,-1.3169426110237734
-0.19452759775168219,-0.17662443406226394,-1.3169426110237734
-0.19447144775168218,-0.17292620920968013,-1.3169426110237734
-0.19441529775168218,-0.17292620920968013,-1.3169426110237734
-0.19435914775168217,-0.17292620920968013,-1.3169426110237734
-0.1943029977516822,-0.17292620920968013,-1.3169426110237734
-0.1942468477516822,-0.16922798435709635,-1.3169426110237734
-0.19419069775168218,-0.16922798435709635,-1.3169426110237734
-0.19413454775168218,-0.16922798435709635,-1.3169426110237734
-0.19407839775168217,-0.16552975950451254,-1.3169426110237734
-0.19402224775168217,-0.16552975950451254,-1.3169426110237734
-0.1939660977516822,-0.16183153465192873,-1.3169426110237734
-0.1939099477516822,-0.16183153465192873,-1.3169426110237734
-0.19385379775168218,-0.15813330979934495,-1.3169426110237734
-0.19379764775168218,-0.15813330979934495,-1.3132352600427357
-0.19374149775168217,-0.15443508494676114,-1.3169426110237734
-0.19368534775168217,-0.15443508494676114,-1.3169426110237734
-0.1936291977516822,-0.15073686009417733,-1.3169426110237734
-0.1935730477516822,-0.15073686009417733,-1.3169426110237734
-0.19351689775168218,-0.15073686009417733,-1.3169426110237734
-0.19346074775168218,-0.14703863524159355,-1.3169426110237734
-0.19340459775168217,-0.14703863524159355,-1.3169426110237734
-0.19334844775168217,-0.14334041038900974,-1.3169426110237734
-0.1932922977516822,-0.14334041038900974,-1.3169426110237734
-0.19323614775168219,-0.13964218553642593,-1.3169426110237734
-0.19317999775168218,-0.13964218553642593,-1.3169426110237734
-0.19312384775168218,-0.13964218553642593,-1.3169426110237734
-0.19306769775168217,-0.13964218553642593,-1.3132352600427357
-0.19301154775168217,-0.13964218553642424,-1.3169426110237734
-0.1929553977516822,-0.13594396068384215,-1.3169426110237734
-0.19289924775168218,-0.13594396068384215,-1.3169426110237734
-0.19284309775168218,-0.13594396068384215,-1.3169426110237734
-0.19278694775168218,-0.13594396068384215,-1.3169426110237734
-0.19273079775168217,-0.13224573583125834,-1.3169426110237734
-0.1926746477516822,-0.12854751097867623,-1.3169426110237734
-0.1926184977516822,-0.12854751097867453,-1.3169426110237734
-0.19256234775168218,-0.12854751097867453,-1.3169426110237734
-0.19250619775168218,-0.12854751097867453,-1.3169426110237734
-0.19245004775168217,-0.12854751097867453,-1.3169426110237734
-0.19239389775168217,-0.12484928612609074,-1.3169426110237734
-0.1923377477516822,-0.12484928612609074,-1.3169426110237734
-0.1922815977516822,-0.12115106127350694,-1.3169426110237734
-0.19222544775168218,-0.12115106127350694,-1.3169426110237734
-0.19216929775168218,-0.12115106127350694,-1.3169426110237734
-0.19211314775168217,-0.11745283642092315,-1.3169426110237734
-0.19205699775168217,-0.11745283642092315,-1.3169426110237734
-0.1920008477516822,-0.11745283642092315,-1.3169426110237734
-0.1919446977516822,-0.11745283642092315,-1.3169426110237734
-0.19188854775168218,-0.11375461156833934,-1.3169426110237734
-0.19183239775168218,-0.11375461156833934,-1.3169426110237734
-0.19177624775168217,-0.11375461156833934,-1.3169426110237734
-0.19172009775168217,-0.11005638671575554,-1.3169426110237734
-0.1916639477516822,-0.11005638671575554,-1.3169426110237734
-0.19160779775168219,-0.11005638671575554,-1.3169426110237734
-0.19155164775168218,-0.10635816186317175,-1.3169426110237734
-0.19149549775168218,-0.10635816186317175,-1.3169426110237734
-0.19143934775168217,-0.10635816186317175,-1.3169426110237734
-0.1913831977516822,-0.10265993701058962,-1.3169426110237734
-0.1913270477516822,-0.09896171215800414,-1.3169426110237734
-0.19127089775168218,-0.09896171215800414,-1.3169426110237734
-0.19121474775168218,-0.09896171215800414,-1.3169426110237734
-0.19115859775168217,-0.09526348730542035,-1.3169426110237734
-0.19110244775168217,-0.09526348730542035,-1.3169426110237734
-0.1910462977516822,-0.09526348730542035,-1.3169426110237734
-0.1909901477516822,-0.09526348730542035,-1.3169426110237734
-0.19093399775168218,-0.09156526245283655,-1.3169426110237734
-0.19087784775168218,-0.09156526245283655,-1.3169426110237734
-0.19082169775168217,-0.09156526245283655,-1.3169426110237734
-0.19076554775168217,-0.08786703760025275,-1.3169426110237734
-0.1907093977516822,-0.08786703760025275,-1.3169426110237734
-0.1906532477516822,-0.08786703760025275,-1.3169426110237734
-0.19059709775168218,-0.08416881274766895,-1.3169426110237734
-0.19054094775168218,-0.08047058789508515,-1.3169426110237734
-0.19048479775168217,-0.08047058789508515,-1.3169426110237734
-0.19042864775168217,-0.08416881274766727,-1.3169426110237734
-0.1903724977516822,-0.08047058789508515,-1.3169426110237734
-0.19031634775168219,-0.07677236304250135,-1.3169426110237734
-0.19026019775168218,-0.08047058789508515,-1.3169426110237734
-0.19020404775168218,-0.07677236304250135,-1.3169426110237734
-0.19014789775168217,-0.07677236304250135,-1.3169426110237734
-0.1900917477516822,-0.07677236304250135,-1.3169426110237734
-0.1900355977516822,-0.07677236304250135,-1.3169426110237734
-0.18997944775168218,-0.07307413818991755,-1.3169426110237734
-0.18992329775168218,-0.07307413818991755,-1.3169426110237734
-0.18986714775168217,-0.07307413818991755,-1.3169426110237734
-0.18981099775168217,-0.07307413818991755,-1.3169426110237734
-0.1897548477516822,-0.07307413818991755,-1.3169426110237734
-0.1896986977516822,-0.06937591333733376,-1.3169426110237734
-0.18964254775168218,-0.06937591333733376,-1.3169426110237734
-0.18958639775168218,-0.06937591333733376,-1.3169426110237734
-0.18953024775168217,-0.06567768848474995,-1.3169426110237734
-0.18947409775168217,-0.06567768848474995,-1.3169426110237734
-0.1894179477516822,-0.06567768848474995,-1.3169426110237734
-0.1893617977516822,-0.06567768848474995,-1.3169426110237734
-0.18930564775168218,-0.06567768848474995,-1.3169426110237734
-0.18924949775168218,-0.06567768848474995,-1.3169426110237734
-0.18919334775168217,-0.06567768848474995,-1.3169426110237734
-0.18913719775168217,-0.06937591333733376,-1.3169426110237734
-0.1890810477516822,-0.06567768848474995,-1.3169426110237734
-0.18902489775168219,-0.06567768848474995,-1.3169426110237734
-0.18896874775168218,-0.06567768848474995,-1.3169426110237734
-0.18891259775168218,-0.06567768848474995,-1.3169426110237734
-0.18885644775168217,-0.06567768848474995,-1.3169426110237734
-0.18880029775168217,-0.06567768848474995,-1.3169426110237734
-0.1887441477516822,-0.06567768848474995,-1.3169426110237734
-0.18868799775168218,-0.06197946363216615,-1.3169426110237734
-0.18863184775168218,-0.06197946363216615,-1.3169426110237734
-0.18857569775168218,-0.06197946363216615,-1.3169426110237734
-0.18851954775168217,-0.06197946363216615,-1.3169426110237734
-0.1884633977516822,-0.05828123877958403,-1.3169426110237734
-0.1884072477516822,-0.05828123877958235,-1.3169426110237734
-0.18835109775168218,-0.05828123877958235,-1.3169426110237734
-0.18829494775168218,-0.05828123877958235,-1.3169426110237734
-0.18823879775168217,-0.05828123877958235,-1.3169426110237734
-0.18818264775168217,-0.054583013926998554,-1.3169426110237734
-0.1881264977516822,-0.054583013926998554,-1.3169426110237734
-0.1880703477516822,-0.054583013926998554,-1.3169426110237734
-0.18801419775168218,-0.054583013926998554,-1.3169426110237734
-0.18795804775168218,-0.05088478907441475,-1.3169426110237734
-0.18790189775168217,-0.05088478907441475,-1.3169426110237734
-0.18784574775168217,-0.05088478907441475,-1.3169426110237734
-0.1877895977516822,-0.05088478907441475,-1.3169426110237734
-0.1877334477516822,-0.05088478907441475,-1.3169426110237734
-0.18767729775168218,-0.05088478907441475,-1.3169426110237734
-0.18762114775168218,-0.04718656422183096,-1.3169426110237734
-0.18756499775168217,-0.05088478907441475,-1.3169426110237734
-0.18750884775168217,-0.05088478907441475,-1.3169426110237734
-0.1874526977516822,-0.05088478907441475,-1.3169426110237734
-0.18739654775168219,-0.05088478907441475,-1.3169426110237734
-0.18734039775168218,-0.05088478907441475,-1.3169426110237734
-0.18728424775168218,-0.04718656422183096,-1.3169426110237734
-0.18722809775168217,-0.04718656422183096,-1.3169426110237734
-0.1871719477516822,-0.04718656422183096,-1.3169426110237734
-0.1871157977516822,-0.04718656422183096,-1.3169426110237734
-0.18705964775168218,-0.04718656422183096,-1.3169426110237734
-0.18700349775168218,-0.04718656422183096,-1.3169426110237734
-0.18694734775168217,-0.04718656422183096,-1.3169426110237734
-0.18689119775168217,-0.04718656422183096,-1.3169426110237734
-0.1868350477516822,-0.04718656422183096,-1.3169426110237734
-0.1867788977516822,-0.05088478907441475,-1.3169426110237734
-0.18672274775168218,-0.05088478907441475,-1.3169426110237734
-0.18666659775168218,-0.05088478907441475,-1.3169426110237734
-0.18661044775168217,-0.05088478907441475,-1.3169426110237734
-0.18655429775168217,-0.05088478907441475,-1.3169426110237734
-0.1864981477516822,-0.05088478907441475,-1.3169426110237734
-0.1864419977516822,-0.05088478907441475,-1.3169426110237734
-0.18638584775168218,-0.05088478907441475,-1.3169426110237734
-0.18632969775168218,-0.04718656422183096,-1.3169426110237734
-0.18627354775168217,-0.05088478907441475,-1.3169426110237734
-0.18621739775168217,-0.04718656422183096,-1.3169426110237734
-0.1861612477516822,-0.04718656422183096,-1.3169426110237734
-0.18610509775168219,-0.05088478907441475,-1.3169426110237734
-0.18604894775168218,-0.04718656422183096,-1.3169426110237734
-0.18599279775168218,-0.04718656422183096,-1.3169426110237734
-0.18593664775168217,-0.04718656422183096,-1.3169426110237734
-0.1858804977516822,-0.05088478907441307,-1.3206499620048093
-0.1858243477516822,-0.04718656422183096,-1.3169426110237734
-0.18576819775168218,-0.05088478907441475,-1.3169426110237734
-0.18571204775168218,-0.05088478907441475,-1.3169426110237734
-0.18565589775168218,-0.05088478907441475,-1.3169426110237734
-0.18559974775168217,-0.05088478907441475,-1.3169426110237734
-0.1855435977516822,-0.05088478907441475,-1.3169426110237734
-0.1854874477516822,-0.054583013926998554,-1.3169426110237734
-0.18543129775168218,-0.054583013926998554,-1.3169426110237734
-0.18537514775168218,-0.054583013926998554,-1.3169426110237734
-0.18531899775168217,-0.054583013926998554,-1.3169426110237734
-0.18526284775168217,-0.054583013926998554,-1.3169426110237734
-0.1852066977516822,-0.054583013926998554,-1.3169426110237734
-0.1851505477516822,-0.054583013926998554,-1.3169426110237734
-0.18509439775168218,-0.054583013926998554,-1.3169426110237734
-0.18503824775168218,-0.054583013926998554,-1.3169426110237734
-0.18498209775168217,-0.05828123877958235,-1.3169426110237734
-0.18492594775168217,-0.054583013926998554,-1.320649962004811
-0.1848697977516822,-0.054583013926998554,-1.3169426110237734
-0.1848136477516822,-0.054583013926998554,-1.3169426110237734
-0.18475749775168218,-0.054583013926998554,-1.3169426110237734
-0.18470134775168218,-0.054583013926998554,-1.3169426110237734
-0.18464519775168217,-0.054583013926998554,-1.3169426110237734
-0.18458904775168217,-0.05458301392700023,-1.3169426110237734
-0.1845328977516822,-0.05828123877958235,-1.3169426110237734
-0.18447674775168219,-0.05828123877958235,-1.3169426110237734
-0.18442059775168218,-0.054583013926998554,-1.3169426110237734
-0.18436444775168218,-0.054583013926998554,-1.3169426110237734
-0.18430829775168217,-0.054583013926998554,-1.3169426110237734
-0.1842521477516822,-0.054583013926998554,-1.3169426110237734
-0.1841959977516822,-0.054583013926998554,-1.3169426110237734
-0.18413984775168218,-0.054583013926998554,-1.3169426110237734
-0.18408369775168218,-0.054583013926998554,-1.320649962004811
-0.18402754775168217,-0.05088478907441475,-1.3169426110237734
-0.18397139775168217,-0.06197946363216615,-1.3169426110237734
-0.1839152477516822,-0.05828123877958235,-1.3169426110237734
-0.1838590977516822,-0.05828123877958235,-1.3169426110237734
-0.18380294775168218,-0.054583013926998554,-1.3169426110237734
-0.18374679775168218,-0.054583013926998554,-1.3169426110237734
-0.18369064775168217,-0.054583013926998554,-1.3169426110237734
-0.18363449775168217,-0.054583013926998554,-1.3169426110237734
-0.1835783477516822,-0.054583013926998554,-1.3169426110237734
-0.1835221977516822,-0.054583013926998554,-1.3169426110237734
-0.18346604775168218,-0.054583013926998554,-1.3169426110237734
-0.18340989775168218,-0.054583013926998554,-1.3169426110237734
-0.18335374775168217,-0.054583013926998554,-1.3169426110237734
-0.18329759775168217,-0.05828123877958235,-1.3169426110237734
-0.1832414477516822,-0.05828123877958235,-1.3169426110237734
-0.18318529775168219,-0.05828123877958235,-1.3169426110237734
-0.18312914775168218,-0.05828123877958235,-1.3169426110237734
-0.18307299775168218,-0.05828123877958235,-1.3169426110237734
-0.18301684775168217,-0.05828123877958235,-1.320649962004811
-0.1829606977516822,-0.05828123877958235,-1.3169426110237752
-0.1829045477516822,-0.05828123877958235,-1.3169426110237734
-0.18284839775168218,-0.06197946363216615,-1.3169426110237734
-0.18279224775168218,-0.06197946363216615,-1.3169426110237734
-0.18273609775168217,-0.06197946363216615,-1.3169426110237734
-0.18267994775168217,-0.06197946363216615,-1.3169426110237734
-0.1826237977516822,-0.06197946363216615,-1.3169426110237734
-0.1825676477516822,-0.06197946363216615,-1.3169426110237734
-0.18251149775168218,-0.06197946363216615,-1.3169426110237734
-0.18245534775168218,-0.06197946363216615,-1.3169426110237734
-0.18239919775168217,-0.06197946363216615,-1.3169426110237734
-0.18234304775168217,-0.06197946363216615,-1.3169426110237734
-0.1822868977516822,-0.06197946363216615,-1.3169426110237734
-0.1822307477516822,-0.06197946363216615,-1.3169426110237734
-0.18217459775168218,-0.06197946363216615,-1.3169426110237734
-0.18211844775168218,-0.06197946363216615,-1.3169426110237734
-0.18206229775168217,-0.06567768848474995,-1.3169426110237734
-0.18200614775168217,-0.06567768848474995,-1.3169426110237734
-0.1819499977516822,-0.06567768848474995,-1.3169426110237734
-0.18189384775168219,-0.06567768848474995,-1.3169426110237734
-0.18183769775168218,-0.06567768848474995,-1.3169426110237734
-0.18178154775168218,-0.06567768848474995,-1.3169426110237734
-0.18172539775168217,-0.06567768848474995,-1.3169426110237734
-0.1816692477516822,-0.058281238779585715,-1.3169426110237734
-0.1816130977516822,-0.06197946363216615,-1.3169426110237734
-0.18155694775168219,-0.06197946363216615,-1.3169426110237734
-0.18150079775168218,-0.06197946363216615,-1.3169426110237734
-0.18144464775168218,-0.06197946363216615,-1.3169426110237734
-0.18138849775168217,-0.06197946363216615,-1.3169426110237734
-0.1813323477516822,-0.06197946363216615,-1.3169426110237734
-0.1812761977516822,-0.06567768848474995,-1.3169426110237734
-0.18122004775168218,-0.06197946363216615,-1.3169426110237734
-0.18116389775168218,-0.06197946363216615,-1.3169426110237734
-0.18110774775168217,-0.06197946363216615,-1.320649962004811
-0.18105159775168217,-0.06197946363216615,-1.3169426110237734
-0.1809954477516822,-0.06197946363216615,-1.3169426110237734
-0.1809392977516822,-0.06197946363216615,-1.3169426110237734
-0.18088314775168218,-0.05828123877958235,-1.3169426110237734
-0.18082699775168218,-0.05828123877958235,-1.3169426110237734
-0.18077084775168217,-0.05828123877958235,-1.3169426110237734
-0.18071469775168217,-0.05828123877958235,-1.3169426110237734
-0.1806585477516822,-0.05828123877958235,-1.320649962004811
-0.1806023977516822,-0.06197946363216615,-1.3169426110237734
-0.18054624775168218,-0.05828123877958235,-1.3169426110237734
-0.18049009775168218,-0.05828123877958235,-1.3169426110237734
-0.18043394775168217,-0.05828123877958235,-1.3169426110237734
-0.18037779775168217,-0.05828123877958235,-1.3169426110237734
-0.1803216477516822,-0.05828123877958235,-1.3169426110237734
-0.18026549775168219,-0.05828123877958235,-1.3169426110237734
-0.18020934775168218,-0.05828123877958235,-1.3169426110237734
-0.18015319775168218,-0.05828123877958235,-1.3169426110237734
-0.18009704775168217,-0.05828123877958235,-1.3169426110237734
-0.1800408977516822,-0.05828123877958235,-1.3206499620048093
