100Hz/acq0045.csv

#Digilent WaveForms Oscilloscope Acquisition
#Device Name: Discovery2
#Serial Number: SN:210321AA28BE
#Date Time: 2023-05-24 14:48:31.533
#Sample rate: 558659Hz
#Samples: 8192
#Trigger: Source: Channel 1 Type: Edge Condition: Rising Level: 800 mV Hyst.: Auto HoldOff: 100 ns
#Channel 1: Range: 1 V/div Offset: 0 V Attenuation: 1 X Sample Mode: Average
#Channel 2: Range: 1 V/div Offset: 0 V Attenuation: 1 X Sample Mode: Average

Time (s),Channel 1 (V),Channel 2 (V)
-0.007741617857071314,0.015683258272093638,-1.320649962004811
-0.007739827857071314,0.011985033419511522,-1.3169426110237752
-0.007738037857071314,0.01938148312467744,-1.3169426110237734
-0.007736247857071314,0.015683258272093638,-1.3169426110237734
-0.007734457857071314,0.015683258272093638,-1.3169426110237734
-0.007732667857071314,0.015683258272093638,-1.3169426110237734
-0.007730877857071314,0.015683258272093638,-1.3169426110237734
-0.007729087857071314,0.00828680856692604,-1.320649962004811
-0.007727297857071314,0.00828680856692604,-1.320649962004811
-0.007725507857071314,0.00828680856692604,-1.3169426110237734
-0.007723717857071314,0.00828680856692604,-1.3132352600427357
-0.007721927857071314,0.01198503341950984,-1.3169426110237734
-0.007720137857071314,0.00828680856692604,-1.3169426110237734
-0.007718347857071314,0.00458858371434224,-1.320649962004811
-0.007716557857071314,0.00458858371434224,-1.320649962004811
-0.007714767857071314,0.00828680856692604,-1.3169426110237734
-0.007712977857071314,0.01198503341950984,-1.320649962004811
-0.007711187857071314,0.01198503341950984,-1.320649962004811
-0.007709397857071314,0.01198503341950984,-1.320649962004811
-0.007707607857071314,0.00458858371434224,-1.320649962004811
-0.007705817857071314,0.00828680856692604,-1.320649962004811
-0.007704027857071314,0.00828680856692604,-1.3169426110237734
-0.007702237857071314,0.00458858371434224,-1.320649962004811
-0.007700447857071314,0.00458858371434224,-1.3243573129858488
-0.007698657857071314,0.00828680856692604,-1.3169426110237734
-0.007696867857071314,0.0008903588617584406,-1.3169426110237734
-0.007695077857071314,0.00458858371434224,-1.320649962004811
-0.007693287857071314,0.0008903588617584406,-1.3169426110237734
-0.007691497857071314,0.00458858371434224,-1.3169426110237734
-0.007689707857071314,0.00828680856692604,-1.320649962004811
-0.007687917857071314,0.01198503341950984,-1.3169426110237734
-0.007686127857071314,0.00458858371434224,-1.320649962004811
-0.007684337857071314,0.0008903588617584406,-1.3169426110237734
-0.007682547857071314,0.00458858371434224,-1.3169426110237734
-0.007680757857071314,0.00458858371434224,-1.320649962004811
-0.007678967857071314,0.00458858371434224,-1.3169426110237734
-0.007677177857071314,0.00458858371434224,-1.320649962004811
-0.007675387857071314,-0.002807865990825359,-1.320649962004811
-0.007673597857071314,0.00458858371434224,-1.320649962004811
-0.007671807857071314,0.00458858371434224,-1.320649962004811
-0.007670017857071314,-0.0028078659908219953,-1.3169426110237752
-0.007668227857071314,0.0008903588617584406,-1.320649962004811
-0.007666437857071314,0.0008903588617584406,-1.320649962004811
-0.007664647857071314,-0.002807865990825359,-1.3169426110237734
-0.007662857857071314,-0.0028078659908219953,-1.320649962004811
-0.007661067857071314,0.00458858371434224,-1.320649962004811
-0.007659277857071314,-0.0065060908434091584,-1.320649962004811
-0.007657487857071314,0.0008903588617584406,-1.3169426110237734
-0.007655697857071314,-0.002807865990825359,-1.3169426110237734
-0.007653907857071314,-0.002807865990825359,-1.3169426110237734
-0.007652117857071314,-0.002807865990825359,-1.3132352600427357
-0.007650327857071314,-0.0065060908434091584,-1.320649962004811
-0.007648537857071314,0.0008903588617584406,-1.3169426110237734
-0.007646747857071314,-0.0065060908434091584,-1.320649962004811
-0.007644957857071314,-0.002807865990825359,-1.320649962004811
-0.007643167857071314,-0.0065060908434091584,-1.320649962004811
-0.007641377857071314,-0.0065060908434091584,-1.320649962004811
-0.007639587857071314,0.0008903588617584406,-1.3169426110237734
-0.007637797857071314,-0.002807865990825359,-1.3169426110237734
-0.007636007857071314,-0.002807865990825359,-1.3169426110237734
-0.007634217857071314,-0.010204315695992958,-1.3132352600427357
-0.007632427857071314,-0.010204315695992958,-1.320649962004811
-0.007630637857071314,-0.010204315695992958,-1.3132352600427357
-0.007628847857071314,-0.0065060908434091584,-1.3169426110237734
-0.007627057857071314,-0.002807865990825359,-1.320649962004811
-0.007625267857071314,-0.0065060908434091584,-1.3132352600427357
-0.007623477857071314,-0.010204315695992958,-1.3243573129858488
-0.007621687857071314,-0.0065060908434091584,-1.3243573129858488
-0.007619897857071314,-0.002807865990825359,-1.3169426110237734
-0.007618107857071314,-0.010204315695992958,-1.3169426110237734
-0.007616317857071314,-0.010204315695992958,-1.320649962004811
-0.007614527857071314,-0.002807865990825359,-1.320649962004811
-0.007612737857071314,-0.0065060908434091584,-1.3169426110237734
-0.007610947857071314,-0.017600765401160557,-1.3169426110237734
-0.007609157857071314,-0.013902540548576758,-1.3169426110237734
-0.007607367857071314,-0.0065060908434091584,-1.3169426110237734
-0.007605577857071314,-0.0065060908434091584,-1.320649962004811
-0.007603787857071314,-0.0065060908434091584,-1.3169426110237734
-0.007601997857071314,-0.010204315695992958,-1.3169426110237734
-0.007600207857071314,-0.0065060908434091584,-1.3169426110237734
-0.007598417857071314,-0.013902540548576758,-1.3169426110237734
-0.007596627857071314,-0.010204315695992958,-1.3169426110237734
-0.007594837857071314,-0.013902540548576758,-1.3169426110237734
-0.007593047857071314,-0.010204315695994639,-1.3169426110237734
-0.007591257857071314,-0.013902540548576758,-1.3169426110237734
-0.007589467857071314,-0.013902540548576758,-1.3132352600427357
-0.007587677857071314,-0.017600765401160557,-1.3132352600427357
-0.007585887857071314,-0.01390254054857844,-1.3206499620048093
-0.007584097857071314,-0.017600765401160557,-1.3169426110237734
-0.007582307857071314,-0.017600765401160557,-1.3169426110237734
-0.007580517857071314,-0.017600765401160557,-1.320649962004811
-0.007578727857071314,-0.013902540548576758,-1.3169426110237734
-0.007576937857071314,-0.017600765401160557,-1.3169426110237734
-0.007575147857071314,-0.013902540548576758,-1.320649962004811
-0.007573357857071314,-0.017600765401160557,-1.3169426110237734
-0.007571567857071314,-0.013902540548576758,-1.320649962004811
-0.007569777857071314,-0.017600765401160557,-1.3243573129858488
-0.007567987857071314,-0.017600765401160557,-1.3169426110237734
-0.007566197857071314,-0.021298990253744356,-1.3169426110237734
-0.007564407857071314,-0.017600765401160557,-1.320649962004811
-0.007562617857071314,-0.021298990253744356,-1.3169426110237734
-0.007560827857071314,-0.021298990253744356,-1.3169426110237734
-0.007559037857071314,-0.021298990253744356,-1.3169426110237734
-0.007557247857071314,-0.017600765401160557,-1.3169426110237734
-0.007555457857071314,-0.021298990253744356,-1.3169426110237734
-0.007553667857071314,-0.017600765401160557,-1.320649962004811
-0.007551877857071314,-0.021298990253744356,-1.3169426110237734
-0.007550087857071314,-0.021298990253744356,-1.3169426110237734
-0.007548297857071314,-0.021298990253744356,-1.3169426110237734
-0.007546507857071314,-0.021298990253744356,-1.3169426110237734
-0.007544717857071314,-0.021298990253744356,-1.3169426110237734
-0.007542927857071314,-0.024997215106328158,-1.3169426110237734
-0.007541137857071314,-0.021298990253744356,-1.320649962004811
-0.007539347857071314,-0.028695439958911956,-1.3169426110237734
-0.007537557857071314,-0.024997215106328158,-1.320649962004811
-0.007535767857071314,-0.024997215106328158,-1.3169426110237734
-0.007533977857071314,-0.024997215106328158,-1.3169426110237734
-0.007532187857071314,-0.021298990253744356,-1.320649962004811
-0.007530397857071314,-0.024997215106328158,-1.320649962004811
-0.007528607857071314,-0.021298990253744356,-1.3169426110237734
-0.007526817857071314,-0.024997215106328158,-1.3169426110237734
-0.007525027857071314,-0.021298990253744356,-1.320649962004811
-0.007523237857071314,-0.021298990253744356,-1.320649962004811
-0.007521447857071314,-0.024997215106328158,-1.3169426110237734
-0.007519657857071314,-0.021298990253744356,-1.320649962004811
-0.007517867857071314,-0.024997215106328158,-1.320649962004811
-0.0075160778570713144,-0.03239366481149239,-1.320649962004811
-0.007514287857071314,-0.028695439958911956,-1.3169426110237734
-0.007512497857071314,-0.028695439958911956,-1.3169426110237734
-0.007510707857071314,-0.024997215106328158,-1.3169426110237734
-0.007508917857071314,-0.024997215106328158,-1.3169426110237734
-0.007507127857071314,-0.024997215106328158,-1.3169426110237734
-0.007505337857071314,-0.021298990253744356,-1.3243573129858488
-0.007503547857071314,-0.028695439958911956,-1.320649962004811
-0.007501757857071314,-0.028695439958911956,-1.3169426110237734
-0.007499967857071314,-0.032393664811495755,-1.320649962004811
-0.007498177857071314,-0.028695439958911956,-1.3169426110237734
-0.007496387857071314,-0.032393664811495755,-1.3169426110237734
-0.007494597857071314,-0.028695439958911956,-1.320649962004811
-0.007492807857071314,-0.028695439958911956,-1.320649962004811
-0.007491017857071314,-0.028695439958911956,-1.3169426110237734
-0.007489227857071314,-0.032393664811495755,-1.3169426110237734
-0.007487437857071314,-0.03609188966407956,-1.3169426110237734
-0.007485647857071314,-0.032393664811495755,-1.3169426110237734
-0.007483857857071314,-0.032393664811495755,-1.3169426110237734
-0.007482067857071314,-0.024997215106328158,-1.3243573129858488
-0.007480277857071314,-0.03609188966407956,-1.3169426110237734
-0.007478487857071314,-0.032393664811495755,-1.320649962004811
-0.007476697857071314,-0.03609188966407956,-1.320649962004811
-0.007474907857071314,-0.03609188966407956,-1.320649962004811
-0.007473117857071314,-0.032393664811495755,-1.3169426110237734
-0.007471327857071314,-0.03609188966407956,-1.3169426110237734
-0.007469537857071314,-0.03979011451666335,-1.3169426110237734
-0.007467747857071314,-0.032393664811495755,-1.3169426110237734
-0.007465957857071314,-0.028695439958911956,-1.320649962004811
-0.007464167857071314,-0.03609188966407956,-1.320649962004811
-0.007462377857071314,-0.032393664811495755,-1.3169426110237734
-0.007460587857071314,-0.03979011451666335,-1.3132352600427357
-0.007458797857071314,-0.032393664811495755,-1.3169426110237734
-0.007457007857071314,-0.032393664811495755,-1.320649962004811
-0.007455217857071314,-0.032393664811495755,-1.320649962004811
-0.007453427857071314,-0.032393664811495755,-1.320649962004811
-0.007451637857071314,-0.03979011451666335,-1.320649962004811
-0.007449847857071314,-0.03609188966407956,-1.3169426110237734
-0.007448057857071314,-0.03979011451666335,-1.3169426110237734
-0.007446267857071314,-0.036091889664081236,-1.3169426110237734
-0.007444477857071314,-0.043488339369247155,-1.320649962004811
-0.007442687857071314,-0.03609188966407956,-1.320649962004811
-0.007440897857071314,-0.03609188966407956,-1.320649962004811
-0.007439107857071314,-0.032393664811497434,-1.3169426110237752
-0.007437317857071314,-0.03609188966407956,-1.320649962004811
-0.007435527857071314,-0.03609188966407956,-1.320649962004811
-0.007433737857071314,-0.03979011451666335,-1.320649962004811
-0.007431947857071314,-0.03979011451666335,-1.3132352600427357
-0.007430157857071314,-0.03979011451666335,-1.3169426110237734
-0.007428367857071314,-0.03979011451666335,-1.3169426110237734
-0.007426577857071314,-0.03979011451666335,-1.320649962004811
-0.007424787857071314,-0.03979011451666335,-1.3169426110237734
-0.007422997857071314,-0.043488339369247155,-1.3169426110237734
-0.007421207857071314,-0.03979011451666335,-1.3169426110237734
-0.007419417857071314,-0.03979011451666335,-1.320649962004811
-0.007417627857071314,-0.043488339369247155,-1.3169426110237734
-0.007415837857071314,-0.043488339369247155,-1.320649962004811
-0.007414047857071314,-0.043488339369247155,-1.320649962004811
-0.007412257857071314,-0.03979011451666335,-1.320649962004811
-0.007410467857071314,-0.03979011451666335,-1.320649962004811
-0.007408677857071314,-0.043488339369247155,-1.3169426110237734
-0.007406887857071314,-0.03979011451666335,-1.320649962004811
-0.007405097857071314,-0.03979011451666335,-1.3243573129858488
-0.007403307857071314,-0.03609188966407956,-1.320649962004811
-0.007401517857071314,-0.03609188966407956,-1.3169426110237734
-0.007399727857071314,-0.043488339369247155,-1.3169426110237734
-0.007397937857071314,-0.043488339369247155,-1.3169426110237734
-0.007396147857071314,-0.043488339369247155,-1.320649962004811
-0.007394357857071314,-0.043488339369247155,-1.3169426110237734
-0.007392567857071314,-0.04718656422183096,-1.320649962004811
-0.007390777857071314,-0.043488339369247155,-1.320649962004811
-0.007388987857071314,-0.04718656422183096,-1.3169426110237734
-0.007387197857071314,-0.043488339369247155,-1.320649962004811
-0.007385407857071314,-0.043488339369247155,-1.3132352600427357
-0.007383617857071314,-0.05088478907441475,-1.3169426110237734
-0.007381827857071314,-0.04718656422183096,-1.320649962004811
-0.007380037857071314,-0.04718656422183096,-1.320649962004811
-0.007378247857071314,-0.04718656422183096,-1.3169426110237734
-0.007376457857071314,-0.04718656422183096,-1.3169426110237734
-0.007374667857071314,-0.04718656422183096,-1.3243573129858488
-0.007372877857071314,-0.04718656422183096,-1.3243573129858488
-0.007371087857071314,-0.04718656422183096,-1.3169426110237734
-0.0073692978570713144,-0.04718656422183096,-1.3169426110237734
-0.007367507857071314,-0.05088478907441475,-1.320649962004811
-0.007365717857071314,-0.05088478907441475,-1.320649962004811
-0.007363927857071314,-0.05088478907441475,-1.320649962004811
-0.007362137857071314,-0.047186564221832636,-1.3169426110237752
-0.007360347857071314,-0.05088478907441475,-1.320649962004811
-0.007358557857071314,-0.054583013926998554,-1.3169426110237734
-0.007356767857071314,-0.054583013926998554,-1.3243573129858488
-0.007354977857071314,-0.054583013926998554,-1.3243573129858488
-0.007353187857071314,-0.05088478907441475,-1.320649962004811
-0.007351397857071314,-0.05088478907441475,-1.320649962004811
-0.007349607857071314,-0.05828123877958235,-1.3132352600427357
-0.007347817857071314,-0.05088478907441475,-1.3169426110237734
-0.007346027857071314,-0.054583013926998554,-1.3169426110237734
-0.007344237857071314,-0.05088478907441475,-1.3169426110237734
-0.007342447857071314,-0.043488339369247155,-1.3169426110237734
-0.007340657857071314,-0.043488339369247155,-1.3169426110237734
-0.007338867857071314,-0.054583013926998554,-1.320649962004811
-0.007337077857071314,-0.05828123877958235,-1.3169426110237734
-0.007335287857071314,-0.05088478907441475,-1.3243573129858488
-0.007333497857071314,-0.05828123877958235,-1.320649962004811
-0.007331707857071314,-0.05088478907441475,-1.3169426110237734
-0.007329917857071314,-0.05088478907441475,-1.320649962004811
-0.007328127857071314,-0.05088478907441475,-1.3169426110237734
-0.007326337857071314,-0.05088478907441475,-1.3132352600427357
-0.007324547857071314,-0.054583013926998554,-1.3169426110237734
-0.007322757857071314,-0.05088478907441475,-1.3169426110237734
-0.007320967857071314,-0.054583013926998554,-1.3169426110237734
-0.007319177857071314,-0.06197946363216615,-1.3169426110237734
-0.007317387857071314,-0.054583013926998554,-1.320649962004811
-0.007315597857071314,-0.05088478907441475,-1.3132352600427357
-0.007313807857071314,-0.054583013926998554,-1.320649962004811
-0.007312017857071314,-0.054583013926998554,-1.320649962004811
-0.007310227857071314,-0.054583013926998554,-1.320649962004811
-0.007308437857071314,-0.05828123877958235,-1.3169426110237734
-0.007306647857071314,-0.054583013926998554,-1.320649962004811
-0.007304857857071314,-0.05828123877958235,-1.320649962004811
-0.007303067857071314,-0.05828123877958235,-1.320649962004811
-0.007301277857071314,-0.054583013926998554,-1.3243573129858488
-0.007299487857071314,-0.05088478907441643,-1.3169426110237767
-0.007297697857071314,-0.054583013926998554,-1.320649962004811
-0.007295907857071314,-0.054583013926998554,-1.3169426110237734
-0.007294117857071314,-0.054583013926998554,-1.320649962004811
-0.007292327857071314,-0.05828123877958403,-1.3169426110237752
-0.007290537857071314,-0.06197946363216615,-1.320649962004811
-0.007288747857071314,-0.06197946363216615,-1.320649962004811
-0.007286957857071314,-0.05828123877958235,-1.320649962004811
-0.007285167857071314,-0.05828123877958235,-1.320649962004811
-0.007283377857071314,-0.05828123877958235,-1.320649962004811
-0.007281587857071314,-0.05828123877958235,-1.3169426110237734
-0.007279797857071314,-0.054583013926998554,-1.320649962004811
-0.007278007857071314,-0.05828123877958235,-1.320649962004811
-0.007276217857071314,-0.06197946363216615,-1.3169426110237734
-0.007274427857071314,-0.06197946363216615,-1.3243573129858488
-0.007272637857071314,-0.054583013926998554,-1.320649962004811
-0.007270847857071314,-0.05828123877958235,-1.320649962004811
-0.007269057857071314,-0.05828123877958235,-1.320649962004811
-0.007267267857071314,-0.06197946363216615,-1.320649962004811
-0.007265477857071314,-0.06567768848474995,-1.320649962004811
-0.007263687857071314,-0.06197946363216615,-1.320649962004811
-0.007261897857071314,-0.05828123877958235,-1.320649962004811
-0.007260107857071314,-0.06197946363216615,-1.3169426110237734
-0.007258317857071314,-0.06197946363216615,-1.3169426110237734
-0.007256527857071314,-0.05828123877958235,-1.320649962004811
-0.007254737857071314,-0.06197946363216615,-1.3132352600427357
-0.007252947857071314,-0.06197946363216615,-1.320649962004811
-0.007251157857071314,-0.054583013926998554,-1.3132352600427357
-0.007249367857071314,-0.054583013926998554,-1.3169426110237734
-0.007247577857071314,-0.05828123877958235,-1.320649962004811
-0.007245787857071314,-0.05828123877958235,-1.3169426110237734
-0.007243997857071314,-0.06197946363216615,-1.3169426110237734
-0.007242207857071314,-0.06567768848474995,-1.3169426110237734
-0.007240417857071314,-0.06197946363216615,-1.3169426110237734
-0.007238627857071314,-0.06197946363216615,-1.320649962004811
-0.007236837857071314,-0.05828123877958235,-1.3169426110237734
-0.007235047857071314,-0.06567768848474995,-1.320649962004811
-0.007233257857071314,-0.06567768848474995,-1.3169426110237734
-0.007231467857071314,-0.06567768848474995,-1.3169426110237734
-0.007229677857071314,-0.06567768848474995,-1.320649962004811
-0.007227887857071314,-0.06567768848474995,-1.320649962004811
-0.007226097857071314,-0.05828123877958235,-1.3169426110237734
-0.007224307857071314,-0.06567768848474995,-1.3169426110237734
-0.0072225178570713144,-0.06567768848474995,-1.3206499620048093
-0.007220727857071314,-0.06937591333733376,-1.3169426110237734
-0.007218937857071314,-0.06937591333733376,-1.3169426110237734
-0.007217147857071314,-0.06567768848474995,-1.320649962004811
-0.007215357857071314,-0.06567768848475163,-1.320649962004811
-0.007213567857071314,-0.06937591333733376,-1.320649962004811
-0.007211777857071314,-0.06567768848474995,-1.3169426110237734
-0.007209987857071314,-0.06197946363216615,-1.3243573129858488
-0.007208197857071314,-0.06567768848474995,-1.3243573129858488
-0.007206407857071314,-0.06567768848474995,-1.3169426110237734
-0.007204617857071314,-0.06937591333733376,-1.3169426110237734
-0.007202827857071314,-0.06567768848474995,-1.3169426110237734
-0.007201037857071314,-0.06567768848474995,-1.3169426110237734
-0.007199247857071314,-0.06567768848474995,-1.3169426110237734
-0.007197457857071314,-0.06197946363216615,-1.320649962004811
-0.007195667857071314,-0.06567768848474995,-1.3169426110237734
-0.007193877857071314,-0.06937591333733376,-1.3169426110237734
-0.007192087857071314,-0.06567768848474995,-1.3169426110237734
-0.007190297857071314,-0.06937591333733376,-1.3169426110237734
