100Hz/acq0012.csv

#Digilent WaveForms Oscilloscope Acquisition
#Device Name: Discovery2
#Serial Number: SN:210321AA28BE
#Date Time: 2023-05-24 14:48:30.582
#Sample rate: 558659Hz
#Samples: 8192
#Trigger: Source: Channel 1 Type: Edge Condition: Rising Level: 800 mV Hyst.: Auto HoldOff: 100 ns
#Channel 1: Range: 1 V/div Offset: 0 V Attenuation: 1 X Sample Mode: Average
#Channel 2: Range: 1 V/div Offset: 0 V Attenuation: 1 X Sample Mode: Average

Time (s),Channel 1 (V),Channel 2 (V)
-0.007741288003812123,0.01938148312467744,-1.3169426110237734
-0.007739498003812123,0.01568325827209532,-1.3169426110237734
-0.007737708003812123,0.01938148312467744,-1.3169426110237734
-0.007735918003812123,0.015683258272093638,-1.3169426110237734
-0.007734128003812123,0.015683258272093638,-1.3169426110237734
-0.0077323380038121226,0.01198503341951152,-1.3169426110237767
-0.007730548003812123,0.015683258272093638,-1.3243573129858488
-0.007728758003812123,0.01198503341950984,-1.3169426110237734
-0.007726968003812123,0.00828680856692604,-1.3169426110237734
-0.007725178003812123,0.01198503341950984,-1.3132352600427357
-0.007723388003812123,0.015683258272093638,-1.3169426110237734
-0.007721598003812123,0.015683258272093638,-1.320649962004811
-0.007719808003812123,0.015683258272093638,-1.3169426110237734
-0.007718018003812123,0.00828680856692604,-1.3169426110237734
-0.007716228003812123,0.00828680856692604,-1.320649962004811
-0.007714438003812123,0.01198503341950984,-1.3169426110237734
-0.007712648003812123,0.01198503341950984,-1.320649962004811
-0.007710858003812123,0.01198503341950984,-1.3169426110237734
-0.007709068003812123,0.00828680856692604,-1.3169426110237734
-0.007707278003812123,0.01198503341950984,-1.320649962004811
-0.007705488003812123,0.00828680856692604,-1.3169426110237734
-0.007703698003812123,0.00828680856692604,-1.3169426110237734
-0.007701908003812123,0.00828680856692604,-1.3169426110237734
-0.007700118003812123,0.00458858371434224,-1.320649962004811
-0.007698328003812123,0.00828680856692604,-1.320649962004811
-0.007696538003812123,0.00458858371434224,-1.320649962004811
-0.007694748003812123,0.0008903588617584406,-1.320649962004811
-0.007692958003812123,0.00828680856692604,-1.3169426110237734
-0.007691168003812123,0.00828680856692604,-1.320649962004811
-0.007689378003812123,0.00828680856692604,-1.320649962004811
-0.007687588003812123,0.00828680856692604,-1.320649962004811
-0.007685798003812123,0.00458858371434224,-1.320649962004811
-0.007684008003812123,0.0008903588617584406,-1.320649962004811
-0.007682218003812123,0.00458858371434224,-1.320649962004811
-0.007680428003812123,0.00458858371434224,-1.320649962004811
-0.007678638003812123,0.00828680856692604,-1.320649962004811
-0.007676848003812123,0.00458858371434224,-1.3169426110237734
-0.007675058003812123,0.00458858371434224,-1.320649962004811
-0.007673268003812123,0.00458858371434224,-1.320649962004811
-0.007671478003812123,0.00458858371434224,-1.3169426110237734
-0.007669688003812123,0.00458858371434224,-1.3206499620048093
-0.007667898003812123,0.00458858371434224,-1.320649962004811
-0.007666108003812123,0.00458858371434224,-1.320649962004811
-0.007664318003812123,0.00458858371434224,-1.3169426110237734
-0.0076625280038121225,0.004588583714340558,-1.320649962004811
-0.007660738003812123,0.0008903588617584406,-1.320649962004811
-0.007658948003812123,0.0008903588617584406,-1.320649962004811
-0.007657158003812123,0.00458858371434224,-1.3243573129858488
-0.0076553680038121226,0.0008903588617601223,-1.3169426110237734
-0.007653578003812123,0.00458858371434224,-1.3169426110237734
-0.007651788003812123,0.00828680856692604,-1.3169426110237734
-0.007649998003812123,0.00458858371434224,-1.3169426110237734
-0.007648208003812123,0.00458858371434224,-1.3169426110237734
-0.007646418003812123,0.0008903588617584406,-1.3169426110237734
-0.007644628003812123,-0.002807865990825359,-1.320649962004811
-0.007642838003812123,-0.002807865990825359,-1.320649962004811
-0.007641048003812123,0.0008903588617584406,-1.3169426110237734
-0.007639258003812123,-0.002807865990825359,-1.3169426110237734
-0.007637468003812123,-0.002807865990825359,-1.320649962004811
-0.007635678003812123,-0.002807865990825359,-1.320649962004811
-0.007633888003812123,-0.002807865990825359,-1.320649962004811
-0.007632098003812123,-0.0065060908434091584,-1.3169426110237734
-0.007630308003812123,-0.002807865990825359,-1.3132352600427357
-0.007628518003812123,-0.002807865990825359,-1.3169426110237734
-0.007626728003812123,0.0008903588617584406,-1.3169426110237734
-0.007624938003812123,-0.002807865990825359,-1.3169426110237734
-0.007623148003812123,-0.010204315695992958,-1.320649962004811
-0.007621358003812123,-0.0065060908434091584,-1.3243573129858488
-0.007619568003812123,-0.0065060908434091584,-1.320649962004811
-0.007617778003812123,-0.002807865990825359,-1.320649962004811
-0.007615988003812123,-0.0065060908434091584,-1.320649962004811
-0.007614198003812123,-0.0065060908434091584,-1.3169426110237734
-0.007612408003812123,-0.002807865990825359,-1.3169426110237734
-0.007610618003812123,-0.0065060908434091584,-1.320649962004811
-0.007608828003812123,-0.0065060908434091584,-1.320649962004811
-0.007607038003812123,-0.0065060908434091584,-1.320649962004811
-0.007605248003812123,-0.0065060908434091584,-1.320649962004811
-0.007603458003812123,-0.0065060908434091584,-1.3169426110237734
-0.007601668003812123,-0.0065060908434091584,-1.320649962004811
-0.007599878003812123,-0.010204315695992958,-1.3169426110237734
-0.007598088003812123,-0.010204315695992958,-1.320649962004811
-0.007596298003812123,-0.010204315695992958,-1.3243573129858488
-0.007594508003812123,-0.013902540548576758,-1.320649962004811
-0.007592718003812123,-0.006506090843412522,-1.320649962004811
-0.007590928003812123,-0.010204315695992958,-1.320649962004811
-0.007589138003812123,-0.013902540548576758,-1.320649962004811
-0.007587348003812123,-0.010204315695992958,-1.3169426110237734
-0.0075855580038121226,-0.006506090843414204,-1.3169426110237734
-0.007583768003812123,-0.017600765401160557,-1.3169426110237734
-0.007581978003812123,-0.010204315695992958,-1.3169426110237734
-0.007580188003812123,-0.013902540548576758,-1.320649962004811
-0.007578398003812123,-0.013902540548576758,-1.320649962004811
-0.007576608003812123,-0.010204315695992958,-1.320649962004811
-0.007574818003812123,-0.017600765401160557,-1.3243573129858488
-0.007573028003812123,-0.013902540548576758,-1.320649962004811
-0.007571238003812123,-0.010204315695992958,-1.3169426110237734
-0.007569448003812123,-0.013902540548576758,-1.3169426110237734
-0.007567658003812123,-0.013902540548576758,-1.3169426110237734
-0.007565868003812123,-0.013902540548576758,-1.3169426110237734
-0.007564078003812123,-0.010204315695992958,-1.3243573129858488
-0.007562288003812123,-0.013902540548576758,-1.320649962004811
-0.007560498003812123,-0.017600765401160557,-1.3169426110237734
-0.007558708003812123,-0.017600765401160557,-1.3169426110237734
-0.007556918003812123,-0.013902540548576758,-1.320649962004811
-0.007555128003812123,-0.010204315695992958,-1.3169426110237734
-0.007553338003812123,-0.017600765401160557,-1.320649962004811
-0.007551548003812123,-0.017600765401160557,-1.3169426110237734
-0.007549758003812123,-0.013902540548576758,-1.3243573129858488
-0.007547968003812123,-0.017600765401160557,-1.320649962004811
-0.007546178003812123,-0.021298990253744356,-1.3169426110237734
-0.007544388003812123,-0.017600765401160557,-1.3243573129858488
-0.007542598003812123,-0.013902540548576758,-1.3169426110237734
-0.007540808003812123,-0.017600765401160557,-1.320649962004811
-0.007539018003812123,-0.017600765401160557,-1.320649962004811
-0.007537228003812123,-0.021298990253744356,-1.3169426110237734
-0.007535438003812123,-0.021298990253744356,-1.3169426110237734
-0.007533648003812123,-0.017600765401160557,-1.320649962004811
-0.007531858003812123,-0.021298990253744356,-1.320649962004811
-0.007530068003812123,-0.021298990253744356,-1.320649962004811
-0.007528278003812123,-0.013902540548576758,-1.3169426110237734
-0.007526488003812123,-0.024997215106328158,-1.320649962004811
-0.007524698003812123,-0.017600765401160557,-1.320649962004811
-0.007522908003812123,-0.021298990253742673,-1.3169426110237752
-0.007521118003812123,-0.021298990253744356,-1.3169426110237734
-0.007519328003812123,-0.021298990253744356,-1.320649962004811
-0.007517538003812123,-0.013902540548576758,-1.320649962004811
-0.007515748003812123,-0.013902540548576758,-1.320649962004811
-0.007513958003812123,-0.024997215106328158,-1.320649962004811
-0.007512168003812123,-0.017600765401160557,-1.320649962004811
-0.007510378003812123,-0.021298990253744356,-1.3169426110237734
-0.0075085880038121226,-0.021298990253744356,-1.320649962004811
-0.007506798003812123,-0.021298990253744356,-1.320649962004811
-0.007505008003812123,-0.024997215106328158,-1.3169426110237734
-0.007503218003812123,-0.021298990253744356,-1.3169426110237734
-0.007501428003812123,-0.017600765401160557,-1.320649962004811
-0.007499638003812123,-0.021298990253744356,-1.320649962004811
-0.007497848003812123,-0.021298990253744356,-1.3243573129858488
-0.007496058003812123,-0.017600765401160557,-1.3169426110237734
-0.007494268003812123,-0.021298990253744356,-1.3169426110237734
-0.007492478003812123,-0.024997215106328158,-1.3132352600427357
-0.007490688003812123,-0.024997215106328158,-1.3169426110237734
-0.007488898003812123,-0.024997215106328158,-1.320649962004811
-0.007487108003812123,-0.028695439958911956,-1.3169426110237734
-0.007485318003812123,-0.021298990253744356,-1.3169426110237734
-0.007483528003812123,-0.024997215106328158,-1.320649962004811
-0.007481738003812123,-0.017600765401160557,-1.320649962004811
-0.007479948003812123,-0.021298990253744356,-1.3169426110237734
-0.007478158003812123,-0.024997215106328158,-1.320649962004811
-0.007476368003812123,-0.028695439958911956,-1.3169426110237734
-0.007474578003812123,-0.028695439958911956,-1.3132352600427357
-0.007472788003812123,-0.021298990253744356,-1.320649962004811
-0.007470998003812123,-0.024997215106328158,-1.320649962004811
-0.007469208003812123,-0.024997215106328158,-1.320649962004811
-0.007467418003812123,-0.032393664811495755,-1.320649962004811
-0.007465628003812123,-0.028695439958911956,-1.3169426110237734
-0.007463838003812123,-0.024997215106328158,-1.3169426110237734
-0.007462048003812123,-0.028695439958911956,-1.3169426110237734
-0.007460258003812123,-0.028695439958911956,-1.3169426110237734
-0.007458468003812123,-0.028695439958911956,-1.320649962004811
-0.007456678003812123,-0.03609188966407956,-1.3169426110237734
-0.007454888003812123,-0.03609188966407956,-1.320649962004811
-0.007453098003812123,-0.032393664811495755,-1.320649962004811
-0.007451308003812123,-0.028695439958911956,-1.3169426110237734
-0.007449518003812123,-0.028695439958911956,-1.3169426110237734
-0.007447728003812123,-0.028695439958911956,-1.320649962004811
-0.007445938003812123,-0.02499721510632984,-1.3169426110237752
-0.007444148003812123,-0.032393664811495755,-1.3169426110237734
-0.007442358003812123,-0.028695439958911956,-1.3169426110237734
-0.007440568003812123,-0.028695439958911956,-1.3169426110237734
-0.0074387780038121225,-0.03609188966407956,-1.324357312985847
-0.007436988003812123,-0.03609188966407956,-1.320649962004811
-0.007435198003812123,-0.03609188966407956,-1.3132352600427357
-0.007433408003812123,-0.032393664811495755,-1.3169426110237734
-0.007431618003812123,-0.032393664811495755,-1.320649962004811
-0.007429828003812123,-0.028695439958911956,-1.320649962004811
-0.007428038003812123,-0.032393664811495755,-1.320649962004811
-0.007426248003812123,-0.028695439958911956,-1.3169426110237734
-0.007424458003812123,-0.028695439958911956,-1.3132352600427357
-0.007422668003812123,-0.032393664811495755,-1.3169426110237734
-0.007420878003812123,-0.032393664811495755,-1.320649962004811
-0.007419088003812123,-0.032393664811495755,-1.3132352600427357
-0.007417298003812123,-0.032393664811495755,-1.3169426110237734
-0.007415508003812123,-0.03609188966407956,-1.3169426110237734
-0.007413718003812123,-0.032393664811495755,-1.3169426110237734
-0.007411928003812123,-0.03609188966407956,-1.3169426110237734
-0.007410138003812123,-0.03609188966407956,-1.3169426110237734
-0.007408348003812123,-0.03609188966407956,-1.3169426110237734
-0.007406558003812123,-0.03609188966407956,-1.320649962004811
-0.007404768003812123,-0.032393664811495755,-1.3169426110237734
-0.007402978003812123,-0.03609188966407956,-1.3169426110237734
-0.007401188003812123,-0.03609188966407956,-1.3132352600427357
-0.007399398003812123,-0.03979011451666335,-1.3132352600427357
-0.007397608003812123,-0.03979011451666335,-1.3132352600427357
-0.007395818003812123,-0.03609188966407956,-1.3132352600427357
-0.007394028003812123,-0.03979011451666335,-1.309527909061698
-0.007392238003812123,-0.03979011451666335,-1.309527909061698
-0.007390448003812123,-0.03979011451666335,-1.3169426110237734
-0.007388658003812123,-0.043488339369247155,-1.320649962004811
-0.007386868003812123,-0.03979011451666335,-1.320649962004811
-0.007385078003812123,-0.03979011451666335,-1.320649962004811
-0.007383288003812123,-0.032393664811495755,-1.3169426110237734
-0.007381498003812123,-0.03609188966407956,-1.3132352600427357
-0.007379708003812123,-0.03979011451666335,-1.3169426110237734
-0.007377918003812123,-0.043488339369247155,-1.3169426110237734
-0.007376128003812123,-0.03609188966407956,-1.3132352600427357
-0.007374338003812123,-0.03979011451666335,-1.3169426110237734
-0.007372548003812123,-0.03609188966407956,-1.3169426110237734
-0.007370758003812123,-0.03979011451666335,-1.3169426110237734
-0.007368968003812123,-0.043488339369245475,-1.3206499620048093
-0.007367178003812123,-0.03979011451666335,-1.3169426110237734
-0.007365388003812123,-0.03979011451666335,-1.320649962004811
-0.007363598003812123,-0.03979011451666335,-1.3169426110237734
-0.0073618080038121226,-0.043488339369247155,-1.3132352600427357
-0.007360018003812123,-0.043488339369247155,-1.3132352600427357
-0.007358228003812123,-0.03979011451666335,-1.3132352600427357
-0.007356438003812123,-0.03979011451666335,-1.3169426110237734
-0.007354648003812123,-0.03979011451666335,-1.3169426110237734
-0.007352858003812123,-0.043488339369247155,-1.3169426110237734
-0.007351068003812123,-0.03979011451666335,-1.3169426110237734
-0.007349278003812123,-0.043488339369247155,-1.3169426110237734
-0.007347488003812123,-0.043488339369247155,-1.3169426110237734
-0.007345698003812123,-0.03979011451666335,-1.320649962004811
-0.007343908003812123,-0.03979011451666335,-1.320649962004811
-0.007342118003812123,-0.043488339369247155,-1.320649962004811
-0.007340328003812123,-0.04718656422183096,-1.3132352600427357
-0.007338538003812123,-0.043488339369247155,-1.320649962004811
-0.007336748003812123,-0.04718656422183096,-1.3132352600427357
-0.007334958003812123,-0.04718656422183096,-1.3169426110237734
-0.007333168003812123,-0.04718656422183096,-1.3169426110237734
-0.007331378003812123,-0.043488339369247155,-1.3132352600427357
-0.007329588003812123,-0.04718656422183096,-1.3169426110237734
-0.007327798003812123,-0.04718656422183096,-1.3132352600427357
-0.007326008003812123,-0.05088478907441475,-1.3169426110237734
-0.007324218003812123,-0.043488339369247155,-1.320649962004811
-0.007322428003812123,-0.04718656422183096,-1.320649962004811
-0.007320638003812123,-0.043488339369247155,-1.3169426110237734
-0.007318848003812123,-0.04718656422183096,-1.3169426110237734
-0.007317058003812123,-0.05088478907441475,-1.3169426110237734
-0.007315268003812123,-0.04718656422183096,-1.3132352600427357
-0.007313478003812123,-0.04718656422183096,-1.3169426110237734
-0.007311688003812123,-0.04718656422183096,-1.3132352600427357
-0.007309898003812123,-0.05088478907441475,-1.320649962004811
-0.007308108003812123,-0.04718656422183096,-1.3169426110237734
-0.007306318003812123,-0.04718656422183096,-1.320649962004811
-0.007304528003812123,-0.04718656422183096,-1.3169426110237734
-0.007302738003812123,-0.05088478907441475,-1.3169426110237734
-0.007300948003812123,-0.05088478907441475,-1.320649962004811
-0.007299158003812123,-0.05088478907441475,-1.313235260042739
-0.007297368003812123,-0.04718656422183096,-1.3169426110237734
-0.007295578003812123,-0.04718656422183096,-1.3169426110237734
-0.007293788003812123,-0.04718656422183096,-1.3169426110237734
-0.0072919980038121225,-0.04718656422183096,-1.3169426110237752
-0.007290208003812123,-0.04718656422183096,-1.320649962004811
-0.007288418003812123,-0.05088478907441475,-1.3169426110237734
-0.007286628003812123,-0.05088478907441475,-1.3169426110237734
-0.007284838003812123,-0.047186564221832636,-1.313235260042739
-0.007283048003812123,-0.05088478907441475,-1.320649962004811
-0.007281258003812123,-0.054583013926998554,-1.3169426110237734
-0.007279468003812123,-0.054583013926998554,-1.3132352600427357
-0.007277678003812123,-0.05088478907441475,-1.3132352600427357
-0.007275888003812123,-0.04718656422183096,-1.3169426110237734
-0.007274098003812123,-0.05088478907441475,-1.3169426110237734
-0.007272308003812123,-0.04718656422183096,-1.3169426110237734
-0.007270518003812123,-0.05088478907441475,-1.3169426110237734
-0.007268728003812123,-0.054583013926998554,-1.320649962004811
-0.007266938003812123,-0.05088478907441475,-1.320649962004811
-0.007265148003812123,-0.054583013926998554,-1.3169426110237734
-0.007263358003812123,-0.04718656422183096,-1.320649962004811
-0.007261568003812123,-0.05828123877958235,-1.3169426110237734
-0.007259778003812123,-0.05828123877958235,-1.3169426110237734
-0.007257988003812123,-0.054583013926998554,-1.3132352600427357
-0.007256198003812123,-0.054583013926998554,-1.3169426110237734
-0.007254408003812123,-0.05828123877958235,-1.3169426110237734
-0.007252618003812123,-0.054583013926998554,-1.3169426110237734
-0.007250828003812123,-0.05088478907441475,-1.3169426110237734
-0.007249038003812123,-0.05828123877958235,-1.320649962004811
-0.007247248003812123,-0.054583013926998554,-1.320649962004811
-0.007245458003812123,-0.054583013926998554,-1.3243573129858488
-0.007243668003812123,-0.05088478907441475,-1.3243573129858488
-0.007241878003812123,-0.05088478907441475,-1.320649962004811
-0.007240088003812123,-0.054583013926998554,-1.3169426110237734
-0.007238298003812123,-0.054583013926998554,-1.3169426110237734
-0.007236508003812123,-0.05828123877958235,-1.3169426110237734
-0.007234718003812123,-0.054583013926998554,-1.3169426110237734
-0.007232928003812123,-0.05828123877958235,-1.3132352600427357
-0.007231138003812123,-0.06567768848474995,-1.3243573129858488
-0.007229348003812123,-0.05828123877958235,-1.3169426110237734
-0.007227558003812123,-0.05828123877958235,-1.320649962004811
-0.007225768003812123,-0.05828123877958235,-1.320649962004811
-0.007223978003812123,-0.054583013926998554,-1.3169426110237734
-0.007222188003812123,-0.054583013926998554,-1.3169426110237734
-0.007220398003812123,-0.06197946363216615,-1.3169426110237734
-0.007218608003812123,-0.06197946363216615,-1.3169426110237734
-0.007216818003812123,-0.05828123877958235,-1.320649962004811
-0.0072150280038121226,-0.05828123877958235,-1.3169426110237752
-0.007213238003812123,-0.05828123877958235,-1.320649962004811
-0.007211448003812123,-0.05828123877958235,-1.320649962004811
-0.007209658003812123,-0.06197946363216615,-1.3169426110237734
-0.007207868003812123,-0.06197946363216615,-1.320649962004811
-0.007206078003812123,-0.06567768848474995,-1.320649962004811
-0.007204288003812123,-0.06197946363216615,-1.320649962004811
-0.007202498003812123,-0.05828123877958235,-1.320649962004811
-0.007200708003812123,-0.05828123877958235,-1.320649962004811
-0.007198918003812123,-0.06197946363216615,-1.320649962004811
-0.007197128003812123,-0.06567768848474995,-1.320649962004811
-0.007195338003812123,-0.06567768848474995,-1.320649962004811
-0.007193548003812123,-0.06197946363216615,-1.3169426110237734
-0.007191758003812123,-0.06197946363216615,-1.3169426110237734
-0.007189968003812123,-0.05828123877958235,-1.320649962004811
