100Hz/acq0037.csv

#Digilent WaveForms Oscilloscope Acquisition
#Device Name: Discovery2
#Serial Number: SN:210321AA28BE
#Date Time: 2023-05-24 14:48:31.298
#Sample rate: 558659Hz
#Samples: 8192
#Trigger: Source: Channel 1 Type: Edge Condition: Rising Level: 800 mV Hyst.: Auto HoldOff: 100 ns
#Channel 1: Range: 1 V/div Offset: 0 V Attenuation: 1 X Sample Mode: Average
#Channel 2: Range: 1 V/div Offset: 0 V Attenuation: 1 X Sample Mode: Average

Time (s),Channel 1 (V),Channel 2 (V)
-0.007741163466424729,0.06745840620826683,-1.3243573129858488
-0.0077393734664247295,0.06745840620826683,-1.3169426110237767
-0.007737583466424729,0.06376018135568304,-1.3243573129858488
-0.007735793466424729,0.06745840620826683,-1.3169426110237734
-0.007734003466424729,0.07115663106085063,-1.3169426110237734
-0.007732213466424729,0.07485485591343276,-1.3169426110237752
-0.007730423466424729,0.07115663106085063,-1.320649962004811
-0.007728633466424729,0.07115663106085063,-1.3169426110237734
-0.007726843466424729,0.06745840620826683,-1.3243573129858488
-0.007725053466424729,0.06745840620826683,-1.3243573129858488
-0.007723263466424729,0.06745840620826683,-1.3243573129858488
-0.007721473466424729,0.06376018135568304,-1.320649962004811
-0.007719683466424729,0.06745840620826683,-1.3169426110237734
-0.007717893466424729,0.06745840620826683,-1.3169426110237734
-0.007716103466424729,0.06376018135568304,-1.3243573129858488
-0.007714313466424729,0.06376018135568304,-1.3169426110237734
-0.007712523466424729,0.06376018135568304,-1.320649962004811
-0.007710733466424729,0.06376018135568304,-1.320649962004811
-0.007708943466424729,0.06376018135568304,-1.3132352600427357
-0.007707153466424729,0.06376018135568304,-1.3169426110237734
-0.007705363466424729,0.06006195650309923,-1.320649962004811
-0.007703573466424729,0.06376018135568304,-1.320649962004811
-0.007701783466424729,0.06376018135568304,-1.3169426110237734
-0.007699993466424729,0.06376018135568304,-1.320649962004811
-0.007698203466424729,0.06006195650309923,-1.320649962004811
-0.007696413466424729,0.05636373165051543,-1.320649962004811
-0.007694623466424729,0.06006195650309923,-1.3132352600427357
-0.007692833466424729,0.06006195650309923,-1.3169426110237734
-0.007691043466424729,0.05636373165051543,-1.320649962004811
-0.007689253466424729,0.06376018135568304,-1.320649962004811
-0.007687463466424729,0.06376018135568304,-1.3243573129858488
-0.007685673466424729,0.05636373165051543,-1.320649962004811
-0.007683883466424729,0.06006195650309923,-1.320649962004811
-0.007682093466424729,0.06006195650309923,-1.320649962004811
-0.007680303466424729,0.06006195650309923,-1.3280646639668865
-0.007678513466424729,0.05266550679793163,-1.3169426110237734
-0.0076767234664247294,0.05636373165051543,-1.320649962004811
-0.007674933466424729,0.06006195650309923,-1.320649962004811
-0.007673143466424729,0.05636373165051543,-1.3243573129858488
-0.007671353466424729,0.05636373165051543,-1.320649962004811
-0.0076695634664247295,0.05636373165051543,-1.320649962004811
-0.007667773466424729,0.05636373165051543,-1.320649962004811
-0.007665983466424729,0.05636373165051543,-1.3169426110237734
-0.007664193466424729,0.05266550679793163,-1.320649962004811
-0.007662403466424729,0.05266550679793163,-1.3169426110237752
-0.007660613466424729,0.05266550679793163,-1.320649962004811
-0.007658823466424729,0.06006195650309923,-1.320649962004811
-0.007657033466424729,0.05266550679793163,-1.3169426110237734
-0.007655243466424729,0.048967281945349515,-1.3169426110237752
-0.007653453466424729,0.05266550679793163,-1.320649962004811
-0.007651663466424729,0.048967281945347836,-1.320649962004811
-0.007649873466424729,0.048967281945347836,-1.3243573129858488
-0.007648083466424729,0.05266550679793163,-1.320649962004811
-0.007646293466424729,0.048967281945347836,-1.3169426110237734
-0.007644503466424729,0.048967281945347836,-1.320649962004811
-0.007642713466424729,0.048967281945347836,-1.3243573129858488
-0.007640923466424729,0.045269057092764034,-1.320649962004811
-0.007639133466424729,0.045269057092764034,-1.3243573129858488
-0.007637343466424729,0.048967281945347836,-1.320649962004811
-0.007635553466424729,0.05266550679793163,-1.3243573129858488
-0.007633763466424729,0.048967281945347836,-1.3243573129858488
-0.007631973466424729,0.048967281945347836,-1.320649962004811
-0.007630183466424729,0.06745840620826683,-1.3243573129858488
-0.007628393466424729,0.07485485591343444,-1.3169426110237734
-0.007626603466424729,0.06745840620826683,-1.3169426110237734
-0.007624813466424729,0.06376018135568304,-1.320649962004811
-0.007623023466424729,0.06376018135568304,-1.3169426110237734
-0.007621233466424729,0.05636373165051543,-1.3243573129858488
-0.007619443466424729,0.05266550679793163,-1.3243573129858488
-0.007617653466424729,0.05266550679793163,-1.320649962004811
-0.007615863466424729,0.045269057092764034,-1.320649962004811
-0.007614073466424729,0.04157083224018024,-1.320649962004811
-0.007612283466424729,0.03787260738759644,-1.3169426110237734
-0.007610493466424729,0.03787260738759644,-1.3169426110237734
-0.007608703466424729,0.03787260738759644,-1.320649962004811
-0.0076069134664247294,0.03787260738759644,-1.3169426110237734
-0.007605123466424729,0.045269057092764034,-1.3132352600427357
-0.007603333466424729,0.04157083224018024,-1.3243573129858488
-0.007601543466424729,0.04157083224018024,-1.3169426110237734
-0.0075997534664247295,0.04157083224018024,-1.320649962004811
-0.007597963466424729,0.045269057092764034,-1.320649962004811
-0.007596173466424729,0.048967281945347836,-1.3169426110237734
-0.007594383466424729,0.04157083224018024,-1.320649962004811
-0.0075925934664247295,0.037872607387598116,-1.320649962004811
-0.007590803466424729,0.03787260738759644,-1.320649962004811
-0.007589013466424729,0.03787260738759644,-1.3169426110237734
-0.007587223466424729,0.03787260738759644,-1.320649962004811
-0.007585433466424729,0.034174382535016,-1.320649962004811
-0.007583643466424729,0.04157083224018024,-1.320649962004811
-0.007581853466424729,0.03787260738759644,-1.320649962004811
-0.007580063466424729,0.04157083224018024,-1.320649962004811
-0.007578273466424729,0.03787260738759644,-1.3169426110237734
-0.007576483466424729,0.03787260738759644,-1.320649962004811
-0.007574693466424729,0.03787260738759644,-1.3169426110237734
-0.007572903466424729,0.034174382535012635,-1.3169426110237734
-0.007571113466424729,0.03047615768242884,-1.320649962004811
-0.007569323466424729,0.03787260738759644,-1.3169426110237734
-0.007567533466424729,0.034174382535012635,-1.320649962004811
-0.007565743466424729,0.034174382535012635,-1.3169426110237734
-0.007563953466424729,0.034174382535012635,-1.3169426110237734
-0.007562163466424729,0.034174382535012635,-1.3169426110237734
-0.007560373466424729,0.034174382535012635,-1.320649962004811
-0.007558583466424729,0.034174382535012635,-1.3243573129858488
-0.007556793466424729,0.034174382535012635,-1.3243573129858488
-0.007555003466424729,0.034174382535012635,-1.320649962004811
-0.007553213466424729,0.034174382535012635,-1.3169426110237734
-0.007551423466424729,0.034174382535012635,-1.320649962004811
-0.007549633466424729,0.03787260738759644,-1.320649962004811
-0.007547843466424729,0.03787260738759644,-1.3169426110237734
-0.007546053466424729,0.03047615768242884,-1.3169426110237734
-0.007544263466424729,0.034174382535012635,-1.320649962004811
-0.007542473466424729,0.03047615768242884,-1.320649962004811
-0.007540683466424729,0.03047615768242884,-1.3169426110237734
-0.007538893466424729,0.03047615768242884,-1.320649962004811
-0.007537103466424729,0.026777932829845037,-1.320649962004811
-0.007535313466424729,0.03047615768242884,-1.320649962004811
-0.007533523466424729,0.034174382535012635,-1.320649962004811
-0.007531733466424729,0.03047615768242884,-1.3169426110237734
-0.0075299434664247294,0.026777932829845037,-1.3169426110237734
-0.007528153466424729,0.026777932829845037,-1.320649962004811
-0.007526363466424729,0.026777932829845037,-1.3169426110237734
-0.007524573466424729,0.03047615768242884,-1.320649962004811
-0.0075227834664247295,0.02677793282984672,-1.320649962004811
-0.007520993466424729,0.03047615768242884,-1.3243573129858488
-0.007519203466424729,0.03047615768242884,-1.3169426110237734
-0.007517413466424729,0.03047615768242884,-1.3169426110237734
-0.0075156234664247295,0.03047615768242884,-1.3169426110237734
-0.007513833466424729,0.02307970797726124,-1.3169426110237734
-0.007512043466424729,0.026777932829845037,-1.3132352600427357
-0.007510253466424729,0.02307970797726124,-1.320649962004811
-0.007508463466424729,0.030476157682427157,-1.3169426110237734
-0.007506673466424729,0.026777932829845037,-1.3169426110237734
-0.007504883466424729,0.026777932829845037,-1.320649962004811
-0.007503093466424729,0.03047615768242884,-1.320649962004811
-0.007501303466424729,0.03047615768242884,-1.320649962004811
-0.007499513466424729,0.034174382535012635,-1.320649962004811
-0.007497723466424729,0.03047615768242884,-1.3169426110237734
-0.007495933466424729,0.026777932829845037,-1.3169426110237734
-0.007494143466424729,0.02307970797726124,-1.320649962004811
-0.007492353466424729,0.026777932829845037,-1.320649962004811
-0.007490563466424729,0.026777932829845037,-1.3243573129858488
-0.007488773466424729,0.02307970797726124,-1.320649962004811
-0.007486983466424729,0.02307970797726124,-1.3169426110237734
-0.007485193466424729,0.02307970797726124,-1.3169426110237734
-0.007483403466424729,0.026777932829845037,-1.3169426110237734
-0.007481613466424729,0.026777932829845037,-1.320649962004811
-0.007479823466424729,0.01938148312467744,-1.3169426110237734
-0.007478033466424729,0.01938148312467744,-1.320649962004811
-0.007476243466424729,0.02307970797726124,-1.320649962004811
-0.007474453466424729,0.01938148312467744,-1.3169426110237734
-0.007472663466424729,0.01938148312467744,-1.3169426110237734
-0.007470873466424729,0.02307970797726124,-1.3169426110237734
-0.007469083466424729,0.02307970797726124,-1.3169426110237734
-0.007467293466424729,0.02307970797726124,-1.320649962004811
-0.007465503466424729,0.026777932829845037,-1.320649962004811
-0.007463713466424729,0.026777932829845037,-1.320649962004811
-0.007461923466424729,0.01938148312467744,-1.320649962004811
-0.0074601334664247294,0.01938148312467744,-1.3169426110237734
-0.007458343466424729,0.01938148312467744,-1.3132352600427357
-0.007456553466424729,0.026777932829845037,-1.3169426110237734
-0.007454763466424729,0.03047615768242884,-1.320649962004811
-0.0074529734664247295,0.02307970797726124,-1.320649962004811
-0.007451183466424729,0.03047615768242884,-1.3169426110237734
-0.007449393466424729,0.02307970797726124,-1.3169426110237734
-0.007447603466424729,0.02307970797726124,-1.320649962004811
-0.0074458134664247295,0.02307970797726124,-1.313235260042739
-0.007444023466424729,0.01938148312467744,-1.3169426110237734
-0.007442233466424729,0.01938148312467744,-1.320649962004811
-0.007440443466424729,0.01938148312467744,-1.3243573129858488
-0.007438653466424729,0.019381483124679123,-1.320649962004811
-0.007436863466424729,0.02307970797726124,-1.320649962004811
-0.007435073466424729,0.01938148312467744,-1.320649962004811
-0.007433283466424729,0.015683258272093638,-1.320649962004811
-0.007431493466424729,0.02307970797726124,-1.3169426110237734
-0.007429703466424729,0.02307970797726124,-1.3169426110237734
-0.007427913466424729,0.015683258272093638,-1.3132352600427357
-0.007426123466424729,0.01938148312467744,-1.3169426110237734
-0.007424333466424729,0.01938148312467744,-1.320649962004811
-0.007422543466424729,0.015683258272093638,-1.320649962004811
-0.007420753466424729,0.015683258272093638,-1.3132352600427357
-0.007418963466424729,0.015683258272093638,-1.320649962004811
-0.007417173466424729,0.015683258272093638,-1.320649962004811
-0.007415383466424729,0.01198503341950984,-1.3169426110237734
-0.007413593466424729,0.01198503341950984,-1.3243573129858488
-0.007411803466424729,0.01198503341950984,-1.3169426110237734
-0.007410013466424729,0.00828680856692604,-1.3169426110237734
-0.007408223466424729,0.00828680856692604,-1.3169426110237734
-0.007406433466424729,0.015683258272093638,-1.3169426110237734
-0.007404643466424729,0.015683258272093638,-1.320649962004811
-0.007402853466424729,0.015683258272093638,-1.320649962004811
-0.007401063466424729,0.015683258272093638,-1.3243573129858488
-0.007399273466424729,0.015683258272093638,-1.320649962004811
-0.007397483466424729,0.01198503341950984,-1.320649962004811
-0.007395693466424729,0.015683258272093638,-1.3169426110237734
-0.007393903466424729,0.015683258272093638,-1.3132352600427357
-0.007392113466424729,0.015683258272093638,-1.3169426110237734
-0.007390323466424729,0.01198503341950984,-1.3169426110237734
-0.007388533466424729,0.01198503341950984,-1.3169426110237734
-0.007386743466424729,0.01198503341950984,-1.3132352600427357
-0.007384953466424729,0.01198503341950984,-1.3169426110237734
-0.0073831634664247294,0.015683258272093638,-1.320649962004811
-0.007381373466424729,0.01198503341950984,-1.320649962004811
-0.007379583466424729,0.01198503341950984,-1.3243573129858488
-0.007377793466424729,0.00828680856692604,-1.320649962004811
-0.0073760034664247295,0.00828680856692604,-1.3169426110237734
-0.007374213466424729,0.01198503341950984,-1.3132352600427357
-0.007372423466424729,0.00828680856692604,-1.320649962004811
-0.007370633466424729,0.01198503341950984,-1.320649962004811
-0.0073688434664247295,0.01198503341950984,-1.3169426110237752
-0.007367053466424729,0.00458858371434224,-1.3169426110237734
-0.007365263466424729,0.00828680856692604,-1.3169426110237734
-0.007363473466424729,0.00828680856692604,-1.3169426110237734
-0.007361683466424729,0.00828680856692604,-1.3169426110237752
-0.007359893466424729,0.00828680856692604,-1.320649962004811
-0.007358103466424729,0.01198503341950984,-1.320649962004811
-0.007356313466424729,0.00458858371434224,-1.320649962004811
-0.007354523466424729,0.0008903588617584406,-1.320649962004811
-0.007352733466424729,0.0008903588617584406,-1.320649962004811
-0.007350943466424729,0.00828680856692604,-1.3169426110237734
-0.007349153466424729,0.00828680856692604,-1.320649962004811
-0.007347363466424729,0.00828680856692604,-1.320649962004811
-0.007345573466424729,0.00828680856692604,-1.3169426110237734
-0.007343783466424729,0.00458858371434224,-1.320649962004811
-0.007341993466424729,0.00828680856692604,-1.320649962004811
-0.007340203466424729,0.00458858371434224,-1.320649962004811
-0.007338413466424729,0.00458858371434224,-1.3169426110237734
-0.007336623466424729,0.00458858371434224,-1.320649962004811
-0.007334833466424729,0.00458858371434224,-1.3243573129858488
-0.007333043466424729,0.00458858371434224,-1.3169426110237734
-0.007331253466424729,0.00458858371434224,-1.320649962004811
-0.007329463466424729,0.00828680856692604,-1.3243573129858488
-0.007327673466424729,0.00828680856692604,-1.3243573129858488
-0.007325883466424729,0.00458858371434224,-1.320649962004811
-0.007324093466424729,0.00458858371434224,-1.320649962004811
-0.007322303466424729,0.0008903588617584406,-1.3169426110237734
-0.007320513466424729,0.0008903588617584406,-1.3169426110237734
-0.007318723466424729,0.00458858371434224,-1.3169426110237734
-0.007316933466424729,-0.002807865990825359,-1.320649962004811
-0.007315143466424729,-0.002807865990825359,-1.320649962004811
-0.0073133534664247294,0.0008903588617584406,-1.3243573129858488
-0.007311563466424729,0.00458858371434224,-1.320649962004811
-0.007309773466424729,0.0008903588617584406,-1.320649962004811
-0.007307983466424729,-0.0065060908434091584,-1.3169426110237734
-0.0073061934664247295,0.0008903588617584406,-1.320649962004811
-0.007304403466424729,0.0008903588617584406,-1.3169426110237734
-0.007302613466424729,-0.002807865990825359,-1.320649962004811
-0.007300823466424729,0.0008903588617584406,-1.320649962004811
-0.0072990334664247295,0.0008903588617584406,-1.320649962004811
-0.007297243466424729,0.00458858371434224,-1.320649962004811
-0.007295453466424729,0.0008903588617584406,-1.3169426110237734
-0.007293663466424729,-0.002807865990825359,-1.320649962004811
-0.007291873466424729,0.004588583714340558,-1.3169426110237752
-0.007290083466424729,0.0008903588617584406,-1.320649962004811
-0.007288293466424729,-0.002807865990825359,-1.320649962004811
-0.007286503466424729,-0.010204315695992958,-1.320649962004811
-0.007284713466424729,-0.002807865990825359,-1.3206499620048093
-0.007282923466424729,-0.002807865990825359,-1.3169426110237734
-0.007281133466424729,-0.0065060908434091584,-1.3169426110237734
-0.007279343466424729,0.0008903588617584406,-1.3169426110237734
-0.007277553466424729,-0.002807865990825359,-1.320649962004811
-0.007275763466424729,-0.010204315695992958,-1.3169426110237734
-0.007273973466424729,0.0008903588617584406,-1.3169426110237734
-0.007272183466424729,0.0008903588617584406,-1.320649962004811
-0.007270393466424729,-0.0065060908434091584,-1.3243573129858488
-0.007268603466424729,-0.002807865990825359,-1.320649962004811
-0.007266813466424729,-0.0065060908434091584,-1.3243573129858488
-0.007265023466424729,-0.002807865990825359,-1.320649962004811
-0.007263233466424729,-0.0065060908434091584,-1.320649962004811
-0.007261443466424729,-0.0065060908434091584,-1.3169426110237734
-0.007259653466424729,-0.0065060908434091584,-1.3169426110237734
-0.007257863466424729,-0.0065060908434091584,-1.3169426110237734
-0.007256073466424729,-0.0065060908434091584,-1.320649962004811
-0.007254283466424729,-0.0065060908434091584,-1.320649962004811
-0.007252493466424729,-0.0065060908434091584,-1.320649962004811
-0.007250703466424729,-0.002807865990825359,-1.320649962004811
-0.007248913466424729,-0.002807865990825359,-1.320649962004811
-0.007247123466424729,-0.0065060908434091584,-1.320649962004811
-0.007245333466424729,-0.002807865990825359,-1.320649962004811
-0.007243543466424729,-0.013902540548576758,-1.320649962004811
-0.007241753466424729,-0.013902540548576758,-1.3169426110237734
-0.007239963466424729,-0.010204315695992958,-1.3169426110237734
-0.007238173466424729,-0.0065060908434091584,-1.320649962004811
-0.0072363834664247294,-0.010204315695992958,-1.320649962004811
-0.007234593466424729,-0.010204315695992958,-1.320649962004811
-0.007232803466424729,-0.0065060908434091584,-1.320649962004811
-0.007231013466424729,-0.002807865990825359,-1.3169426110237734
-0.0072292234664247295,-0.002807865990825359,-1.320649962004811
-0.007227433466424729,-0.002807865990825359,-1.3132352600427357
-0.007225643466424729,0.0008903588617584406,-1.3243573129858488
-0.007223853466424729,-0.002807865990825359,-1.320649962004811
-0.0072220634664247295,-0.006506090843407477,-1.320649962004811
-0.007220273466424729,-0.0065060908434091584,-1.320649962004811
-0.007218483466424729,-0.010204315695992958,-1.320649962004811
-0.007216693466424729,-0.0065060908434091584,-1.320649962004811
-0.007214903466424729,-0.010204315695992958,-1.3206499620048093
-0.007213113466424729,-0.010204315695992958,-1.3169426110237734
-0.007211323466424729,-0.0065060908434091584,-1.3243573129858488
-0.007209533466424729,-0.013902540548576758,-1.3169426110237734
-0.007207743466424729,-0.013902540548576758,-1.320649962004811
-0.007205953466424729,-0.013902540548576758,-1.3132352600427357
-0.007204163466424729,-0.010204315695992958,-1.3169426110237734
-0.007202373466424729,-0.010204315695992958,-1.320649962004811
-0.007200583466424729,-0.013902540548576758,-1.320649962004811
-0.007198793466424729,-0.010204315695992958,-1.320649962004811
-0.007197003466424729,-0.013902540548576758,-1.320649962004811
-0.007195213466424729,-0.013902540548576758,-1.3169426110237734
-0.007193423466424729,-0.013902540548576758,-1.3169426110237734
-0.007191633466424729,-0.013902540548576758,-1.3169426110237734
-0.007189843466424729,-0.013902540548576758,-1.320649962004811
-0.007188053466424729,-0.010204315695992958,-1.3243573129858488
-0.007186263466424729,-0.013902540548576758,-1.320649962004811
-0.007184473466424729,-0.010204315695992958,-1.320649962004811
-0.007182683466424729,-0.0065060908434091584,-1.3169426110237734
