100Hz/acq0061.csv

#Digilent WaveForms Oscilloscope Acquisition
#Device Name: Discovery2
#Serial Number: SN:210321AA28BE
#Date Time: 2023-05-24 14:48:31.999
#Sample rate: 558659Hz
#Samples: 8192
#Trigger: Source: Channel 1 Type: Edge Condition: Rising Level: 800 mV Hyst.: Auto HoldOff: 100 ns
#Channel 1: Range: 1 V/div Offset: 0 V Attenuation: 1 X Sample Mode: Average
#Channel 2: Range: 1 V/div Offset: 0 V Attenuation: 1 X Sample Mode: Average

Time (s),Channel 1 (V),Channel 2 (V)
-0.0077426910960775586,0.01938148312467744,-1.3132352600427357
-0.007740901096077559,0.023079707977259556,-1.3169426110237716
-0.007739111096077558,0.01938148312467744,-1.3169426110237734
-0.007737321096077558,0.015683258272093638,-1.320649962004811
-0.007735531096077559,0.01938148312467744,-1.3169426110237734
-0.007733741096077558,0.019381483124679123,-1.320649962004811
-0.007731951096077558,0.02307970797726124,-1.320649962004811
-0.007730161096077558,0.01938148312467744,-1.3169426110237734
-0.007728371096077559,0.01198503341950984,-1.320649962004811
-0.007726581096077558,0.00828680856692604,-1.3169426110237734
-0.007724791096077558,0.026777932829845037,-1.3243573129858488
-0.007723001096077558,0.015683258272093638,-1.3169426110237734
-0.007721211096077559,0.01198503341950984,-1.320649962004811
-0.007719421096077558,0.015683258272093638,-1.3169426110237734
-0.007717631096077558,0.01938148312467744,-1.3169426110237734
-0.007715841096077558,0.015683258272093638,-1.320649962004811
-0.007714051096077559,0.015683258272093638,-1.3169426110237734
-0.007712261096077558,0.01198503341950984,-1.320649962004811
-0.007710471096077558,0.01198503341950984,-1.320649962004811
-0.0077086810960775584,0.015683258272093638,-1.320649962004811
-0.007706891096077559,0.01198503341950984,-1.3169426110237734
-0.007705101096077558,0.01198503341950984,-1.3169426110237734
-0.007703311096077558,0.015683258272093638,-1.3132352600427357
-0.0077015210960775585,0.01198503341950984,-1.3169426110237734
-0.007699731096077559,0.015683258272093638,-1.3132352600427357
-0.007697941096077558,0.01198503341950984,-1.3169426110237734
-0.007696151096077558,0.01198503341950984,-1.3169426110237734
-0.0076943610960775585,0.01198503341950984,-1.3169426110237734
-0.007692571096077559,0.00828680856692604,-1.320649962004811
-0.007690781096077558,0.00828680856692604,-1.320649962004811
-0.007688991096077558,0.00828680856692604,-1.3243573129858488
-0.0076872010960775585,0.015683258272093638,-1.3132352600427357
-0.007685411096077559,0.01198503341950984,-1.3169426110237734
-0.007683621096077558,0.00828680856692604,-1.3169426110237734
-0.007681831096077558,0.00828680856692604,-1.3169426110237734
-0.0076800410960775585,0.00828680856692604,-1.3169426110237734
-0.007678251096077559,0.00828680856692604,-1.3243573129858488
-0.007676461096077558,0.00458858371434224,-1.320649962004811
-0.007674671096077558,0.00458858371434224,-1.3169426110237734
-0.0076728810960775586,0.00828680856692604,-1.320649962004811
-0.007671091096077559,0.011985033419508156,-1.320649962004811
-0.007669301096077558,0.00828680856692604,-1.3169426110237734
-0.007667511096077558,0.0008903588617584406,-1.3132352600427357
-0.007665721096077559,0.0008903588617584406,-1.3169426110237734
-0.007663931096077558,0.0008903588617584406,-1.3169426110237734
-0.007662141096077558,0.0008903588617584406,-1.3169426110237734
-0.007660351096077558,0.00458858371434224,-1.3169426110237734
-0.007658561096077559,0.00828680856692604,-1.3132352600427357
-0.007656771096077558,0.00828680856692604,-1.3169426110237734
-0.007654981096077558,0.00828680856692604,-1.3169426110237734
-0.007653191096077558,0.00828680856692604,-1.3243573129858488
-0.007651401096077559,0.00828680856692604,-1.320649962004811
-0.007649611096077558,0.00828680856692604,-1.320649962004811
-0.007647821096077558,0.00828680856692604,-1.320649962004811
-0.007646031096077558,0.00828680856692604,-1.3169426110237734
-0.007644241096077559,0.00828680856692604,-1.320649962004811
-0.007642451096077558,0.00458858371434224,-1.3169426110237734
-0.007640661096077558,0.00828680856692604,-1.3169426110237734
-0.0076388710960775584,0.00458858371434224,-1.320649962004811
-0.007637081096077559,0.00458858371434224,-1.3169426110237734
-0.007635291096077558,0.0008903588617584406,-1.320649962004811
-0.007633501096077558,-0.002807865990825359,-1.3243573129858488
-0.0076317110960775585,-0.002807865990825359,-1.3169426110237734
-0.007629921096077559,-0.002807865990825359,-1.3169426110237734
-0.007628131096077558,-0.0065060908434091584,-1.3169426110237734
-0.007626341096077558,-0.002807865990825359,-1.3132352600427357
-0.0076245510960775585,-0.002807865990825359,-1.320649962004811
-0.007622761096077559,-0.002807865990825359,-1.320649962004811
-0.007620971096077558,0.00828680856692604,-1.3169426110237734
-0.007619181096077558,0.00458858371434224,-1.3169426110237734
-0.0076173910960775585,-0.002807865990825359,-1.3169426110237734
-0.007615601096077559,-0.002807865990825359,-1.3169426110237734
-0.007613811096077558,-0.002807865990825359,-1.3169426110237734
-0.007612021096077558,-0.002807865990825359,-1.3169426110237734
-0.0076102310960775585,0.0008903588617584406,-1.3132352600427357
-0.007608441096077559,0.0008903588617584406,-1.3169426110237734
-0.007606651096077558,0.0008903588617584406,-1.3169426110237734
-0.007604861096077558,0.0008903588617584406,-1.3132352600427357
-0.0076030710960775585,-0.002807865990825359,-1.320649962004811
-0.007601281096077559,-0.002807865990825359,-1.320649962004811
-0.007599491096077558,-0.002807865990825359,-1.3132352600427357
-0.007597701096077558,-0.0065060908434091584,-1.320649962004811
-0.0075959110960775586,-0.0065060908434091584,-1.3169426110237734
-0.007594121096077559,-0.0065060908434091584,-1.3169426110237734
-0.007592331096077558,-0.0065060908434091584,-1.3169426110237734
-0.007590541096077558,0.0008903588617584406,-1.3169426110237734
-0.007588751096077559,-0.002807865990825359,-1.320649962004811
-0.007586961096077558,-0.0065060908434091584,-1.3206499620048093
-0.007585171096077558,-0.0065060908434091584,-1.3169426110237734
-0.007583381096077558,-0.010204315695992958,-1.3169426110237734
-0.007581591096077559,-0.0065060908434091584,-1.3169426110237734
-0.007579801096077558,-0.013902540548576758,-1.3169426110237734
-0.007578011096077558,-0.010204315695992958,-1.3169426110237734
-0.007576221096077558,-0.0065060908434091584,-1.320649962004811
-0.007574431096077559,-0.010204315695992958,-1.320649962004811
-0.007572641096077558,-0.002807865990825359,-1.3169426110237734
-0.007570851096077558,-0.010204315695992958,-1.3132352600427357
-0.007569061096077558,-0.010204315695992958,-1.3169426110237734
-0.007567271096077559,-0.010204315695992958,-1.3169426110237734
-0.007565481096077558,-0.013902540548576758,-1.320649962004811
-0.007563691096077558,-0.013902540548576758,-1.320649962004811
-0.0075619010960775584,-0.0065060908434091584,-1.320649962004811
-0.007560111096077559,-0.010204315695992958,-1.3169426110237734
-0.007558321096077558,-0.010204315695992958,-1.3169426110237734
-0.007556531096077558,-0.010204315695992958,-1.3169426110237734
-0.0075547410960775585,-0.013902540548576758,-1.3169426110237734
-0.007552951096077559,-0.017600765401160557,-1.320649962004811
-0.007551161096077558,-0.010204315695992958,-1.3243573129858488
-0.007549371096077558,-0.013902540548576758,-1.3169426110237734
-0.0075475810960775585,-0.013902540548576758,-1.320649962004811
-0.007545791096077559,-0.013902540548576758,-1.3169426110237734
-0.007544001096077558,-0.013902540548576758,-1.3169426110237734
-0.007542211096077558,-0.013902540548576758,-1.3169426110237734
-0.0075404210960775585,-0.013902540548576758,-1.3169426110237734
-0.007538631096077559,-0.013902540548576758,-1.320649962004811
-0.007536841096077558,-0.010204315695992958,-1.3243573129858488
-0.007535051096077558,-0.017600765401160557,-1.3169426110237734
-0.0075332610960775585,-0.017600765401160557,-1.3169426110237734
-0.007531471096077559,-0.013902540548576758,-1.3169426110237734
-0.007529681096077558,-0.017600765401160557,-1.3132352600427357
-0.007527891096077558,-0.017600765401160557,-1.3132352600427357
-0.0075261010960775586,-0.017600765401160557,-1.3169426110237734
-0.007524311096077559,-0.021298990253742673,-1.3243573129858455
-0.007522521096077558,-0.017600765401160557,-1.320649962004811
-0.007520731096077558,-0.017600765401160557,-1.320649962004811
-0.007518941096077559,-0.017600765401160557,-1.3243573129858488
-0.007517151096077559,-0.021298990253742673,-1.3169426110237767
-0.007515361096077558,-0.017600765401160557,-1.320649962004811
-0.007513571096077558,-0.017600765401160557,-1.320649962004811
-0.007511781096077559,-0.017600765401160557,-1.3169426110237734
-0.007509991096077558,-0.021298990253740994,-1.3169426110237752
-0.007508201096077558,-0.013902540548576758,-1.320649962004811
-0.007506411096077558,-0.017600765401160557,-1.3169426110237734
-0.007504621096077559,-0.024997215106328158,-1.3169426110237734
-0.007502831096077558,-0.021298990253744356,-1.3132352600427357
-0.007501041096077558,-0.021298990253744356,-1.3169426110237734
-0.007499251096077558,-0.024997215106328158,-1.3132352600427357
-0.007497461096077559,-0.021298990253744356,-1.320649962004811
-0.007495671096077558,-0.032393664811495755,-1.3132352600427357
-0.007493881096077558,-0.028695439958911956,-1.3169426110237734
-0.0074920910960775584,-0.017600765401160557,-1.3169426110237734
-0.007490301096077559,-0.024997215106328158,-1.3132352600427357
-0.007488511096077558,-0.021298990253744356,-1.3169426110237734
-0.007486721096077558,-0.021298990253744356,-1.320649962004811
-0.0074849310960775585,-0.024997215106328158,-1.320649962004811
-0.007483141096077559,-0.021298990253744356,-1.320649962004811
-0.007481351096077558,-0.021298990253744356,-1.320649962004811
-0.007479561096077558,-0.021298990253744356,-1.3169426110237734
-0.0074777710960775585,-0.021298990253744356,-1.320649962004811
-0.007475981096077559,-0.017600765401160557,-1.320649962004811
-0.007474191096077558,-0.024997215106328158,-1.3169426110237734
-0.007472401096077558,-0.024997215106328158,-1.3243573129858488
-0.0074706110960775585,-0.021298990253744356,-1.320649962004811
-0.007468821096077559,-0.028695439958911956,-1.3169426110237734
-0.007467031096077558,-0.024997215106328158,-1.3132352600427357
-0.007465241096077558,-0.024997215106328158,-1.3169426110237734
-0.0074634510960775585,-0.024997215106328158,-1.3169426110237734
-0.007461661096077559,-0.021298990253744356,-1.3169426110237734
-0.007459871096077558,-0.021298990253744356,-1.3169426110237734
-0.007458081096077558,-0.021298990253744356,-1.3169426110237734
-0.0074562910960775585,-0.021298990253744356,-1.3169426110237734
-0.007454501096077559,-0.028695439958911956,-1.320649962004811
-0.007452711096077558,-0.024997215106328158,-1.3132352600427357
-0.007450921096077558,-0.021298990253744356,-1.320649962004811
-0.0074491310960775586,-0.024997215106328158,-1.3169426110237734
-0.007447341096077559,-0.024997215106328158,-1.3169426110237734
-0.007445551096077558,-0.021298990253744356,-1.3169426110237734
-0.007443761096077558,-0.024997215106328158,-1.3169426110237734
-0.007441971096077559,-0.021298990253744356,-1.320649962004811
-0.007440181096077558,-0.02499721510633152,-1.3169426110237734
-0.007438391096077558,-0.032393664811495755,-1.3169426110237734
-0.007436601096077558,-0.028695439958911956,-1.3169426110237734
-0.007434811096077559,-0.024997215106328158,-1.3169426110237734
-0.007433021096077558,-0.028695439958911956,-1.320649962004811
-0.007431231096077558,-0.028695439958911956,-1.320649962004811
-0.007429441096077558,-0.028695439958911956,-1.3169426110237734
-0.007427651096077559,-0.032393664811495755,-1.3169426110237734
-0.007425861096077558,-0.032393664811495755,-1.3169426110237734
-0.007424071096077558,-0.028695439958911956,-1.3169426110237734
-0.007422281096077558,-0.028695439958911956,-1.320649962004811
-0.007420491096077559,-0.032393664811495755,-1.3169426110237734
-0.007418701096077558,-0.032393664811495755,-1.3169426110237734
-0.007416911096077558,-0.032393664811495755,-1.3169426110237734
-0.0074151210960775584,-0.03609188966407956,-1.320649962004811
-0.007413331096077559,-0.024997215106328158,-1.320649962004811
-0.007411541096077558,-0.028695439958911956,-1.320649962004811
-0.007409751096077558,-0.028695439958911956,-1.3243573129858488
-0.0074079610960775585,-0.024997215106328158,-1.3169426110237734
-0.007406171096077559,-0.028695439958911956,-1.3132352600427357
-0.007404381096077558,-0.024997215106328158,-1.3132352600427357
-0.007402591096077558,-0.032393664811495755,-1.3169426110237734
-0.0074008010960775585,-0.03609188966407956,-1.320649962004811
-0.007399011096077559,-0.032393664811495755,-1.3169426110237734
-0.007397221096077558,-0.03609188966407956,-1.3169426110237734
-0.007395431096077558,-0.03979011451666335,-1.3169426110237734
-0.0073936410960775585,-0.032393664811495755,-1.3169426110237734
-0.007391851096077559,-0.03609188966407956,-1.3169426110237734
-0.007390061096077558,-0.03609188966407956,-1.320649962004811
-0.007388271096077558,-0.032393664811495755,-1.3132352600427357
-0.0073864810960775585,-0.032393664811495755,-1.3132352600427357
-0.007384691096077559,-0.03609188966407956,-1.3169426110237734
-0.007382901096077558,-0.028695439958911956,-1.3169426110237734
-0.007381111096077558,-0.03609188966407956,-1.320649962004811
-0.0073793210960775586,-0.032393664811495755,-1.3169426110237734
-0.007377531096077559,-0.03979011451666335,-1.3169426110237734
-0.007375741096077558,-0.032393664811495755,-1.320649962004811
-0.007373951096077558,-0.03609188966407956,-1.3169426110237734
-0.007372161096077559,-0.03609188966407956,-1.3169426110237734
-0.007370371096077559,-0.03979011451666167,-1.3132352600427375
-0.007368581096077558,-0.03609188966407956,-1.3169426110237734
-0.007366791096077558,-0.03979011451666335,-1.3132352600427357
-0.007365001096077559,-0.03979011451666335,-1.3132352600427357
-0.007363211096077558,-0.036091889664081236,-1.3169426110237752
-0.007361421096077558,-0.03979011451666335,-1.320649962004811
-0.007359631096077558,-0.03979011451666335,-1.320649962004811
-0.007357841096077559,-0.043488339369247155,-1.3169426110237734
-0.007356051096077558,-0.043488339369247155,-1.320649962004811
-0.007354261096077558,-0.03609188966407956,-1.320649962004811
-0.007352471096077558,-0.03979011451666335,-1.320649962004811
-0.007350681096077559,-0.03609188966407956,-1.320649962004811
-0.007348891096077558,-0.03609188966407956,-1.3169426110237734
-0.007347101096077558,-0.043488339369247155,-1.3132352600427357
-0.0073453110960775584,-0.03609188966407956,-1.3169426110237734
-0.007343521096077559,-0.043488339369247155,-1.320649962004811
-0.007341731096077558,-0.03979011451666335,-1.3243573129858488
-0.007339941096077558,-0.03979011451666335,-1.320649962004811
-0.0073381510960775585,-0.03979011451666335,-1.320649962004811
-0.007336361096077559,-0.03979011451666335,-1.320649962004811
-0.007334571096077558,-0.032393664811495755,-1.320649962004811
-0.007332781096077558,-0.03979011451666335,-1.3243573129858488
-0.0073309910960775585,-0.043488339369247155,-1.320649962004811
-0.007329201096077559,-0.03979011451666335,-1.3169426110237734
-0.007327411096077558,-0.03979011451666335,-1.3132352600427357
-0.007325621096077558,-0.03609188966407956,-1.320649962004811
-0.0073238310960775585,-0.043488339369247155,-1.320649962004811
-0.007322041096077559,-0.043488339369247155,-1.320649962004811
-0.007320251096077558,-0.03979011451666335,-1.3169426110237734
-0.007318461096077558,-0.043488339369247155,-1.3169426110237734
-0.0073166710960775585,-0.043488339369247155,-1.320649962004811
-0.007314881096077559,-0.03979011451666335,-1.320649962004811
-0.007313091096077558,-0.04718656422183096,-1.3169426110237734
-0.007311301096077558,-0.03979011451666335,-1.320649962004811
-0.0073095110960775585,-0.043488339369247155,-1.320649962004811
-0.007307721096077559,-0.04718656422183096,-1.3169426110237734
-0.007305931096077558,-0.043488339369247155,-1.3169426110237734
-0.007304141096077558,-0.03609188966407956,-1.3169426110237734
-0.0073023510960775586,-0.05088478907441475,-1.3169426110237734
-0.007300561096077559,-0.05088478907441475,-1.3169426110237734
-0.007298771096077558,-0.043488339369247155,-1.3169426110237734
-0.007296981096077558,-0.04718656422183096,-1.3169426110237734
-0.007295191096077559,-0.03979011451666335,-1.320649962004811
-0.007293401096077558,-0.04718656422182928,-1.3169426110237752
-0.007291611096077558,-0.043488339369247155,-1.320649962004811
-0.007289821096077558,-0.043488339369247155,-1.320649962004811
-0.007288031096077559,-0.04718656422183096,-1.3169426110237734
-0.007286241096077558,-0.043488339369245475,-1.3169426110237734
-0.007284451096077558,-0.03979011451666335,-1.3169426110237734
-0.007282661096077558,-0.04718656422183096,-1.3169426110237734
-0.007280871096077559,-0.043488339369247155,-1.320649962004811
-0.007279081096077558,-0.04718656422183096,-1.320649962004811
-0.007277291096077558,-0.05088478907441475,-1.3169426110237734
-0.007275501096077558,-0.043488339369247155,-1.320649962004811
-0.007273711096077559,-0.04718656422183096,-1.3169426110237734
-0.007271921096077558,-0.04718656422183096,-1.3169426110237734
-0.007270131096077558,-0.043488339369247155,-1.3169426110237734
-0.0072683410960775584,-0.043488339369247155,-1.320649962004811
-0.007266551096077559,-0.043488339369247155,-1.320649962004811
-0.007264761096077558,-0.05088478907441475,-1.3169426110237734
-0.007262971096077558,-0.04718656422183096,-1.3169426110237734
-0.0072611810960775585,-0.043488339369247155,-1.320649962004811
-0.007259391096077559,-0.03979011451666335,-1.320649962004811
-0.007257601096077558,-0.043488339369247155,-1.3169426110237734
-0.007255811096077558,-0.043488339369247155,-1.320649962004811
-0.0072540210960775585,-0.03979011451666335,-1.320649962004811
-0.007252231096077559,-0.03979011451666335,-1.320649962004811
-0.007250441096077558,-0.043488339369247155,-1.320649962004811
-0.007248651096077558,-0.043488339369247155,-1.320649962004811
-0.0072468610960775585,-0.05088478907441475,-1.3169426110237734
-0.007245071096077559,-0.05088478907441475,-1.320649962004811
-0.007243281096077558,-0.04718656422183096,-1.3169426110237734
-0.007241491096077558,-0.04718656422183096,-1.3169426110237734
-0.0072397010960775585,-0.04718656422183096,-1.3169426110237734
-0.007237911096077559,-0.05088478907441475,-1.3169426110237734
-0.007236121096077558,-0.05088478907441475,-1.320649962004811
-0.007234331096077558,-0.04718656422183096,-1.3169426110237734
-0.0072325410960775586,-0.05088478907441475,-1.3243573129858488
-0.007230751096077559,-0.05088478907441475,-1.3169426110237734
-0.007228961096077558,-0.054583013926998554,-1.320649962004811
-0.007227171096077558,-0.054583013926998554,-1.320649962004811
-0.007225381096077559,-0.04718656422183096,-1.3169426110237734
-0.007223591096077559,-0.05458301392699519,-1.3169426110237734
-0.007221801096077558,-0.054583013926998554,-1.3132352600427357
-0.007220011096077558,-0.05088478907441475,-1.320649962004811
-0.007218221096077559,-0.04718656422183096,-1.320649962004811
-0.007216431096077558,-0.05088478907441475,-1.3206499620048129
-0.007214641096077558,-0.05088478907441475,-1.3243573129858488
-0.007212851096077558,-0.05088478907441475,-1.320649962004811
-0.007211061096077559,-0.05088478907441475,-1.320649962004811
-0.007209271096077558,-0.054583013926998554,-1.3169426110237734
-0.007207481096077558,-0.05828123877958235,-1.3243573129858488
-0.007205691096077558,-0.05088478907441475,-1.3169426110237734
-0.007203901096077559,-0.054583013926998554,-1.320649962004811
-0.007202111096077558,-0.054583013926998554,-1.3169426110237734
-0.007200321096077558,-0.054583013926998554,-1.3169426110237734
-0.0071985310960775584,-0.04718656422183096,-1.320649962004811
-0.007196741096077559,-0.054583013926998554,-1.3243573129858488
-0.007194951096077558,-0.05088478907441475,-1.320649962004811
-0.007193161096077558,-0.05828123877958235,-1.320649962004811
