100Hz/acq0096.csv

#Digilent WaveForms Oscilloscope Acquisition
#Device Name: Discovery2
#Serial Number: SN:210321AA28BE
#Date Time: 2023-05-24 14:48:33.018
#Sample rate: 558659Hz
#Samples: 8192
#Trigger: Source: Channel 1 Type: Edge Condition: Rising Level: 800 mV Hyst.: Auto HoldOff: 100 ns
#Channel 1: Range: 1 V/div Offset: 0 V Attenuation: 1 X Sample Mode: Average
#Channel 2: Range: 1 V/div Offset: 0 V Attenuation: 1 X Sample Mode: Average

Time (s),Channel 1 (V),Channel 2 (V)
-0.0077415761541286795,0.05636373165051543,-1.320649962004811
-0.00773978615412868,0.05636373165051543,-1.320649962004811
-0.007737996154128679,0.05266550679793163,-1.320649962004811
-0.007736206154128679,0.05266550679793163,-1.320649962004811
-0.0077344161541286795,0.048967281945347836,-1.320649962004811
-0.007732626154128679,0.06006195650309755,-1.3169426110237734
-0.007730836154128679,0.05636373165051543,-1.3169426110237734
-0.007729046154128679,0.05636373165051543,-1.3169426110237734
-0.0077272561541286795,0.05266550679793163,-1.320649962004811
-0.007725466154128679,0.045269057092764034,-1.320649962004811
-0.007723676154128679,0.05636373165051543,-1.3243573129858488
-0.007721886154128679,0.048967281945347836,-1.3169426110237734
-0.0077200961541286795,0.048967281945347836,-1.3169426110237734
-0.007718306154128679,0.05266550679793163,-1.320649962004811
-0.007716516154128679,0.048967281945347836,-1.320649962004811
-0.007714726154128679,0.048967281945347836,-1.3169426110237734
-0.0077129361541286795,0.048967281945347836,-1.3132352600427357
-0.007711146154128679,0.05266550679793163,-1.3132352600427357
-0.007709356154128679,0.05266550679793163,-1.3169426110237734
-0.007707566154128679,0.05266550679793163,-1.320649962004811
-0.0077057761541286796,0.048967281945347836,-1.320649962004811
-0.007703986154128679,0.048967281945347836,-1.3243573129858488
-0.007702196154128679,0.04157083224018024,-1.3169426110237734
-0.007700406154128679,0.045269057092764034,-1.3243573129858488
-0.00769861615412868,0.048967281945347836,-1.320649962004811
-0.007696826154128679,0.048967281945347836,-1.3169426110237734
-0.007695036154128679,0.048967281945347836,-1.3169426110237734
-0.007693246154128679,0.048967281945347836,-1.3169426110237734
-0.00769145615412868,0.048967281945347836,-1.320649962004811
-0.007689666154128679,0.048967281945347836,-1.3132352600427357
-0.007687876154128679,0.045269057092764034,-1.3169426110237734
-0.007686086154128679,0.045269057092764034,-1.3169426110237734
-0.00768429615412868,0.045269057092764034,-1.3169426110237734
-0.007682506154128679,0.04157083224018024,-1.320649962004811
-0.007680716154128679,0.045269057092764034,-1.320649962004811
-0.007678926154128679,0.045269057092764034,-1.320649962004811
-0.00767713615412868,0.048967281945347836,-1.320649962004811
-0.007675346154128679,0.045269057092764034,-1.3169426110237734
-0.007673556154128679,0.04157083224018024,-1.3169426110237734
-0.0076717661541286794,0.04157083224018024,-1.320649962004811
-0.00766997615412868,0.04157083224018024,-1.320649962004811
-0.007668186154128679,0.04157083224018024,-1.3169426110237734
-0.007666396154128679,0.04157083224018024,-1.3169426110237734
-0.0076646061541286795,0.045269057092764034,-1.320649962004811
-0.007662816154128679,0.03787260738759644,-1.320649962004811
-0.007661026154128679,0.03787260738759644,-1.320649962004811
-0.007659236154128679,0.04157083224018024,-1.3280646639668865
-0.0076574461541286795,0.03787260738759644,-1.3243573129858488
-0.007655656154128679,0.04157083224018024,-1.3169426110237734
-0.007653866154128679,0.04157083224018024,-1.3169426110237734
-0.007652076154128679,0.04157083224018024,-1.3169426110237734
-0.0076502861541286795,0.045269057092764034,-1.3169426110237734
-0.007648496154128679,0.045269057092764034,-1.3169426110237734
-0.007646706154128679,0.045269057092764034,-1.3169426110237734
-0.007644916154128679,0.04157083224018024,-1.320649962004811
-0.0076431261541286795,0.04157083224018024,-1.3169426110237734
-0.007641336154128679,0.03787260738759644,-1.3169426110237734
-0.007639546154128679,0.04157083224018024,-1.3169426110237734
-0.007637756154128679,0.03787260738759644,-1.3169426110237734
-0.0076359661541286795,0.03787260738759644,-1.3169426110237734
-0.007634176154128679,0.03787260738759644,-1.3169426110237734
-0.007632386154128679,0.04157083224018024,-1.320649962004811
-0.007630596154128679,0.034174382535012635,-1.3169426110237734
-0.0076288061541286796,0.034174382535012635,-1.320649962004811
-0.007627016154128679,0.03787260738759644,-1.3169426110237734
-0.007625226154128679,0.03047615768242884,-1.3243573129858488
-0.007623436154128679,0.034174382535012635,-1.320649962004811
-0.00762164615412868,0.03047615768242884,-1.320649962004811
-0.007619856154128679,0.034174382535012635,-1.320649962004811
-0.007618066154128679,0.034174382535012635,-1.3169426110237734
-0.007616276154128679,0.034174382535012635,-1.3169426110237734
-0.00761448615412868,0.034174382535012635,-1.320649962004811
-0.007612696154128679,0.034174382535012635,-1.320649962004811
-0.007610906154128679,0.03047615768242884,-1.3169426110237734
-0.007609116154128679,0.034174382535012635,-1.320649962004811
-0.00760732615412868,0.034174382535012635,-1.3169426110237734
-0.007605536154128679,0.034174382535012635,-1.3169426110237734
-0.007603746154128679,0.03047615768242884,-1.320649962004811
-0.007601956154128679,0.03047615768242884,-1.320649962004811
-0.00760016615412868,0.03787260738759644,-1.320649962004811
-0.007598376154128679,0.034174382535012635,-1.3243573129858488
-0.007596586154128679,0.026777932829845037,-1.3243573129858488
-0.0075947961541286794,0.03047615768242884,-1.320649962004811
-0.00759300615412868,0.02677793282984672,-1.3169426110237752
-0.007591216154128679,0.03047615768242884,-1.3169426110237734
-0.007589426154128679,0.026777932829845037,-1.3132352600427357
-0.0075876361541286795,0.026777932829845037,-1.3169426110237734
-0.007585846154128679,0.030476157682427157,-1.3132352600427375
-0.007584056154128679,0.026777932829845037,-1.3169426110237734
-0.007582266154128679,0.03047615768242884,-1.3169426110237734
-0.0075804761541286795,0.03047615768242884,-1.3169426110237734
-0.007578686154128679,0.03047615768242884,-1.3169426110237734
-0.007576896154128679,0.03047615768242884,-1.3243573129858488
-0.007575106154128679,0.026777932829845037,-1.320649962004811
-0.0075733161541286795,0.02307970797726124,-1.3243573129858488
-0.007571526154128679,0.02307970797726124,-1.3169426110237734
-0.007569736154128679,0.01938148312467744,-1.320649962004811
-0.007567946154128679,0.026777932829845037,-1.3243573129858488
-0.0075661561541286795,0.02307970797726124,-1.3243573129858488
-0.007564366154128679,0.02307970797726124,-1.320649962004811
-0.007562576154128679,0.02307970797726124,-1.320649962004811
-0.007560786154128679,0.026777932829845037,-1.3169426110237734
-0.0075589961541286796,0.026777932829845037,-1.3243573129858488
-0.007557206154128679,0.02307970797726124,-1.3169426110237734
-0.007555416154128679,0.02307970797726124,-1.3169426110237734
-0.007553626154128679,0.02307970797726124,-1.320649962004811
-0.00755183615412868,0.02307970797726124,-1.3169426110237734
-0.007550046154128679,0.026777932829845037,-1.3169426110237734
-0.007548256154128679,0.02307970797726124,-1.3169426110237734
-0.007546466154128679,0.02307970797726124,-1.3169426110237734
-0.00754467615412868,0.026777932829845037,-1.3169426110237734
-0.007542886154128679,0.026777932829845037,-1.320649962004811
-0.007541096154128679,0.02307970797726124,-1.3169426110237734
-0.007539306154128679,0.02307970797726124,-1.3169426110237734
-0.00753751615412868,0.02307970797726124,-1.3169426110237734
-0.007535726154128679,0.02307970797726124,-1.320649962004811
-0.007533936154128679,0.015683258272093638,-1.320649962004811
-0.007532146154128679,0.01938148312467744,-1.3169426110237734
-0.00753035615412868,0.015683258272093638,-1.3169426110237734
-0.007528566154128679,0.015683258272093638,-1.320649962004811
-0.007526776154128679,0.01938148312467744,-1.3169426110237734
-0.0075249861541286794,0.015683258272093638,-1.320649962004811
-0.00752319615412868,0.023079707977257877,-1.320649962004811
-0.007521406154128679,0.015683258272093638,-1.320649962004811
-0.007519616154128679,0.01938148312467744,-1.3243573129858488
-0.0075178261541286795,0.01938148312467744,-1.320649962004811
-0.00751603615412868,0.01568325827209532,-1.3169426110237752
-0.007514246154128679,0.02307970797726124,-1.3169426110237734
-0.007512456154128679,0.01938148312467744,-1.3169426110237734
-0.0075106661541286795,0.02307970797726124,-1.3132352600427357
-0.007508876154128679,0.01938148312467744,-1.3206499620048093
-0.007507086154128679,0.01938148312467744,-1.3169426110237734
-0.007505296154128679,0.015683258272093638,-1.3243573129858488
-0.0075035061541286795,0.015683258272093638,-1.3169426110237734
-0.007501716154128679,0.01938148312467744,-1.320649962004811
-0.007499926154128679,0.015683258272093638,-1.3169426110237734
-0.007498136154128679,0.015683258272093638,-1.320649962004811
-0.0074963461541286795,0.015683258272093638,-1.320649962004811
-0.007494556154128679,0.01198503341950984,-1.3169426110237734
-0.007492766154128679,0.01198503341950984,-1.320649962004811
-0.007490976154128679,0.015683258272093638,-1.3169426110237734
-0.0074891861541286795,0.015683258272093638,-1.3169426110237734
-0.007487396154128679,0.01198503341950984,-1.3132352600427357
-0.007485606154128679,0.015683258272093638,-1.3169426110237734
-0.007483816154128679,0.01198503341950984,-1.320649962004811
-0.0074820261541286796,0.01198503341950984,-1.320649962004811
-0.007480236154128679,0.01198503341950984,-1.320649962004811
-0.007478446154128679,0.015683258272093638,-1.320649962004811
-0.007476656154128679,0.01198503341950984,-1.3280646639668865
-0.00747486615412868,0.01198503341950984,-1.3243573129858488
-0.007473076154128679,0.01198503341950984,-1.3243573129858488
-0.007471286154128679,0.01198503341950984,-1.320649962004811
-0.007469496154128679,0.01198503341950984,-1.3169426110237734
-0.00746770615412868,0.01198503341950984,-1.3169426110237734
-0.007465916154128679,0.01198503341950984,-1.320649962004811
-0.007464126154128679,0.00828680856692604,-1.3243573129858488
-0.007462336154128679,0.00828680856692604,-1.320649962004811
-0.00746054615412868,0.00828680856692604,-1.3243573129858488
-0.007458756154128679,0.00828680856692604,-1.3169426110237734
-0.007456966154128679,0.01198503341950984,-1.3169426110237734
-0.007455176154128679,0.01198503341950984,-1.3169426110237734
-0.00745338615412868,0.015683258272093638,-1.3243573129858488
-0.007451596154128679,0.01198503341950984,-1.320649962004811
-0.007449806154128679,0.00828680856692604,-1.320649962004811
-0.0074480161541286794,0.01198503341950984,-1.3169426110237734
-0.00744622615412868,0.008286808566927723,-1.3206499620048093
-0.007444436154128679,0.00828680856692604,-1.3169426110237734
-0.007442646154128679,0.00828680856692604,-1.3169426110237734
-0.0074408561541286795,0.00828680856692604,-1.3132352600427357
-0.007439066154128679,0.00828680856692436,-1.320649962004811
-0.007437276154128679,0.00458858371434224,-1.320649962004811
-0.007435486154128679,0.00828680856692604,-1.320649962004811
-0.0074336961541286795,0.00458858371434224,-1.3169426110237734
-0.007431906154128679,0.0008903588617584406,-1.320649962004811
-0.007430116154128679,0.00828680856692604,-1.3169426110237734
-0.007428326154128679,0.0008903588617584406,-1.3243573129858488
-0.0074265361541286795,0.0008903588617584406,-1.3132352600427357
-0.007424746154128679,0.01198503341950984,-1.3169426110237734
-0.007422956154128679,0.00458858371434224,-1.3169426110237734
-0.007421166154128679,0.0008903588617584406,-1.3132352600427357
-0.0074193761541286795,0.00828680856692604,-1.320649962004811
-0.007417586154128679,0.0008903588617584406,-1.320649962004811
-0.007415796154128679,0.00458858371434224,-1.320649962004811
-0.007414006154128679,0.00828680856692604,-1.320649962004811
-0.0074122161541286796,0.00458858371434224,-1.320649962004811
-0.007410426154128679,0.00458858371434224,-1.320649962004811
-0.007408636154128679,0.00458858371434224,-1.3169426110237734
-0.007406846154128679,0.00458858371434224,-1.320649962004811
-0.00740505615412868,0.00458858371434224,-1.320649962004811
-0.007403266154128679,0.0008903588617584406,-1.3243573129858488
-0.007401476154128679,0.0008903588617584406,-1.320649962004811
-0.007399686154128679,0.00458858371434224,-1.320649962004811
-0.00739789615412868,0.00458858371434224,-1.320649962004811
-0.007396106154128679,0.00458858371434224,-1.320649962004811
-0.007394316154128679,0.00458858371434224,-1.3169426110237734
-0.007392526154128679,0.00458858371434224,-1.320649962004811
-0.00739073615412868,0.00458858371434224,-1.320649962004811
-0.007388946154128679,0.0008903588617584406,-1.320649962004811
-0.007387156154128679,-0.002807865990825359,-1.3169426110237734
-0.007385366154128679,-0.002807865990825359,-1.3169426110237734
-0.00738357615412868,-0.002807865990825359,-1.3169426110237734
-0.007381786154128679,-0.002807865990825359,-1.320649962004811
-0.007379996154128679,0.0008903588617584406,-1.3169426110237734
-0.0073782061541286794,0.00458858371434224,-1.320649962004811
-0.00737641615412868,0.00828680856692604,-1.3243573129858488
-0.007374626154128679,-0.002807865990825359,-1.320649962004811
-0.007372836154128679,0.0008903588617584406,-1.3169426110237734
-0.0073710461541286795,0.0008903588617584406,-1.320649962004811
-0.00736925615412868,0.0008903588617584406,-1.320649962004811
-0.007367466154128679,0.0008903588617584406,-1.3243573129858488
-0.007365676154128679,-0.002807865990825359,-1.3169426110237734
-0.0073638861541286795,0.00458858371434224,-1.3169426110237734
-0.007362096154128679,0.0008903588617567589,-1.320649962004811
-0.007360306154128679,-0.002807865990825359,-1.320649962004811
-0.007358516154128679,-0.0065060908434091584,-1.3169426110237734
-0.0073567261541286795,-0.0065060908434091584,-1.3169426110237734
-0.007354936154128679,-0.0065060908434091584,-1.3169426110237734
-0.007353146154128679,-0.002807865990825359,-1.3169426110237734
-0.007351356154128679,-0.002807865990825359,-1.3132352600427357
-0.0073495661541286795,-0.002807865990825359,-1.320649962004811
-0.007347776154128679,-0.0065060908434091584,-1.3169426110237734
-0.007345986154128679,-0.0065060908434091584,-1.3169426110237734
-0.007344196154128679,-0.002807865990825359,-1.3169426110237734
-0.0073424061541286795,-0.002807865990825359,-1.3169426110237734
-0.007340616154128679,-0.010204315695992958,-1.320649962004811
-0.007338826154128679,-0.002807865990825359,-1.3169426110237734
-0.007337036154128679,-0.002807865990825359,-1.3132352600427357
-0.0073352461541286796,-0.0065060908434091584,-1.3132352600427357
-0.007333456154128679,-0.0065060908434091584,-1.320649962004811
-0.007331666154128679,-0.010204315695992958,-1.320649962004811
-0.007329876154128679,-0.0065060908434091584,-1.3169426110237734
-0.00732808615412868,-0.010204315695992958,-1.3169426110237734
-0.007326296154128679,-0.010204315695992958,-1.320649962004811
-0.007324506154128679,-0.0065060908434091584,-1.3169426110237734
-0.007322716154128679,-0.010204315695992958,-1.3169426110237734
-0.00732092615412868,-0.0065060908434091584,-1.3169426110237734
-0.007319136154128679,-0.010204315695992958,-1.3169426110237734
-0.007317346154128679,-0.0065060908434091584,-1.320649962004811
-0.007315556154128679,-0.013902540548576758,-1.3243573129858488
-0.00731376615412868,-0.010204315695992958,-1.3280646639668865
-0.007311976154128679,-0.010204315695992958,-1.320649962004811
-0.007310186154128679,-0.010204315695992958,-1.3169426110237734
-0.007308396154128679,-0.0065060908434091584,-1.320649962004811
-0.00730660615412868,-0.010204315695992958,-1.3169426110237734
-0.007304816154128679,-0.0065060908434091584,-1.3169426110237734
-0.007303026154128679,-0.010204315695992958,-1.320649962004811
-0.0073012361541286794,-0.0065060908434091584,-1.320649962004811
-0.00729944615412868,-0.010204315695991277,-1.3169426110237752
-0.007297656154128679,-0.0065060908434091584,-1.320649962004811
-0.007295866154128679,-0.010204315695992958,-1.3169426110237734
-0.0072940761541286795,-0.013902540548576758,-1.3169426110237734
-0.007292286154128679,-0.013902540548576758,-1.3169426110237752
-0.007290496154128679,-0.013902540548576758,-1.320649962004811
-0.007288706154128679,-0.013902540548576758,-1.320649962004811
-0.0072869161541286795,-0.010204315695992958,-1.320649962004811
-0.007285126154128679,-0.013902540548576758,-1.320649962004811
-0.007283336154128679,-0.013902540548576758,-1.320649962004811
-0.007281546154128679,-0.010204315695992958,-1.3243573129858488
-0.0072797561541286795,-0.010204315695992958,-1.3243573129858488
-0.007277966154128679,-0.010204315695992958,-1.320649962004811
-0.007276176154128679,-0.010204315695992958,-1.3169426110237734
-0.007274386154128679,-0.013902540548576758,-1.3169426110237734
-0.0072725961541286795,-0.010204315695992958,-1.320649962004811
-0.007270806154128679,-0.017600765401160557,-1.320649962004811
-0.007269016154128679,-0.013902540548576758,-1.320649962004811
-0.007267226154128679,-0.013902540548576758,-1.320649962004811
-0.0072654361541286796,-0.010204315695992958,-1.320649962004811
-0.007263646154128679,-0.013902540548576758,-1.320649962004811
-0.007261856154128679,-0.013902540548576758,-1.3132352600427357
-0.007260066154128679,-0.013902540548576758,-1.3169426110237734
-0.00725827615412868,-0.013902540548576758,-1.3169426110237734
-0.007256486154128679,-0.010204315695992958,-1.3169426110237734
-0.007254696154128679,-0.010204315695992958,-1.320649962004811
-0.007252906154128679,-0.013902540548576758,-1.320649962004811
-0.00725111615412868,-0.013902540548576758,-1.3243573129858488
-0.007249326154128679,-0.010204315695992958,-1.320649962004811
-0.007247536154128679,-0.013902540548576758,-1.3169426110237734
-0.007245746154128679,-0.010204315695992958,-1.3243573129858488
-0.00724395615412868,-0.017600765401160557,-1.320649962004811
-0.007242166154128679,-0.010204315695992958,-1.320649962004811
-0.007240376154128679,-0.010204315695992958,-1.3243573129858488
-0.007238586154128679,-0.013902540548576758,-1.3243573129858488
-0.00723679615412868,-0.013902540548576758,-1.3169426110237734
-0.007235006154128679,-0.0065060908434091584,-1.3243573129858488
-0.007233216154128679,-0.013902540548576758,-1.320649962004811
-0.0072314261541286794,-0.013902540548576758,-1.3132352600427357
-0.00722963615412868,-0.013902540548576758,-1.3280646639668865
-0.007227846154128679,-0.017600765401160557,-1.320649962004811
-0.007226056154128679,-0.013902540548576758,-1.320649962004811
-0.0072242661541286795,-0.013902540548576758,-1.320649962004811
-0.00722247615412868,-0.017600765401158874,-1.320649962004811
-0.007220686154128679,-0.017600765401160557,-1.3169426110237734
-0.007218896154128679,-0.010204315695992958,-1.3169426110237734
-0.0072171061541286795,-0.013902540548576758,-1.3169426110237734
-0.007215316154128679,-0.017600765401158874,-1.3169426110237734
-0.007213526154128679,-0.013902540548576758,-1.3169426110237734
-0.007211736154128679,-0.017600765401160557,-1.3169426110237734
-0.0072099461541286795,-0.013902540548576758,-1.320649962004811
-0.007208156154128679,-0.017600765401160557,-1.320649962004811
-0.007206366154128679,-0.013902540548576758,-1.3169426110237734
-0.007204576154128679,-0.024997215106328158,-1.3169426110237734
-0.0072027861541286795,-0.021298990253744356,-1.320649962004811
-0.007200996154128679,-0.017600765401160557,-1.3169426110237734
-0.007199206154128679,-0.017600765401160557,-1.320649962004811
-0.007197416154128679,-0.024997215106328158,-1.320649962004811
-0.0071956261541286795,-0.021298990253744356,-1.3169426110237734
-0.007193836154128679,-0.021298990253744356,-1.320649962004811
-0.007192046154128679,-0.021298990253744356,-1.320649962004811
-0.007190256154128679,-0.017600765401160557,-1.3243573129858488
-0.0071884661541286796,-0.024997215106328158,-1.320649962004811
-0.007186676154128679,-0.024997215106328158,-1.320649962004811
