100Hz/acq0084.csv

#Digilent WaveForms Oscilloscope Acquisition
#Device Name: Discovery2
#Serial Number: SN:210321AA28BE
#Date Time: 2023-05-24 14:48:32.669
#Sample rate: 558659Hz
#Samples: 8192
#Trigger: Source: Channel 1 Type: Edge Condition: Rising Level: 800 mV Hyst.: Auto HoldOff: 100 ns
#Channel 1: Range: 1 V/div Offset: 0 V Attenuation: 1 X Sample Mode: Average
#Channel 2: Range: 1 V/div Offset: 0 V Attenuation: 1 X Sample Mode: Average

Time (s),Channel 1 (V),Channel 2 (V)
-0.007742625585651677,0.05636373165051543,-1.3169426110237734
-0.007740835585651677,0.05636373165051543,-1.3206499620048093
-0.007739045585651676,0.05636373165051543,-1.320649962004811
-0.007737255585651677,0.05266550679793163,-1.320649962004811
-0.007735465585651677,0.05266550679793163,-1.320649962004811
-0.007733675585651676,0.05266550679793163,-1.3206499620048144
-0.007731885585651676,0.05266550679793163,-1.3280646639668865
-0.007730095585651677,0.05636373165051543,-1.320649962004811
-0.007728305585651677,0.045269057092764034,-1.320649962004811
-0.007726515585651676,0.05266550679793163,-1.320649962004811
-0.0077247255856516765,0.048967281945347836,-1.320649962004811
-0.007722935585651677,0.05266550679793163,-1.320649962004811
-0.007721145585651677,0.048967281945347836,-1.3243573129858488
-0.007719355585651676,0.048967281945347836,-1.3243573129858488
-0.0077175655856516765,0.05266550679793163,-1.3169426110237734
-0.007715775585651677,0.048967281945347836,-1.3169426110237734
-0.007713985585651677,0.05266550679793163,-1.3169426110237734
-0.007712195585651676,0.05266550679793163,-1.320649962004811
-0.0077104055856516765,0.048967281945347836,-1.320649962004811
-0.007708615585651677,0.045269057092764034,-1.320649962004811
-0.007706825585651677,0.045269057092764034,-1.320649962004811
-0.007705035585651676,0.048967281945347836,-1.3169426110237734
-0.0077032455856516765,0.05266550679793163,-1.3243573129858488
-0.007701455585651677,0.048967281945347836,-1.320649962004811
-0.007699665585651677,0.048967281945347836,-1.320649962004811
-0.007697875585651676,0.048967281945347836,-1.320649962004811
-0.0076960855856516765,0.045269057092764034,-1.320649962004811
-0.007694295585651677,0.045269057092764034,-1.320649962004811
-0.007692505585651677,0.048967281945347836,-1.3169426110237734
-0.007690715585651676,0.04157083224018024,-1.320649962004811
-0.0076889255856516766,0.04157083224018024,-1.320649962004811
-0.007687135585651677,0.045269057092764034,-1.320649962004811
-0.007685345585651677,0.04157083224018024,-1.320649962004811
-0.007683555585651676,0.045269057092764034,-1.3243573129858488
-0.007681765585651677,0.045269057092764034,-1.3169426110237734
-0.007679975585651677,0.04157083224018024,-1.3169426110237734
-0.007678185585651677,0.04157083224018024,-1.320649962004811
-0.007676395585651676,0.04157083224018024,-1.320649962004811
-0.007674605585651677,0.045269057092764034,-1.320649962004811
-0.007672815585651677,0.04157083224018024,-1.3169426110237734
-0.007671025585651677,0.037872607387598116,-1.3206499620048093
-0.007669235585651676,0.04157083224018024,-1.320649962004811
-0.007667445585651677,0.04157083224018024,-1.320649962004811
-0.007665655585651677,0.04157083224018024,-1.3169426110237734
-0.007663865585651676,0.037872607387598116,-1.3132352600427375
-0.007662075585651676,0.04157083224018024,-1.3169426110237734
-0.007660285585651677,0.03787260738759644,-1.3169426110237734
-0.007658495585651677,0.045269057092764034,-1.3169426110237734
-0.007656705585651676,0.04157083224018024,-1.3169426110237734
-0.0076549155856516764,0.04157083224018024,-1.3169426110237734
-0.007653125585651677,0.04157083224018024,-1.3169426110237734
-0.007651335585651677,0.034174382535012635,-1.3243573129858488
-0.007649545585651676,0.04157083224018024,-1.320649962004811
-0.0076477555856516765,0.03787260738759644,-1.3169426110237734
-0.007645965585651677,0.034174382535012635,-1.3132352600427357
-0.007644175585651677,0.03787260738759644,-1.3169426110237734
-0.007642385585651676,0.034174382535012635,-1.3132352600427357
-0.0076405955856516765,0.034174382535012635,-1.3169426110237734
-0.007638805585651677,0.04157083224018024,-1.3169426110237734
-0.007637015585651677,0.04157083224018024,-1.3169426110237734
-0.007635225585651676,0.04157083224018024,-1.320649962004811
-0.0076334355856516765,0.03787260738759644,-1.320649962004811
-0.007631645585651677,0.03787260738759644,-1.320649962004811
-0.007629855585651677,0.04157083224018024,-1.3169426110237734
-0.007628065585651676,0.03787260738759644,-1.3169426110237734
-0.0076262755856516765,0.03787260738759644,-1.3132352600427357
-0.007624485585651677,0.034174382535012635,-1.3169426110237734
-0.007622695585651677,0.034174382535012635,-1.3169426110237734
-0.007620905585651676,0.03047615768242884,-1.3169426110237734
-0.0076191155856516765,0.034174382535012635,-1.3169426110237734
-0.007617325585651677,0.03047615768242884,-1.3169426110237734
-0.007615535585651677,0.034174382535012635,-1.3169426110237734
-0.007613745585651676,0.03047615768242884,-1.3243573129858488
-0.007611955585651677,0.034174382535012635,-1.320649962004811
-0.007610165585651677,0.034174382535012635,-1.3243573129858488
-0.007608375585651677,0.034174382535012635,-1.320649962004811
-0.007606585585651676,0.03047615768242884,-1.3132352600427357
-0.007604795585651677,0.03047615768242884,-1.3169426110237734
-0.007603005585651677,0.03047615768242884,-1.3169426110237734
-0.007601215585651677,0.026777932829845037,-1.320649962004811
-0.007599425585651676,0.03047615768242884,-1.3169426110237734
-0.007597635585651677,0.03047615768242884,-1.3169426110237734
-0.007595845585651677,0.03047615768242884,-1.3243573129858488
-0.007594055585651677,0.03047615768242884,-1.3206499620048129
-0.007592265585651676,0.026777932829845037,-1.3132352600427357
-0.007590475585651677,0.034174382535012635,-1.3132352600427357
-0.007588685585651677,0.03047615768242884,-1.3132352600427357
-0.007586895585651676,0.026777932829845037,-1.3206499620048093
-0.007585105585651676,0.026777932829845037,-1.3169426110237734
-0.007583315585651677,0.026777932829845037,-1.3169426110237734
-0.007581525585651677,0.03047615768242884,-1.3169426110237734
-0.007579735585651676,0.026777932829845037,-1.3132352600427357
-0.0075779455856516765,0.026777932829845037,-1.3169426110237734
-0.007576155585651677,0.026777932829845037,-1.320649962004811
-0.007574365585651677,0.03047615768242884,-1.3169426110237734
-0.007572575585651676,0.03047615768242884,-1.3169426110237734
-0.0075707855856516765,0.026777932829845037,-1.320649962004811
-0.007568995585651677,0.02307970797726124,-1.320649962004811
-0.007567205585651677,0.026777932829845037,-1.3169426110237734
-0.007565415585651676,0.02307970797726124,-1.320649962004811
-0.0075636255856516765,0.02307970797726124,-1.320649962004811
-0.007561835585651677,0.026777932829845037,-1.3169426110237734
-0.007560045585651677,0.02307970797726124,-1.3169426110237734
-0.007558255585651676,0.026777932829845037,-1.3169426110237734
-0.0075564655856516765,0.02307970797726124,-1.3169426110237734
-0.007554675585651677,0.02307970797726124,-1.3169426110237734
-0.007552885585651677,0.01938148312467744,-1.3169426110237734
-0.007551095585651676,0.01938148312467744,-1.3169426110237734
-0.0075493055856516765,0.02307970797726124,-1.3169426110237734
-0.007547515585651677,0.02307970797726124,-1.3169426110237734
-0.007545725585651677,0.02307970797726124,-1.3169426110237734
-0.007543935585651676,0.026777932829845037,-1.320649962004811
-0.0075421455856516766,0.01938148312467744,-1.320649962004811
-0.007540355585651677,0.02307970797726124,-1.320649962004811
-0.007538565585651677,0.026777932829845037,-1.320649962004811
-0.007536775585651676,0.02307970797726124,-1.320649962004811
-0.007534985585651677,0.026777932829845037,-1.3169426110237734
-0.007533195585651677,0.02307970797726124,-1.3169426110237734
-0.007531405585651677,0.02307970797726124,-1.3169426110237734
-0.007529615585651676,0.01938148312467744,-1.3169426110237734
-0.007527825585651677,0.01938148312467744,-1.3169426110237734
-0.007526035585651677,0.01938148312467744,-1.3169426110237734
-0.007524245585651677,0.023079707977259556,-1.3206499620048093
-0.007522455585651676,0.01938148312467744,-1.3169426110237734
-0.007520665585651677,0.01938148312467744,-1.320649962004811
-0.007518875585651677,0.01198503341950984,-1.3243573129858488
-0.007517085585651677,0.01198503341950984,-1.3206499620048129
-0.007515295585651676,0.015683258272093638,-1.320649962004811
-0.007513505585651677,0.01198503341950984,-1.3169426110237734
-0.007511715585651677,0.01198503341950984,-1.320649962004811
-0.007509925585651676,0.01198503341950984,-1.3169426110237734
-0.0075081355856516764,0.01198503341950984,-1.3169426110237734
-0.007506345585651677,0.01198503341950984,-1.320649962004811
-0.007504555585651677,0.015683258272093638,-1.320649962004811
-0.007502765585651676,0.015683258272093638,-1.3243573129858488
-0.0075009755856516765,0.01938148312467744,-1.320649962004811
-0.007499185585651677,0.01938148312467744,-1.3169426110237734
-0.007497395585651677,0.01938148312467744,-1.320649962004811
-0.007495605585651676,0.01938148312467744,-1.320649962004811
-0.0074938155856516765,0.015683258272093638,-1.320649962004811
-0.007492025585651677,0.01198503341950984,-1.320649962004811
-0.007490235585651677,0.01198503341950984,-1.3169426110237734
-0.007488445585651676,0.015683258272093638,-1.320649962004811
-0.0074866555856516765,0.00828680856692604,-1.320649962004811
-0.007484865585651677,0.01198503341950984,-1.320649962004811
-0.007483075585651677,0.015683258272093638,-1.320649962004811
-0.007481285585651676,0.01198503341950984,-1.3169426110237734
-0.0074794955856516765,0.015683258272093638,-1.320649962004811
-0.007477705585651677,0.00828680856692604,-1.320649962004811
-0.007475915585651677,0.015683258272093638,-1.3132352600427357
-0.007474125585651676,0.015683258272093638,-1.320649962004811
-0.0074723355856516765,0.01198503341950984,-1.320649962004811
-0.007470545585651677,0.015683258272093638,-1.320649962004811
-0.007468755585651677,0.01198503341950984,-1.3169426110237734
-0.007466965585651676,0.015683258272093638,-1.3243573129858488
-0.007465175585651677,0.015683258272093638,-1.3243573129858488
-0.007463385585651677,0.00458858371434224,-1.320649962004811
-0.007461595585651677,0.00828680856692604,-1.3132352600427357
-0.007459805585651676,0.00828680856692604,-1.3169426110237734
-0.007458015585651677,0.00828680856692604,-1.3132352600427357
-0.007456225585651677,0.01198503341950984,-1.3169426110237734
-0.007454435585651677,0.01198503341950984,-1.3243573129858488
-0.007452645585651676,0.01198503341950984,-1.3132352600427357
-0.007450855585651677,0.01198503341950984,-1.3169426110237734
-0.007449065585651677,0.015683258272093638,-1.320649962004811
-0.007447275585651677,0.008286808566929404,-1.320649962004811
-0.007445485585651676,0.015683258272093638,-1.320649962004811
-0.007443695585651677,0.00828680856692604,-1.320649962004811
-0.007441905585651677,0.00828680856692604,-1.320649962004811
-0.007440115585651676,0.015683258272091955,-1.320649962004811
-0.007438325585651676,0.01198503341950984,-1.320649962004811
-0.007436535585651677,0.01198503341950984,-1.3169426110237734
-0.007434745585651677,0.00828680856692604,-1.3169426110237734
-0.007432955585651676,0.01198503341950984,-1.320649962004811
-0.0074311655856516765,0.01198503341950984,-1.3169426110237734
-0.007429375585651677,0.015683258272093638,-1.3132352600427357
-0.007427585585651677,0.01198503341950984,-1.3169426110237734
-0.007425795585651676,0.015683258272093638,-1.320649962004811
-0.0074240055856516765,0.00458858371434224,-1.3169426110237734
-0.007422215585651677,0.00828680856692604,-1.320649962004811
-0.007420425585651677,0.00828680856692604,-1.3169426110237734
-0.007418635585651676,0.00458858371434224,-1.3169426110237734
-0.0074168455856516765,0.00458858371434224,-1.320649962004811
-0.007415055585651677,0.00828680856692604,-1.3169426110237734
-0.007413265585651677,0.00458858371434224,-1.320649962004811
-0.007411475585651676,0.0008903588617584406,-1.320649962004811
-0.0074096855856516765,0.00458858371434224,-1.3169426110237734
-0.007407895585651677,0.0008903588617584406,-1.320649962004811
-0.007406105585651677,0.00458858371434224,-1.320649962004811
-0.007404315585651676,0.00458858371434224,-1.3169426110237734
-0.0074025255856516765,0.00458858371434224,-1.320649962004811
-0.007400735585651677,0.00458858371434224,-1.320649962004811
-0.007398945585651677,0.00458858371434224,-1.3280646639668865
-0.007397155585651676,0.00458858371434224,-1.3243573129858488
-0.0073953655856516766,0.0008903588617584406,-1.3169426110237734
-0.007393575585651677,0.0008903588617584406,-1.3132352600427357
-0.007391785585651677,-0.002807865990825359,-1.3169426110237734
-0.007389995585651676,-0.002807865990825359,-1.320649962004811
-0.007388205585651677,0.0008903588617584406,-1.3169426110237734
-0.007386415585651677,-0.002807865990825359,-1.3169426110237734
-0.007384625585651677,0.00458858371434224,-1.3169426110237734
-0.007382835585651676,0.0008903588617584406,-1.3169426110237734
-0.007381045585651677,-0.002807865990825359,-1.320649962004811
-0.007379255585651677,-0.0065060908434091584,-1.3169426110237734
-0.007377465585651677,0.0008903588617584406,-1.3169426110237734
-0.007375675585651676,0.0008903588617584406,-1.3243573129858488
-0.007373885585651677,-0.002807865990825359,-1.320649962004811
-0.007372095585651677,0.0008903588617584406,-1.320649962004811
-0.007370305585651677,-0.002807865990823677,-1.324357312985847
-0.007368515585651676,-0.002807865990825359,-1.3169426110237734
-0.007366725585651677,-0.002807865990825359,-1.320649962004811
-0.007364935585651677,-0.002807865990825359,-1.320649962004811
-0.007363145585651676,-0.002807865990823677,-1.324357312985847
-0.0073613555856516764,0.0008903588617584406,-1.320649962004811
-0.007359565585651677,-0.002807865990825359,-1.3169426110237734
-0.007357775585651677,-0.002807865990825359,-1.3132352600427357
-0.007355985585651676,0.0008903588617584406,-1.320649962004811
-0.0073541955856516765,-0.002807865990825359,-1.320649962004811
-0.007352405585651677,-0.002807865990825359,-1.3169426110237734
-0.007350615585651677,0.0008903588617584406,-1.3169426110237734
-0.007348825585651676,-0.002807865990825359,-1.3169426110237734
-0.0073470355856516765,-0.0065060908434091584,-1.320649962004811
-0.007345245585651677,-0.0065060908434091584,-1.3169426110237734
-0.007343455585651677,-0.0065060908434091584,-1.320649962004811
-0.007341665585651676,-0.002807865990825359,-1.3169426110237734
-0.0073398755856516765,-0.002807865990825359,-1.320649962004811
-0.007338085585651677,0.0008903588617584406,-1.320649962004811
-0.007336295585651677,0.00458858371434224,-1.320649962004811
-0.007334505585651676,-0.0065060908434091584,-1.3169426110237734
-0.0073327155856516765,-0.0065060908434091584,-1.320649962004811
-0.007330925585651677,-0.002807865990825359,-1.3169426110237734
-0.007329135585651677,-0.0065060908434091584,-1.320649962004811
-0.007327345585651676,-0.002807865990825359,-1.3169426110237734
-0.0073255555856516765,-0.0065060908434091584,-1.320649962004811
-0.007323765585651677,-0.010204315695992958,-1.3169426110237734
-0.007321975585651677,-0.002807865990825359,-1.3169426110237734
-0.007320185585651676,-0.010204315695992958,-1.320649962004811
-0.007318395585651677,-0.0065060908434091584,-1.3169426110237734
-0.007316605585651677,-0.0065060908434091584,-1.320649962004811
-0.007314815585651677,-0.0065060908434091584,-1.320649962004811
-0.007313025585651676,-0.002807865990825359,-1.3132352600427357
-0.007311235585651677,-0.0065060908434091584,-1.320649962004811
-0.007309445585651677,-0.010204315695992958,-1.320649962004811
-0.007307655585651677,-0.0065060908434091584,-1.3169426110237734
-0.007305865585651676,-0.010204315695992958,-1.320649962004811
-0.007304075585651677,-0.013902540548576758,-1.3243573129858488
-0.007302285585651677,-0.0065060908434091584,-1.320649962004811
-0.007300495585651677,-0.010204315695991277,-1.320649962004811
-0.007298705585651676,-0.0065060908434091584,-1.320649962004811
-0.007296915585651677,-0.010204315695992958,-1.3132352600427357
-0.007295125585651677,-0.010204315695992958,-1.3169426110237734
-0.007293335585651676,-0.006506090843412522,-1.3169426110237752
-0.007291545585651676,-0.013902540548576758,-1.320649962004811
-0.007289755585651677,-0.013902540548576758,-1.3169426110237734
-0.007287965585651677,-0.010204315695992958,-1.3169426110237734
-0.007286175585651676,-0.010204315695992958,-1.3169426110237752
-0.0072843855856516765,-0.010204315695992958,-1.320649962004811
-0.007282595585651677,-0.002807865990825359,-1.320649962004811
-0.007280805585651677,-0.0065060908434091584,-1.320649962004811
-0.007279015585651676,-0.010204315695992958,-1.320649962004811
-0.0072772255856516765,-0.013902540548576758,-1.320649962004811
-0.007275435585651677,-0.010204315695992958,-1.320649962004811
-0.007273645585651677,-0.013902540548576758,-1.3169426110237734
-0.007271855585651676,-0.013902540548576758,-1.3243573129858488
-0.0072700655856516765,-0.010204315695992958,-1.320649962004811
-0.007268275585651677,-0.010204315695992958,-1.320649962004811
-0.007266485585651677,-0.010204315695992958,-1.3169426110237734
-0.007264695585651676,-0.010204315695992958,-1.3169426110237734
-0.0072629055856516765,-0.010204315695992958,-1.3169426110237734
-0.007261115585651677,-0.010204315695992958,-1.3169426110237734
-0.007259325585651677,-0.013902540548576758,-1.3169426110237734
-0.007257535585651676,-0.013902540548576758,-1.3169426110237734
-0.0072557455856516765,-0.013902540548576758,-1.320649962004811
-0.007253955585651677,-0.013902540548576758,-1.3169426110237734
-0.007252165585651677,-0.017600765401160557,-1.320649962004811
-0.007250375585651676,-0.013902540548576758,-1.3169426110237734
-0.0072485855856516766,-0.010204315695992958,-1.3169426110237734
-0.007246795585651677,-0.013902540548576758,-1.320649962004811
-0.007245005585651677,-0.010204315695992958,-1.3169426110237734
-0.007243215585651676,-0.013902540548576758,-1.3132352600427357
-0.007241425585651677,-0.017600765401160557,-1.3132352600427357
-0.007239635585651677,-0.013902540548576758,-1.3169426110237734
-0.007237845585651677,-0.0065060908434091584,-1.320649962004811
-0.007236055585651676,-0.010204315695992958,-1.3169426110237734
-0.007234265585651677,-0.013902540548576758,-1.3243573129858488
-0.007232475585651677,-0.010204315695992958,-1.3169426110237734
-0.007230685585651677,-0.010204315695992958,-1.320649962004811
-0.007228895585651676,-0.013902540548576758,-1.320649962004811
-0.007227105585651677,-0.013902540548576758,-1.320649962004811
-0.007225315585651677,-0.013902540548576758,-1.320649962004811
-0.007223525585651677,-0.013902540548576758,-1.320649962004811
-0.007221735585651676,-0.021298990253744356,-1.3169426110237734
-0.007219945585651677,-0.013902540548576758,-1.3169426110237734
-0.007218155585651677,-0.021298990253744356,-1.320649962004811
-0.007216365585651676,-0.017600765401160557,-1.3169426110237767
-0.0072145755856516764,-0.017600765401160557,-1.3243573129858488
-0.007212785585651677,-0.013902540548576758,-1.3169426110237734
-0.007210995585651677,-0.017600765401160557,-1.3169426110237734
-0.007209205585651676,-0.010204315695992958,-1.320649962004811
-0.0072074155856516765,-0.017600765401160557,-1.320649962004811
-0.007205625585651677,-0.017600765401160557,-1.320649962004811
-0.007203835585651677,-0.021298990253744356,-1.320649962004811
-0.007202045585651676,-0.017600765401160557,-1.3169426110237734
-0.0072002555856516765,-0.021298990253744356,-1.3169426110237734
-0.007198465585651677,-0.021298990253744356,-1.320649962004811
-0.007196675585651677,-0.021298990253744356,-1.320649962004811
-0.007194885585651676,-0.017600765401160557,-1.3169426110237734
-0.0071930955856516765,-0.021298990253744356,-1.3132352600427357
-0.007191305585651677,-0.017600765401160557,-1.320649962004811
-0.007189515585651677,-0.021298990253744356,-1.3169426110237734
-0.007187725585651676,-0.024997215106328158,-1.3169426110237734
