100Hz/acq0068.csv

#Digilent WaveForms Oscilloscope Acquisition
#Device Name: Discovery2
#Serial Number: SN:210321AA28BE
#Date Time: 2023-05-24 14:48:32.216
#Sample rate: 558659Hz
#Samples: 8192
#Trigger: Source: Channel 1 Type: Edge Condition: Rising Level: 800 mV Hyst.: Auto HoldOff: 100 ns
#Channel 1: Range: 1 V/div Offset: 0 V Attenuation: 1 X Sample Mode: Average
#Channel 2: Range: 1 V/div Offset: 0 V Attenuation: 1 X Sample Mode: Average

Time (s),Channel 1 (V),Channel 2 (V)
-0.007741137154670878,0.05636373165051543,-1.320649962004811
-0.007739347154670878,0.05636373165051543,-1.3169426110237752
-0.007737557154670878,0.05636373165051543,-1.320649962004811
-0.007735767154670878,0.05266550679793163,-1.3169426110237734
-0.007733977154670878,0.048967281945347836,-1.3243573129858488
-0.007732187154670877,0.05266550679792995,-1.320649962004811
-0.007730397154670878,0.048967281945347836,-1.320649962004811
-0.007728607154670878,0.05636373165051543,-1.3243573129858488
-0.007726817154670878,0.045269057092764034,-1.320649962004811
-0.007725027154670877,0.048967281945347836,-1.3169426110237734
-0.007723237154670878,0.05266550679793163,-1.3169426110237734
-0.007721447154670878,0.048967281945347836,-1.320649962004811
-0.007719657154670878,0.05266550679793163,-1.3169426110237734
-0.0077178671546708775,0.05636373165051543,-1.320649962004811
-0.007716077154670878,0.048967281945347836,-1.320649962004811
-0.007714287154670878,0.048967281945347836,-1.3169426110237734
-0.007712497154670878,0.045269057092764034,-1.320649962004811
-0.0077107071546708775,0.045269057092764034,-1.320649962004811
-0.007708917154670878,0.045269057092764034,-1.3169426110237734
-0.007707127154670878,0.045269057092764034,-1.3169426110237734
-0.007705337154670878,0.048967281945347836,-1.3169426110237734
-0.0077035471546708775,0.045269057092764034,-1.320649962004811
-0.007701757154670878,0.045269057092764034,-1.3169426110237734
-0.007699967154670878,0.045269057092764034,-1.3132352600427357
-0.007698177154670878,0.045269057092764034,-1.3169426110237734
-0.0076963871546708775,0.048967281945347836,-1.3132352600427357
-0.007694597154670878,0.045269057092764034,-1.3169426110237734
-0.007692807154670878,0.045269057092764034,-1.3169426110237734
-0.007691017154670878,0.04157083224018024,-1.320649962004811
-0.0076892271546708775,0.04157083224018024,-1.3243573129858488
-0.007687437154670878,0.04157083224018024,-1.320649962004811
-0.007685647154670878,0.03787260738759644,-1.320649962004811
-0.007683857154670878,0.045269057092764034,-1.3169426110237734
-0.0076820671546708776,0.048967281945347836,-1.320649962004811
-0.007680277154670878,0.04157083224018024,-1.320649962004811
-0.007678487154670878,0.04157083224018024,-1.320649962004811
-0.007676697154670878,0.03787260738759644,-1.320649962004811
-0.007674907154670878,0.045269057092764034,-1.320649962004811
-0.007673117154670878,0.048967281945347836,-1.320649962004811
-0.007671327154670878,0.04157083224018024,-1.3169426110237734
-0.007669537154670878,0.037872607387598116,-1.3169426110237734
-0.007667747154670878,0.04157083224018024,-1.3169426110237734
-0.007665957154670878,0.03787260738759644,-1.320649962004811
-0.007664167154670878,0.03787260738759644,-1.3169426110237734
-0.007662377154670877,0.03787260738759644,-1.3206499620048093
-0.007660587154670878,0.03787260738759644,-1.3169426110237734
-0.007658797154670878,0.03787260738759644,-1.3169426110237734
-0.007657007154670878,0.03787260738759644,-1.3169426110237734
-0.007655217154670877,0.0378726073875998,-1.3169426110237752
-0.007653427154670878,0.045269057092764034,-1.320649962004811
-0.007651637154670878,0.03787260738759644,-1.3169426110237734
-0.007649847154670878,0.03787260738759644,-1.3169426110237734
-0.0076480571546708774,0.04157083224018024,-1.3169426110237734
-0.007646267154670878,0.034174382535012635,-1.320649962004811
-0.007644477154670878,0.034174382535012635,-1.3243573129858488
-0.007642687154670878,0.034174382535012635,-1.320649962004811
-0.0076408971546708775,0.034174382535012635,-1.3169426110237734
-0.007639107154670878,0.034174382535012635,-1.3169426110237734
-0.007637317154670878,0.034174382535012635,-1.3132352600427357
-0.007635527154670878,0.03787260738759644,-1.320649962004811
-0.0076337371546708775,0.034174382535012635,-1.3169426110237734
-0.007631947154670878,0.03047615768242884,-1.3169426110237734
-0.007630157154670878,0.03047615768242884,-1.320649962004811
-0.007628367154670878,0.034174382535012635,-1.320649962004811
-0.0076265771546708775,0.034174382535012635,-1.3169426110237734
-0.007624787154670878,0.034174382535012635,-1.320649962004811
-0.007622997154670878,0.034174382535012635,-1.3169426110237734
-0.007621207154670878,0.034174382535012635,-1.3132352600427357
-0.0076194171546708775,0.026777932829845037,-1.320649962004811
-0.007617627154670878,0.02307970797726124,-1.3243573129858488
-0.007615837154670878,0.03047615768242884,-1.320649962004811
-0.007614047154670878,0.034174382535012635,-1.320649962004811
-0.0076122571546708775,0.02307970797726124,-1.3169426110237734
-0.007610467154670878,0.03047615768242884,-1.3169426110237734
-0.007608677154670878,0.03047615768242884,-1.3169426110237734
-0.007606887154670878,0.03047615768242884,-1.3169426110237734
-0.007605097154670878,0.026777932829845037,-1.3169426110237734
-0.007603307154670878,0.034174382535012635,-1.3169426110237734
-0.007601517154670878,0.03047615768242884,-1.3169426110237734
-0.007599727154670878,0.03047615768242884,-1.3169426110237734
-0.007597937154670878,0.03047615768242884,-1.3169426110237734
-0.007596147154670878,0.03047615768242884,-1.3132352600427357
-0.007594357154670878,0.026777932829845037,-1.3169426110237734
-0.007592567154670878,0.03417438253500927,-1.3206499620048093
-0.007590777154670878,0.03047615768242884,-1.3243573129858488
-0.007588987154670878,0.034174382535012635,-1.320649962004811
-0.007587197154670878,0.026777932829845037,-1.3243573129858488
-0.007585407154670877,0.0230797079772646,-1.320649962004811
-0.007583617154670878,0.03047615768242884,-1.320649962004811
-0.007581827154670878,0.02307970797726124,-1.320649962004811
-0.007580037154670878,0.02307970797726124,-1.3169426110237734
-0.007578247154670877,0.02307970797726124,-1.3169426110237734
-0.007576457154670878,0.026777932829845037,-1.3169426110237734
-0.007574667154670878,0.026777932829845037,-1.320649962004811
-0.007572877154670878,0.01938148312467744,-1.320649962004811
-0.0075710871546708775,0.01938148312467744,-1.3169426110237734
-0.007569297154670878,0.02307970797726124,-1.3169426110237734
-0.007567507154670878,0.02307970797726124,-1.3169426110237734
-0.007565717154670878,0.02307970797726124,-1.3169426110237734
-0.0075639271546708775,0.02307970797726124,-1.320649962004811
-0.007562137154670878,0.02307970797726124,-1.3169426110237734
-0.007560347154670878,0.02307970797726124,-1.320649962004811
-0.007558557154670878,0.026777932829845037,-1.320649962004811
-0.0075567671546708775,0.02307970797726124,-1.3169426110237734
-0.007554977154670878,0.026777932829845037,-1.3243573129858488
-0.007553187154670878,0.026777932829845037,-1.3169426110237734
-0.007551397154670878,0.026777932829845037,-1.3169426110237734
-0.0075496071546708775,0.02307970797726124,-1.3169426110237734
-0.007547817154670878,0.02307970797726124,-1.3169426110237734
-0.007546027154670878,0.01938148312467744,-1.3169426110237734
-0.007544237154670878,0.015683258272093638,-1.3169426110237734
-0.0075424471546708775,0.01938148312467744,-1.3169426110237734
-0.007540657154670878,0.02307970797726124,-1.3169426110237734
-0.007538867154670878,0.01938148312467744,-1.320649962004811
-0.007537077154670878,0.015683258272093638,-1.3169426110237734
-0.0075352871546708776,0.015683258272093638,-1.3169426110237734
-0.007533497154670878,0.01938148312467744,-1.3169426110237734
-0.007531707154670878,0.01938148312467744,-1.320649962004811
-0.007529917154670878,0.01938148312467744,-1.3169426110237734
-0.007528127154670878,0.015683258272093638,-1.3169426110237734
-0.007526337154670878,0.01938148312467744,-1.3243573129858488
-0.007524547154670878,0.015683258272093638,-1.3169426110237734
-0.007522757154670878,0.015683258272093638,-1.3169426110237734
-0.007520967154670878,0.015683258272093638,-1.3169426110237734
-0.007519177154670878,0.015683258272093638,-1.3132352600427357
-0.007517387154670878,0.015683258272093638,-1.3169426110237734
-0.007515597154670878,0.015683258272093638,-1.3169426110237734
-0.007513807154670878,0.01938148312467744,-1.3169426110237734
-0.007512017154670878,0.015683258272093638,-1.320649962004811
-0.007510227154670878,0.015683258272093638,-1.320649962004811
-0.007508437154670877,0.01198503341950984,-1.3169426110237752
-0.007506647154670878,0.01198503341950984,-1.320649962004811
-0.007504857154670878,0.015683258272093638,-1.3169426110237734
-0.007503067154670878,0.015683258272093638,-1.3169426110237734
-0.0075012771546708774,0.01198503341950984,-1.320649962004811
-0.007499487154670878,0.01198503341950984,-1.3169426110237734
-0.007497697154670878,0.00458858371434224,-1.320649962004811
-0.007495907154670878,0.00458858371434224,-1.320649962004811
-0.0074941171546708775,0.00828680856692604,-1.3169426110237734
-0.007492327154670878,0.01198503341950984,-1.3169426110237734
-0.007490537154670878,0.015683258272093638,-1.3169426110237734
-0.007488747154670878,0.01198503341950984,-1.3169426110237734
-0.0074869571546708775,0.01198503341950984,-1.320649962004811
-0.007485167154670878,0.00828680856692604,-1.3243573129858488
-0.007483377154670878,0.00828680856692604,-1.3243573129858488
-0.007481587154670878,0.01198503341950984,-1.320649962004811
-0.0074797971546708775,0.00828680856692604,-1.320649962004811
-0.007478007154670878,0.00828680856692604,-1.320649962004811
-0.007476217154670878,0.00828680856692604,-1.3169426110237734
-0.007474427154670878,0.01198503341950984,-1.3169426110237734
-0.0074726371546708775,0.00458858371434224,-1.3169426110237734
-0.007470847154670878,0.01198503341950984,-1.3169426110237734
-0.007469057154670878,0.00828680856692604,-1.3169426110237734
-0.007467267154670878,0.00828680856692604,-1.320649962004811
-0.0074654771546708775,0.00458858371434224,-1.3169426110237734
-0.007463687154670878,0.00458858371434224,-1.320649962004811
-0.007461897154670878,0.01198503341950984,-1.3169426110237734
-0.007460107154670878,0.01198503341950984,-1.3169426110237734
-0.0074583171546708776,0.00458858371434224,-1.320649962004811
-0.007456527154670878,0.00458858371434224,-1.320649962004811
-0.007454737154670878,0.01198503341950984,-1.320649962004811
-0.007452947154670878,0.00458858371434224,-1.320649962004811
-0.007451157154670878,0.00828680856692604,-1.320649962004811
-0.007449367154670878,0.01198503341950984,-1.3169426110237734
-0.007447577154670878,0.00828680856692604,-1.320649962004811
-0.007445787154670878,0.00828680856692604,-1.324357312985847
-0.007443997154670878,0.01198503341950984,-1.320649962004811
-0.007442207154670878,0.01198503341950984,-1.3169426110237734
-0.007440417154670878,0.00828680856692604,-1.320649962004811
-0.007438627154670877,0.00458858371434224,-1.320649962004811
-0.007436837154670878,0.00458858371434224,-1.320649962004811
-0.007435047154670878,0.00458858371434224,-1.320649962004811
-0.007433257154670878,0.00458858371434224,-1.3169426110237734
-0.007431467154670877,0.01198503341950984,-1.3243573129858488
-0.007429677154670878,0.00458858371434224,-1.3169426110237734
-0.007427887154670878,0.00458858371434224,-1.3169426110237734
-0.007426097154670878,0.00828680856692604,-1.320649962004811
-0.0074243071546708774,-0.002807865990825359,-1.3243573129858488
-0.007422517154670878,0.00458858371434224,-1.3243573129858488
-0.007420727154670878,0.00458858371434224,-1.320649962004811
-0.007418937154670878,0.00828680856692604,-1.3132352600427357
-0.0074171471546708775,0.0008903588617584406,-1.3169426110237734
-0.007415357154670878,0.0008903588617584406,-1.3169426110237734
-0.007413567154670878,0.00458858371434224,-1.3132352600427357
-0.007411777154670878,0.00458858371434224,-1.3169426110237734
-0.0074099871546708775,-0.002807865990825359,-1.320649962004811
-0.007408197154670878,0.0008903588617584406,-1.3169426110237734
-0.007406407154670878,-0.002807865990825359,-1.3169426110237734
-0.007404617154670878,0.0008903588617584406,-1.3243573129858488
-0.0074028271546708775,0.0008903588617584406,-1.3169426110237734
-0.007401037154670878,0.00458858371434224,-1.3169426110237734
-0.007399247154670878,-0.002807865990825359,-1.320649962004811
-0.007397457154670878,-0.002807865990825359,-1.320649962004811
-0.0073956671546708775,0.0008903588617584406,-1.3169426110237734
-0.007393877154670878,0.0008903588617584406,-1.320649962004811
-0.007392087154670878,0.0008903588617584406,-1.3169426110237734
-0.007390297154670878,0.00458858371434224,-1.3169426110237734
-0.0073885071546708776,0.0008903588617584406,-1.3132352600427357
-0.007386717154670878,0.0008903588617584406,-1.3169426110237734
-0.007384927154670878,0.0008903588617584406,-1.320649962004811
-0.007383137154670878,-0.002807865990825359,-1.3169426110237734
-0.007381347154670878,-0.0065060908434091584,-1.3169426110237734
-0.007379557154670878,-0.002807865990825359,-1.3169426110237734
-0.007377767154670878,0.00458858371434224,-1.320649962004811
-0.007375977154670878,-0.002807865990825359,-1.320649962004811
-0.007374187154670878,-0.002807865990825359,-1.3243573129858488
-0.007372397154670878,-0.002807865990825359,-1.3169426110237734
-0.007370607154670878,-0.002807865990825359,-1.320649962004811
-0.007368817154670878,-0.002807865990825359,-1.320649962004811
-0.007367027154670878,-0.002807865990825359,-1.320649962004811
-0.007365237154670878,-0.0065060908434091584,-1.3169426110237734
-0.007363447154670878,-0.0065060908434091584,-1.3169426110237734
-0.007361657154670877,-0.0028078659908270407,-1.3169426110237767
-0.007359867154670878,-0.0065060908434091584,-1.3243573129858488
-0.007358077154670878,-0.0065060908434091584,-1.320649962004811
-0.007356287154670878,-0.0065060908434091584,-1.3169426110237734
-0.0073544971546708774,-0.0065060908434091584,-1.320649962004811
-0.007352707154670878,-0.0065060908434091584,-1.320649962004811
-0.007350917154670878,-0.002807865990825359,-1.320649962004811
-0.007349127154670878,-0.002807865990825359,-1.3169426110237734
-0.0073473371546708775,-0.002807865990825359,-1.320649962004811
-0.007345547154670878,-0.010204315695992958,-1.320649962004811
-0.007343757154670878,-0.0065060908434091584,-1.320649962004811
-0.007341967154670878,-0.010204315695992958,-1.3169426110237734
-0.0073401771546708775,-0.0065060908434091584,-1.3169426110237734
-0.007338387154670878,-0.010204315695992958,-1.320649962004811
-0.007336597154670878,-0.002807865990825359,-1.320649962004811
-0.007334807154670878,-0.010204315695992958,-1.3169426110237734
-0.0073330171546708775,-0.0065060908434091584,-1.3169426110237734
-0.007331227154670878,-0.010204315695992958,-1.3169426110237734
-0.007329437154670878,-0.010204315695992958,-1.320649962004811
-0.007327647154670878,-0.0065060908434091584,-1.320649962004811
-0.0073258571546708775,-0.0065060908434091584,-1.320649962004811
-0.007324067154670878,-0.0065060908434091584,-1.320649962004811
-0.007322277154670878,-0.010204315695992958,-1.320649962004811
-0.007320487154670878,-0.010204315695992958,-1.320649962004811
-0.0073186971546708775,-0.010204315695992958,-1.3169426110237734
-0.007316907154670878,-0.013902540548576758,-1.320649962004811
-0.007315117154670878,-0.010204315695992958,-1.3243573129858488
-0.007313327154670878,-0.010204315695992958,-1.3169426110237734
-0.0073115371546708776,-0.010204315695992958,-1.3169426110237734
-0.007309747154670878,-0.010204315695992958,-1.3169426110237734
-0.007307957154670878,-0.010204315695992958,-1.320649962004811
-0.007306167154670878,-0.010204315695992958,-1.3169426110237734
-0.007304377154670878,-0.010204315695992958,-1.3169426110237734
-0.007302587154670878,-0.010204315695992958,-1.3243573129858488
-0.007300797154670878,-0.010204315695992958,-1.3169426110237734
-0.007299007154670878,-0.013902540548575076,-1.3206499620048093
-0.007297217154670878,-0.0065060908434091584,-1.3169426110237734
-0.007295427154670878,-0.010204315695992958,-1.3169426110237734
-0.007293637154670878,-0.013902540548576758,-1.3169426110237734
-0.007291847154670877,-0.010204315695992958,-1.320649962004811
-0.007290057154670878,-0.010204315695992958,-1.320649962004811
-0.007288267154670878,-0.013902540548576758,-1.320649962004811
-0.007286477154670878,-0.010204315695992958,-1.320649962004811
-0.007284687154670877,-0.010204315695991277,-1.3169426110237752
-0.007282897154670878,-0.0065060908434091584,-1.320649962004811
-0.007281107154670878,-0.010204315695992958,-1.320649962004811
-0.007279317154670878,-0.010204315695992958,-1.320649962004811
-0.0072775271546708774,-0.010204315695992958,-1.320649962004811
-0.007275737154670878,-0.0065060908434091584,-1.320649962004811
-0.007273947154670878,-0.013902540548576758,-1.3243573129858488
-0.007272157154670878,-0.013902540548576758,-1.320649962004811
-0.0072703671546708775,-0.013902540548576758,-1.3169426110237734
-0.007268577154670878,-0.010204315695992958,-1.3169426110237734
-0.007266787154670878,-0.013902540548576758,-1.3169426110237734
-0.007264997154670878,-0.017600765401160557,-1.3132352600427357
-0.0072632071546708775,-0.010204315695992958,-1.320649962004811
-0.007261417154670878,-0.013902540548576758,-1.3169426110237734
-0.007259627154670878,-0.013902540548576758,-1.320649962004811
-0.007257837154670878,-0.013902540548576758,-1.3169426110237734
-0.0072560471546708775,-0.013902540548576758,-1.3169426110237734
-0.007254257154670878,-0.017600765401160557,-1.320649962004811
-0.007252467154670878,-0.013902540548576758,-1.320649962004811
-0.007250677154670878,-0.017600765401160557,-1.3132352600427357
-0.0072488871546708775,-0.017600765401160557,-1.320649962004811
-0.007247097154670878,-0.017600765401160557,-1.320649962004811
-0.007245307154670878,-0.010204315695992958,-1.3169426110237734
-0.007243517154670878,-0.013902540548576758,-1.3169426110237734
-0.0072417271546708776,-0.013902540548576758,-1.3169426110237734
-0.007239937154670878,-0.010204315695992958,-1.320649962004811
-0.007238147154670878,-0.013902540548576758,-1.320649962004811
-0.007236357154670878,-0.017600765401160557,-1.3169426110237734
-0.007234567154670878,-0.017600765401160557,-1.320649962004811
-0.007232777154670878,-0.013902540548576758,-1.3243573129858488
-0.007230987154670878,-0.010204315695992958,-1.3169426110237734
-0.007229197154670878,-0.013902540548576758,-1.3169426110237734
-0.007227407154670878,-0.021298990253744356,-1.320649962004811
-0.007225617154670878,-0.017600765401160557,-1.3169426110237734
-0.007223827154670878,-0.021298990253744356,-1.3169426110237734
-0.007222037154670878,-0.01760076540116224,-1.3169426110237734
-0.007220247154670878,-0.013902540548576758,-1.3243573129858488
-0.007218457154670878,-0.013902540548576758,-1.320649962004811
-0.007216667154670878,-0.021298990253744356,-1.3169426110237734
-0.007214877154670877,-0.021298990253742673,-1.320649962004811
-0.007213087154670878,-0.017600765401160557,-1.320649962004811
-0.007211297154670878,-0.021298990253744356,-1.3169426110237734
-0.007209507154670878,-0.021298990253744356,-1.3169426110237734
-0.0072077171546708774,-0.021298990253744356,-1.320649962004811
-0.007205927154670878,-0.024997215106328158,-1.3169426110237734
-0.007204137154670878,-0.017600765401160557,-1.320649962004811
-0.007202347154670878,-0.021298990253744356,-1.320649962004811
-0.0072005571546708775,-0.017600765401160557,-1.320649962004811
-0.007198767154670878,-0.017600765401160557,-1.320649962004811
-0.007196977154670878,-0.017600765401160557,-1.320649962004811
-0.007195187154670878,-0.021298990253744356,-1.320649962004811
-0.0071933971546708775,-0.021298990253744356,-1.3243573129858488
-0.007191607154670878,-0.021298990253744356,-1.320649962004811
-0.007189817154670878,-0.021298990253744356,-1.3169426110237734
-0.007188027154670878,-0.017600765401160557,-1.320649962004811
