100Hz/acq0080.csv

#Digilent WaveForms Oscilloscope Acquisition
#Device Name: Discovery2
#Serial Number: SN:210321AA28BE
#Date Time: 2023-05-24 14:48:32.557
#Sample rate: 558659Hz
#Samples: 8192
#Trigger: Source: Channel 1 Type: Edge Condition: Rising Level: 800 mV Hyst.: Auto HoldOff: 100 ns
#Channel 1: Range: 1 V/div Offset: 0 V Attenuation: 1 X Sample Mode: Average
#Channel 2: Range: 1 V/div Offset: 0 V Attenuation: 1 X Sample Mode: Average

Time (s),Channel 1 (V),Channel 2 (V)
-0.007742360148935828,0.03787260738759644,-1.3243573129858488
-0.0077405701489358285,0.03787260738759644,-1.3169426110237767
-0.007738780148935828,0.04157083224018024,-1.3169426110237734
-0.007736990148935828,0.04157083224018024,-1.3132352600427357
-0.007735200148935828,0.045269057092764034,-1.3169426110237734
-0.007733410148935828,0.037872607387598116,-1.320649962004811
-0.007731620148935828,0.04157083224018024,-1.320649962004811
-0.007729830148935828,0.045269057092764034,-1.320649962004811
-0.007728040148935828,0.04157083224018024,-1.3169426110237734
-0.007726250148935828,0.03787260738759644,-1.3169426110237734
-0.007724460148935828,0.03787260738759644,-1.3169426110237734
-0.007722670148935828,0.04157083224018024,-1.3169426110237734
-0.007720880148935828,0.04157083224018024,-1.3169426110237734
-0.007719090148935828,0.03787260738759644,-1.3169426110237734
-0.007717300148935828,0.03787260738759644,-1.3169426110237734
-0.007715510148935828,0.03047615768242884,-1.3169426110237734
-0.007713720148935828,0.034174382535012635,-1.320649962004811
-0.007711930148935828,0.03047615768242884,-1.3169426110237734
-0.007710140148935828,0.03047615768242884,-1.3169426110237734
-0.007708350148935828,0.034174382535012635,-1.3132352600427357
-0.007706560148935828,0.03787260738759644,-1.320649962004811
-0.007704770148935828,0.045269057092764034,-1.3243573129858488
-0.007702980148935828,0.034174382535012635,-1.3243573129858488
-0.007701190148935828,0.034174382535012635,-1.320649962004811
-0.007699400148935828,0.034174382535012635,-1.320649962004811
-0.007697610148935828,0.03047615768242884,-1.320649962004811
-0.007695820148935828,0.03047615768242884,-1.320649962004811
-0.007694030148935828,0.034174382535012635,-1.320649962004811
-0.0076922401489358284,0.034174382535012635,-1.3169426110237734
-0.007690450148935828,0.03047615768242884,-1.320649962004811
-0.007688660148935828,0.034174382535012635,-1.320649962004811
-0.007686870148935828,0.034174382535012635,-1.320649962004811
-0.0076850801489358285,0.03047615768242884,-1.3243573129858488
-0.007683290148935828,0.03047615768242884,-1.3169426110237734
-0.007681500148935828,0.026777932829845037,-1.320649962004811
-0.007679710148935828,0.03047615768242884,-1.320649962004811
-0.0076779201489358285,0.026777932829845037,-1.3169426110237734
-0.007676130148935828,0.026777932829845037,-1.3169426110237734
-0.007674340148935828,0.03047615768242884,-1.3169426110237734
-0.007672550148935828,0.03047615768242884,-1.3132352600427357
-0.0076707601489358285,0.03047615768242884,-1.3243573129858437
-0.007668970148935828,0.02307970797726124,-1.3169426110237734
-0.007667180148935828,0.02307970797726124,-1.320649962004811
-0.007665390148935828,0.02307970797726124,-1.320649962004811
-0.007663600148935828,0.02307970797726124,-1.320649962004811
-0.007661810148935828,0.02307970797726124,-1.320649962004811
-0.007660020148935828,0.026777932829845037,-1.3169426110237734
-0.007658230148935828,0.02307970797726124,-1.3169426110237734
-0.007656440148935828,0.02307970797726292,-1.3169426110237734
-0.007654650148935828,0.026777932829845037,-1.3169426110237734
-0.007652860148935828,0.01938148312467744,-1.3169426110237734
-0.007651070148935828,0.02307970797726124,-1.3169426110237734
-0.007649280148935828,0.01938148312467744,-1.320649962004811
-0.007647490148935828,0.01938148312467744,-1.320649962004811
-0.007645700148935828,0.01938148312467744,-1.3169426110237734
-0.007643910148935828,0.01198503341950984,-1.320649962004811
-0.007642120148935828,0.02307970797726124,-1.3169426110237734
-0.007640330148935828,0.01938148312467744,-1.3169426110237734
-0.007638540148935828,0.01938148312467744,-1.320649962004811
-0.007636750148935828,0.015683258272093638,-1.3169426110237734
-0.007634960148935828,0.01938148312467744,-1.320649962004811
-0.007633170148935828,0.02307970797726124,-1.320649962004811
-0.007631380148935828,0.015683258272093638,-1.3169426110237734
-0.007629590148935828,0.015683258272093638,-1.320649962004811
-0.007627800148935828,0.01938148312467744,-1.320649962004811
-0.007626010148935828,0.02307970797726124,-1.3243573129858488
-0.007624220148935828,0.02307970797726124,-1.3243573129858488
-0.007622430148935828,0.015683258272093638,-1.320649962004811
-0.007620640148935828,0.015683258272093638,-1.320649962004811
-0.007618850148935828,0.01938148312467744,-1.3169426110237734
-0.007617060148935828,0.015683258272093638,-1.3169426110237734
-0.0076152701489358285,0.015683258272093638,-1.3243573129858488
-0.007613480148935828,0.01938148312467744,-1.3169426110237734
-0.007611690148935828,0.01938148312467744,-1.320649962004811
-0.007609900148935828,0.01938148312467744,-1.3169426110237734
-0.0076081101489358285,0.015683258272093638,-1.3243573129858488
-0.007606320148935828,0.015683258272093638,-1.3169426110237734
-0.007604530148935828,0.01198503341950984,-1.320649962004811
-0.007602740148935828,0.01198503341950984,-1.3243573129858488
-0.0076009501489358285,0.01198503341950984,-1.320649962004811
-0.007599160148935828,0.01198503341950984,-1.3169426110237734
-0.007597370148935828,0.015683258272093638,-1.3169426110237734
-0.007595580148935828,0.01198503341950984,-1.3169426110237734
-0.0075937901489358285,0.008286808566927723,-1.3169426110237734
-0.007592000148935828,0.015683258272093638,-1.3169426110237734
-0.007590210148935828,0.01198503341950984,-1.3169426110237734
-0.007588420148935828,0.00458858371434224,-1.320649962004811
-0.007586630148935828,0.00828680856692604,-1.3206499620048093
-0.007584840148935828,0.00828680856692604,-1.3169426110237734
-0.007583050148935828,0.01198503341950984,-1.3169426110237734
-0.007581260148935828,0.01198503341950984,-1.320649962004811
-0.007579470148935828,0.01198503341950984,-1.3243573129858488
-0.007577680148935828,0.00458858371434224,-1.320649962004811
-0.007575890148935828,0.01198503341950984,-1.320649962004811
-0.007574100148935828,0.00828680856692604,-1.320649962004811
-0.007572310148935828,0.00458858371434224,-1.320649962004811
-0.007570520148935828,0.00828680856692604,-1.3169426110237734
-0.007568730148935828,0.00458858371434224,-1.320649962004811
-0.007566940148935828,0.00828680856692604,-1.320649962004811
-0.007565150148935828,0.01198503341950984,-1.320649962004811
-0.007563360148935828,0.00828680856692604,-1.320649962004811
-0.007561570148935828,0.00828680856692604,-1.320649962004811
-0.007559780148935828,0.00828680856692604,-1.3243573129858488
-0.007557990148935828,0.00458858371434224,-1.320649962004811
-0.007556200148935828,0.00828680856692604,-1.320649962004811
-0.007554410148935828,0.00828680856692604,-1.3169426110237734
-0.007552620148935828,0.00458858371434224,-1.320649962004811
-0.007550830148935828,0.00458858371434224,-1.3243573129858488
-0.007549040148935828,0.00458858371434224,-1.320649962004811
-0.007547250148935828,0.01198503341950984,-1.320649962004811
-0.0075454601489358284,0.00458858371434224,-1.320649962004811
-0.007543670148935828,0.0008903588617584406,-1.3243573129858488
-0.007541880148935828,0.00458858371434224,-1.320649962004811
-0.007540090148935828,0.0008903588617584406,-1.3243573129858488
-0.0075383001489358285,0.0008903588617584406,-1.3243573129858488
-0.007536510148935828,0.0008903588617584406,-1.3243573129858488
-0.007534720148935828,0.00458858371434224,-1.3243573129858488
-0.007532930148935828,0.00458858371434224,-1.3243573129858488
-0.0075311401489358285,0.00828680856692604,-1.320649962004811
-0.007529350148935828,0.00458858371434224,-1.320649962004811
-0.007527560148935828,0.0008903588617584406,-1.320649962004811
-0.007525770148935828,-0.002807865990825359,-1.3169426110237734
-0.0075239801489358285,-0.006506090843407477,-1.3169426110237734
-0.007522190148935828,-0.002807865990825359,-1.320649962004811
-0.007520400148935828,0.0008903588617584406,-1.3169426110237734
-0.007518610148935828,0.0008903588617584406,-1.3169426110237734
-0.0075168201489358285,-0.002807865990823677,-1.3169426110237734
-0.007515030148935828,-0.002807865990825359,-1.3169426110237734
-0.007513240148935828,-0.002807865990825359,-1.320649962004811
-0.007511450148935828,-0.002807865990825359,-1.3169426110237734
-0.007509660148935828,-0.002807865990823677,-1.320649962004811
-0.007507870148935828,0.0008903588617584406,-1.320649962004811
-0.007506080148935828,-0.002807865990825359,-1.3132352600427357
-0.007504290148935828,-0.0065060908434091584,-1.320649962004811
-0.007502500148935828,-0.010204315695992958,-1.320649962004811
-0.007500710148935828,-0.002807865990825359,-1.320649962004811
-0.007498920148935828,-0.002807865990825359,-1.320649962004811
-0.007497130148935828,-0.0065060908434091584,-1.320649962004811
-0.007495340148935828,-0.002807865990825359,-1.320649962004811
-0.007493550148935828,-0.0065060908434091584,-1.3169426110237734
-0.007491760148935828,-0.002807865990825359,-1.320649962004811
-0.007489970148935828,-0.002807865990825359,-1.3169426110237734
-0.007488180148935828,-0.002807865990825359,-1.3169426110237734
-0.007486390148935828,-0.0065060908434091584,-1.3169426110237734
-0.007484600148935828,-0.002807865990825359,-1.3243573129858488
-0.007482810148935828,-0.002807865990825359,-1.3243573129858488
-0.007481020148935828,-0.010204315695992958,-1.3243573129858488
-0.007479230148935828,-0.013902540548576758,-1.3243573129858488
-0.007477440148935828,-0.002807865990825359,-1.3243573129858488
-0.007475650148935828,-0.013902540548576758,-1.3169426110237734
-0.007473860148935828,-0.0065060908434091584,-1.320649962004811
-0.007472070148935828,-0.0065060908434091584,-1.320649962004811
-0.007470280148935828,-0.002807865990825359,-1.3169426110237734
-0.0074684901489358285,-0.0065060908434091584,-1.320649962004811
-0.007466700148935828,-0.010204315695992958,-1.3169426110237734
-0.007464910148935828,-0.010204315695992958,-1.3243573129858488
-0.007463120148935828,-0.013902540548576758,-1.320649962004811
-0.0074613301489358285,-0.010204315695992958,-1.320649962004811
-0.007459540148935828,-0.013902540548576758,-1.320649962004811
-0.007457750148935828,-0.013902540548576758,-1.3169426110237734
-0.007455960148935828,-0.013902540548576758,-1.3243573129858488
-0.0074541701489358285,-0.013902540548576758,-1.320649962004811
-0.007452380148935828,-0.010204315695992958,-1.320649962004811
-0.007450590148935828,-0.013902540548576758,-1.320649962004811
-0.007448800148935828,-0.017600765401160557,-1.3169426110237734
-0.0074470101489358285,-0.013902540548578441,-1.3169426110237734
-0.007445220148935828,-0.017600765401160557,-1.320649962004811
-0.007443430148935828,-0.013902540548576758,-1.320649962004811
-0.007441640148935828,-0.010204315695992958,-1.3169426110237734
-0.007439850148935828,-0.017600765401160557,-1.320649962004811
-0.007438060148935828,-0.017600765401160557,-1.320649962004811
-0.007436270148935828,-0.021298990253744356,-1.320649962004811
-0.007434480148935828,-0.017600765401160557,-1.320649962004811
-0.007432690148935828,-0.013902540548576758,-1.3169426110237734
-0.007430900148935828,-0.010204315695992958,-1.3169426110237734
-0.007429110148935828,-0.017600765401160557,-1.3132352600427357
-0.007427320148935828,-0.017600765401160557,-1.3169426110237734
-0.007425530148935828,-0.013902540548576758,-1.320649962004811
-0.007423740148935828,-0.017600765401160557,-1.320649962004811
-0.007421950148935828,-0.013902540548576758,-1.320649962004811
-0.007420160148935828,-0.010204315695992958,-1.3243573129858488
-0.007418370148935828,-0.017600765401160557,-1.3243573129858488
-0.007416580148935828,-0.021298990253744356,-1.320649962004811
-0.007414790148935828,-0.021298990253744356,-1.320649962004811
-0.007413000148935828,-0.017600765401160557,-1.320649962004811
-0.007411210148935828,-0.017600765401160557,-1.320649962004811
-0.007409420148935828,-0.021298990253744356,-1.3169426110237734
-0.007407630148935828,-0.017600765401160557,-1.3169426110237734
-0.007405840148935828,-0.017600765401160557,-1.309527909061698
-0.007404050148935828,-0.017600765401160557,-1.3169426110237734
-0.007402260148935828,-0.021298990253744356,-1.320649962004811
-0.007400470148935828,-0.024997215106328158,-1.320649962004811
-0.0073986801489358284,-0.021298990253744356,-1.3243573129858488
-0.007396890148935828,-0.024997215106328158,-1.320649962004811
-0.007395100148935828,-0.017600765401160557,-1.320649962004811
-0.007393310148935828,-0.024997215106328158,-1.3243573129858488
-0.0073915201489358285,-0.017600765401160557,-1.320649962004811
-0.007389730148935828,-0.024997215106328158,-1.320649962004811
-0.007387940148935828,-0.024997215106328158,-1.320649962004811
-0.007386150148935828,-0.024997215106328158,-1.320649962004811
-0.0073843601489358285,-0.021298990253744356,-1.320649962004811
-0.007382570148935828,-0.021298990253744356,-1.3169426110237734
-0.007380780148935828,-0.021298990253744356,-1.320649962004811
-0.007378990148935828,-0.021298990253744356,-1.3169426110237734
-0.0073772001489358285,-0.017600765401160557,-1.320649962004811
-0.007375410148935828,-0.024997215106328158,-1.3243573129858488
-0.007373620148935828,-0.021298990253744356,-1.320649962004811
-0.007371830148935828,-0.024997215106328158,-1.320649962004811
-0.0073700401489358285,-0.024997215106328158,-1.320649962004811
-0.007368250148935828,-0.021298990253744356,-1.3243573129858488
-0.007366460148935828,-0.021298990253744356,-1.3169426110237734
-0.007364670148935828,-0.024997215106328158,-1.3169426110237734
-0.007362880148935828,-0.02499721510632984,-1.3206499620048093
-0.007361090148935828,-0.028695439958911956,-1.3169426110237734
-0.007359300148935828,-0.024997215106328158,-1.320649962004811
-0.007357510148935828,-0.024997215106328158,-1.320649962004811
-0.007355720148935828,-0.024997215106328158,-1.3169426110237734
-0.007353930148935828,-0.021298990253744356,-1.3243573129858488
-0.007352140148935828,-0.028695439958911956,-1.3132352600427357
-0.007350350148935828,-0.028695439958911956,-1.3132352600427357
-0.007348560148935828,-0.028695439958911956,-1.3169426110237734
-0.007346770148935828,-0.028695439958911956,-1.320649962004811
-0.007344980148935828,-0.028695439958911956,-1.320649962004811
-0.007343190148935828,-0.032393664811495755,-1.320649962004811
-0.007341400148935828,-0.032393664811495755,-1.3169426110237734
-0.007339610148935828,-0.032393664811495755,-1.3169426110237734
-0.007337820148935828,-0.024997215106328158,-1.3169426110237734
-0.007336030148935828,-0.021298990253744356,-1.320649962004811
-0.007334240148935828,-0.024997215106328158,-1.320649962004811
-0.007332450148935828,-0.024997215106328158,-1.320649962004811
-0.007330660148935828,-0.024997215106328158,-1.320649962004811
-0.007328870148935828,-0.021298990253744356,-1.3169426110237734
-0.007327080148935828,-0.032393664811495755,-1.3169426110237734
-0.007325290148935828,-0.024997215106328158,-1.320649962004811
-0.007323500148935828,-0.028695439958911956,-1.3169426110237734
-0.0073217101489358285,-0.032393664811495755,-1.3169426110237734
-0.007319920148935828,-0.028695439958911956,-1.3243573129858488
-0.007318130148935828,-0.03609188966407956,-1.320649962004811
-0.007316340148935828,-0.03979011451666335,-1.3169426110237734
-0.0073145501489358285,-0.03609188966407956,-1.320649962004811
-0.007312760148935828,-0.03609188966407956,-1.320649962004811
-0.007310970148935828,-0.032393664811495755,-1.3169426110237734
-0.007309180148935828,-0.028695439958911956,-1.3169426110237734
-0.0073073901489358285,-0.028695439958911956,-1.3169426110237734
-0.007305600148935828,-0.028695439958911956,-1.320649962004811
-0.007303810148935828,-0.028695439958911956,-1.320649962004811
-0.007302020148935828,-0.032393664811495755,-1.3169426110237734
-0.0073002301489358285,-0.03609188966407788,-1.3243573129858455
-0.007298440148935828,-0.032393664811495755,-1.3132352600427357
-0.007296650148935828,-0.028695439958911956,-1.3169426110237734
-0.007294860148935828,-0.028695439958911956,-1.320649962004811
-0.007293070148935828,-0.03979011451665999,-1.320649962004811
-0.007291280148935828,-0.032393664811495755,-1.320649962004811
-0.007289490148935828,-0.028695439958911956,-1.3169426110237734
-0.007287700148935828,-0.03609188966407956,-1.3169426110237734
-0.007285910148935828,-0.032393664811495755,-1.3169426110237752
-0.007284120148935828,-0.032393664811495755,-1.320649962004811
-0.007282330148935828,-0.028695439958911956,-1.3169426110237734
-0.007280540148935828,-0.032393664811495755,-1.3169426110237734
-0.007278750148935828,-0.032393664811495755,-1.3243573129858488
-0.007276960148935828,-0.03609188966407956,-1.320649962004811
-0.007275170148935828,-0.03609188966407956,-1.3169426110237734
-0.007273380148935828,-0.043488339369247155,-1.320649962004811
-0.007271590148935828,-0.03979011451666335,-1.3169426110237734
-0.007269800148935828,-0.032393664811495755,-1.320649962004811
-0.007268010148935828,-0.03609188966407956,-1.320649962004811
-0.007266220148935828,-0.03979011451666335,-1.320649962004811
-0.007264430148935828,-0.03979011451666335,-1.320649962004811
-0.007262640148935828,-0.03609188966407956,-1.3169426110237734
-0.007260850148935828,-0.032393664811495755,-1.320649962004811
-0.007259060148935828,-0.03609188966407956,-1.3132352600427357
-0.007257270148935828,-0.032393664811495755,-1.3169426110237734
-0.007255480148935828,-0.03609188966407956,-1.3169426110237734
-0.007253690148935828,-0.03609188966407956,-1.3169426110237734
-0.0072519001489358284,-0.03979011451666335,-1.3132352600427357
-0.007250110148935828,-0.03609188966407956,-1.3243573129858488
-0.007248320148935828,-0.03979011451666335,-1.3169426110237734
-0.007246530148935828,-0.03979011451666335,-1.3132352600427357
-0.0072447401489358285,-0.043488339369247155,-1.3132352600427357
-0.007242950148935828,-0.043488339369247155,-1.3169426110237734
-0.007241160148935828,-0.03979011451666335,-1.3169426110237734
-0.007239370148935828,-0.03979011451666335,-1.320649962004811
-0.0072375801489358285,-0.03609188966407956,-1.320649962004811
-0.007235790148935828,-0.03979011451666335,-1.3169426110237734
-0.007234000148935828,-0.03609188966407956,-1.320649962004811
-0.007232210148935828,-0.03979011451666335,-1.320649962004811
-0.0072304201489358285,-0.03609188966407956,-1.3243573129858488
-0.007228630148935828,-0.03979011451666335,-1.320649962004811
-0.007226840148935828,-0.03979011451666335,-1.3169426110237734
-0.007225050148935828,-0.03609188966407956,-1.320649962004811
-0.0072232601489358285,-0.03979011451666167,-1.320649962004811
-0.007221470148935828,-0.043488339369247155,-1.320649962004811
-0.007219680148935828,-0.043488339369247155,-1.320649962004811
-0.007217890148935828,-0.043488339369247155,-1.3243573129858488
-0.007216100148935828,-0.03979011451666503,-1.3206499620048129
-0.007214310148935828,-0.043488339369247155,-1.3243573129858488
-0.007212520148935828,-0.043488339369247155,-1.3169426110237734
-0.007210730148935828,-0.043488339369247155,-1.320649962004811
-0.007208940148935828,-0.043488339369247155,-1.320649962004811
-0.007207150148935828,-0.043488339369247155,-1.3169426110237734
-0.007205360148935828,-0.043488339369247155,-1.3132352600427357
-0.007203570148935828,-0.043488339369247155,-1.3169426110237734
-0.007201780148935828,-0.03979011451666335,-1.3169426110237734
-0.007199990148935828,-0.04718656422183096,-1.320649962004811
-0.007198200148935828,-0.04718656422183096,-1.3169426110237734
-0.007196410148935828,-0.043488339369247155,-1.320649962004811
-0.007194620148935828,-0.043488339369247155,-1.3132352600427357
-0.007192830148935828,-0.043488339369247155,-1.320649962004811
-0.007191040148935828,-0.043488339369247155,-1.320649962004811
-0.007189250148935828,-0.05088478907441475,-1.3243573129858488
