100Hz/acq0006.csv

#Digilent WaveForms Oscilloscope Acquisition
#Device Name: Discovery2
#Serial Number: SN:210321AA28BE
#Date Time: 2023-05-24 14:48:30.398
#Sample rate: 558659Hz
#Samples: 8192
#Trigger: Source: Channel 1 Type: Edge Condition: Rising Level: 800 mV Hyst.: Auto HoldOff: 100 ns
#Channel 1: Range: 1 V/div Offset: 0 V Attenuation: 1 X Sample Mode: Average
#Channel 2: Range: 1 V/div Offset: 0 V Attenuation: 1 X Sample Mode: Average

Time (s),Channel 1 (V),Channel 2 (V)
-0.007740993321745729,0.023079707977257877,-1.3243573129858521
-0.007739203321745729,0.026777932829841672,-1.3206499620048144
-0.0077374133217457276,0.01938148312467744,-1.320649962004811
-0.007735623321745728,0.01938148312467744,-1.320649962004811
-0.007733833321745728,0.015683258272093638,-1.3169426110237734
-0.007732043321745728,0.015683258272093638,-1.3132352600427375
-0.0077302533217457284,0.011985033419511522,-1.3132352600427357
-0.007728463321745729,0.015683258272091955,-1.3169426110237716
-0.007726673321745729,0.019381483124675757,-1.3169426110237734
-0.007724883321745727,0.015683258272093638,-1.320649962004811
-0.007723093321745728,0.015683258272093638,-1.320649962004811
-0.007721303321745728,0.01938148312467744,-1.3169426110237734
-0.007719513321745728,0.015683258272093638,-1.3169426110237734
-0.007717723321745728,0.011985033419511522,-1.3132352600427375
-0.0077159333217457285,0.01198503341950984,-1.3132352600427357
-0.007714143321745729,0.01198503341950984,-1.3169426110237716
-0.007712353321745729,0.015683258272091955,-1.3169426110237734
-0.007710563321745727,0.015683258272093638,-1.3132352600427357
-0.007708773321745728,0.015683258272093638,-1.320649962004811
-0.007706983321745728,0.015683258272093638,-1.320649962004811
-0.007705193321745728,0.01198503341950984,-1.320649962004811
-0.007703403321745728,0.01198503341950984,-1.320649962004811
-0.0077016133217457285,0.008286808566927723,-1.3169426110237752
-0.007699823321745729,0.011985033419508156,-1.3169426110237734
-0.007698033321745729,0.015683258272091955,-1.3169426110237734
-0.0076962433217457275,0.01198503341950984,-1.3132352600427357
-0.007694453321745728,0.01198503341950984,-1.3169426110237734
-0.007692663321745728,0.01198503341950984,-1.3169426110237734
-0.007690873321745728,0.01198503341950984,-1.3169426110237734
-0.007689083321745728,0.004588583714345604,-1.3132352600427375
-0.007687293321745729,0.008286808566924358,-1.3169426110237716
-0.007685503321745729,0.0008903588617618042,-1.3169426110237734
-0.007683713321745729,0.008286808566919313,-1.3169426110237734
-0.0076819233217457275,0.01198503341950984,-1.320649962004811
-0.007680133321745728,0.01198503341950984,-1.3169426110237734
-0.007678343321745728,0.01198503341950984,-1.320649962004811
-0.007676553321745728,0.00828680856692604,-1.3169426110237734
-0.007674763321745728,0.011985033419508156,-1.3132352600427375
-0.007672973321745729,0.01198503341950984,-1.3206499620048078
-0.007671183321745729,0.008286808566927723,-1.3169426110237752
-0.007669393321745729,0.00828680856692604,-1.3169426110237734
-0.0076676033217457275,0.00828680856692604,-1.3169426110237734
-0.007665813321745728,0.0008903588617584406,-1.320649962004811
-0.007664023321745728,0.0008903588617584406,-1.320649962004811
-0.007662233321745728,0.004588583714340558,-1.3169426110237752
-0.0076604433217457284,0.00458858371434224,-1.3169426110237734
-0.007658653321745729,0.00458858371434224,-1.3206499620048093
-0.007656863321745729,0.008286808566924358,-1.3169426110237752
-0.007655073321745727,0.004588583714340558,-1.3169426110237734
-0.007653283321745728,0.0008903588617584406,-1.3169426110237734
-0.007651493321745728,0.0008903588617584406,-1.3132352600427357
-0.007649703321745728,0.00458858371434224,-1.320649962004811
-0.007647913321745728,0.0008903588617601224,-1.3169426110237752
-0.0076461233217457285,0.0008903588617584406,-1.3169426110237734
-0.007644333321745729,0.004588583714340558,-1.3169426110237734
-0.007642543321745729,0.0008903588617601224,-1.3206499620048093
-0.007640753321745727,-0.002807865990825359,-1.320649962004811
-0.007638963321745728,0.00458858371434224,-1.320649962004811
-0.007637173321745728,0.00458858371434224,-1.320649962004811
-0.007635383321745728,0.0008903588617584406,-1.3169426110237734
-0.007633593321745728,0.0008903588617584406,-1.3169426110237734
-0.0076318033217457285,0.004588583714340558,-1.3169426110237734
-0.007630013321745729,0.00458858371434224,-1.3169426110237734
-0.007628223321745729,0.0008903588617601224,-1.3169426110237734
-0.0076264333217457275,-0.002807865990825359,-1.320649962004811
-0.007624643321745728,0.0008903588617584406,-1.3169426110237734
-0.007622853321745728,-0.002807865990825359,-1.320649962004811
-0.007621063321745728,-0.0065060908434091584,-1.3169426110237734
-0.007619273321745728,-0.0065060908434091584,-1.3169426110237734
-0.0076174833217457286,-0.0028078659908270407,-1.3206499620048093
-0.007615693321745729,0.0008903588617567588,-1.320649962004811
-0.007613903321745729,-0.0028078659908219953,-1.3169426110237767
-0.0076121133217457275,-0.0065060908434091584,-1.3169426110237734
-0.007610323321745728,0.0008903588617584406,-1.320649962004811
-0.007608533321745728,0.0008903588617584406,-1.3243573129858488
-0.007606743321745728,-0.002807865990825359,-1.320649962004811
-0.007604953321745728,-0.002807865990825359,-1.3169426110237752
-0.007603163321745729,0.0008903588617567588,-1.3206499620048093
-0.007601373321745729,-0.002807865990823677,-1.320649962004811
-0.007599583321745729,-0.002807865990825359,-1.320649962004811
-0.0075977933217457275,0.0008903588617584406,-1.320649962004811
-0.007596003321745728,-0.002807865990825359,-1.3243573129858488
-0.007594213321745728,-0.0065060908434091584,-1.320649962004811
-0.007592423321745728,-0.0065060908434091584,-1.3169426110237752
-0.007590633321745728,-0.0065060908434091584,-1.3132352600427375
-0.007588843321745729,-0.0028078659908270407,-1.3169426110237716
-0.007587053321745729,-0.006506090843407477,-1.3206499620048093
-0.007585263321745727,-0.0065060908434091584,-1.3169426110237752
-0.007583473321745728,-0.0065060908434091584,-1.320649962004811
-0.007581683321745728,-0.0065060908434091584,-1.3169426110237734
-0.007579893321745728,-0.0065060908434091584,-1.3169426110237734
-0.007578103321745728,-0.0028078659908270407,-1.3206499620048093
-0.0075763133217457285,-0.002807865990825359,-1.320649962004811
-0.007574523321745729,-0.006506090843407477,-1.3169426110237752
-0.007572733321745729,-0.0065060908434091584,-1.3169426110237734
-0.007570943321745727,-0.010204315695992958,-1.3169426110237734
-0.007569153321745728,-0.010204315695992958,-1.3169426110237734
-0.007567363321745728,-0.013902540548576758,-1.320649962004811
-0.007565573321745728,-0.010204315695992958,-1.3169426110237734
-0.007563783321745728,-0.010204315695992958,-1.3169426110237734
-0.0075619933217457285,-0.00650609084341084,-1.3169426110237734
-0.007560203321745729,-0.010204315695991277,-1.3206499620048093
-0.007558413321745729,-0.013902540548575076,-1.3169426110237752
-0.0075566233217457274,-0.013902540548576758,-1.320649962004811
-0.007554833321745728,-0.013902540548576758,-1.320649962004811
-0.007553043321745728,-0.010204315695992958,-1.3132352600427357
-0.007551253321745728,-0.013902540548576758,-1.3169426110237734
-0.007549463321745728,-0.017600765401158874,-1.3169426110237734
-0.0075476733217457286,-0.010204315695996322,-1.3169426110237734
-0.007545883321745729,-0.013902540548575076,-1.3206499620048093
-0.007544093321745729,-0.013902540548576758,-1.3169426110237752
-0.0075423033217457275,-0.013902540548576758,-1.3169426110237734
-0.007540513321745728,-0.010204315695992958,-1.3169426110237734
-0.007538723321745728,-0.013902540548576758,-1.320649962004811
-0.007536933321745728,-0.017600765401160557,-1.3169426110237734
-0.007535143321745728,-0.013902540548578441,-1.3243573129858455
-0.007533353321745729,-0.013902540548576758,-1.3169426110237767
-0.007531563321745729,-0.013902540548576758,-1.3206499620048093
-0.007529773321745729,-0.013902540548576758,-1.3169426110237767
-0.0075279833217457275,-0.013902540548576758,-1.3169426110237734
-0.007526193321745728,-0.017600765401160557,-1.3169426110237734
-0.007524403321745728,-0.013902540548576758,-1.320649962004811
-0.007522613321745728,-0.017600765401158874,-1.324357312985847
-0.007520823321745728,-0.017600765401160557,-1.3206499620048129
-0.007519033321745729,-0.017600765401160557,-1.320649962004811
-0.007517243321745729,-0.017600765401160557,-1.3169426110237752
-0.007515453321745729,-0.017600765401160557,-1.3169426110237734
-0.007513663321745728,-0.013902540548576758,-1.3132352600427357
-0.007511873321745728,-0.010204315695992958,-1.3169426110237734
-0.007510083321745728,-0.013902540548576758,-1.320649962004811
-0.007508293321745728,-0.013902540548576758,-1.3169426110237752
-0.0075065033217457285,-0.017600765401158874,-1.3206499620048093
-0.007504713321745729,-0.013902540548578441,-1.320649962004811
-0.007502923321745729,-0.017600765401158874,-1.324357312985847
-0.007501133321745727,-0.021298990253744356,-1.3169426110237734
-0.007499343321745728,-0.021298990253744356,-1.320649962004811
-0.007497553321745728,-0.021298990253744356,-1.3132352600427357
-0.007495763321745728,-0.021298990253744356,-1.320649962004811
-0.007493973321745728,-0.01760076540116224,-1.320649962004811
-0.0074921833217457285,-0.021298990253742673,-1.3169426110237752
-0.007490393321745729,-0.021298990253744356,-1.3206499620048093
-0.007488603321745729,-0.01760076540116224,-1.320649962004811
-0.007486813321745727,-0.017600765401160557,-1.320649962004811
-0.007485023321745728,-0.021298990253744356,-1.3169426110237734
-0.007483233321745728,-0.017600765401160557,-1.320649962004811
-0.007481443321745728,-0.024997215106328158,-1.3169426110237734
-0.007479653321745728,-0.01760076540116392,-1.3169426110237734
-0.0074778633217457285,-0.017600765401160557,-1.3169426110237734
-0.007476073321745729,-0.021298990253742673,-1.3243573129858455
-0.007474283321745729,-0.024997215106326475,-1.3169426110237767
-0.0074724933217457275,-0.017600765401160557,-1.3169426110237734
-0.007470703321745728,-0.024997215106328158,-1.3132352600427357
-0.007468913321745728,-0.021298990253744356,-1.3169426110237734
-0.007467123321745728,-0.028695439958911956,-1.3132352600427357
-0.007465333321745728,-0.02499721510632984,-1.3206499620048078
-0.007463543321745729,-0.024997215106328158,-1.3169426110237752
-0.007461753321745729,-0.024997215106328158,-1.3132352600427375
-0.007459963321745729,-0.024997215106328158,-1.31694261102377
-0.0074581733217457275,-0.024997215106328158,-1.3169426110237734
-0.007456383321745728,-0.032393664811495755,-1.320649962004811
-0.007454593321745728,-0.032393664811495755,-1.3132352600427357
-0.007452803321745728,-0.028695439958911956,-1.3169426110237734
-0.007451013321745728,-0.028695439958911956,-1.3169426110237734
-0.007449223321745729,-0.028695439958911956,-1.3206499620048093
-0.007447433321745729,-0.02499721510632984,-1.320649962004811
-0.007445643321745729,-0.024997215106328158,-1.3169426110237767
-0.0074438533217457276,-0.024997215106328158,-1.320649962004811
-0.007442063321745728,-0.032393664811495755,-1.3243573129858488
-0.007440273321745728,-0.028695439958911956,-1.320649962004811
-0.007438483321745728,-0.028695439958911956,-1.324357312985847
-0.0074366933217457284,-0.028695439958911956,-1.3206499620048129
-0.007434903321745729,-0.02499721510632984,-1.320649962004811
-0.007433113321745729,-0.028695439958910274,-1.313235260042739
-0.007431323321745727,-0.028695439958911956,-1.3169426110237734
-0.007429533321745728,-0.032393664811495755,-1.309527909061698
-0.007427743321745728,-0.028695439958911956,-1.3132352600427357
-0.007425953321745728,-0.028695439958911956,-1.3169426110237734
-0.007424163321745728,-0.032393664811494076,-1.3206499620048093
-0.0074223733217457285,-0.032393664811495755,-1.324357312985847
-0.007420583321745729,-0.02869543995891364,-1.3169426110237767
-0.007418793321745729,-0.032393664811494076,-1.3169426110237734
-0.007417003321745727,-0.032393664811495755,-1.320649962004811
-0.007415213321745728,-0.028695439958911956,-1.320649962004811
-0.007413423321745728,-0.032393664811495755,-1.320649962004811
-0.007411633321745728,-0.024997215106328158,-1.3169426110237734
-0.007409843321745728,-0.03609188966407451,-1.3169426110237734
-0.0074080533217457285,-0.03609188966407956,-1.3206499620048093
-0.007406263321745729,-0.03609188966407956,-1.320649962004811
-0.007404473321745729,-0.02869543995891532,-1.3169426110237752
-0.0074026833217457275,-0.03609188966407956,-1.3169426110237734
-0.007400893321745728,-0.032393664811495755,-1.320649962004811
-0.007399103321745728,-0.03609188966407956,-1.3169426110237734
-0.007397313321745728,-0.03609188966407956,-1.3169426110237734
-0.007395523321745728,-0.032393664811497434,-1.3169426110237734
-0.007393733321745729,-0.02869543995891364,-1.3169426110237734
-0.007391943321745729,-0.032393664811494076,-1.3169426110237734
-0.007390153321745729,-0.03979011451665662,-1.313235260042739
-0.0073883633217457275,-0.03609188966407956,-1.3169426110237734
-0.007386573321745728,-0.03609188966407956,-1.3132352600427357
-0.007384783321745728,-0.032393664811495755,-1.309527909061698
-0.007382993321745728,-0.03609188966407956,-1.3169426110237734
-0.007381203321745728,-0.03609188966407956,-1.3169426110237734
-0.007379413321745729,-0.032393664811497434,-1.3169426110237734
-0.007377623321745729,-0.03609188966407788,-1.3206499620048093
-0.007375833321745729,-0.03609188966407956,-1.3169426110237767
-0.0073740433217457275,-0.028695439958911956,-1.3169426110237734
-0.007372253321745728,-0.03609188966407956,-1.320649962004811
-0.007370463321745728,-0.028695439958911956,-1.3169426110237734
-0.007368673321745728,-0.032393664811494076,-1.3169426110237734
-0.0073668833217457284,-0.03609188966407788,-1.3132352600427375
-0.007365093321745729,-0.03979011451666167,-1.3169426110237716
-0.007363303321745729,-0.036091889664081236,-1.3169426110237734
-0.007361513321745727,-0.03979011451666335,-1.320649962004811
-0.007359723321745728,-0.03979011451666335,-1.320649962004811
-0.007357933321745728,-0.03609188966407956,-1.3169426110237734
-0.007356143321745728,-0.03979011451666335,-1.320649962004811
-0.007354353321745728,-0.03979011451666335,-1.320649962004811
-0.0073525633217457285,-0.043488339369245475,-1.320649962004811
-0.007350773321745729,-0.03979011451666503,-1.324357312985847
-0.007348983321745729,-0.043488339369245475,-1.3132352600427408
-0.007347193321745727,-0.03979011451666335,-1.3169426110237734
-0.007345403321745728,-0.03609188966407956,-1.3132352600427357
-0.007343613321745728,-0.03979011451666335,-1.3169426110237734
-0.007341823321745728,-0.03979011451666335,-1.3169426110237734
-0.007340033321745728,-0.03979011451666335,-1.3132352600427375
-0.0073382433217457285,-0.036091889664081236,-1.3169426110237716
-0.007336453321745729,-0.03979011451666167,-1.3169426110237734
-0.007334663321745729,-0.043488339369245475,-1.3169426110237734
-0.0073328733217457275,-0.043488339369247155,-1.320649962004811
-0.007331083321745728,-0.043488339369247155,-1.3132352600427357
-0.007329293321745728,-0.043488339369247155,-1.3132352600427357
-0.007327503321745728,-0.04718656422183096,-1.3169426110237734
-0.007325713321745728,-0.043488339369248834,-1.3169426110237734
-0.0073239233217457286,-0.03979011451666503,-1.3169426110237734
-0.007322133321745729,-0.03979011451666335,-1.3169426110237734
-0.007320343321745729,-0.03979011451666335,-1.3169426110237734
-0.0073185533217457275,-0.043488339369247155,-1.3169426110237734
-0.007316763321745728,-0.043488339369247155,-1.320649962004811
-0.007314973321745728,-0.03979011451666335,-1.3169426110237734
-0.007313183321745728,-0.03979011451666335,-1.320649962004811
-0.007311393321745728,-0.043488339369245475,-1.3169426110237752
-0.007309603321745729,-0.04718656422182928,-1.3132352600427375
-0.007307813321745729,-0.043488339369248834,-1.3132352600427357
-0.007306023321745729,-0.03979011451666672,-1.31694261102377
-0.0073042333217457275,-0.03979011451666335,-1.3169426110237734
-0.007302443321745728,-0.03979011451666335,-1.3169426110237734
-0.007300653321745728,-0.03979011451666335,-1.3169426110237734
-0.007298863321745728,-0.03979011451666335,-1.3132352600427375
-0.007297073321745728,-0.043488339369245475,-1.3169426110237716
-0.007295283321745729,-0.043488339369247155,-1.3206499620048093
-0.007293493321745729,-0.04718656422182928,-1.324357312985847
-0.007291703321745727,-0.043488339369245475,-1.3169426110237752
-0.007289913321745728,-0.03979011451666335,-1.320649962004811
-0.007288123321745728,-0.043488339369247155,-1.320649962004811
-0.007286333321745728,-0.043488339369247155,-1.3169426110237734
-0.007284543321745728,-0.04718656422182928,-1.3169426110237734
-0.0072827533217457285,-0.043488339369248834,-1.3169426110237734
-0.007280963321745729,-0.03979011451666503,-1.3169426110237734
-0.007279173321745729,-0.04718656422182759,-1.3132352600427375
-0.007277383321745727,-0.04718656422183096,-1.3169426110237734
-0.007275593321745728,-0.04718656422183096,-1.3169426110237734
-0.007273803321745728,-0.05088478907441475,-1.3132352600427357
-0.007272013321745728,-0.05088478907441475,-1.320649962004811
-0.007270223321745728,-0.05088478907441475,-1.3169426110237752
-0.0072684333217457285,-0.047186564221832636,-1.3132352600427375
-0.007266643321745729,-0.05088478907441307,-1.3169426110237716
-0.007264853321745729,-0.047186564221832636,-1.3206499620048093
-0.0072630633217457274,-0.05088478907441475,-1.3169426110237734
-0.007261273321745728,-0.04718656422183096,-1.3169426110237734
-0.007259483321745728,-0.04718656422183096,-1.3169426110237734
-0.007257693321745728,-0.04718656422183096,-1.3132352600427357
-0.007255903321745728,-0.05088478907441307,-1.3169426110237716
-0.0072541133217457286,-0.05088478907441475,-1.3169426110237734
-0.007252323321745729,-0.047186564221832636,-1.3206499620048093
-0.007250533321745729,-0.04718656422183096,-1.3169426110237752
-0.0072487433217457275,-0.05088478907441475,-1.320649962004811
-0.007246953321745728,-0.05088478907441475,-1.320649962004811
-0.007245163321745728,-0.05088478907441475,-1.3169426110237734
-0.007243373321745728,-0.05088478907441475,-1.3169426110237734
-0.007241583321745728,-0.054583013926996875,-1.3169426110237734
-0.007239793321745729,-0.05088478907441643,-1.3169426110237734
-0.007238003321745729,-0.05088478907441475,-1.3132352600427375
-0.007236213321745729,-0.04718656422183432,-1.31694261102377
-0.0072344233217457275,-0.04718656422183096,-1.3169426110237734
-0.007232633321745728,-0.043488339369247155,-1.320649962004811
-0.007230843321745728,-0.043488339369247155,-1.320649962004811
-0.007229053321745728,-0.05088478907441475,-1.320649962004811
-0.007227263321745728,-0.05088478907441475,-1.3169426110237752
-0.007225473321745729,-0.05088478907441475,-1.3132352600427375
-0.007223683321745729,-0.047186564221832636,-1.3206499620048078
-0.007221893321745729,-0.04718656422183096,-1.320649962004811
-0.007220103321745728,-0.043488339369247155,-1.3132352600427357
-0.007218313321745728,-0.054583013926998554,-1.3169426110237734
-0.007216523321745728,-0.04718656422183096,-1.320649962004811
-0.007214733321745728,-0.05088478907441307,-1.3169426110237752
-0.0072129433217457285,-0.047186564221832636,-1.3206499620048093
-0.007211153321745729,-0.05088478907441307,-1.320649962004811
-0.007209363321745729,-0.054583013926996875,-1.3169426110237752
-0.007207573321745727,-0.05088478907441475,-1.3169426110237734
-0.007205783321745728,-0.04718656422183096,-1.3169426110237734
-0.007203993321745728,-0.05088478907441475,-1.3132352600427357
-0.007202203321745728,-0.05088478907441475,-1.3169426110237734
-0.007200413321745728,-0.058281238779578984,-1.3206499620048093
-0.0071986233217457285,-0.05458301392700023,-1.3169426110237752
-0.007196833321745729,-0.05088478907441643,-1.3243573129858455
-0.007195043321745729,-0.054583013926996875,-1.3169426110237767
-0.007193253321745727,-0.054583013926998554,-1.3169426110237734
-0.007191463321745728,-0.05088478907441475,-1.3132352600427357
