100Hz/acq0041.csv

#Digilent WaveForms Oscilloscope Acquisition
#Device Name: Discovery2
#Serial Number: SN:210321AA28BE
#Date Time: 2023-05-24 14:48:31.424
#Sample rate: 558659Hz
#Samples: 8192
#Trigger: Source: Channel 1 Type: Edge Condition: Rising Level: 800 mV Hyst.: Auto HoldOff: 100 ns
#Channel 1: Range: 1 V/div Offset: 0 V Attenuation: 1 X Sample Mode: Average
#Channel 2: Range: 1 V/div Offset: 0 V Attenuation: 1 X Sample Mode: Average

Time (s),Channel 1 (V),Channel 2 (V)
-0.00774139700871779,0.015683258272093638,-1.3132352600427357
-0.00773960700871779,0.004588583714347285,-1.3132352600427357
-0.00773781700871779,0.01198503341950984,-1.3169426110237734
-0.00773602700871779,0.00828680856692604,-1.3132352600427357
-0.00773423700871779,0.01198503341950984,-1.320649962004811
-0.0077324470087177894,0.015683258272091955,-1.3169426110237752
-0.00773065700871779,0.01198503341950984,-1.320649962004811
-0.00772886700871779,0.01198503341950984,-1.320649962004811
-0.00772707700871779,0.01198503341950984,-1.3169426110237734
-0.0077252870087177895,0.01198503341950984,-1.320649962004811
-0.00772349700871779,0.00828680856692604,-1.3169426110237734
-0.00772170700871779,0.00828680856692604,-1.3169426110237734
-0.00771991700871779,0.00458858371434224,-1.320649962004811
-0.0077181270087177895,0.0008903588617584406,-1.320649962004811
-0.00771633700871779,0.00828680856692604,-1.320649962004811
-0.00771454700871779,0.00828680856692604,-1.3169426110237734
-0.00771275700871779,0.00828680856692604,-1.3169426110237734
-0.0077109670087177895,0.00828680856692604,-1.320649962004811
-0.00770917700871779,0.01198503341950984,-1.320649962004811
-0.00770738700871779,0.00828680856692604,-1.3243573129858488
-0.00770559700871779,0.00828680856692604,-1.3169426110237734
-0.0077038070087177895,0.01198503341950984,-1.3169426110237734
-0.00770201700871779,0.00458858371434224,-1.3169426110237734
-0.00770022700871779,0.00458858371434224,-1.320649962004811
-0.00769843700871779,0.00828680856692604,-1.3169426110237734
-0.0076966470087177895,0.00458858371434224,-1.3169426110237734
-0.00769485700871779,0.0008903588617584406,-1.3132352600427357
-0.00769306700871779,0.00458858371434224,-1.320649962004811
-0.00769127700871779,0.00458858371434224,-1.320649962004811
-0.00768948700871779,0.0008903588617584406,-1.320649962004811
-0.00768769700871779,0.00458858371434224,-1.3169426110237734
-0.00768590700871779,0.0008903588617584406,-1.320649962004811
-0.00768411700871779,0.00458858371434224,-1.3169426110237734
-0.00768232700871779,0.0008903588617584406,-1.3169426110237734
-0.00768053700871779,-0.002807865990825359,-1.3169426110237734
-0.00767874700871779,0.0008903588617584406,-1.320649962004811
-0.00767695700871779,0.0008903588617584406,-1.320649962004811
-0.00767516700871779,0.00458858371434224,-1.320649962004811
-0.00767337700871779,0.0008903588617584406,-1.320649962004811
-0.00767158700871779,0.0008903588617584406,-1.3169426110237734
-0.00766979700871779,-0.002807865990823677,-1.3206499620048093
-0.00766800700871779,-0.0065060908434091584,-1.320649962004811
-0.00766621700871779,-0.002807865990825359,-1.320649962004811
-0.00766442700871779,-0.002807865990825359,-1.320649962004811
-0.007662637008717789,0.0008903588617567589,-1.3206499620048129
-0.00766084700871779,-0.002807865990825359,-1.3243573129858488
-0.00765905700871779,-0.002807865990825359,-1.3169426110237734
-0.00765726700871779,0.0008903588617584406,-1.320649962004811
-0.0076554770087177895,0.0008903588617567589,-1.320649962004811
-0.00765368700871779,-0.002807865990825359,-1.320649962004811
-0.00765189700871779,0.0008903588617584406,-1.3243573129858488
-0.00765010700871779,-0.0065060908434091584,-1.320649962004811
-0.0076483170087177895,-0.0065060908434091584,-1.320649962004811
-0.00764652700871779,-0.010204315695992958,-1.320649962004811
-0.00764473700871779,-0.002807865990825359,-1.320649962004811
-0.00764294700871779,-0.002807865990825359,-1.3169426110237734
-0.0076411570087177895,-0.010204315695992958,-1.3169426110237734
-0.00763936700871779,-0.0065060908434091584,-1.3169426110237734
-0.00763757700871779,-0.002807865990825359,-1.3169426110237734
-0.00763578700871779,-0.002807865990825359,-1.3169426110237734
-0.0076339970087177895,-0.0065060908434091584,-1.3132352600427357
-0.00763220700871779,-0.002807865990825359,-1.3169426110237734
-0.00763041700871779,-0.010204315695992958,-1.3169426110237734
-0.00762862700871779,-0.010204315695992958,-1.3169426110237734
-0.0076268370087177895,-0.010204315695992958,-1.3169426110237734
-0.00762504700871779,-0.010204315695992958,-1.3169426110237734
-0.00762325700871779,-0.010204315695992958,-1.3169426110237734
-0.00762146700871779,-0.0065060908434091584,-1.320649962004811
-0.0076196770087177896,-0.010204315695992958,-1.3169426110237734
-0.00761788700871779,-0.013902540548576758,-1.3169426110237734
-0.00761609700871779,-0.013902540548576758,-1.3132352600427357
-0.00761430700871779,-0.010204315695992958,-1.3169426110237734
-0.00761251700871779,-0.010204315695992958,-1.3169426110237734
-0.00761072700871779,-0.0065060908434091584,-1.320649962004811
-0.00760893700871779,-0.010204315695992958,-1.320649962004811
-0.00760714700871779,-0.010204315695992958,-1.3243573129858488
-0.00760535700871779,-0.013902540548576758,-1.320649962004811
-0.00760356700871779,-0.013902540548576758,-1.320649962004811
-0.00760177700871779,-0.013902540548576758,-1.3169426110237734
-0.00759998700871779,-0.013902540548576758,-1.3169426110237734
-0.00759819700871779,-0.013902540548576758,-1.320649962004811
-0.00759640700871779,-0.010204315695992958,-1.3169426110237734
-0.00759461700871779,-0.010204315695992958,-1.3169426110237734
-0.00759282700871779,-0.010204315695992958,-1.3169426110237734
-0.00759103700871779,-0.013902540548576758,-1.3169426110237734
-0.00758924700871779,-0.017600765401160557,-1.320649962004811
-0.00758745700871779,-0.013902540548576758,-1.3243573129858488
-0.0075856670087177894,-0.013902540548575077,-1.3206499620048129
-0.00758387700871779,-0.010204315695992958,-1.3243573129858488
-0.00758208700871779,-0.017600765401160557,-1.320649962004811
-0.00758029700871779,-0.024997215106328158,-1.3169426110237734
-0.0075785070087177895,-0.021298990253744356,-1.320649962004811
-0.00757671700871779,-0.017600765401160557,-1.3169426110237734
-0.00757492700871779,-0.013902540548576758,-1.320649962004811
-0.00757313700871779,-0.017600765401160557,-1.3169426110237734
-0.0075713470087177895,-0.010204315695992958,-1.320649962004811
-0.00756955700871779,-0.013902540548576758,-1.3169426110237734
-0.00756776700871779,-0.017600765401160557,-1.320649962004811
-0.00756597700871779,-0.017600765401160557,-1.320649962004811
-0.0075641870087177895,-0.017600765401160557,-1.320649962004811
-0.00756239700871779,-0.021298990253744356,-1.320649962004811
-0.00756060700871779,-0.017600765401160557,-1.320649962004811
-0.00755881700871779,-0.021298990253744356,-1.320649962004811
-0.0075570270087177895,-0.024997215106328158,-1.320649962004811
-0.00755523700871779,-0.028695439958911956,-1.3169426110237734
-0.00755344700871779,-0.024997215106328158,-1.320649962004811
-0.00755165700871779,-0.021298990253744356,-1.320649962004811
-0.0075498670087177895,-0.013902540548576758,-1.3169426110237734
-0.00754807700871779,-0.017600765401160557,-1.320649962004811
-0.00754628700871779,-0.017600765401160557,-1.3243573129858488
-0.00754449700871779,-0.024997215106328158,-1.320649962004811
-0.00754270700871779,-0.017600765401160557,-1.3169426110237734
-0.00754091700871779,-0.017600765401160557,-1.3169426110237734
-0.00753912700871779,-0.021298990253744356,-1.3169426110237734
-0.00753733700871779,-0.021298990253744356,-1.320649962004811
-0.00753554700871779,-0.024997215106328158,-1.320649962004811
-0.00753375700871779,-0.024997215106328158,-1.3243573129858488
-0.00753196700871779,-0.021298990253744356,-1.320649962004811
-0.00753017700871779,-0.021298990253744356,-1.320649962004811
-0.00752838700871779,-0.024997215106328158,-1.320649962004811
-0.00752659700871779,-0.024997215106328158,-1.320649962004811
-0.00752480700871779,-0.028695439958911956,-1.320649962004811
-0.00752301700871779,-0.028695439958911956,-1.320649962004811
-0.00752122700871779,-0.021298990253744356,-1.3169426110237734
-0.00751943700871779,-0.017600765401160557,-1.320649962004811
-0.00751764700871779,-0.021298990253744356,-1.320649962004811
-0.00751585700871779,-0.028695439958908595,-1.3169426110237752
-0.00751406700871779,-0.028695439958911956,-1.3169426110237734
-0.00751227700871779,-0.032393664811495755,-1.3169426110237734
-0.00751048700871779,-0.028695439958911956,-1.3169426110237734
-0.0075086970087177895,-0.028695439958910274,-1.3243573129858488
-0.00750690700871779,-0.024997215106328158,-1.3243573129858488
-0.00750511700871779,-0.032393664811495755,-1.3243573129858488
-0.00750332700871779,-0.024997215106328158,-1.3243573129858488
-0.0075015370087177895,-0.024997215106328158,-1.320649962004811
-0.00749974700871779,-0.032393664811495755,-1.3169426110237734
-0.00749795700871779,-0.028695439958911956,-1.3169426110237734
-0.00749616700871779,-0.028695439958911956,-1.3132352600427357
-0.0074943770087177895,-0.032393664811495755,-1.3169426110237734
-0.00749258700871779,-0.032393664811495755,-1.3169426110237734
-0.00749079700871779,-0.032393664811495755,-1.3169426110237734
-0.00748900700871779,-0.03609188966407956,-1.3169426110237734
-0.0074872170087177895,-0.03609188966407956,-1.3169426110237734
-0.00748542700871779,-0.032393664811495755,-1.320649962004811
-0.00748363700871779,-0.032393664811495755,-1.3169426110237734
-0.00748184700871779,-0.032393664811495755,-1.3169426110237734
-0.0074800570087177895,-0.028695439958911956,-1.3132352600427357
-0.00747826700871779,-0.032393664811495755,-1.3132352600427357
-0.00747647700871779,-0.032393664811495755,-1.3132352600427357
-0.00747468700871779,-0.028695439958911956,-1.3169426110237734
-0.0074728970087177896,-0.028695439958911956,-1.3132352600427357
-0.00747110700871779,-0.032393664811495755,-1.3169426110237734
-0.00746931700871779,-0.03609188966407956,-1.320649962004811
-0.00746752700871779,-0.032393664811495755,-1.3169426110237734
-0.00746573700871779,-0.03979011451666335,-1.320649962004811
-0.00746394700871779,-0.03979011451666335,-1.320649962004811
-0.00746215700871779,-0.03609188966407956,-1.3169426110237734
-0.00746036700871779,-0.028695439958911956,-1.3169426110237734
-0.00745857700871779,-0.032393664811495755,-1.3169426110237734
-0.00745678700871779,-0.032393664811495755,-1.3169426110237734
-0.00745499700871779,-0.032393664811495755,-1.3169426110237734
-0.00745320700871779,-0.03609188966407956,-1.3132352600427357
-0.00745141700871779,-0.03609188966407956,-1.3169426110237734
-0.00744962700871779,-0.03979011451666335,-1.3169426110237734
-0.00744783700871779,-0.03609188966407956,-1.3169426110237734
-0.00744604700871779,-0.03979011451666167,-1.3206499620048093
-0.00744425700871779,-0.03979011451666335,-1.3169426110237734
-0.00744246700871779,-0.043488339369247155,-1.320649962004811
-0.00744067700871779,-0.03979011451666335,-1.320649962004811
-0.0074388870087177894,-0.03979011451666167,-1.3206499620048093
-0.00743709700871779,-0.03609188966407956,-1.3169426110237734
-0.00743530700871779,-0.032393664811495755,-1.3169426110237734
-0.00743351700871779,-0.043488339369247155,-1.3169426110237734
-0.0074317270087177895,-0.03609188966407956,-1.320649962004811
-0.00742993700871779,-0.03979011451666335,-1.320649962004811
-0.00742814700871779,-0.03979011451666335,-1.320649962004811
-0.00742635700871779,-0.03609188966407956,-1.3243573129858488
-0.0074245670087177895,-0.03979011451666335,-1.3169426110237734
-0.00742277700871779,-0.043488339369247155,-1.3169426110237734
-0.00742098700871779,-0.043488339369247155,-1.3169426110237734
-0.00741919700871779,-0.04718656422183096,-1.3169426110237734
-0.0074174070087177895,-0.043488339369247155,-1.3169426110237734
-0.00741561700871779,-0.043488339369247155,-1.320649962004811
-0.00741382700871779,-0.043488339369247155,-1.3169426110237734
-0.00741203700871779,-0.043488339369247155,-1.3132352600427357
-0.0074102470087177895,-0.03979011451666335,-1.3169426110237734
-0.00740845700871779,-0.03979011451666335,-1.320649962004811
-0.00740666700871779,-0.03609188966407956,-1.320649962004811
-0.00740487700871779,-0.03979011451666335,-1.3169426110237734
-0.0074030870087177895,-0.03979011451666335,-1.3169426110237734
-0.00740129700871779,-0.043488339369247155,-1.3169426110237734
-0.00739950700871779,-0.054583013926998554,-1.3169426110237734
-0.00739771700871779,-0.03979011451666335,-1.320649962004811
-0.00739592700871779,-0.043488339369247155,-1.3169426110237734
-0.00739413700871779,-0.04718656422183096,-1.320649962004811
-0.00739234700871779,-0.04718656422183096,-1.320649962004811
-0.00739055700871779,-0.04718656422183096,-1.3169426110237734
-0.00738876700871779,-0.04718656422183096,-1.320649962004811
-0.00738697700871779,-0.043488339369247155,-1.320649962004811
-0.00738518700871779,-0.043488339369247155,-1.320649962004811
-0.00738339700871779,-0.03979011451666335,-1.3243573129858488
-0.00738160700871779,-0.03979011451666335,-1.3243573129858488
-0.00737981700871779,-0.04718656422183096,-1.3243573129858488
-0.00737802700871779,-0.05088478907441475,-1.320649962004811
-0.00737623700871779,-0.043488339369247155,-1.320649962004811
-0.00737444700871779,-0.04718656422183096,-1.3169426110237734
-0.00737265700871779,-0.04718656422183096,-1.320649962004811
-0.00737086700871779,-0.04718656422183096,-1.3132352600427357
-0.00736907700871779,-0.043488339369248834,-1.3169426110237716
-0.00736728700871779,-0.043488339369247155,-1.320649962004811
-0.00736549700871779,-0.04718656422183096,-1.320649962004811
-0.00736370700871779,-0.04718656422183096,-1.3169426110237734
-0.0073619170087177895,-0.043488339369248834,-1.3206499620048093
-0.00736012700871779,-0.04718656422183096,-1.3169426110237734
-0.00735833700871779,-0.05088478907441475,-1.320649962004811
-0.00735654700871779,-0.054583013926998554,-1.320649962004811
-0.0073547570087177895,-0.054583013926998554,-1.3169426110237734
-0.00735296700871779,-0.05088478907441475,-1.320649962004811
-0.00735117700871779,-0.043488339369247155,-1.3243573129858488
-0.00734938700871779,-0.05088478907441475,-1.320649962004811
-0.0073475970087177895,-0.05088478907441475,-1.3132352600427357
-0.00734580700871779,-0.05088478907441475,-1.3169426110237734
-0.00734401700871779,-0.05088478907441475,-1.3169426110237734
-0.00734222700871779,-0.05088478907441475,-1.3169426110237734
-0.0073404370087177895,-0.05088478907441475,-1.320649962004811
-0.00733864700871779,-0.043488339369247155,-1.320649962004811
-0.00733685700871779,-0.05088478907441475,-1.320649962004811
-0.00733506700871779,-0.04718656422183096,-1.3169426110237734
-0.0073332770087177895,-0.054583013926998554,-1.3169426110237734
-0.00733148700871779,-0.054583013926998554,-1.320649962004811
-0.00732969700871779,-0.054583013926998554,-1.320649962004811
-0.00732790700871779,-0.05828123877958235,-1.3169426110237734
-0.0073261170087177896,-0.054583013926998554,-1.3169426110237734
-0.00732432700871779,-0.05828123877958235,-1.3243573129858488
-0.00732253700871779,-0.054583013926998554,-1.3243573129858488
-0.00732074700871779,-0.05088478907441475,-1.320649962004811
-0.00731895700871779,-0.054583013926998554,-1.3169426110237734
-0.00731716700871779,-0.054583013926998554,-1.3169426110237734
-0.00731537700871779,-0.05828123877958235,-1.3169426110237734
-0.00731358700871779,-0.05828123877958235,-1.3169426110237734
-0.00731179700871779,-0.054583013926998554,-1.320649962004811
-0.00731000700871779,-0.05828123877958235,-1.320649962004811
-0.00730821700871779,-0.054583013926998554,-1.320649962004811
-0.00730642700871779,-0.054583013926998554,-1.3169426110237734
-0.00730463700871779,-0.05828123877958235,-1.3243573129858488
-0.00730284700871779,-0.05828123877958235,-1.320649962004811
-0.00730105700871779,-0.05828123877958235,-1.3243573129858488
-0.00729926700871779,-0.05458301392700023,-1.3206499620048129
-0.00729747700871779,-0.054583013926998554,-1.320649962004811
-0.00729568700871779,-0.054583013926998554,-1.3169426110237734
-0.00729389700871779,-0.06197946363216615,-1.3169426110237734
-0.0072921070087177894,-0.05088478907441812,-1.3169426110237752
-0.00729031700871779,-0.05828123877958235,-1.320649962004811
-0.00728852700871779,-0.054583013926998554,-1.320649962004811
-0.00728673700871779,-0.06197946363216615,-1.3169426110237734
-0.0072849470087177895,-0.06197946363216615,-1.3169426110237716
-0.00728315700871779,-0.06197946363216615,-1.3132352600427357
-0.00728136700871779,-0.05828123877958235,-1.3169426110237734
-0.00727957700871779,-0.054583013926998554,-1.3169426110237734
-0.0072777870087177895,-0.05828123877958235,-1.3243573129858488
-0.00727599700871779,-0.05828123877958235,-1.3169426110237734
-0.00727420700871779,-0.06197946363216615,-1.320649962004811
-0.00727241700871779,-0.054583013926998554,-1.3132352600427357
-0.0072706270087177895,-0.054583013926998554,-1.3132352600427357
-0.00726883700871779,-0.05828123877958235,-1.3169426110237734
-0.00726704700871779,-0.05828123877958235,-1.320649962004811
-0.00726525700871779,-0.06197946363216615,-1.320649962004811
-0.0072634670087177895,-0.06197946363216615,-1.3243573129858488
-0.00726167700871779,-0.06567768848474995,-1.3243573129858488
-0.00725988700871779,-0.05828123877958235,-1.320649962004811
-0.00725809700871779,-0.06197946363216615,-1.320649962004811
-0.0072563070087177895,-0.05828123877958235,-1.320649962004811
-0.00725451700871779,-0.06567768848474995,-1.3169426110237734
-0.00725272700871779,-0.05828123877958235,-1.3132352600427357
-0.00725093700871779,-0.06197946363216615,-1.3169426110237734
-0.00724914700871779,-0.05828123877958235,-1.3169426110237734
-0.00724735700871779,-0.06197946363216615,-1.3169426110237734
-0.00724556700871779,-0.06197946363216615,-1.3169426110237734
-0.00724377700871779,-0.06567768848474995,-1.320649962004811
-0.00724198700871779,-0.06197946363216615,-1.3169426110237734
-0.00724019700871779,-0.05828123877958235,-1.320649962004811
-0.00723840700871779,-0.05828123877958235,-1.3243573129858488
-0.00723661700871779,-0.06197946363216615,-1.320649962004811
-0.00723482700871779,-0.06197946363216615,-1.3169426110237734
-0.00723303700871779,-0.06567768848474995,-1.320649962004811
-0.00723124700871779,-0.06197946363216615,-1.320649962004811
-0.00722945700871779,-0.05828123877958235,-1.320649962004811
-0.00722766700871779,-0.05828123877958235,-1.3169426110237734
-0.00722587700871779,-0.06567768848474995,-1.3169426110237734
-0.00722408700871779,-0.06567768848474995,-1.3169426110237734
-0.00722229700871779,-0.06197946363216783,-1.3206499620048093
-0.00722050700871779,-0.06567768848474995,-1.3132352600427357
-0.00721871700871779,-0.06937591333733376,-1.3169426110237734
-0.00721692700871779,-0.06567768848474995,-1.3169426110237734
-0.0072151370087177895,-0.06937591333733376,-1.320649962004811
-0.00721334700871779,-0.06937591333733376,-1.320649962004811
-0.00721155700871779,-0.06567768848474995,-1.3169426110237734
-0.00720976700871779,-0.06567768848474995,-1.3169426110237734
-0.0072079770087177895,-0.06197946363216615,-1.3169426110237734
-0.00720618700871779,-0.06937591333733376,-1.3169426110237734
-0.00720439700871779,-0.06567768848474995,-1.3169426110237734
-0.00720260700871779,-0.06197946363216615,-1.3243573129858488
-0.0072008170087177895,-0.06567768848474995,-1.3169426110237734
-0.00719902700871779,-0.06567768848474995,-1.3169426110237734
-0.00719723700871779,-0.06937591333733376,-1.3169426110237734
-0.00719544700871779,-0.07307413818991755,-1.3169426110237734
-0.0071936570087177895,-0.07307413818991755,-1.320649962004811
-0.00719186700871779,-0.06567768848474995,-1.3169426110237734
-0.00719007700871779,-0.07307413818991755,-1.3169426110237734
-0.00718828700871779,-0.06937591333733376,-1.3169426110237734
-0.0071864970087177895,-0.06937591333733376,-1.3169426110237734
-0.00718470700871779,-0.06567768848474995,-1.320649962004811
-0.00718291700871779,-0.06937591333733376,-1.3169426110237734
