100Hz/acq0014.csv

#Digilent WaveForms Oscilloscope Acquisition
#Device Name: Discovery2
#Serial Number: SN:210321AA28BE
#Date Time: 2023-05-24 14:48:30.638
#Sample rate: 558659Hz
#Samples: 8192
#Trigger: Source: Channel 1 Type: Edge Condition: Rising Level: 800 mV Hyst.: Auto HoldOff: 100 ns
#Channel 1: Range: 1 V/div Offset: 0 V Attenuation: 1 X Sample Mode: Average
#Channel 2: Range: 1 V/div Offset: 0 V Attenuation: 1 X Sample Mode: Average

Time (s),Channel 1 (V),Channel 2 (V)
-0.007741583394014046,0.07115663106085063,-1.3169426110237734
-0.007739793394014046,0.06006195650310427,-1.3169426110237734
-0.007738003394014046,0.07115663106085063,-1.3169426110237734
-0.007736213394014046,0.07485485591343444,-1.3169426110237734
-0.007734423394014046,0.07115663106085063,-1.320649962004811
-0.007732633394014045,0.07115663106085063,-1.3169426110237752
-0.007730843394014046,0.07115663106085063,-1.320649962004811
-0.007729053394014046,0.06745840620826683,-1.3169426110237734
-0.007727263394014046,0.07115663106085063,-1.3169426110237734
-0.007725473394014045,0.06745840620826683,-1.3169426110237734
-0.007723683394014046,0.06745840620826683,-1.3169426110237734
-0.007721893394014046,0.06376018135568304,-1.3169426110237734
-0.007720103394014046,0.06006195650309923,-1.3169426110237734
-0.007718313394014045,0.06006195650309923,-1.320649962004811
-0.007716523394014046,0.06745840620826683,-1.320649962004811
-0.007714733394014046,0.06745840620826683,-1.3169426110237734
-0.007712943394014046,0.06006195650309923,-1.3169426110237734
-0.0077111533940140455,0.06376018135568304,-1.3169426110237734
-0.007709363394014046,0.07485485591343444,-1.3169426110237734
-0.007707573394014046,0.06745840620826683,-1.3169426110237734
-0.007705783394014046,0.06376018135568304,-1.320649962004811
-0.0077039933940140455,0.06376018135568304,-1.320649962004811
-0.007702203394014046,0.06376018135568304,-1.3169426110237734
-0.007700413394014046,0.06745840620826683,-1.3169426110237734
-0.007698623394014046,0.06376018135568304,-1.320649962004811
-0.0076968333940140455,0.05636373165051543,-1.320649962004811
-0.007695043394014046,0.06006195650309923,-1.320649962004811
-0.007693253394014046,0.06006195650309923,-1.3169426110237734
-0.007691463394014046,0.06006195650309923,-1.320649962004811
-0.0076896733940140455,0.05636373165051543,-1.3243573129858488
-0.007687883394014046,0.05636373165051543,-1.320649962004811
-0.007686093394014046,0.05636373165051543,-1.320649962004811
-0.007684303394014046,0.05636373165051543,-1.320649962004811
-0.0076825133940140455,0.05266550679793163,-1.3169426110237734
-0.007680723394014046,0.05636373165051543,-1.320649962004811
-0.007678933394014046,0.06006195650309923,-1.320649962004811
-0.007677143394014046,0.06006195650309923,-1.320649962004811
-0.0076753533940140456,0.06006195650309923,-1.320649962004811
-0.007673563394014046,0.05636373165051543,-1.3169426110237734
-0.007671773394014046,0.05636373165051543,-1.320649962004811
-0.007669983394014046,0.05636373165051543,-1.3169426110237752
-0.007668193394014046,0.05636373165051543,-1.3169426110237734
-0.007666403394014046,0.05266550679793163,-1.3169426110237734
-0.007664613394014046,0.05636373165051543,-1.3169426110237734
-0.007662823394014045,0.06006195650309755,-1.3169426110237734
-0.007661033394014046,0.05636373165051543,-1.3169426110237734
-0.007659243394014046,0.05636373165051543,-1.3169426110237734
-0.007657453394014046,0.05266550679793163,-1.320649962004811
-0.007655663394014045,0.0489672819453512,-1.320649962004811
-0.007653873394014046,0.05636373165051543,-1.320649962004811
-0.007652083394014046,0.05266550679793163,-1.320649962004811
-0.007650293394014046,0.048967281945347836,-1.320649962004811
-0.007648503394014045,0.05266550679793163,-1.3169426110237734
-0.007646713394014046,0.05636373165051543,-1.320649962004811
-0.007644923394014046,0.05636373165051543,-1.320649962004811
-0.007643133394014046,0.05266550679793163,-1.320649962004811
-0.0076413433940140454,0.05636373165051543,-1.3169426110237734
-0.007639553394014046,0.05636373165051543,-1.3169426110237734
-0.007637763394014046,0.045269057092764034,-1.3169426110237734
-0.007635973394014046,0.048967281945347836,-1.3169426110237734
-0.0076341833940140455,0.05266550679793163,-1.320649962004811
-0.007632393394014046,0.05266550679793163,-1.320649962004811
-0.007630603394014046,0.045269057092764034,-1.3169426110237734
-0.007628813394014046,0.048967281945347836,-1.3132352600427357
-0.0076270233940140455,0.048967281945347836,-1.3169426110237734
-0.007625233394014046,0.04157083224018024,-1.320649962004811
-0.007623443394014046,0.045269057092764034,-1.3169426110237734
-0.007621653394014046,0.04157083224018024,-1.3169426110237734
-0.0076198633940140455,0.045269057092764034,-1.3132352600427357
-0.007618073394014046,0.045269057092764034,-1.320649962004811
-0.007616283394014046,0.048967281945347836,-1.320649962004811
-0.007614493394014046,0.048967281945347836,-1.320649962004811
-0.0076127033940140455,0.045269057092764034,-1.320649962004811
-0.007610913394014046,0.048967281945347836,-1.320649962004811
-0.007609123394014046,0.04157083224018024,-1.320649962004811
-0.007607333394014046,0.04157083224018024,-1.320649962004811
-0.0076055433940140455,0.045269057092764034,-1.320649962004811
-0.007603753394014046,0.048967281945347836,-1.320649962004811
-0.007601963394014046,0.04157083224018024,-1.3132352600427357
-0.007600173394014046,0.048967281945347836,-1.3169426110237734
-0.007598383394014046,0.03787260738759644,-1.3169426110237734
-0.007596593394014046,0.04157083224018024,-1.320649962004811
-0.007594803394014046,0.04157083224018024,-1.320649962004811
-0.007593013394014046,0.04157083224018024,-1.320649962004811
-0.007591223394014046,0.03787260738759644,-1.3169426110237734
-0.007589433394014046,0.03787260738759644,-1.3243573129858488
-0.007587643394014046,0.045269057092764034,-1.320649962004811
-0.007585853394014045,0.03787260738759644,-1.3169426110237767
-0.007584063394014046,0.03787260738759644,-1.3243573129858488
-0.007582273394014046,0.03787260738759644,-1.320649962004811
-0.007580483394014046,0.04157083224018024,-1.320649962004811
-0.007578693394014045,0.04157083224018024,-1.3169426110237734
-0.007576903394014046,0.04157083224018024,-1.3169426110237734
-0.007575113394014046,0.04157083224018024,-1.320649962004811
-0.007573323394014046,0.03787260738759644,-1.3169426110237734
-0.007571533394014045,0.03787260738759644,-1.3169426110237734
-0.007569743394014046,0.03787260738759644,-1.3169426110237734
-0.007567953394014046,0.03787260738759644,-1.320649962004811
-0.007566163394014046,0.03047615768242884,-1.3169426110237734
-0.0075643733940140455,0.03787260738759644,-1.320649962004811
-0.007562583394014046,0.034174382535012635,-1.320649962004811
-0.007560793394014046,0.034174382535012635,-1.3169426110237734
-0.007559003394014046,0.034174382535012635,-1.320649962004811
-0.0075572133940140455,0.03787260738759644,-1.3132352600427357
-0.007555423394014046,0.034174382535012635,-1.3169426110237734
-0.007553633394014046,0.034174382535012635,-1.3169426110237734
-0.007551843394014046,0.034174382535012635,-1.320649962004811
-0.0075500533940140455,0.034174382535012635,-1.320649962004811
-0.007548263394014046,0.03787260738759644,-1.3169426110237734
-0.007546473394014046,0.03787260738759644,-1.320649962004811
-0.007544683394014046,0.03787260738759644,-1.320649962004811
-0.0075428933940140455,0.034174382535012635,-1.3132352600427357
-0.007541103394014046,0.03047615768242884,-1.3169426110237734
-0.007539313394014046,0.034174382535012635,-1.3169426110237734
-0.007537523394014046,0.03047615768242884,-1.320649962004811
-0.0075357333940140455,0.034174382535012635,-1.320649962004811
-0.007533943394014046,0.03047615768242884,-1.3169426110237734
-0.007532153394014046,0.026777932829845037,-1.3169426110237734
-0.007530363394014046,0.03047615768242884,-1.320649962004811
-0.0075285733940140456,0.026777932829845037,-1.320649962004811
-0.007526783394014046,0.02307970797726124,-1.3169426110237734
-0.007524993394014046,0.026777932829845037,-1.320649962004811
-0.007523203394014046,0.02307970797726292,-1.324357312985847
-0.007521413394014046,0.03047615768242884,-1.320649962004811
-0.007519623394014046,0.026777932829845037,-1.320649962004811
-0.007517833394014046,0.026777932829845037,-1.320649962004811
-0.007516043394014046,0.030476157682427157,-1.313235260042739
-0.007514253394014046,0.03047615768242884,-1.320649962004811
-0.007512463394014046,0.034174382535012635,-1.320649962004811
-0.007510673394014046,0.03047615768242884,-1.3169426110237734
-0.007508883394014045,0.026777932829845037,-1.320649962004811
-0.007507093394014046,0.026777932829845037,-1.320649962004811
-0.007505303394014046,0.026777932829845037,-1.320649962004811
-0.007503513394014046,0.026777932829845037,-1.320649962004811
-0.007501723394014045,0.026777932829845037,-1.320649962004811
-0.007499933394014046,0.026777932829845037,-1.3169426110237734
-0.007498143394014046,0.02307970797726124,-1.3169426110237734
-0.007496353394014046,0.02307970797726124,-1.3169426110237734
-0.0074945633940140454,0.02307970797726124,-1.3169426110237734
-0.007492773394014046,0.02307970797726124,-1.3169426110237734
-0.007490983394014046,0.02307970797726124,-1.3169426110237734
-0.007489193394014046,0.02307970797726124,-1.320649962004811
-0.0074874033940140455,0.01938148312467744,-1.3169426110237734
-0.007485613394014046,0.026777932829845037,-1.3169426110237734
-0.007483823394014046,0.026777932829845037,-1.3169426110237734
-0.007482033394014046,0.026777932829845037,-1.320649962004811
-0.0074802433940140455,0.02307970797726124,-1.3243573129858488
-0.007478453394014046,0.02307970797726124,-1.320649962004811
-0.007476663394014046,0.026777932829845037,-1.320649962004811
-0.007474873394014046,0.02307970797726124,-1.3243573129858488
-0.0074730833940140455,0.02307970797726124,-1.3169426110237734
-0.007471293394014046,0.02307970797726124,-1.3169426110237734
-0.007469503394014046,0.01938148312467744,-1.320649962004811
-0.007467713394014046,0.02307970797726124,-1.320649962004811
-0.0074659233940140455,0.026777932829845037,-1.320649962004811
-0.007464133394014046,0.026777932829845037,-1.320649962004811
-0.007462343394014046,0.02307970797726124,-1.3169426110237734
-0.007460553394014046,0.01938148312467744,-1.3132352600427357
-0.0074587633940140455,0.01198503341950984,-1.3132352600427357
-0.007456973394014046,0.01938148312467744,-1.3132352600427357
-0.007455183394014046,0.01938148312467744,-1.3169426110237734
-0.007453393394014046,0.02307970797726124,-1.320649962004811
-0.007451603394014046,0.015683258272093638,-1.3169426110237734
-0.007449813394014046,0.015683258272093638,-1.3169426110237734
-0.007448023394014046,0.015683258272093638,-1.320649962004811
-0.007446233394014046,0.019381483124675757,-1.324357312985847
-0.007444443394014046,0.01938148312467744,-1.320649962004811
-0.007442653394014046,0.01938148312467744,-1.320649962004811
-0.007440863394014046,0.015683258272093638,-1.3169426110237734
-0.007439073394014045,0.015683258272091955,-1.3169426110237752
-0.007437283394014046,0.01198503341950984,-1.320649962004811
-0.007435493394014046,0.01198503341950984,-1.3169426110237734
-0.007433703394014046,0.015683258272093638,-1.3243573129858488
-0.007431913394014045,0.00828680856692604,-1.320649962004811
-0.007430123394014046,0.01198503341950984,-1.320649962004811
-0.007428333394014046,0.015683258272093638,-1.320649962004811
-0.007426543394014046,0.01198503341950984,-1.3243573129858488
-0.007424753394014045,0.01198503341950984,-1.320649962004811
-0.007422963394014046,0.01198503341950984,-1.3243573129858488
-0.007421173394014046,0.00828680856692604,-1.3169426110237734
-0.007419383394014046,0.00828680856692604,-1.3132352600427357
-0.0074175933940140455,0.015683258272093638,-1.3169426110237734
-0.007415803394014046,0.015683258272093638,-1.3169426110237734
-0.007414013394014046,0.01938148312467744,-1.3169426110237734
-0.007412223394014046,0.01938148312467744,-1.3169426110237734
-0.0074104333940140455,0.015683258272093638,-1.320649962004811
-0.007408643394014046,0.015683258272093638,-1.3243573129858488
-0.007406853394014046,0.015683258272093638,-1.3243573129858488
-0.007405063394014046,0.00828680856692604,-1.320649962004811
-0.0074032733940140455,0.015683258272093638,-1.320649962004811
-0.007401483394014046,0.015683258272093638,-1.3243573129858488
-0.007399693394014046,0.015683258272093638,-1.320649962004811
-0.007397903394014046,0.01198503341950984,-1.3169426110237734
-0.0073961133940140455,0.01198503341950984,-1.3169426110237734
-0.007394323394014046,0.01198503341950984,-1.3169426110237734
-0.007392533394014046,0.0008903588617584406,-1.320649962004811
-0.007390743394014046,0.00828680856692604,-1.3169426110237734
-0.0073889533940140455,0.00828680856692604,-1.3169426110237734
-0.007387163394014046,0.00828680856692604,-1.320649962004811
-0.007385373394014046,0.00828680856692604,-1.320649962004811
-0.007383583394014046,0.01198503341950984,-1.320649962004811
-0.0073817933940140456,0.01198503341950984,-1.3243573129858488
-0.007380003394014046,0.015683258272093638,-1.3169426110237734
-0.007378213394014046,0.01198503341950984,-1.320649962004811
-0.007376423394014046,0.01198503341950984,-1.320649962004811
-0.007374633394014046,0.00458858371434224,-1.320649962004811
-0.007372843394014046,0.00828680856692604,-1.3169426110237734
-0.007371053394014046,0.0008903588617584406,-1.3169426110237734
-0.007369263394014046,0.0008903588617584406,-1.3132352600427375
-0.007367473394014046,0.00458858371434224,-1.3169426110237734
-0.007365683394014046,0.00458858371434224,-1.3243573129858488
-0.007363893394014046,0.00458858371434224,-1.3243573129858488
-0.007362103394014045,0.0008903588617618041,-1.3206499620048129
-0.007360313394014046,0.00828680856692604,-1.3243573129858488
-0.007358523394014046,0.00828680856692604,-1.320649962004811
-0.007356733394014046,0.00828680856692604,-1.3169426110237734
-0.007354943394014045,0.00828680856692604,-1.3169426110237734
-0.007353153394014046,0.00458858371434224,-1.320649962004811
-0.007351363394014046,0.0008903588617584406,-1.3132352600427357
-0.007349573394014046,0.00458858371434224,-1.320649962004811
-0.0073477833940140454,0.00458858371434224,-1.320649962004811
-0.007345993394014046,0.00828680856692604,-1.320649962004811
-0.007344203394014046,0.00458858371434224,-1.3243573129858488
-0.007342413394014046,0.00458858371434224,-1.320649962004811
-0.0073406233940140455,0.0008903588617584406,-1.3169426110237734
-0.007338833394014046,0.0008903588617584406,-1.3169426110237734
-0.007337043394014046,-0.002807865990825359,-1.3169426110237734
-0.007335253394014046,0.00458858371434224,-1.3169426110237734
-0.0073334633940140455,0.0008903588617584406,-1.3169426110237734
-0.007331673394014046,0.0008903588617584406,-1.3169426110237734
-0.007329883394014046,0.00458858371434224,-1.3132352600427357
-0.007328093394014046,0.0008903588617584406,-1.320649962004811
-0.0073263033940140455,0.0008903588617584406,-1.3169426110237734
-0.007324513394014046,0.00458858371434224,-1.3169426110237734
-0.007322723394014046,-0.002807865990825359,-1.320649962004811
-0.007320933394014046,0.0008903588617584406,-1.320649962004811
-0.0073191433940140455,0.00458858371434224,-1.3169426110237734
-0.007317353394014046,0.00458858371434224,-1.320649962004811
-0.007315563394014046,0.0008903588617584406,-1.3169426110237734
-0.007313773394014046,0.0008903588617584406,-1.3169426110237734
-0.0073119833940140455,0.00458858371434224,-1.320649962004811
-0.007310193394014046,0.00458858371434224,-1.320649962004811
-0.007308403394014046,-0.002807865990825359,-1.320649962004811
-0.007306613394014046,0.0008903588617584406,-1.3169426110237734
-0.007304823394014046,-0.0065060908434091584,-1.3169426110237734
-0.007303033394014046,-0.002807865990825359,-1.320649962004811
-0.007301243394014046,0.00458858371434224,-1.3169426110237734
-0.007299453394014046,-0.0028078659908219953,-1.3206499620048093
-0.007297663394014046,-0.002807865990825359,-1.320649962004811
-0.007295873394014046,0.0008903588617584406,-1.3169426110237734
-0.007294083394014046,-0.002807865990825359,-1.3169426110237734
-0.007292293394014045,0.008286808566920996,-1.320649962004811
-0.007290503394014046,-0.002807865990825359,-1.320649962004811
-0.007288713394014046,-0.002807865990825359,-1.3169426110237734
-0.007286923394014046,0.0008903588617584406,-1.3243573129858488
-0.007285133394014045,-0.0028078659908270407,-1.3243573129858455
-0.007283343394014046,-0.0065060908434091584,-1.3169426110237734
-0.007281553394014046,-0.002807865990825359,-1.320649962004811
-0.007279763394014046,-0.0065060908434091584,-1.3243573129858488
-0.007277973394014045,-0.002807865990825359,-1.320649962004811
-0.007276183394014046,-0.002807865990825359,-1.320649962004811
-0.007274393394014046,-0.0065060908434091584,-1.320649962004811
-0.007272603394014046,-0.0065060908434091584,-1.3169426110237734
-0.0072708133940140455,-0.0065060908434091584,-1.320649962004811
-0.007269023394014046,-0.0065060908434091584,-1.320649962004811
-0.007267233394014046,-0.0065060908434091584,-1.320649962004811
-0.007265443394014046,-0.002807865990825359,-1.3243573129858488
-0.0072636533940140455,-0.0065060908434091584,-1.3169426110237734
-0.007261863394014046,-0.0065060908434091584,-1.3169426110237734
-0.007260073394014046,-0.010204315695992958,-1.3169426110237734
-0.007258283394014046,-0.010204315695992958,-1.320649962004811
-0.0072564933940140455,-0.002807865990825359,-1.320649962004811
-0.007254703394014046,-0.0065060908434091584,-1.320649962004811
-0.007252913394014046,-0.0065060908434091584,-1.3243573129858488
-0.007251123394014046,-0.0065060908434091584,-1.320649962004811
-0.0072493333940140455,-0.0065060908434091584,-1.3169426110237734
-0.007247543394014046,-0.0065060908434091584,-1.320649962004811
-0.007245753394014046,-0.0065060908434091584,-1.3243573129858488
-0.007243963394014046,-0.002807865990825359,-1.320649962004811
-0.0072421733940140455,-0.0065060908434091584,-1.320649962004811
-0.007240383394014046,-0.010204315695992958,-1.3243573129858488
-0.007238593394014046,-0.002807865990825359,-1.320649962004811
-0.007236803394014046,-0.002807865990825359,-1.320649962004811
-0.0072350133940140456,-0.0065060908434091584,-1.320649962004811
-0.007233223394014046,-0.0065060908434091584,-1.320649962004811
-0.007231433394014046,-0.0065060908434091584,-1.3169426110237734
-0.007229643394014046,-0.010204315695992958,-1.3132352600427357
-0.007227853394014046,-0.010204315695992958,-1.3169426110237734
-0.007226063394014046,-0.0065060908434091584,-1.3169426110237734
-0.007224273394014046,-0.0065060908434091584,-1.3169426110237734
-0.007222483394014046,-0.0065060908434091584,-1.3169426110237734
-0.007220693394014046,-0.013902540548576758,-1.320649962004811
-0.007218903394014046,-0.0065060908434091584,-1.3169426110237734
-0.007217113394014046,-0.0065060908434091584,-1.3243573129858488
-0.007215323394014045,-0.010204315695992958,-1.324357312985847
-0.007213533394014046,-0.010204315695992958,-1.320649962004811
-0.007211743394014046,-0.0065060908434091584,-1.3169426110237734
-0.007209953394014046,-0.010204315695992958,-1.3169426110237734
-0.007208163394014045,-0.010204315695992958,-1.3132352600427357
-0.007206373394014046,-0.013902540548576758,-1.3169426110237734
-0.007204583394014046,-0.010204315695992958,-1.320649962004811
-0.007202793394014046,-0.010204315695992958,-1.3132352600427357
-0.0072010033940140454,-0.013902540548576758,-1.320649962004811
-0.007199213394014046,-0.013902540548576758,-1.3243573129858488
-0.007197423394014046,-0.010204315695992958,-1.320649962004811
-0.007195633394014046,-0.010204315695992958,-1.3169426110237734
-0.0071938433940140455,-0.017600765401160557,-1.320649962004811
-0.007192053394014046,-0.010204315695992958,-1.3169426110237734
-0.007190263394014046,-0.010204315695992958,-1.320649962004811
-0.007188473394014046,-0.010204315695992958,-1.3169426110237734
-0.0071866833940140455,-0.010204315695992958,-1.3169426110237734
-0.007184893394014046,-0.0065060908434091584,-1.320649962004811
