100Hz/acq0089.csv

#Digilent WaveForms Oscilloscope Acquisition
#Device Name: Discovery2
#Serial Number: SN:210321AA28BE
#Date Time: 2023-05-24 14:48:32.809
#Sample rate: 558659Hz
#Samples: 8192
#Trigger: Source: Channel 1 Type: Edge Condition: Rising Level: 800 mV Hyst.: Auto HoldOff: 100 ns
#Channel 1: Range: 1 V/div Offset: 0 V Attenuation: 1 X Sample Mode: Average
#Channel 2: Range: 1 V/div Offset: 0 V Attenuation: 1 X Sample Mode: Average

Time (s),Channel 1 (V),Channel 2 (V)
-0.00774135290369136,0.03787260738759644,-1.3169426110237734
-0.007739562903691361,0.03787260738759644,-1.3206499620048093
-0.00773777290369136,0.03787260738759644,-1.3132352600427357
-0.00773598290369136,0.04157083224018024,-1.3243573129858488
-0.0077341929036913604,0.03787260738759644,-1.3169426110237734
-0.00773240290369136,0.034174382535016,-1.3206499620048093
-0.00773061290369136,0.04157083224018024,-1.3169426110237734
-0.00772882290369136,0.03787260738759644,-1.320649962004811
-0.0077270329036913605,0.03787260738759644,-1.320649962004811
-0.00772524290369136,0.03787260738759644,-1.3243573129858488
-0.00772345290369136,0.034174382535012635,-1.3169426110237734
-0.00772166290369136,0.034174382535012635,-1.320649962004811
-0.0077198729036913605,0.034174382535012635,-1.320649962004811
-0.00771808290369136,0.03047615768242884,-1.3169426110237734
-0.00771629290369136,0.03047615768242884,-1.3169426110237734
-0.00771450290369136,0.03047615768242884,-1.320649962004811
-0.0077127129036913605,0.03047615768242884,-1.320649962004811
-0.00771092290369136,0.034174382535012635,-1.320649962004811
-0.00770913290369136,0.034174382535012635,-1.3169426110237734
-0.00770734290369136,0.034174382535012635,-1.3132352600427357
-0.0077055529036913605,0.03047615768242884,-1.3169426110237734
-0.00770376290369136,0.03047615768242884,-1.320649962004811
-0.00770197290369136,0.03787260738759644,-1.3169426110237734
-0.00770018290369136,0.03047615768242884,-1.320649962004811
-0.0076983929036913605,0.03047615768242884,-1.320649962004811
-0.00769660290369136,0.034174382535012635,-1.3169426110237734
-0.00769481290369136,0.034174382535012635,-1.3169426110237734
-0.00769302290369136,0.03047615768242884,-1.320649962004811
-0.0076912329036913606,0.026777932829845037,-1.320649962004811
-0.00768944290369136,0.026777932829845037,-1.3169426110237734
-0.00768765290369136,0.03047615768242884,-1.320649962004811
-0.00768586290369136,0.03047615768242884,-1.3169426110237734
-0.007684072903691361,0.03047615768242884,-1.3132352600427357
-0.00768228290369136,0.03047615768242884,-1.320649962004811
-0.00768049290369136,0.03047615768242884,-1.3243573129858488
-0.00767870290369136,0.03047615768242884,-1.320649962004811
-0.007676912903691361,0.02307970797726124,-1.3169426110237734
-0.00767512290369136,0.026777932829845037,-1.3169426110237734
-0.00767333290369136,0.02307970797726124,-1.3169426110237734
-0.00767154290369136,0.026777932829845037,-1.3132352600427357
-0.007669752903691361,0.026777932829845037,-1.3206499620048078
-0.00766796290369136,0.026777932829845037,-1.3169426110237734
-0.00766617290369136,0.02307970797726124,-1.320649962004811
-0.00766438290369136,0.026777932829845037,-1.3169426110237734
-0.00766259290369136,0.026777932829841675,-1.3206499620048093
-0.00766080290369136,0.01938148312467744,-1.3169426110237734
-0.00765901290369136,0.02307970797726124,-1.3169426110237734
-0.0076572229036913604,0.02307970797726124,-1.3132352600427357
-0.00765543290369136,0.02307970797726124,-1.3169426110237734
-0.00765364290369136,0.02307970797726124,-1.3169426110237734
-0.00765185290369136,0.02307970797726124,-1.3169426110237734
-0.0076500629036913605,0.01938148312467744,-1.320649962004811
-0.00764827290369136,0.015683258272093638,-1.320649962004811
-0.00764648290369136,0.01938148312467744,-1.320649962004811
-0.00764469290369136,0.015683258272093638,-1.320649962004811
-0.0076429029036913605,0.01938148312467744,-1.3169426110237734
-0.00764111290369136,0.02307970797726124,-1.320649962004811
-0.00763932290369136,0.02307970797726124,-1.3169426110237734
-0.00763753290369136,0.02307970797726124,-1.320649962004811
-0.0076357429036913605,0.02307970797726124,-1.320649962004811
-0.00763395290369136,0.01938148312467744,-1.320649962004811
-0.00763216290369136,0.01938148312467744,-1.3169426110237734
-0.00763037290369136,0.01938148312467744,-1.3169426110237734
-0.0076285829036913605,0.015683258272093638,-1.3169426110237734
-0.00762679290369136,0.015683258272093638,-1.320649962004811
-0.00762500290369136,0.01938148312467744,-1.320649962004811
-0.00762321290369136,0.01938148312467744,-1.320649962004811
-0.0076214229036913606,0.015683258272093638,-1.3169426110237734
-0.00761963290369136,0.015683258272093638,-1.3169426110237734
-0.00761784290369136,0.02307970797726124,-1.320649962004811
-0.00761605290369136,0.01938148312467744,-1.3169426110237734
-0.007614262903691361,0.015683258272093638,-1.3132352600427357
-0.00761247290369136,0.015683258272093638,-1.320649962004811
-0.00761068290369136,0.015683258272093638,-1.320649962004811
-0.00760889290369136,0.01198503341950984,-1.3243573129858488
-0.007607102903691361,0.01198503341950984,-1.320649962004811
-0.00760531290369136,0.00828680856692604,-1.3169426110237734
-0.00760352290369136,0.00828680856692604,-1.320649962004811
-0.00760173290369136,0.01198503341950984,-1.3169426110237734
-0.007599942903691361,0.01198503341950984,-1.3132352600427357
-0.00759815290369136,0.01198503341950984,-1.3169426110237734
-0.00759636290369136,0.015683258272093638,-1.320649962004811
-0.00759457290369136,0.01198503341950984,-1.3132352600427357
-0.007592782903691361,0.008286808566927723,-1.3169426110237716
-0.00759099290369136,0.00828680856692604,-1.320649962004811
-0.00758920290369136,0.00828680856692604,-1.3169426110237734
-0.0075874129036913604,0.00828680856692604,-1.3169426110237734
-0.00758562290369136,0.00458858371434224,-1.3169426110237752
-0.00758383290369136,0.00458858371434224,-1.320649962004811
-0.00758204290369136,0.00828680856692604,-1.320649962004811
-0.0075802529036913605,0.01198503341950984,-1.320649962004811
-0.00757846290369136,0.00828680856692604,-1.3169426110237734
-0.00757667290369136,0.00828680856692604,-1.3169426110237734
-0.00757488290369136,0.00828680856692604,-1.3169426110237734
-0.0075730929036913605,0.01198503341950984,-1.3169426110237734
-0.00757130290369136,0.00828680856692604,-1.3169426110237734
-0.00756951290369136,0.00828680856692604,-1.3169426110237734
-0.00756772290369136,0.015683258272093638,-1.3132352600427357
-0.0075659329036913605,0.00828680856692604,-1.3169426110237734
-0.00756414290369136,0.01198503341950984,-1.3169426110237734
-0.00756235290369136,0.00458858371434224,-1.320649962004811
-0.00756056290369136,0.00458858371434224,-1.320649962004811
-0.0075587729036913605,0.00828680856692604,-1.3169426110237734
-0.00755698290369136,0.00828680856692604,-1.3169426110237734
-0.00755519290369136,0.01198503341950984,-1.3169426110237734
-0.00755340290369136,0.00828680856692604,-1.3169426110237734
-0.0075516129036913605,0.00828680856692604,-1.3169426110237734
-0.00754982290369136,0.00828680856692604,-1.3169426110237734
-0.00754803290369136,0.00458858371434224,-1.3132352600427357
-0.00754624290369136,0.0008903588617584406,-1.3169426110237734
-0.0075444529036913606,0.00458858371434224,-1.320649962004811
-0.00754266290369136,-0.002807865990825359,-1.3132352600427357
-0.00754087290369136,0.0008903588617584406,-1.320649962004811
-0.00753908290369136,0.0008903588617584406,-1.320649962004811
-0.007537292903691361,-0.002807865990825359,-1.3169426110237734
-0.00753550290369136,0.00458858371434224,-1.3169426110237734
-0.00753371290369136,-0.002807865990825359,-1.3169426110237734
-0.00753192290369136,0.0008903588617584406,-1.3169426110237734
-0.007530132903691361,-0.002807865990825359,-1.320649962004811
-0.00752834290369136,-0.002807865990825359,-1.320649962004811
-0.00752655290369136,0.0008903588617584406,-1.3169426110237734
-0.00752476290369136,-0.002807865990825359,-1.320649962004811
-0.007522972903691361,0.0008903588617567588,-1.320649962004811
-0.00752118290369136,-0.002807865990825359,-1.3132352600427357
-0.00751939290369136,-0.002807865990825359,-1.320649962004811
-0.00751760290369136,-0.0065060908434091584,-1.3169426110237734
-0.007515812903691361,-0.0028078659908270407,-1.3169426110237734
-0.00751402290369136,0.0008903588617584406,-1.3132352600427357
-0.00751223290369136,-0.010204315695992958,-1.320649962004811
-0.0075104429036913604,-0.002807865990825359,-1.320649962004811
-0.00750865290369136,-0.0028078659908270407,-1.320649962004811
-0.00750686290369136,-0.0065060908434091584,-1.320649962004811
-0.00750507290369136,0.0008903588617584406,-1.320649962004811
-0.0075032829036913605,-0.002807865990825359,-1.320649962004811
-0.00750149290369136,-0.002807865990825359,-1.3169426110237734
-0.00749970290369136,0.0008903588617584406,-1.3169426110237734
-0.00749791290369136,-0.002807865990825359,-1.3132352600427357
-0.0074961229036913605,-0.0065060908434091584,-1.3169426110237734
-0.00749433290369136,-0.0065060908434091584,-1.3169426110237734
-0.00749254290369136,-0.0065060908434091584,-1.320649962004811
-0.00749075290369136,-0.0065060908434091584,-1.3169426110237734
-0.0074889629036913605,-0.0065060908434091584,-1.320649962004811
-0.00748717290369136,-0.010204315695992958,-1.3169426110237734
-0.00748538290369136,-0.0065060908434091584,-1.3169426110237734
-0.00748359290369136,-0.0065060908434091584,-1.3169426110237734
-0.0074818029036913605,-0.010204315695992958,-1.3169426110237734
-0.00748001290369136,-0.0065060908434091584,-1.3169426110237734
-0.00747822290369136,-0.010204315695992958,-1.320649962004811
-0.00747643290369136,-0.010204315695992958,-1.320649962004811
-0.0074746429036913606,-0.010204315695992958,-1.320649962004811
-0.00747285290369136,-0.010204315695992958,-1.320649962004811
-0.00747106290369136,-0.010204315695992958,-1.3169426110237734
-0.00746927290369136,-0.0065060908434091584,-1.320649962004811
-0.007467482903691361,-0.013902540548576758,-1.320649962004811
-0.00746569290369136,-0.010204315695992958,-1.3169426110237734
-0.00746390290369136,-0.017600765401160557,-1.320649962004811
-0.00746211290369136,-0.013902540548576758,-1.3169426110237734
-0.007460322903691361,-0.010204315695992958,-1.3169426110237734
-0.00745853290369136,-0.013902540548576758,-1.320649962004811
-0.00745674290369136,-0.010204315695992958,-1.320649962004811
-0.00745495290369136,-0.010204315695992958,-1.3169426110237734
-0.007453162903691361,-0.013902540548576758,-1.320649962004811
-0.00745137290369136,-0.013902540548576758,-1.3169426110237734
-0.00744958290369136,-0.017600765401160557,-1.3169426110237734
-0.00744779290369136,-0.021298990253744356,-1.320649962004811
-0.007446002903691361,-0.021298990253744356,-1.320649962004811
-0.00744421290369136,-0.013902540548576758,-1.3243573129858488
-0.00744242290369136,-0.021298990253744356,-1.3243573129858488
-0.00744063290369136,-0.010204315695992958,-1.3243573129858488
-0.00743884290369136,-0.01390254054857844,-1.3206499620048093
-0.00743705290369136,-0.017600765401160557,-1.3169426110237734
-0.00743526290369136,-0.013902540548576758,-1.3243573129858488
-0.0074334729036913605,-0.010204315695992958,-1.3169426110237734
-0.00743168290369136,-0.013902540548576758,-1.3169426110237734
-0.00742989290369136,-0.017600765401160557,-1.320649962004811
-0.00742810290369136,-0.021298990253744356,-1.320649962004811
-0.0074263129036913605,-0.021298990253744356,-1.320649962004811
-0.00742452290369136,-0.021298990253744356,-1.3243573129858488
-0.00742273290369136,-0.017600765401160557,-1.320649962004811
-0.00742094290369136,-0.010204315695992958,-1.3169426110237734
-0.0074191529036913605,-0.013902540548576758,-1.3169426110237734
-0.00741736290369136,-0.013902540548576758,-1.3169426110237734
-0.00741557290369136,-0.017600765401160557,-1.320649962004811
-0.00741378290369136,-0.010204315695992958,-1.320649962004811
-0.0074119929036913605,-0.017600765401160557,-1.3169426110237734
-0.00741020290369136,-0.013902540548576758,-1.3169426110237734
-0.00740841290369136,-0.021298990253744356,-1.320649962004811
-0.00740662290369136,-0.013902540548576758,-1.3243573129858488
-0.0074048329036913605,-0.013902540548576758,-1.3243573129858488
-0.00740304290369136,-0.021298990253744356,-1.320649962004811
-0.00740125290369136,-0.017600765401160557,-1.320649962004811
-0.00739946290369136,-0.021298990253744356,-1.320649962004811
-0.0073976729036913606,-0.024997215106328158,-1.3132352600427357
-0.00739588290369136,-0.021298990253744356,-1.3169426110237734
-0.00739409290369136,-0.024997215106328158,-1.3132352600427357
-0.00739230290369136,-0.017600765401160557,-1.3169426110237734
-0.007390512903691361,-0.017600765401160557,-1.3169426110237734
-0.00738872290369136,-0.024997215106328158,-1.3169426110237734
-0.00738693290369136,-0.021298990253744356,-1.3169426110237734
-0.00738514290369136,-0.024997215106328158,-1.320649962004811
-0.007383352903691361,-0.028695439958911956,-1.3169426110237734
-0.00738156290369136,-0.028695439958911956,-1.3169426110237734
-0.00737977290369136,-0.028695439958911956,-1.3169426110237734
-0.00737798290369136,-0.028695439958911956,-1.3169426110237734
-0.007376192903691361,-0.028695439958911956,-1.320649962004811
-0.00737440290369136,-0.024997215106328158,-1.3169426110237734
-0.00737261290369136,-0.024997215106328158,-1.3132352600427357
-0.00737082290369136,-0.021298990253744356,-1.3169426110237734
-0.007369032903691361,-0.024997215106326475,-1.3206499620048093
-0.00736724290369136,-0.024997215106328158,-1.3243573129858488
-0.00736545290369136,-0.021298990253744356,-1.320649962004811
-0.0073636629036913604,-0.021298990253744356,-1.320649962004811
-0.00736187290369136,-0.024997215106326475,-1.324357312985847
-0.00736008290369136,-0.021298990253744356,-1.320649962004811
-0.00735829290369136,-0.021298990253744356,-1.320649962004811
-0.0073565029036913605,-0.021298990253744356,-1.3132352600427357
-0.00735471290369136,-0.024997215106328158,-1.3169426110237734
-0.00735292290369136,-0.024997215106328158,-1.3132352600427357
-0.00735113290369136,-0.024997215106328158,-1.3169426110237734
-0.0073493429036913605,-0.024997215106328158,-1.3169426110237734
-0.00734755290369136,-0.024997215106328158,-1.320649962004811
-0.00734576290369136,-0.028695439958911956,-1.3132352600427357
-0.00734397290369136,-0.028695439958911956,-1.3169426110237734
-0.0073421829036913605,-0.024997215106328158,-1.3169426110237734
-0.00734039290369136,-0.028695439958911956,-1.3132352600427357
-0.00733860290369136,-0.028695439958911956,-1.3169426110237734
-0.00733681290369136,-0.024997215106328158,-1.3169426110237734
-0.0073350229036913605,-0.032393664811495755,-1.3169426110237734
-0.00733323290369136,-0.032393664811495755,-1.3169426110237734
-0.00733144290369136,-0.024997215106328158,-1.3169426110237734
-0.00732965290369136,-0.032393664811495755,-1.3169426110237734
-0.0073278629036913605,-0.028695439958911956,-1.320649962004811
-0.00732607290369136,-0.032393664811495755,-1.3169426110237734
-0.00732428290369136,-0.03609188966407956,-1.3169426110237734
-0.00732249290369136,-0.028695439958911956,-1.320649962004811
-0.007320702903691361,-0.028695439958911956,-1.320649962004811
-0.00731891290369136,-0.032393664811495755,-1.3169426110237734
-0.00731712290369136,-0.028695439958911956,-1.3169426110237734
-0.00731533290369136,-0.03609188966407956,-1.3169426110237734
-0.007313542903691361,-0.032393664811495755,-1.3169426110237734
-0.00731175290369136,-0.03609188966407956,-1.3169426110237734
-0.00730996290369136,-0.03609188966407956,-1.3169426110237734
-0.00730817290369136,-0.03609188966407956,-1.320649962004811
-0.007306382903691361,-0.032393664811495755,-1.3169426110237734
-0.00730459290369136,-0.03609188966407956,-1.320649962004811
-0.00730280290369136,-0.032393664811495755,-1.3169426110237734
-0.00730101290369136,-0.032393664811495755,-1.3169426110237734
-0.007299222903691361,-0.03609188966407788,-1.3169426110237734
-0.00729743290369136,-0.03609188966407956,-1.320649962004811
-0.00729564290369136,-0.03609188966407956,-1.3169426110237734
-0.00729385290369136,-0.03979011451666335,-1.3169426110237734
-0.00729206290369136,-0.03609188966407788,-1.3169426110237716
-0.00729027290369136,-0.032393664811495755,-1.3132352600427357
-0.00728848290369136,-0.03979011451666335,-1.3169426110237734
-0.0072866929036913605,-0.032393664811495755,-1.3169426110237734
-0.00728490290369136,-0.032393664811497434,-1.3169426110237752
-0.00728311290369136,-0.03609188966407956,-1.320649962004811
-0.00728132290369136,-0.03609188966407956,-1.320649962004811
-0.0072795329036913605,-0.03979011451666335,-1.3169426110237734
-0.00727774290369136,-0.03979011451666335,-1.3169426110237734
-0.00727595290369136,-0.03609188966407956,-1.320649962004811
-0.00727416290369136,-0.03979011451666335,-1.320649962004811
-0.0072723729036913605,-0.03609188966407956,-1.3132352600427357
-0.00727058290369136,-0.03979011451666335,-1.3132352600427357
-0.00726879290369136,-0.03609188966407956,-1.3169426110237734
-0.00726700290369136,-0.03979011451666335,-1.3169426110237734
-0.0072652129036913605,-0.03609188966407956,-1.320649962004811
-0.00726342290369136,-0.03979011451666335,-1.320649962004811
-0.00726163290369136,-0.03979011451666335,-1.3169426110237734
-0.00725984290369136,-0.03979011451666335,-1.3243573129858488
-0.0072580529036913605,-0.03609188966407956,-1.320649962004811
-0.00725626290369136,-0.03979011451666335,-1.3169426110237734
-0.00725447290369136,-0.043488339369247155,-1.320649962004811
-0.00725268290369136,-0.03979011451666335,-1.320649962004811
-0.0072508929036913606,-0.03979011451666335,-1.3132352600427357
-0.00724910290369136,-0.03979011451666335,-1.3169426110237734
-0.00724731290369136,-0.04718656422183096,-1.320649962004811
-0.00724552290369136,-0.043488339369247155,-1.320649962004811
-0.007243732903691361,-0.03979011451666335,-1.3169426110237734
-0.00724194290369136,-0.03979011451666335,-1.320649962004811
-0.00724015290369136,-0.04718656422183096,-1.320649962004811
-0.00723836290369136,-0.03979011451666335,-1.320649962004811
-0.007236572903691361,-0.03979011451666335,-1.320649962004811
-0.00723478290369136,-0.03979011451666335,-1.320649962004811
-0.00723299290369136,-0.043488339369247155,-1.3169426110237734
-0.00723120290369136,-0.04718656422183096,-1.320649962004811
-0.007229412903691361,-0.043488339369247155,-1.320649962004811
-0.00722762290369136,-0.03979011451666335,-1.320649962004811
-0.00722583290369136,-0.03979011451666335,-1.3169426110237734
-0.00722404290369136,-0.043488339369247155,-1.3243573129858488
-0.007222252903691361,-0.043488339369247155,-1.3206499620048129
-0.00722046290369136,-0.043488339369247155,-1.320649962004811
-0.00721867290369136,-0.043488339369247155,-1.320649962004811
-0.0072168829036913604,-0.04718656422183096,-1.320649962004811
-0.00721509290369136,-0.050884789074411386,-1.320649962004811
-0.00721330290369136,-0.043488339369247155,-1.320649962004811
-0.00721151290369136,-0.05088478907441475,-1.3169426110237734
-0.0072097229036913605,-0.05088478907441475,-1.3169426110237734
-0.00720793290369136,-0.043488339369247155,-1.3169426110237734
-0.00720614290369136,-0.04718656422183096,-1.3169426110237734
-0.00720435290369136,-0.043488339369247155,-1.320649962004811
-0.0072025629036913605,-0.043488339369247155,-1.3169426110237734
-0.00720077290369136,-0.05088478907441475,-1.3243573129858488
-0.00719898290369136,-0.043488339369247155,-1.3169426110237734
-0.00719719290369136,-0.043488339369247155,-1.3169426110237734
-0.0071954029036913605,-0.04718656422183096,-1.3169426110237734
-0.00719361290369136,-0.04718656422183096,-1.320649962004811
-0.00719182290369136,-0.04718656422183096,-1.3169426110237734
-0.00719003290369136,-0.04718656422183096,-1.3169426110237734
-0.0071882429036913605,-0.04718656422183096,-1.3132352600427357
-0.00718645290369136,-0.04718656422183096,-1.3169426110237734
-0.00718466290369136,-0.043488339369247155,-1.3132352600427357
-0.00718287290369136,-0.04718656422183096,-1.320649962004811
