100Hz/acq0073.csv

#Digilent WaveForms Oscilloscope Acquisition
#Device Name: Discovery2
#Serial Number: SN:210321AA28BE
#Date Time: 2023-05-24 14:48:32.365
#Sample rate: 558659Hz
#Samples: 8192
#Trigger: Source: Channel 1 Type: Edge Condition: Rising Level: 800 mV Hyst.: Auto HoldOff: 100 ns
#Channel 1: Range: 1 V/div Offset: 0 V Attenuation: 1 X Sample Mode: Average
#Channel 2: Range: 1 V/div Offset: 0 V Attenuation: 1 X Sample Mode: Average

Time (s),Channel 1 (V),Channel 2 (V)
-0.007741409163527125,0.04157083224018024,-1.320649962004811
-0.0077396191635271255,0.04157083224018024,-1.3169426110237752
-0.007737829163527125,0.04157083224018024,-1.320649962004811
-0.007736039163527125,0.03787260738759644,-1.320649962004811
-0.007734249163527125,0.04157083224018024,-1.320649962004811
-0.007732459163527125,0.03787260738759644,-1.3169426110237734
-0.007730669163527125,0.03787260738759644,-1.3169426110237734
-0.007728879163527125,0.04157083224018024,-1.3169426110237734
-0.007727089163527125,0.04157083224018024,-1.320649962004811
-0.007725299163527125,0.03787260738759644,-1.3169426110237734
-0.007723509163527125,0.034174382535012635,-1.3169426110237734
-0.007721719163527125,0.03787260738759644,-1.3132352600427357
-0.007719929163527125,0.03787260738759644,-1.320649962004811
-0.007718139163527125,0.034174382535012635,-1.3169426110237734
-0.007716349163527125,0.03787260738759644,-1.320649962004811
-0.007714559163527125,0.03787260738759644,-1.320649962004811
-0.007712769163527125,0.03787260738759644,-1.320649962004811
-0.007710979163527125,0.03787260738759644,-1.320649962004811
-0.007709189163527125,0.034174382535012635,-1.3169426110237734
-0.007707399163527125,0.034174382535012635,-1.3169426110237734
-0.007705609163527125,0.034174382535012635,-1.3169426110237734
-0.007703819163527125,0.034174382535012635,-1.3132352600427357
-0.007702029163527125,0.034174382535012635,-1.3132352600427357
-0.007700239163527125,0.03047615768242884,-1.3169426110237734
-0.0076984491635271254,0.026777932829845037,-1.3169426110237734
-0.007696659163527125,0.034174382535012635,-1.3169426110237734
-0.007694869163527125,0.03047615768242884,-1.3243573129858488
-0.007693079163527125,0.03047615768242884,-1.3132352600427357
-0.0076912891635271255,0.03047615768242884,-1.3169426110237734
-0.007689499163527125,0.03047615768242884,-1.3169426110237734
-0.007687709163527125,0.026777932829845037,-1.3243573129858488
-0.007685919163527125,0.02307970797726124,-1.320649962004811
-0.0076841291635271255,0.026777932829845037,-1.3169426110237734
-0.007682339163527125,0.02307970797726124,-1.320649962004811
-0.007680549163527125,0.026777932829845037,-1.3169426110237734
-0.007678759163527125,0.03047615768242884,-1.320649962004811
-0.0076769691635271255,0.03047615768242884,-1.3169426110237734
-0.007675179163527125,0.03047615768242884,-1.320649962004811
-0.007673389163527125,0.034174382535012635,-1.3243573129858488
-0.007671599163527125,0.026777932829845037,-1.320649962004811
-0.0076698091635271255,0.030476157682427157,-1.320649962004811
-0.007668019163527125,0.03047615768242884,-1.3169426110237734
-0.007666229163527125,0.03047615768242884,-1.3169426110237734
-0.007664439163527125,0.03047615768242884,-1.3169426110237734
-0.007662649163527125,0.034174382535012635,-1.320649962004811
-0.007660859163527125,0.034174382535012635,-1.320649962004811
-0.007659069163527125,0.034174382535012635,-1.3169426110237734
-0.007657279163527125,0.03047615768242884,-1.3169426110237734
-0.007655489163527125,0.02307970797726292,-1.320649962004811
-0.007653699163527125,0.026777932829845037,-1.320649962004811
-0.007651909163527125,0.02307970797726124,-1.320649962004811
-0.007650119163527125,0.02307970797726124,-1.320649962004811
-0.007648329163527125,0.01938148312467744,-1.3169426110237734
-0.007646539163527125,0.01938148312467744,-1.3169426110237734
-0.007644749163527125,0.02307970797726124,-1.3169426110237734
-0.007642959163527125,0.01938148312467744,-1.3169426110237734
-0.007641169163527125,0.02307970797726124,-1.3169426110237734
-0.007639379163527125,0.015683258272093638,-1.3132352600427357
-0.007637589163527125,0.02307970797726124,-1.320649962004811
-0.007635799163527125,0.02307970797726124,-1.3169426110237734
-0.007634009163527125,0.01938148312467744,-1.3169426110237734
-0.007632219163527125,0.01938148312467744,-1.320649962004811
-0.007630429163527125,0.01938148312467744,-1.3169426110237734
-0.007628639163527125,0.01938148312467744,-1.3132352600427357
-0.007626849163527125,0.015683258272093638,-1.3243573129858488
-0.007625059163527125,0.01938148312467744,-1.3169426110237734
-0.007623269163527125,0.01938148312467744,-1.320649962004811
-0.0076214791635271254,0.015683258272093638,-1.320649962004811
-0.007619689163527125,0.01938148312467744,-1.3169426110237734
-0.007617899163527125,0.015683258272093638,-1.3243573129858488
-0.007616109163527125,0.015683258272093638,-1.3243573129858488
-0.0076143191635271255,0.01938148312467744,-1.3243573129858488
-0.007612529163527125,0.01938148312467744,-1.3169426110237734
-0.007610739163527125,0.015683258272093638,-1.320649962004811
-0.007608949163527125,0.01938148312467744,-1.3169426110237734
-0.0076071591635271255,0.01198503341950984,-1.320649962004811
-0.007605369163527125,0.015683258272093638,-1.320649962004811
-0.007603579163527125,0.01198503341950984,-1.320649962004811
-0.007601789163527125,0.01198503341950984,-1.320649962004811
-0.0075999991635271255,0.01198503341950984,-1.3169426110237734
-0.007598209163527125,0.01198503341950984,-1.320649962004811
-0.007596419163527125,0.01198503341950984,-1.320649962004811
-0.007594629163527125,0.015683258272093638,-1.3169426110237734
-0.0075928391635271255,0.015683258272093638,-1.3243573129858455
-0.007591049163527125,0.01198503341950984,-1.3169426110237734
-0.007589259163527125,0.01198503341950984,-1.3169426110237734
-0.007587469163527125,0.01198503341950984,-1.3169426110237734
-0.007585679163527125,0.011985033419508158,-1.3169426110237752
-0.007583889163527125,0.00828680856692604,-1.320649962004811
-0.007582099163527125,0.00828680856692604,-1.3169426110237734
-0.007580309163527125,0.00828680856692604,-1.3169426110237734
-0.007578519163527125,0.01198503341950984,-1.3169426110237734
-0.007576729163527125,0.01198503341950984,-1.3169426110237734
-0.007574939163527125,0.00828680856692604,-1.320649962004811
-0.007573149163527125,0.00828680856692604,-1.320649962004811
-0.007571359163527125,0.00828680856692604,-1.3169426110237734
-0.007569569163527125,0.00828680856692604,-1.3169426110237734
-0.007567779163527125,0.00458858371434224,-1.320649962004811
-0.007565989163527125,0.0008903588617584406,-1.3169426110237734
-0.007564199163527125,0.00458858371434224,-1.3169426110237734
-0.007562409163527125,0.00828680856692604,-1.320649962004811
-0.007560619163527125,0.0008903588617584406,-1.3169426110237734
-0.007558829163527125,0.00458858371434224,-1.320649962004811
-0.007557039163527125,0.00458858371434224,-1.320649962004811
-0.007555249163527125,0.00828680856692604,-1.320649962004811
-0.007553459163527125,0.0008903588617584406,-1.320649962004811
-0.0075516691635271254,0.00458858371434224,-1.3243573129858488
-0.007549879163527125,0.0008903588617584406,-1.320649962004811
-0.007548089163527125,0.00458858371434224,-1.320649962004811
-0.007546299163527125,0.0008903588617584406,-1.3243573129858488
-0.0075445091635271255,0.0008903588617584406,-1.3169426110237734
-0.007542719163527125,0.0008903588617584406,-1.3169426110237734
-0.007540929163527125,0.00458858371434224,-1.320649962004811
-0.007539139163527125,-0.002807865990825359,-1.3169426110237734
-0.0075373491635271255,-0.002807865990825359,-1.3243573129858488
-0.007535559163527125,0.0008903588617584406,-1.320649962004811
-0.007533769163527125,0.0008903588617584406,-1.3169426110237734
-0.007531979163527125,-0.002807865990825359,-1.3169426110237734
-0.0075301891635271255,0.00458858371434224,-1.320649962004811
-0.007528399163527125,0.0008903588617584406,-1.320649962004811
-0.007526609163527125,-0.002807865990825359,-1.3169426110237734
-0.007524819163527125,0.0008903588617584406,-1.3169426110237734
-0.0075230291635271255,-0.002807865990823677,-1.3206499620048093
-0.007521239163527125,-0.002807865990825359,-1.320649962004811
-0.007519449163527125,-0.002807865990825359,-1.3169426110237734
-0.007517659163527125,-0.002807865990825359,-1.320649962004811
-0.0075158691635271255,-0.006506090843407477,-1.3169426110237752
-0.007514079163527125,-0.0065060908434091584,-1.3243573129858488
-0.007512289163527125,-0.0065060908434091584,-1.3169426110237734
-0.007510499163527125,-0.002807865990825359,-1.3169426110237734
-0.007508709163527125,-0.006506090843407477,-1.3169426110237734
-0.007506919163527125,-0.002807865990825359,-1.3169426110237734
-0.007505129163527125,-0.002807865990825359,-1.320649962004811
-0.007503339163527125,-0.002807865990825359,-1.320649962004811
-0.007501549163527125,-0.0065060908434091584,-1.320649962004811
-0.007499759163527125,-0.002807865990825359,-1.320649962004811
-0.007497969163527125,-0.002807865990825359,-1.320649962004811
-0.007496179163527125,-0.002807865990825359,-1.320649962004811
-0.007494389163527125,-0.0065060908434091584,-1.3243573129858488
-0.007492599163527125,-0.0065060908434091584,-1.320649962004811
-0.007490809163527125,-0.010204315695992958,-1.320649962004811
-0.007489019163527125,-0.010204315695992958,-1.320649962004811
-0.007487229163527125,-0.010204315695992958,-1.3243573129858488
-0.007485439163527125,-0.010204315695992958,-1.3169426110237734
-0.007483649163527125,-0.010204315695992958,-1.320649962004811
-0.007481859163527125,-0.0065060908434091584,-1.3243573129858488
-0.007480069163527125,-0.002807865990825359,-1.320649962004811
-0.007478279163527125,-0.0065060908434091584,-1.3169426110237734
-0.007476489163527125,-0.0065060908434091584,-1.3169426110237734
-0.0074746991635271254,-0.010204315695992958,-1.3169426110237734
-0.007472909163527125,-0.010204315695992958,-1.320649962004811
-0.007471119163527125,-0.002807865990825359,-1.320649962004811
-0.007469329163527125,-0.010204315695992958,-1.3169426110237734
-0.0074675391635271255,-0.010204315695992958,-1.320649962004811
-0.007465749163527125,-0.013902540548576758,-1.320649962004811
-0.007463959163527125,-0.010204315695992958,-1.320649962004811
-0.007462169163527125,-0.002807865990825359,-1.320649962004811
-0.0074603791635271255,-0.0065060908434091584,-1.320649962004811
-0.007458589163527125,-0.010204315695992958,-1.320649962004811
-0.007456799163527125,-0.0065060908434091584,-1.320649962004811
-0.007455009163527125,-0.013902540548576758,-1.320649962004811
-0.0074532191635271255,-0.010204315695992958,-1.320649962004811
-0.007451429163527125,-0.010204315695992958,-1.3243573129858488
-0.007449639163527125,-0.010204315695992958,-1.3169426110237734
-0.007447849163527125,-0.013902540548576758,-1.320649962004811
-0.0074460591635271255,-0.010204315695994639,-1.3169426110237752
-0.007444269163527125,-0.017600765401160557,-1.320649962004811
-0.007442479163527125,-0.017600765401160557,-1.320649962004811
-0.007440689163527125,-0.013902540548576758,-1.3169426110237734
-0.007438899163527125,-0.01390254054857844,-1.3132352600427408
-0.007437109163527125,-0.017600765401160557,-1.3243573129858488
-0.007435319163527125,-0.017600765401160557,-1.320649962004811
-0.007433529163527125,-0.017600765401160557,-1.320649962004811
-0.007431739163527125,-0.017600765401160557,-1.3243573129858488
-0.007429949163527125,-0.013902540548576758,-1.320649962004811
-0.007428159163527125,-0.013902540548576758,-1.320649962004811
-0.007426369163527125,-0.013902540548576758,-1.320649962004811
-0.007424579163527125,-0.021298990253744356,-1.320649962004811
-0.007422789163527125,-0.021298990253744356,-1.3243573129858488
-0.007420999163527125,-0.017600765401160557,-1.320649962004811
-0.007419209163527125,-0.017600765401160557,-1.320649962004811
-0.007417419163527125,-0.021298990253744356,-1.3169426110237734
-0.007415629163527125,-0.013902540548576758,-1.320649962004811
-0.007413839163527125,-0.017600765401160557,-1.3169426110237734
-0.007412049163527125,-0.013902540548576758,-1.3169426110237734
-0.007410259163527125,-0.017600765401160557,-1.320649962004811
-0.007408469163527125,-0.017600765401160557,-1.320649962004811
-0.007406679163527125,-0.017600765401160557,-1.3169426110237734
-0.0074048891635271254,-0.021298990253744356,-1.320649962004811
-0.007403099163527125,-0.021298990253744356,-1.3169426110237734
-0.007401309163527125,-0.021298990253744356,-1.320649962004811
-0.007399519163527125,-0.021298990253744356,-1.3169426110237734
-0.0073977291635271255,-0.021298990253744356,-1.320649962004811
-0.007395939163527125,-0.024997215106328158,-1.320649962004811
-0.007394149163527125,-0.021298990253744356,-1.320649962004811
-0.007392359163527125,-0.013902540548576758,-1.320649962004811
-0.0073905691635271255,-0.024997215106328158,-1.320649962004811
-0.007388779163527125,-0.021298990253744356,-1.3169426110237734
-0.007386989163527125,-0.017600765401160557,-1.320649962004811
-0.007385199163527125,-0.021298990253744356,-1.3243573129858488
-0.0073834091635271255,-0.024997215106328158,-1.3169426110237734
-0.007381619163527125,-0.017600765401160557,-1.320649962004811
-0.007379829163527125,-0.032393664811495755,-1.320649962004811
-0.007378039163527125,-0.021298990253744356,-1.320649962004811
-0.0073762491635271255,-0.024997215106328158,-1.320649962004811
-0.007374459163527125,-0.024997215106328158,-1.3169426110237734
-0.007372669163527125,-0.024997215106328158,-1.3169426110237734
-0.007370879163527125,-0.024997215106328158,-1.3169426110237734
-0.0073690891635271255,-0.02129899025374604,-1.3169426110237734
-0.007367299163527125,-0.024997215106328158,-1.320649962004811
-0.007365509163527125,-0.021298990253744356,-1.3243573129858488
-0.007363719163527125,-0.024997215106328158,-1.320649962004811
-0.007361929163527125,-0.02129899025374604,-1.320649962004811
-0.007360139163527125,-0.024997215106328158,-1.320649962004811
-0.007358349163527125,-0.028695439958911956,-1.320649962004811
-0.007356559163527125,-0.024997215106328158,-1.3169426110237734
-0.007354769163527125,-0.028695439958911956,-1.3169426110237734
-0.007352979163527125,-0.024997215106328158,-1.3169426110237734
-0.007351189163527125,-0.024997215106328158,-1.3169426110237734
-0.007349399163527125,-0.024997215106328158,-1.320649962004811
-0.007347609163527125,-0.024997215106328158,-1.320649962004811
-0.007345819163527125,-0.021298990253744356,-1.320649962004811
-0.007344029163527125,-0.024997215106328158,-1.320649962004811
-0.007342239163527125,-0.024997215106328158,-1.320649962004811
-0.007340449163527125,-0.028695439958911956,-1.3243573129858488
-0.007338659163527125,-0.028695439958911956,-1.3243573129858488
-0.007336869163527125,-0.028695439958911956,-1.3169426110237734
-0.007335079163527125,-0.028695439958911956,-1.320649962004811
-0.007333289163527125,-0.032393664811495755,-1.320649962004811
-0.007331499163527125,-0.028695439958911956,-1.320649962004811
-0.007329709163527125,-0.028695439958911956,-1.320649962004811
-0.0073279191635271254,-0.024997215106328158,-1.320649962004811
-0.007326129163527125,-0.032393664811495755,-1.3169426110237734
-0.007324339163527125,-0.028695439958911956,-1.3169426110237734
-0.007322549163527125,-0.024997215106328158,-1.320649962004811
-0.0073207591635271255,-0.032393664811495755,-1.320649962004811
-0.007318969163527125,-0.024997215106328158,-1.3169426110237734
-0.007317179163527125,-0.032393664811495755,-1.3169426110237734
-0.007315389163527125,-0.032393664811495755,-1.320649962004811
-0.0073135991635271255,-0.028695439958911956,-1.3169426110237734
-0.007311809163527125,-0.032393664811495755,-1.3243573129858488
-0.007310019163527125,-0.032393664811495755,-1.3243573129858488
-0.007308229163527125,-0.032393664811495755,-1.320649962004811
-0.0073064391635271255,-0.032393664811495755,-1.3169426110237734
-0.007304649163527125,-0.03609188966407956,-1.320649962004811
-0.007302859163527125,-0.032393664811495755,-1.320649962004811
-0.007301069163527125,-0.03609188966407956,-1.3169426110237734
-0.0072992791635271255,-0.032393664811497434,-1.3206499620048093
-0.007297489163527125,-0.028695439958911956,-1.3243573129858488
-0.007295699163527125,-0.028695439958911956,-1.3169426110237734
-0.007293909163527125,-0.032393664811495755,-1.320649962004811
-0.007292119163527125,-0.032393664811495755,-1.3169426110237734
-0.007290329163527125,-0.032393664811495755,-1.3169426110237734
-0.007288539163527125,-0.03609188966407956,-1.320649962004811
-0.007286749163527125,-0.03609188966407956,-1.320649962004811
-0.007284959163527125,-0.03979011451665999,-1.3206499620048093
-0.007283169163527125,-0.032393664811495755,-1.3169426110237734
-0.007281379163527125,-0.028695439958911956,-1.3169426110237734
-0.007279589163527125,-0.028695439958911956,-1.320649962004811
-0.007277799163527125,-0.032393664811495755,-1.3169426110237734
-0.007276009163527125,-0.03609188966407956,-1.3169426110237734
-0.007274219163527125,-0.03609188966407956,-1.320649962004811
-0.007272429163527125,-0.028695439958911956,-1.320649962004811
-0.007270639163527125,-0.032393664811495755,-1.3169426110237734
-0.007268849163527125,-0.032393664811495755,-1.320649962004811
-0.007267059163527125,-0.028695439958911956,-1.3132352600427357
-0.007265269163527125,-0.03609188966407956,-1.3169426110237734
-0.007263479163527125,-0.032393664811495755,-1.3169426110237734
-0.007261689163527125,-0.03609188966407956,-1.3243573129858488
-0.007259899163527125,-0.03609188966407956,-1.3243573129858488
-0.0072581091635271254,-0.03609188966407956,-1.320649962004811
-0.007256319163527125,-0.03609188966407956,-1.3169426110237734
-0.007254529163527125,-0.03609188966407956,-1.3169426110237734
-0.007252739163527125,-0.03609188966407956,-1.320649962004811
-0.0072509491635271255,-0.03609188966407956,-1.3169426110237734
-0.007249159163527125,-0.03979011451666335,-1.3132352600427357
-0.007247369163527125,-0.03609188966407956,-1.3169426110237734
-0.007245579163527125,-0.043488339369247155,-1.3169426110237734
-0.0072437891635271255,-0.043488339369247155,-1.320649962004811
-0.007241999163527125,-0.043488339369247155,-1.320649962004811
-0.007240209163527125,-0.043488339369247155,-1.320649962004811
-0.007238419163527125,-0.04718656422183096,-1.320649962004811
-0.0072366291635271255,-0.04718656422183096,-1.320649962004811
-0.007234839163527125,-0.05088478907441475,-1.320649962004811
-0.007233049163527125,-0.043488339369247155,-1.320649962004811
-0.007231259163527125,-0.03979011451666335,-1.320649962004811
-0.0072294691635271255,-0.043488339369247155,-1.3132352600427357
-0.007227679163527125,-0.03609188966407956,-1.3169426110237734
-0.007225889163527125,-0.043488339369247155,-1.3243573129858488
-0.007224099163527125,-0.03979011451666335,-1.3243573129858488
-0.0072223091635271255,-0.03979011451666335,-1.3243573129858488
-0.007220519163527125,-0.043488339369247155,-1.320649962004811
-0.007218729163527125,-0.03979011451666335,-1.3132352600427357
-0.007216939163527125,-0.043488339369247155,-1.320649962004811
-0.007215149163527125,-0.043488339369245475,-1.320649962004811
-0.007213359163527125,-0.03979011451666335,-1.320649962004811
-0.007211569163527125,-0.043488339369247155,-1.3169426110237734
-0.007209779163527125,-0.03979011451666335,-1.320649962004811
-0.007207989163527125,-0.043488339369247155,-1.3169426110237734
-0.007206199163527125,-0.03979011451666335,-1.3169426110237734
-0.007204409163527125,-0.03979011451666335,-1.3243573129858488
-0.007202619163527125,-0.043488339369247155,-1.320649962004811
-0.007200829163527125,-0.03979011451666335,-1.3243573129858488
-0.007199039163527125,-0.043488339369247155,-1.320649962004811
-0.007197249163527125,-0.043488339369247155,-1.3243573129858488
-0.007195459163527125,-0.043488339369247155,-1.320649962004811
-0.007193669163527125,-0.04718656422183096,-1.3169426110237734
-0.007191879163527125,-0.04718656422183096,-1.320649962004811
-0.007190089163527125,-0.03979011451666335,-1.320649962004811
-0.007188299163527125,-0.03979011451666335,-1.320649962004811
