100Hz/acq0029.csv

#Digilent WaveForms Oscilloscope Acquisition
#Device Name: Discovery2
#Serial Number: SN:210321AA28BE
#Date Time: 2023-05-24 14:48:31.067
#Sample rate: 558659Hz
#Samples: 8192
#Trigger: Source: Channel 1 Type: Edge Condition: Rising Level: 800 mV Hyst.: Auto HoldOff: 100 ns
#Channel 1: Range: 1 V/div Offset: 0 V Attenuation: 1 X Sample Mode: Average
#Channel 2: Range: 1 V/div Offset: 0 V Attenuation: 1 X Sample Mode: Average

Time (s),Channel 1 (V),Channel 2 (V)
-0.007740977909927814,0.045269057092764034,-1.3169426110237734
-0.007739187909927814,0.04896728194534616,-1.3132352600427375
-0.007737397909927814,0.05266550679793163,-1.320649962004811
-0.007735607909927814,0.048967281945347836,-1.3169426110237734
-0.007733817909927814,0.048967281945347836,-1.3169426110237734
-0.0077320279099278135,0.048967281945349515,-1.320649962004811
-0.007730237909927814,0.05266550679793163,-1.320649962004811
-0.007728447909927814,0.045269057092764034,-1.3169426110237734
-0.007726657909927814,0.045269057092764034,-1.3169426110237734
-0.0077248679099278135,0.045269057092764034,-1.320649962004811
-0.007723077909927814,0.045269057092764034,-1.3169426110237734
-0.007721287909927814,0.048967281945347836,-1.3169426110237734
-0.007719497909927814,0.045269057092764034,-1.320649962004811
-0.0077177079099278135,0.045269057092764034,-1.320649962004811
-0.007715917909927814,0.048967281945347836,-1.3169426110237734
-0.007714127909927814,0.05266550679793163,-1.3169426110237734
-0.007712337909927814,0.045269057092764034,-1.320649962004811
-0.0077105479099278135,0.045269057092764034,-1.3169426110237734
-0.007708757909927814,0.045269057092764034,-1.3169426110237734
-0.007706967909927814,0.048967281945347836,-1.320649962004811
-0.007705177909927814,0.045269057092764034,-1.320649962004811
-0.0077033879099278136,0.045269057092764034,-1.3243573129858488
-0.007701597909927814,0.05266550679793163,-1.320649962004811
-0.007699807909927814,0.04157083224018024,-1.3169426110237734
-0.007698017909927814,0.045269057092764034,-1.3169426110237734
-0.007696227909927814,0.048967281945347836,-1.3169426110237734
-0.007694437909927814,0.048967281945347836,-1.3169426110237734
-0.007692647909927814,0.048967281945347836,-1.320649962004811
-0.007690857909927814,0.03787260738759644,-1.320649962004811
-0.007689067909927814,0.045269057092764034,-1.320649962004811
-0.007687277909927814,0.04157083224018024,-1.3169426110237734
-0.007685487909927814,0.045269057092764034,-1.3169426110237734
-0.007683697909927814,0.03787260738759644,-1.3169426110237734
-0.007681907909927814,0.04157083224018024,-1.3132352600427357
-0.007680117909927814,0.03787260738759644,-1.3169426110237734
-0.007678327909927814,0.04157083224018024,-1.3169426110237734
-0.007676537909927814,0.04157083224018024,-1.3169426110237734
-0.007674747909927814,0.045269057092764034,-1.3243573129858488
-0.007672957909927814,0.04157083224018024,-1.3169426110237734
-0.007671167909927814,0.03787260738759644,-1.3132352600427357
-0.007669377909927814,0.04157083224017856,-1.3206499620048078
-0.007667587909927814,0.03787260738759644,-1.3169426110237734
-0.007665797909927814,0.04157083224018024,-1.3169426110237734
-0.007664007909927814,0.03787260738759644,-1.320649962004811
-0.0076622179099278135,0.034174382535014314,-1.3206499620048093
-0.007660427909927814,0.03787260738759644,-1.3169426110237734
-0.007658637909927814,0.04157083224018024,-1.3169426110237734
-0.007656847909927814,0.03787260738759644,-1.3169426110237734
-0.0076550579099278135,0.03787260738759476,-1.3169426110237716
-0.007653267909927814,0.034174382535012635,-1.3132352600427357
-0.007651477909927814,0.034174382535012635,-1.320649962004811
-0.007649687909927814,0.03787260738759644,-1.320649962004811
-0.0076478979099278135,0.04157083224018024,-1.3169426110237734
-0.007646107909927814,0.03787260738759644,-1.3169426110237734
-0.007644317909927814,0.03047615768242884,-1.3169426110237734
-0.007642527909927814,0.03787260738759644,-1.3169426110237734
-0.0076407379099278135,0.034174382535012635,-1.3169426110237734
-0.007638947909927814,0.034174382535012635,-1.320649962004811
-0.007637157909927814,0.03047615768242884,-1.320649962004811
-0.007635367909927814,0.026777932829845037,-1.3169426110237734
-0.0076335779099278135,0.034174382535012635,-1.3169426110237734
-0.007631787909927814,0.034174382535012635,-1.3169426110237734
-0.007629997909927814,0.034174382535012635,-1.320649962004811
-0.007628207909927814,0.026777932829845037,-1.320649962004811
-0.007626417909927814,0.03047615768242884,-1.3169426110237734
-0.007624627909927814,0.03047615768242884,-1.3169426110237734
-0.007622837909927814,0.03047615768242884,-1.320649962004811
-0.007621047909927814,0.034174382535012635,-1.320649962004811
-0.007619257909927814,0.034174382535012635,-1.3169426110237734
-0.007617467909927814,0.026777932829845037,-1.3132352600427357
-0.007615677909927814,0.03047615768242884,-1.320649962004811
-0.007613887909927814,0.03047615768242884,-1.3169426110237734
-0.007612097909927814,0.026777932829845037,-1.320649962004811
-0.007610307909927814,0.03047615768242884,-1.320649962004811
-0.007608517909927814,0.03047615768242884,-1.3243573129858488
-0.007606727909927814,0.026777932829845037,-1.3169426110237734
-0.007604937909927814,0.026777932829845037,-1.3169426110237734
-0.007603147909927814,0.026777932829845037,-1.3132352600427357
-0.007601357909927814,0.026777932829845037,-1.3132352600427357
-0.007599567909927814,0.026777932829845037,-1.3169426110237734
-0.007597777909927814,0.02307970797726124,-1.3169426110237734
-0.007595987909927814,0.02307970797726124,-1.3169426110237734
-0.007594197909927814,0.026777932829845037,-1.3132352600427357
-0.007592407909927814,0.026777932829845037,-1.3169426110237716
-0.007590617909927814,0.02307970797726124,-1.320649962004811
-0.007588827909927814,0.02307970797726124,-1.3169426110237734
-0.007587037909927814,0.01938148312467744,-1.320649962004811
-0.0075852479099278135,0.019381483124679123,-1.320649962004811
-0.007583457909927814,0.02307970797726124,-1.320649962004811
-0.007581667909927814,0.02307970797726124,-1.320649962004811
-0.007579877909927814,0.015683258272093638,-1.3169426110237734
-0.0075780879099278135,0.01938148312467744,-1.3169426110237734
-0.007576297909927814,0.015683258272093638,-1.320649962004811
-0.007574507909927814,0.015683258272093638,-1.3243573129858488
-0.007572717909927814,0.015683258272093638,-1.320649962004811
-0.0075709279099278135,0.02307970797726124,-1.320649962004811
-0.007569137909927814,0.015683258272093638,-1.320649962004811
-0.007567347909927814,0.01938148312467744,-1.3243573129858488
-0.007565557909927814,0.01938148312467744,-1.320649962004811
-0.0075637679099278135,0.01938148312467744,-1.3169426110237734
-0.007561977909927814,0.01938148312467744,-1.3169426110237734
-0.007560187909927814,0.01938148312467744,-1.3169426110237734
-0.007558397909927814,0.015683258272093638,-1.3169426110237734
-0.0075566079099278136,0.015683258272093638,-1.320649962004811
-0.007554817909927814,0.015683258272093638,-1.320649962004811
-0.007553027909927814,0.01198503341950984,-1.3169426110237734
-0.007551237909927814,0.01198503341950984,-1.320649962004811
-0.007549447909927814,0.01198503341950984,-1.320649962004811
-0.007547657909927814,0.00828680856692604,-1.320649962004811
-0.007545867909927814,0.015683258272093638,-1.320649962004811
-0.007544077909927814,0.01938148312467744,-1.320649962004811
-0.007542287909927814,0.01198503341950984,-1.320649962004811
-0.007540497909927814,0.015683258272093638,-1.320649962004811
-0.007538707909927814,0.015683258272093638,-1.320649962004811
-0.007536917909927814,0.01938148312467744,-1.320649962004811
-0.007535127909927814,0.01198503341950984,-1.3243573129858488
-0.007533337909927814,0.015683258272093638,-1.320649962004811
-0.007531547909927814,0.01938148312467744,-1.3169426110237734
-0.007529757909927814,0.015683258272093638,-1.320649962004811
-0.007527967909927814,0.015683258272093638,-1.3169426110237734
-0.007526177909927814,0.01198503341950984,-1.320649962004811
-0.007524387909927814,0.015683258272093638,-1.3243573129858488
-0.007522597909927814,0.015683258272093638,-1.3206499620048129
-0.007520807909927814,0.01938148312467744,-1.320649962004811
-0.007519017909927814,0.015683258272093638,-1.320649962004811
-0.007517227909927814,0.015683258272093638,-1.3169426110237734
-0.007515437909927814,0.015683258272093638,-1.3169426110237734
-0.007513647909927814,0.01938148312467744,-1.320649962004811
-0.007511857909927814,0.01198503341950984,-1.3169426110237734
-0.007510067909927814,0.01198503341950984,-1.3169426110237734
-0.0075082779099278135,0.01198503341951152,-1.320649962004811
-0.007506487909927814,0.015683258272093638,-1.320649962004811
-0.007504697909927814,0.01198503341950984,-1.320649962004811
-0.007502907909927814,0.015683258272093638,-1.3243573129858488
-0.0075011179099278135,0.01198503341950984,-1.3169426110237734
-0.007499327909927814,0.01198503341950984,-1.320649962004811
-0.007497537909927814,0.015683258272093638,-1.3243573129858488
-0.007495747909927814,0.01198503341950984,-1.320649962004811
-0.0074939579099278135,0.015683258272093638,-1.320649962004811
-0.007492167909927814,0.01198503341950984,-1.3243573129858488
-0.007490377909927814,0.00828680856692604,-1.320649962004811
-0.007488587909927814,0.00458858371434224,-1.320649962004811
-0.0074867979099278135,0.01198503341950984,-1.3169426110237734
-0.007485007909927814,0.00828680856692604,-1.3132352600427357
-0.007483217909927814,0.01198503341950984,-1.3169426110237734
-0.007481427909927814,0.00828680856692604,-1.3169426110237734
-0.007479637909927814,0.01198503341950984,-1.3169426110237734
-0.007477847909927814,0.00458858371434224,-1.3169426110237734
-0.007476057909927814,0.00828680856692604,-1.320649962004811
-0.007474267909927814,0.00458858371434224,-1.320649962004811
-0.007472477909927814,0.00828680856692604,-1.320649962004811
-0.007470687909927814,0.00458858371434224,-1.320649962004811
-0.007468897909927814,0.00458858371434224,-1.3243573129858488
-0.007467107909927814,0.00458858371434224,-1.3243573129858488
-0.007465317909927814,0.00458858371434224,-1.320649962004811
-0.007463527909927814,0.00828680856692604,-1.3243573129858488
-0.007461737909927814,0.00828680856692604,-1.320649962004811
-0.007459947909927814,0.00828680856692604,-1.320649962004811
-0.007458157909927814,0.01198503341950984,-1.3132352600427357
-0.007456367909927814,0.00828680856692604,-1.3169426110237734
-0.007454577909927814,0.00458858371434224,-1.3169426110237734
-0.007452787909927814,0.0008903588617584406,-1.3243573129858488
-0.007450997909927814,0.0008903588617584406,-1.320649962004811
-0.007449207909927814,0.00458858371434224,-1.320649962004811
-0.007447417909927814,0.0008903588617584406,-1.3243573129858488
-0.007445627909927814,-0.002807865990823677,-1.3206499620048129
-0.007443837909927814,0.00458858371434224,-1.320649962004811
-0.007442047909927814,0.0008903588617584406,-1.3243573129858488
-0.007440257909927814,0.0008903588617584406,-1.320649962004811
-0.0074384679099278135,0.0008903588617584406,-1.3206499620048093
-0.007436677909927814,0.0008903588617584406,-1.3169426110237734
-0.007434887909927814,0.00828680856692604,-1.3169426110237734
-0.007433097909927814,0.0008903588617584406,-1.320649962004811
-0.0074313079099278135,0.0008903588617584406,-1.320649962004811
-0.007429517909927814,0.0008903588617584406,-1.320649962004811
-0.007427727909927814,0.0008903588617584406,-1.320649962004811
-0.007425937909927814,0.00458858371434224,-1.3243573129858488
-0.0074241479099278135,0.00828680856692604,-1.320649962004811
-0.007422357909927814,0.0008903588617584406,-1.3169426110237734
-0.007420567909927814,0.00458858371434224,-1.320649962004811
-0.007418777909927814,0.0008903588617584406,-1.3169426110237734
-0.0074169879099278135,0.0008903588617584406,-1.3169426110237734
-0.007415197909927814,0.0008903588617584406,-1.320649962004811
-0.007413407909927814,-0.002807865990825359,-1.3169426110237734
-0.007411617909927814,-0.002807865990825359,-1.320649962004811
-0.0074098279099278136,-0.0065060908434091584,-1.320649962004811
-0.007408037909927814,-0.002807865990825359,-1.320649962004811
-0.007406247909927814,-0.002807865990825359,-1.320649962004811
-0.007404457909927814,0.0008903588617584406,-1.3169426110237734
-0.007402667909927814,-0.002807865990825359,-1.3169426110237734
-0.007400877909927814,-0.002807865990825359,-1.3243573129858488
-0.007399087909927814,-0.002807865990825359,-1.320649962004811
-0.007397297909927814,0.0008903588617584406,-1.320649962004811
-0.007395507909927814,0.0008903588617584406,-1.3169426110237734
-0.007393717909927814,-0.002807865990825359,-1.320649962004811
-0.007391927909927814,0.0008903588617584406,-1.320649962004811
-0.007390137909927814,-0.0065060908434091584,-1.320649962004811
-0.007388347909927814,-0.0065060908434091584,-1.3169426110237734
-0.007386557909927814,-0.002807865990825359,-1.320649962004811
-0.007384767909927814,-0.0065060908434091584,-1.320649962004811
-0.007382977909927814,-0.002807865990825359,-1.320649962004811
-0.007381187909927814,-0.010204315695992958,-1.320649962004811
-0.007379397909927814,-0.010204315695992958,-1.3169426110237734
-0.007377607909927814,-0.0065060908434091584,-1.3132352600427357
-0.007375817909927814,-0.0065060908434091584,-1.3132352600427357
-0.007374027909927814,-0.002807865990825359,-1.3169426110237734
-0.007372237909927814,-0.0065060908434091584,-1.3243573129858488
-0.007370447909927814,-0.0065060908434091584,-1.320649962004811
-0.007368657909927814,-0.0065060908434091584,-1.3169426110237752
-0.007366867909927814,-0.010204315695992958,-1.3169426110237734
-0.007365077909927814,-0.013902540548576758,-1.3169426110237734
-0.007363287909927814,-0.013902540548576758,-1.320649962004811
-0.0073614979099278135,-0.010204315695992958,-1.3206499620048129
-0.007359707909927814,-0.010204315695992958,-1.3243573129858488
-0.007357917909927814,-0.002807865990825359,-1.3243573129858488
-0.007356127909927814,-0.0065060908434091584,-1.320649962004811
-0.0073543379099278135,-0.010204315695992958,-1.3132352600427357
-0.007352547909927814,-0.013902540548576758,-1.3169426110237734
-0.007350757909927814,-0.013902540548576758,-1.320649962004811
-0.007348967909927814,-0.010204315695992958,-1.320649962004811
-0.0073471779099278135,-0.010204315695992958,-1.320649962004811
-0.007345387909927814,-0.013902540548576758,-1.3169426110237734
-0.007343597909927814,-0.010204315695992958,-1.3132352600427357
-0.007341807909927814,-0.010204315695992958,-1.3169426110237734
-0.0073400179099278135,-0.010204315695992958,-1.3169426110237734
-0.007338227909927814,-0.021298990253744356,-1.320649962004811
-0.007336437909927814,-0.010204315695992958,-1.3132352600427357
-0.007334647909927814,-0.010204315695992958,-1.3169426110237734
-0.007332857909927814,-0.010204315695992958,-1.320649962004811
-0.007331067909927814,-0.0065060908434091584,-1.3169426110237734
-0.007329277909927814,-0.0065060908434091584,-1.320649962004811
-0.007327487909927814,-0.010204315695992958,-1.3243573129858488
-0.007325697909927814,-0.010204315695992958,-1.320649962004811
-0.007323907909927814,-0.010204315695992958,-1.3169426110237734
-0.007322117909927814,-0.013902540548576758,-1.320649962004811
-0.007320327909927814,-0.013902540548576758,-1.320649962004811
-0.007318537909927814,-0.013902540548576758,-1.3132352600427357
-0.007316747909927814,-0.017600765401160557,-1.3169426110237734
-0.007314957909927814,-0.017600765401160557,-1.3169426110237734
-0.007313167909927814,-0.013902540548576758,-1.320649962004811
-0.007311377909927814,-0.013902540548576758,-1.320649962004811
-0.007309587909927814,-0.013902540548576758,-1.320649962004811
-0.007307797909927814,-0.017600765401160557,-1.320649962004811
-0.007306007909927814,-0.017600765401160557,-1.320649962004811
-0.007304217909927814,-0.013902540548576758,-1.3169426110237734
-0.007302427909927814,-0.010204315695992958,-1.320649962004811
-0.007300637909927814,-0.013902540548576758,-1.320649962004811
-0.007298847909927814,-0.017600765401158874,-1.320649962004811
-0.007297057909927814,-0.013902540548576758,-1.3169426110237734
-0.007295267909927814,-0.013902540548576758,-1.320649962004811
-0.007293477909927814,-0.013902540548576758,-1.320649962004811
-0.0072916879099278135,-0.017600765401157195,-1.3169426110237752
-0.007289897909927814,-0.010204315695992958,-1.320649962004811
-0.007288107909927814,-0.017600765401160557,-1.3169426110237734
-0.007286317909927814,-0.013902540548576758,-1.320649962004811
-0.0072845279099278135,-0.021298990253742673,-1.3206499620048093
-0.007282737909927814,-0.017600765401160557,-1.3169426110237734
-0.007280947909927814,-0.013902540548576758,-1.3169426110237734
-0.007279157909927814,-0.021298990253744356,-1.3243573129858488
-0.0072773679099278135,-0.017600765401160557,-1.320649962004811
-0.007275577909927814,-0.017600765401160557,-1.320649962004811
-0.007273787909927814,-0.017600765401160557,-1.3169426110237734
-0.007271997909927814,-0.017600765401160557,-1.3169426110237734
-0.0072702079099278135,-0.017600765401160557,-1.3132352600427357
-0.007268417909927814,-0.017600765401160557,-1.3132352600427357
-0.007266627909927814,-0.017600765401160557,-1.3169426110237734
-0.007264837909927814,-0.013902540548576758,-1.320649962004811
-0.0072630479099278136,-0.017600765401160557,-1.320649962004811
-0.007261257909927814,-0.017600765401160557,-1.320649962004811
-0.007259467909927814,-0.017600765401160557,-1.3243573129858488
-0.007257677909927814,-0.013902540548576758,-1.3169426110237734
-0.007255887909927814,-0.021298990253744356,-1.3169426110237734
-0.007254097909927814,-0.017600765401160557,-1.320649962004811
-0.007252307909927814,-0.021298990253744356,-1.3169426110237734
-0.007250517909927814,-0.021298990253744356,-1.3132352600427357
-0.007248727909927814,-0.021298990253744356,-1.3169426110237734
-0.007246937909927814,-0.021298990253744356,-1.320649962004811
-0.007245147909927814,-0.021298990253744356,-1.320649962004811
-0.007243357909927814,-0.021298990253744356,-1.3243573129858488
-0.007241567909927814,-0.021298990253744356,-1.3169426110237734
-0.007239777909927814,-0.021298990253744356,-1.3243573129858488
-0.007237987909927814,-0.021298990253744356,-1.3169426110237734
-0.007236197909927814,-0.021298990253744356,-1.3169426110237734
-0.007234407909927814,-0.021298990253744356,-1.320649962004811
-0.007232617909927814,-0.021298990253744356,-1.3169426110237734
-0.007230827909927814,-0.024997215106328158,-1.3243573129858488
-0.007229037909927814,-0.017600765401160557,-1.320649962004811
-0.007227247909927814,-0.021298990253744356,-1.320649962004811
-0.007225457909927814,-0.021298990253744356,-1.3243573129858488
-0.007223667909927814,-0.024997215106328158,-1.320649962004811
-0.007221877909927814,-0.024997215106328158,-1.324357312985847
-0.007220087909927814,-0.017600765401160557,-1.320649962004811
-0.007218297909927814,-0.021298990253744356,-1.3169426110237734
-0.007216507909927814,-0.013902540548576758,-1.3169426110237734
-0.0072147179099278135,-0.02129899025374604,-1.3206499620048078
-0.007212927909927814,-0.024997215106328158,-1.3132352600427357
-0.007211137909927814,-0.017600765401160557,-1.3169426110237734
-0.007209347909927814,-0.017600765401160557,-1.3169426110237734
-0.0072075579099278135,-0.017600765401160557,-1.3169426110237734
-0.007205767909927814,-0.024997215106328158,-1.3169426110237734
-0.007203977909927814,-0.017600765401160557,-1.320649962004811
-0.007202187909927814,-0.017600765401160557,-1.320649962004811
-0.0072003979099278135,-0.021298990253744356,-1.3243573129858488
-0.007198607909927814,-0.021298990253744356,-1.3169426110237734
-0.007196817909927814,-0.010204315695992958,-1.3169426110237734
-0.007195027909927814,-0.021298990253744356,-1.320649962004811
-0.0071932379099278135,-0.021298990253744356,-1.320649962004811
-0.007191447909927814,-0.021298990253744356,-1.320649962004811
-0.007189657909927814,-0.017600765401160557,-1.3169426110237734
-0.007187867909927814,-0.021298990253744356,-1.320649962004811
