100Hz/acq0053.csv

#Digilent WaveForms Oscilloscope Acquisition
#Device Name: Discovery2
#Serial Number: SN:210321AA28BE
#Date Time: 2023-05-24 14:48:31.757
#Sample rate: 558659Hz
#Samples: 8192
#Trigger: Source: Channel 1 Type: Edge Condition: Rising Level: 800 mV Hyst.: Auto HoldOff: 100 ns
#Channel 1: Range: 1 V/div Offset: 0 V Attenuation: 1 X Sample Mode: Average
#Channel 2: Range: 1 V/div Offset: 0 V Attenuation: 1 X Sample Mode: Average

Time (s),Channel 1 (V),Channel 2 (V)
-0.007741723537772445,0.026777932829845037,-1.3243573129858488
-0.0077399335377724456,0.030476157682427157,-1.3169426110237767
-0.007738143537772445,0.026777932829845037,-1.320649962004811
-0.007736353537772445,0.026777932829845037,-1.320649962004811
-0.007734563537772445,0.02307970797726124,-1.320649962004811
-0.007732773537772445,0.01938148312467744,-1.3169426110237734
-0.007730983537772445,0.01938148312467744,-1.3169426110237734
-0.007729193537772445,0.015683258272093638,-1.3169426110237734
-0.007727403537772445,0.01938148312467744,-1.320649962004811
-0.007725613537772445,0.01938148312467744,-1.3169426110237734
-0.007723823537772445,0.02307970797726124,-1.3169426110237734
-0.007722033537772445,0.01938148312467744,-1.3132352600427357
-0.007720243537772445,0.015683258272093638,-1.320649962004811
-0.007718453537772445,0.015683258272093638,-1.3169426110237734
-0.007716663537772445,0.01938148312467744,-1.3169426110237734
-0.007714873537772445,0.015683258272093638,-1.3169426110237734
-0.007713083537772445,0.01938148312467744,-1.3169426110237734
-0.007711293537772445,0.015683258272093638,-1.3169426110237734
-0.007709503537772445,0.015683258272093638,-1.3243573129858488
-0.007707713537772445,0.01938148312467744,-1.3169426110237734
-0.0077059235377724454,0.015683258272093638,-1.320649962004811
-0.007704133537772445,0.015683258272093638,-1.320649962004811
-0.007702343537772445,0.02307970797726124,-1.320649962004811
-0.007700553537772445,0.015683258272093638,-1.320649962004811
-0.0076987635377724455,0.01198503341950984,-1.3243573129858488
-0.007696973537772445,0.015683258272093638,-1.3169426110237734
-0.007695183537772445,0.01938148312467744,-1.320649962004811
-0.007693393537772445,0.01198503341950984,-1.3169426110237734
-0.0076916035377724455,0.015683258272093638,-1.3169426110237734
-0.007689813537772445,0.015683258272093638,-1.3169426110237734
-0.007688023537772445,0.015683258272093638,-1.3169426110237734
-0.007686233537772445,0.015683258272093638,-1.320649962004811
-0.0076844435377724455,0.015683258272093638,-1.320649962004811
-0.007682653537772445,0.01198503341950984,-1.3169426110237734
-0.007680863537772445,0.015683258272093638,-1.320649962004811
-0.007679073537772445,0.01198503341950984,-1.320649962004811
-0.0076772835377724455,0.01198503341950984,-1.3169426110237734
-0.007675493537772445,0.00828680856692604,-1.320649962004811
-0.007673703537772445,0.00828680856692604,-1.320649962004811
-0.007671913537772445,0.00458858371434224,-1.320649962004811
-0.0076701235377724455,0.008286808566924358,-1.320649962004811
-0.007668333537772445,0.00828680856692604,-1.3169426110237734
-0.007666543537772445,0.00828680856692604,-1.3169426110237734
-0.007664753537772445,0.01198503341950984,-1.320649962004811
-0.007662963537772445,0.011985033419508158,-1.3169426110237734
-0.007661173537772445,0.00828680856692604,-1.3169426110237734
-0.007659383537772445,0.00828680856692604,-1.320649962004811
-0.007657593537772445,0.00828680856692604,-1.3169426110237734
-0.007655803537772445,0.00458858371434224,-1.3206499620048093
-0.007654013537772445,0.00458858371434224,-1.3169426110237734
-0.007652223537772445,0.0008903588617584406,-1.3243573129858488
-0.007650433537772445,0.00458858371434224,-1.3169426110237734
-0.007648643537772445,0.00458858371434224,-1.3169426110237734
-0.007646853537772445,0.00828680856692604,-1.320649962004811
-0.007645063537772445,0.0008903588617584406,-1.320649962004811
-0.007643273537772445,0.00458858371434224,-1.320649962004811
-0.007641483537772445,0.0008903588617584406,-1.320649962004811
-0.007639693537772445,0.0008903588617584406,-1.3243573129858488
-0.007637903537772445,0.0008903588617584406,-1.320649962004811
-0.007636113537772445,-0.002807865990825359,-1.3169426110237734
-0.007634323537772445,-0.002807865990825359,-1.3169426110237734
-0.007632533537772445,0.00458858371434224,-1.320649962004811
-0.007630743537772445,-0.002807865990825359,-1.3169426110237734
-0.0076289535377724454,-0.002807865990825359,-1.320649962004811
-0.007627163537772445,0.0008903588617584406,-1.320649962004811
-0.007625373537772445,-0.002807865990825359,-1.3169426110237734
-0.007623583537772445,-0.002807865990825359,-1.320649962004811
-0.0076217935377724455,0.0008903588617584406,-1.320649962004811
-0.007620003537772445,0.0008903588617584406,-1.320649962004811
-0.007618213537772445,-0.002807865990825359,-1.320649962004811
-0.007616423537772445,0.0008903588617584406,-1.320649962004811
-0.0076146335377724455,0.0008903588617584406,-1.320649962004811
-0.007612843537772445,0.0008903588617584406,-1.3169426110237734
-0.007611053537772445,-0.002807865990825359,-1.320649962004811
-0.007609263537772445,-0.002807865990825359,-1.320649962004811
-0.0076074735377724455,0.0008903588617584406,-1.3243573129858488
-0.007605683537772445,-0.010204315695992958,-1.320649962004811
-0.007603893537772445,-0.0065060908434091584,-1.3243573129858488
-0.007602103537772445,0.00458858371434224,-1.3243573129858488
-0.0076003135377724455,0.0008903588617584406,-1.320649962004811
-0.007598523537772445,0.0008903588617584406,-1.3243573129858488
-0.007596733537772445,-0.002807865990825359,-1.320649962004811
-0.007594943537772445,-0.0065060908434091584,-1.320649962004811
-0.0075931535377724456,-0.0065060908434091584,-1.313235260042739
-0.007591363537772445,-0.002807865990825359,-1.320649962004811
-0.007589573537772445,-0.0065060908434091584,-1.320649962004811
-0.007587783537772445,-0.0065060908434091584,-1.320649962004811
-0.007585993537772445,-0.002807865990825359,-1.324357312985847
-0.007584203537772445,-0.002807865990825359,-1.320649962004811
-0.007582413537772445,-0.002807865990825359,-1.320649962004811
-0.007580623537772445,0.00458858371434224,-1.3243573129858488
-0.007578833537772445,0.0008903588617584406,-1.3169426110237734
-0.007577043537772445,-0.0065060908434091584,-1.3243573129858488
-0.007575253537772445,-0.0065060908434091584,-1.3169426110237734
-0.007573463537772445,-0.0065060908434091584,-1.320649962004811
-0.007571673537772445,-0.0065060908434091584,-1.320649962004811
-0.007569883537772445,-0.010204315695992958,-1.3243573129858488
-0.007568093537772445,-0.0065060908434091584,-1.3243573129858488
-0.007566303537772445,-0.010204315695992958,-1.3243573129858488
-0.007564513537772445,-0.010204315695992958,-1.320649962004811
-0.007562723537772445,-0.002807865990825359,-1.320649962004811
-0.007560933537772445,-0.0065060908434091584,-1.3169426110237734
-0.0075591435377724454,-0.013902540548576758,-1.3169426110237734
-0.007557353537772445,-0.013902540548576758,-1.320649962004811
-0.007555563537772445,-0.010204315695992958,-1.3169426110237734
-0.007553773537772445,-0.013902540548576758,-1.3169426110237734
-0.0075519835377724455,-0.013902540548576758,-1.3280646639668865
-0.007550193537772445,-0.010204315695992958,-1.320649962004811
-0.007548403537772445,-0.013902540548576758,-1.3169426110237734
-0.007546613537772445,-0.010204315695992958,-1.320649962004811
-0.0075448235377724455,-0.010204315695992958,-1.320649962004811
-0.007543033537772445,-0.010204315695992958,-1.320649962004811
-0.007541243537772445,-0.0065060908434091584,-1.320649962004811
-0.007539453537772445,-0.010204315695992958,-1.320649962004811
-0.0075376635377724455,-0.013902540548576758,-1.320649962004811
-0.007535873537772445,-0.013902540548576758,-1.320649962004811
-0.007534083537772445,-0.010204315695992958,-1.320649962004811
-0.007532293537772445,-0.013902540548576758,-1.320649962004811
-0.0075305035377724455,-0.013902540548576758,-1.320649962004811
-0.007528713537772445,-0.021298990253744356,-1.3132352600427357
-0.007526923537772445,-0.017600765401160557,-1.320649962004811
-0.007525133537772445,-0.017600765401160557,-1.320649962004811
-0.0075233435377724455,-0.013902540548578441,-1.313235260042739
-0.007521553537772445,-0.017600765401160557,-1.3169426110237734
-0.007519763537772445,-0.013902540548576758,-1.320649962004811
-0.007517973537772445,-0.013902540548576758,-1.320649962004811
-0.0075161835377724456,-0.010204315695994639,-1.324357312985847
-0.007514393537772445,-0.013902540548576758,-1.3243573129858488
-0.007512603537772445,-0.010204315695992958,-1.320649962004811
-0.007510813537772445,-0.013902540548576758,-1.320649962004811
-0.007509023537772445,-0.006506090843414204,-1.324357312985847
-0.007507233537772445,-0.017600765401160557,-1.320649962004811
-0.007505443537772445,-0.017600765401160557,-1.320649962004811
-0.007503653537772445,-0.017600765401160557,-1.320649962004811
-0.007501863537772445,-0.017600765401160557,-1.320649962004811
-0.007500073537772445,-0.010204315695992958,-1.3169426110237734
-0.007498283537772445,-0.010204315695992958,-1.320649962004811
-0.007496493537772445,-0.017600765401160557,-1.320649962004811
-0.007494703537772445,-0.013902540548576758,-1.320649962004811
-0.007492913537772445,-0.013902540548576758,-1.320649962004811
-0.007491123537772445,-0.017600765401160557,-1.3169426110237734
-0.007489333537772445,-0.021298990253744356,-1.3169426110237734
-0.007487543537772445,-0.024997215106328158,-1.320649962004811
-0.007485753537772445,-0.024997215106328158,-1.3169426110237734
-0.007483963537772445,-0.024997215106328158,-1.320649962004811
-0.0074821735377724454,-0.021298990253744356,-1.320649962004811
-0.007480383537772445,-0.017600765401160557,-1.320649962004811
-0.007478593537772445,-0.013902540548576758,-1.3169426110237734
-0.007476803537772445,-0.021298990253744356,-1.320649962004811
-0.0074750135377724455,-0.017600765401160557,-1.320649962004811
-0.007473223537772445,-0.021298990253744356,-1.3169426110237734
-0.007471433537772445,-0.021298990253744356,-1.3169426110237734
-0.007469643537772445,-0.017600765401160557,-1.320649962004811
-0.0074678535377724455,-0.017600765401160557,-1.3243573129858488
-0.007466063537772445,-0.017600765401160557,-1.320649962004811
-0.007464273537772445,-0.017600765401160557,-1.320649962004811
-0.007462483537772445,-0.013902540548576758,-1.320649962004811
-0.0074606935377724455,-0.017600765401160557,-1.320649962004811
-0.007458903537772445,-0.024997215106328158,-1.320649962004811
-0.007457113537772445,-0.024997215106328158,-1.3169426110237734
-0.007455323537772445,-0.024997215106328158,-1.320649962004811
-0.0074535335377724455,-0.017600765401160557,-1.320649962004811
-0.007451743537772445,-0.017600765401160557,-1.3169426110237734
-0.007449953537772445,-0.024997215106328158,-1.3169426110237734
-0.007448163537772445,-0.021298990253744356,-1.320649962004811
-0.0074463735377724456,-0.021298990253744356,-1.3169426110237752
-0.007444583537772445,-0.017600765401160557,-1.320649962004811
-0.007442793537772445,-0.021298990253744356,-1.320649962004811
-0.007441003537772445,-0.021298990253744356,-1.320649962004811
-0.007439213537772445,-0.02499721510632984,-1.3132352600427375
-0.007437423537772445,-0.028695439958911956,-1.3169426110237734
-0.007435633537772445,-0.028695439958911956,-1.3169426110237734
-0.007433843537772445,-0.028695439958911956,-1.320649962004811
-0.007432053537772445,-0.024997215106328158,-1.3169426110237734
-0.007430263537772445,-0.017600765401160557,-1.320649962004811
-0.007428473537772445,-0.021298990253744356,-1.320649962004811
-0.007426683537772445,-0.021298990253744356,-1.3169426110237734
-0.007424893537772445,-0.021298990253744356,-1.320649962004811
-0.007423103537772445,-0.021298990253744356,-1.320649962004811
-0.007421313537772445,-0.021298990253744356,-1.3169426110237734
-0.007419523537772445,-0.024997215106328158,-1.3169426110237734
-0.007417733537772445,-0.024997215106328158,-1.320649962004811
-0.007415943537772445,-0.028695439958911956,-1.320649962004811
-0.007414153537772445,-0.028695439958911956,-1.3169426110237734
-0.0074123635377724454,-0.028695439958911956,-1.320649962004811
-0.007410573537772445,-0.024997215106328158,-1.320649962004811
-0.007408783537772445,-0.028695439958911956,-1.3243573129858488
-0.007406993537772445,-0.028695439958911956,-1.3169426110237734
-0.0074052035377724455,-0.021298990253744356,-1.320649962004811
-0.007403413537772445,-0.021298990253744356,-1.320649962004811
-0.007401623537772445,-0.024997215106328158,-1.320649962004811
-0.007399833537772445,-0.024997215106328158,-1.320649962004811
-0.0073980435377724455,-0.028695439958911956,-1.3169426110237734
-0.007396253537772445,-0.032393664811495755,-1.3169426110237734
-0.007394463537772445,-0.028695439958911956,-1.3243573129858488
-0.007392673537772445,-0.028695439958911956,-1.3243573129858488
-0.0073908835377724455,-0.024997215106328158,-1.320649962004811
-0.007389093537772445,-0.032393664811495755,-1.320649962004811
-0.007387303537772445,-0.032393664811495755,-1.3169426110237734
-0.007385513537772445,-0.03609188966407956,-1.3169426110237734
-0.0073837235377724455,-0.032393664811495755,-1.3169426110237734
-0.007381933537772445,-0.028695439958911956,-1.3169426110237734
-0.007380143537772445,-0.024997215106328158,-1.320649962004811
-0.007378353537772445,-0.028695439958911956,-1.320649962004811
-0.0073765635377724455,-0.028695439958911956,-1.320649962004811
-0.007374773537772445,-0.028695439958911956,-1.320649962004811
-0.007372983537772445,-0.032393664811495755,-1.320649962004811
-0.007371193537772445,-0.028695439958911956,-1.3169426110237734
-0.0073694035377724456,-0.032393664811494076,-1.3169426110237734
-0.007367613537772445,-0.032393664811495755,-1.3169426110237734
-0.007365823537772445,-0.028695439958911956,-1.320649962004811
-0.007364033537772445,-0.024997215106328158,-1.320649962004811
-0.007362243537772445,-0.032393664811495755,-1.3169426110237767
-0.007360453537772445,-0.032393664811495755,-1.3243573129858488
-0.007358663537772445,-0.028695439958911956,-1.320649962004811
-0.007356873537772445,-0.032393664811495755,-1.3243573129858488
-0.007355083537772445,-0.03609188966407956,-1.320649962004811
-0.007353293537772445,-0.03609188966407956,-1.320649962004811
-0.007351503537772445,-0.028695439958911956,-1.3243573129858488
-0.007349713537772445,-0.032393664811495755,-1.3243573129858488
-0.007347923537772445,-0.028695439958911956,-1.3243573129858488
-0.007346133537772445,-0.03609188966407956,-1.320649962004811
-0.007344343537772445,-0.032393664811495755,-1.320649962004811
-0.007342553537772445,-0.032393664811495755,-1.3169426110237734
-0.007340763537772445,-0.028695439958911956,-1.320649962004811
-0.007338973537772445,-0.03609188966407956,-1.3169426110237734
-0.007337183537772445,-0.032393664811495755,-1.320649962004811
-0.0073353935377724454,-0.032393664811495755,-1.3243573129858488
-0.007333603537772445,-0.032393664811495755,-1.3169426110237734
-0.007331813537772445,-0.028695439958911956,-1.3169426110237734
-0.007330023537772445,-0.03609188966407956,-1.320649962004811
-0.0073282335377724455,-0.03609188966407956,-1.3243573129858488
-0.007326443537772445,-0.03609188966407956,-1.3169426110237734
-0.007324653537772445,-0.03609188966407956,-1.320649962004811
-0.007322863537772445,-0.03609188966407956,-1.320649962004811
-0.0073210735377724455,-0.03979011451666335,-1.3169426110237734
-0.007319283537772445,-0.03609188966407956,-1.320649962004811
-0.007317493537772445,-0.03609188966407956,-1.3169426110237734
-0.007315703537772445,-0.03609188966407956,-1.3169426110237734
-0.0073139135377724455,-0.028695439958911956,-1.320649962004811
-0.007312123537772445,-0.03609188966407956,-1.320649962004811
-0.007310333537772445,-0.032393664811495755,-1.3169426110237734
-0.007308543537772445,-0.032393664811495755,-1.320649962004811
-0.0073067535377724455,-0.03979011451666335,-1.320649962004811
-0.007304963537772445,-0.03609188966407956,-1.3169426110237734
-0.007303173537772445,-0.04718656422183096,-1.320649962004811
-0.007301383537772445,-0.043488339369247155,-1.320649962004811
-0.0072995935377724456,-0.043488339369247155,-1.3169426110237752
-0.007297803537772445,-0.03979011451666335,-1.3132352600427357
-0.007296013537772445,-0.03609188966407956,-1.3169426110237734
-0.007294223537772445,-0.03609188966407956,-1.3169426110237734
-0.007292433537772445,-0.03979011451666167,-1.320649962004811
-0.007290643537772445,-0.03609188966407956,-1.320649962004811
-0.007288853537772445,-0.043488339369247155,-1.320649962004811
-0.007287063537772445,-0.03979011451666335,-1.3169426110237734
-0.007285273537772445,-0.03979011451666167,-1.3206499620048078
-0.007283483537772445,-0.03609188966407956,-1.3132352600427357
-0.007281693537772445,-0.03609188966407956,-1.3169426110237734
-0.007279903537772445,-0.04718656422183096,-1.320649962004811
-0.007278113537772445,-0.03979011451666335,-1.3243573129858488
-0.007276323537772445,-0.043488339369247155,-1.3243573129858488
-0.007274533537772445,-0.03979011451666335,-1.3169426110237734
-0.007272743537772445,-0.04718656422183096,-1.3243573129858488
-0.007270953537772445,-0.04718656422183096,-1.320649962004811
-0.007269163537772445,-0.03979011451666335,-1.3243573129858488
-0.007267373537772445,-0.043488339369247155,-1.3243573129858488
-0.0072655835377724454,-0.03609188966407956,-1.320649962004811
-0.007263793537772445,-0.03609188966407956,-1.3169426110237734
-0.007262003537772445,-0.043488339369247155,-1.3169426110237734
-0.007260213537772445,-0.043488339369247155,-1.3132352600427357
-0.0072584235377724455,-0.043488339369247155,-1.3169426110237734
-0.007256633537772445,-0.03979011451666335,-1.3243573129858488
-0.007254843537772445,-0.043488339369247155,-1.320649962004811
-0.007253053537772445,-0.043488339369247155,-1.3243573129858488
-0.0072512635377724455,-0.043488339369247155,-1.320649962004811
-0.007249473537772445,-0.043488339369247155,-1.3169426110237734
-0.007247683537772445,-0.03979011451666335,-1.320649962004811
-0.007245893537772445,-0.04718656422183096,-1.3169426110237734
-0.0072441035377724455,-0.04718656422183096,-1.320649962004811
-0.007242313537772445,-0.04718656422183096,-1.320649962004811
-0.007240523537772445,-0.043488339369247155,-1.3169426110237734
-0.007238733537772445,-0.04718656422183096,-1.3169426110237734
-0.0072369435377724455,-0.03979011451666335,-1.320649962004811
-0.007235153537772445,-0.04718656422183096,-1.320649962004811
-0.007233363537772445,-0.05088478907441475,-1.320649962004811
-0.007231573537772445,-0.054583013926998554,-1.320649962004811
-0.0072297835377724455,-0.05088478907441475,-1.320649962004811
-0.007227993537772445,-0.043488339369247155,-1.320649962004811
-0.007226203537772445,-0.04718656422183096,-1.320649962004811
-0.007224413537772445,-0.054583013926998554,-1.3169426110237734
-0.0072226235377724456,-0.0434883393692522,-1.3206499620048093
-0.007220833537772445,-0.043488339369247155,-1.320649962004811
-0.007219043537772445,-0.04718656422183096,-1.3169426110237734
-0.007217253537772445,-0.04718656422183096,-1.320649962004811
-0.007215463537772445,-0.047186564221832636,-1.3169426110237734
-0.007213673537772445,-0.05088478907441475,-1.3169426110237734
-0.007211883537772445,-0.04718656422183096,-1.320649962004811
-0.007210093537772445,-0.05088478907441475,-1.3243573129858488
-0.007208303537772445,-0.05088478907441475,-1.3280646639668865
-0.007206513537772445,-0.054583013926998554,-1.320649962004811
-0.007204723537772445,-0.04718656422183096,-1.320649962004811
-0.007202933537772445,-0.04718656422183096,-1.320649962004811
-0.007201143537772445,-0.05088478907441475,-1.3169426110237734
-0.007199353537772445,-0.043488339369247155,-1.320649962004811
-0.007197563537772445,-0.04718656422183096,-1.320649962004811
-0.007195773537772445,-0.05088478907441475,-1.320649962004811
-0.007193983537772445,-0.05088478907441475,-1.3169426110237734
-0.007192193537772445,-0.05088478907441475,-1.320649962004811
-0.007190403537772445,-0.054583013926998554,-1.3169426110237734
