100Hz/acq0095.csv

#Digilent WaveForms Oscilloscope Acquisition
#Device Name: Discovery2
#Serial Number: SN:210321AA28BE
#Date Time: 2023-05-24 14:48:32.989
#Sample rate: 558659Hz
#Samples: 8192
#Trigger: Source: Channel 1 Type: Edge Condition: Rising Level: 800 mV Hyst.: Auto HoldOff: 100 ns
#Channel 1: Range: 1 V/div Offset: 0 V Attenuation: 1 X Sample Mode: Average
#Channel 2: Range: 1 V/div Offset: 0 V Attenuation: 1 X Sample Mode: Average

Time (s),Channel 1 (V),Channel 2 (V)
-0.007741451330960609,0.07485485591343444,-1.320649962004811
-0.007739661330960609,0.06745840620827019,-1.320649962004811
-0.007737871330960608,0.06745840620826683,-1.320649962004811
-0.007736081330960608,0.06376018135568304,-1.320649962004811
-0.007734291330960609,0.06006195650309923,-1.3169426110237734
-0.007732501330960608,0.06376018135568136,-1.3169426110237752
-0.007730711330960608,0.06006195650309923,-1.320649962004811
-0.0077289213309606085,0.06376018135568304,-1.320649962004811
-0.007727131330960609,0.06376018135568304,-1.3169426110237734
-0.007725341330960608,0.06376018135568304,-1.320649962004811
-0.007723551330960608,0.06006195650309923,-1.320649962004811
-0.0077217613309606085,0.06376018135568304,-1.3169426110237734
-0.007719971330960609,0.06006195650309923,-1.3169426110237734
-0.007718181330960608,0.05636373165051543,-1.320649962004811
-0.007716391330960608,0.05636373165051543,-1.3169426110237734
-0.0077146013309606085,0.05636373165051543,-1.320649962004811
-0.007712811330960609,0.06006195650309923,-1.3169426110237734
-0.007711021330960608,0.06376018135568304,-1.3243573129858488
-0.007709231330960608,0.06006195650309923,-1.320649962004811
-0.0077074413309606085,0.06006195650309923,-1.3132352600427357
-0.007705651330960609,0.05636373165051543,-1.3169426110237734
-0.007703861330960608,0.05266550679793163,-1.320649962004811
-0.007702071330960608,0.05636373165051543,-1.3169426110237734
-0.0077002813309606085,0.05636373165051543,-1.3169426110237734
-0.007698491330960609,0.05636373165051543,-1.3132352600427357
-0.007696701330960608,0.05636373165051543,-1.320649962004811
-0.007694911330960608,0.05636373165051543,-1.3169426110237734
-0.0076931213309606086,0.05266550679793163,-1.320649962004811
-0.007691331330960609,0.05266550679793163,-1.320649962004811
-0.007689541330960608,0.05266550679793163,-1.320649962004811
-0.007687751330960608,0.05266550679793163,-1.3169426110237734
-0.007685961330960609,0.05266550679793163,-1.3169426110237734
-0.007684171330960609,0.05266550679793163,-1.3169426110237734
-0.007682381330960608,0.05266550679793163,-1.320649962004811
-0.007680591330960608,0.05636373165051543,-1.3169426110237734
-0.007678801330960609,0.05266550679793163,-1.320649962004811
-0.007677011330960609,0.05266550679793163,-1.3169426110237734
-0.007675221330960608,0.045269057092764034,-1.320649962004811
-0.007673431330960608,0.048967281945347836,-1.3169426110237734
-0.007671641330960609,0.045269057092764034,-1.320649962004811
-0.007669851330960609,0.045269057092764034,-1.320649962004811
-0.007668061330960608,0.05266550679793163,-1.320649962004811
-0.007666271330960608,0.05266550679793163,-1.3169426110237734
-0.007664481330960609,0.048967281945347836,-1.3169426110237734
-0.007662691330960608,0.048967281945347836,-1.3132352600427375
-0.007660901330960608,0.048967281945347836,-1.3169426110237734
-0.0076591113309606084,0.045269057092764034,-1.320649962004811
-0.007657321330960609,0.045269057092764034,-1.3243573129858488
-0.007655531330960608,0.052665506797928266,-1.320649962004811
-0.007653741330960608,0.045269057092764034,-1.320649962004811
-0.0076519513309606085,0.04157083224018024,-1.3169426110237734
-0.007650161330960609,0.048967281945347836,-1.3169426110237734
-0.007648371330960608,0.048967281945347836,-1.3169426110237734
-0.007646581330960608,0.05266550679793163,-1.3169426110237734
-0.0076447913309606085,0.048967281945347836,-1.320649962004811
-0.007643001330960609,0.045269057092764034,-1.320649962004811
-0.007641211330960608,0.045269057092764034,-1.320649962004811
-0.007639421330960608,0.045269057092764034,-1.3169426110237734
-0.0076376313309606085,0.04157083224018024,-1.3169426110237734
-0.007635841330960609,0.045269057092764034,-1.3169426110237734
-0.007634051330960608,0.04157083224018024,-1.320649962004811
-0.007632261330960608,0.04157083224018024,-1.3169426110237734
-0.0076304713309606085,0.03787260738759644,-1.3169426110237734
-0.007628681330960609,0.04157083224018024,-1.320649962004811
-0.007626891330960608,0.04157083224018024,-1.3169426110237734
-0.007625101330960608,0.045269057092764034,-1.3169426110237734
-0.0076233113309606085,0.045269057092764034,-1.320649962004811
-0.007621521330960609,0.04157083224018024,-1.320649962004811
-0.007619731330960608,0.03787260738759644,-1.320649962004811
-0.007617941330960608,0.045269057092764034,-1.3169426110237734
-0.007616151330960609,0.03787260738759644,-1.3169426110237734
-0.007614361330960609,0.03787260738759644,-1.320649962004811
-0.007612571330960608,0.04157083224018024,-1.320649962004811
-0.007610781330960608,0.034174382535012635,-1.320649962004811
-0.007608991330960609,0.03787260738759644,-1.320649962004811
-0.007607201330960609,0.034174382535012635,-1.320649962004811
-0.007605411330960608,0.03787260738759644,-1.3169426110237734
-0.007603621330960608,0.04157083224018024,-1.320649962004811
-0.007601831330960609,0.03787260738759644,-1.3169426110237734
-0.007600041330960609,0.04157083224018024,-1.320649962004811
-0.007598251330960608,0.04157083224018024,-1.3243573129858488
-0.007596461330960608,0.034174382535012635,-1.320649962004811
-0.007594671330960609,0.034174382535012635,-1.320649962004811
-0.007592881330960609,0.03787260738759476,-1.320649962004811
-0.007591091330960608,0.034174382535012635,-1.3169426110237734
-0.007589301330960608,0.03787260738759644,-1.3169426110237734
-0.007587511330960609,0.034174382535012635,-1.3169426110237734
-0.007585721330960608,0.034174382535014314,-1.3132352600427375
-0.007583931330960608,0.03787260738759644,-1.3169426110237734
-0.0075821413309606085,0.03787260738759644,-1.3169426110237734
-0.007580351330960609,0.03787260738759644,-1.3169426110237734
-0.007578561330960608,0.03787260738759644,-1.320649962004811
-0.007576771330960608,0.034174382535012635,-1.3169426110237734
-0.0075749813309606085,0.034174382535012635,-1.3169426110237734
-0.007573191330960609,0.03787260738759644,-1.320649962004811
-0.007571401330960608,0.034174382535012635,-1.320649962004811
-0.007569611330960608,0.03787260738759644,-1.3169426110237734
-0.0075678213309606085,0.03047615768242884,-1.320649962004811
-0.007566031330960609,0.03047615768242884,-1.3169426110237734
-0.007564241330960608,0.034174382535012635,-1.3169426110237734
-0.007562451330960608,0.03047615768242884,-1.320649962004811
-0.0075606613309606085,0.03047615768242884,-1.320649962004811
-0.007558871330960609,0.034174382535012635,-1.3132352600427357
-0.007557081330960608,0.03047615768242884,-1.3169426110237734
-0.007555291330960608,0.034174382535012635,-1.3169426110237734
-0.0075535013309606085,0.03047615768242884,-1.3169426110237734
-0.007551711330960609,0.03047615768242884,-1.320649962004811
-0.007549921330960608,0.034174382535012635,-1.3169426110237734
-0.007548131330960608,0.034174382535012635,-1.320649962004811
-0.0075463413309606086,0.034174382535012635,-1.3169426110237734
-0.007544551330960609,0.034174382535012635,-1.3169426110237734
-0.007542761330960608,0.026777932829845037,-1.320649962004811
-0.007540971330960608,0.03047615768242884,-1.320649962004811
-0.007539181330960609,0.034174382535012635,-1.3169426110237734
-0.007537391330960609,0.034174382535012635,-1.3169426110237734
-0.007535601330960608,0.03047615768242884,-1.320649962004811
-0.007533811330960608,0.026777932829845037,-1.3280646639668865
-0.007532021330960609,0.026777932829845037,-1.3169426110237734
-0.007530231330960609,0.02307970797726124,-1.320649962004811
-0.007528441330960608,0.026777932829845037,-1.320649962004811
-0.007526651330960608,0.02307970797726124,-1.320649962004811
-0.007524861330960609,0.026777932829845037,-1.3169426110237734
-0.007523071330960609,0.026777932829845037,-1.3169426110237734
-0.007521281330960608,0.02307970797726124,-1.320649962004811
-0.007519491330960608,0.02307970797726124,-1.3132352600427357
-0.007517701330960609,0.026777932829845037,-1.3169426110237734
-0.007515911330960609,0.02307970797726292,-1.3169426110237734
-0.007514121330960608,0.02307970797726124,-1.3169426110237734
-0.0075123313309606084,0.02307970797726124,-1.3169426110237734
-0.007510541330960609,0.02307970797726124,-1.3132352600427357
-0.007508751330960608,0.02307970797726124,-1.3169426110237767
-0.007506961330960608,0.02307970797726124,-1.3243573129858488
-0.0075051713309606085,0.02307970797726124,-1.320649962004811
-0.007503381330960609,0.01938148312467744,-1.320649962004811
-0.007501591330960608,0.01938148312467744,-1.3169426110237734
-0.007499801330960608,0.01938148312467744,-1.3132352600427357
-0.0074980113309606085,0.015683258272093638,-1.3169426110237734
-0.007496221330960609,0.01938148312467744,-1.320649962004811
-0.007494431330960608,0.01938148312467744,-1.320649962004811
-0.007492641330960608,0.015683258272093638,-1.320649962004811
-0.0074908513309606085,0.015683258272093638,-1.320649962004811
-0.007489061330960609,0.01938148312467744,-1.320649962004811
-0.007487271330960608,0.015683258272093638,-1.320649962004811
-0.007485481330960608,0.01938148312467744,-1.320649962004811
-0.0074836913309606085,0.02307970797726124,-1.3169426110237734
-0.007481901330960609,0.015683258272093638,-1.3169426110237734
-0.007480111330960608,0.015683258272093638,-1.3243573129858488
-0.007478321330960608,0.01938148312467744,-1.320649962004811
-0.0074765313309606085,0.01938148312467744,-1.3169426110237734
-0.007474741330960609,0.015683258272093638,-1.320649962004811
-0.007472951330960608,0.015683258272093638,-1.320649962004811
-0.007471161330960608,0.015683258272093638,-1.320649962004811
-0.007469371330960609,0.015683258272093638,-1.320649962004811
-0.007467581330960609,0.015683258272093638,-1.320649962004811
-0.007465791330960608,0.015683258272093638,-1.320649962004811
-0.007464001330960608,0.015683258272093638,-1.3169426110237734
-0.007462211330960609,0.01198503341950984,-1.320649962004811
-0.007460421330960609,0.015683258272093638,-1.320649962004811
-0.007458631330960608,0.015683258272093638,-1.320649962004811
-0.007456841330960608,0.015683258272093638,-1.3132352600427357
-0.007455051330960609,0.00828680856692604,-1.3169426110237734
-0.007453261330960609,0.01198503341950984,-1.320649962004811
-0.007451471330960608,0.00828680856692604,-1.320649962004811
-0.007449681330960608,0.00828680856692604,-1.320649962004811
-0.007447891330960609,0.01198503341950984,-1.3169426110237734
-0.007446101330960609,0.015683258272091955,-1.3169426110237734
-0.007444311330960608,0.01198503341950984,-1.3169426110237734
-0.007442521330960608,0.015683258272093638,-1.320649962004811
-0.007440731330960609,0.015683258272093638,-1.3169426110237734
-0.007438941330960608,0.00828680856692604,-1.3169426110237752
-0.007437151330960608,0.00828680856692604,-1.320649962004811
-0.0074353613309606085,0.01198503341950984,-1.3169426110237734
-0.007433571330960609,0.01198503341950984,-1.3132352600427357
-0.007431781330960608,0.00828680856692604,-1.320649962004811
-0.007429991330960608,0.00458858371434224,-1.3132352600427357
-0.0074282013309606085,0.00828680856692604,-1.320649962004811
-0.007426411330960609,0.01198503341950984,-1.3169426110237734
-0.007424621330960608,0.00458858371434224,-1.3169426110237734
-0.007422831330960608,0.01198503341950984,-1.3169426110237734
-0.0074210413309606085,0.00828680856692604,-1.3169426110237734
-0.007419251330960609,0.01198503341950984,-1.3169426110237734
-0.007417461330960608,0.00828680856692604,-1.320649962004811
-0.007415671330960608,0.00828680856692604,-1.320649962004811
-0.0074138813309606085,0.01198503341950984,-1.320649962004811
-0.007412091330960609,0.00828680856692604,-1.3169426110237734
-0.007410301330960608,0.00828680856692604,-1.3169426110237734
-0.007408511330960608,0.00458858371434224,-1.320649962004811
-0.0074067213309606085,0.0008903588617584406,-1.3169426110237734
-0.007404931330960609,0.00458858371434224,-1.320649962004811
-0.007403141330960608,0.00458858371434224,-1.320649962004811
-0.007401351330960608,0.00458858371434224,-1.3243573129858488
-0.0073995613309606086,0.00828680856692604,-1.3169426110237734
-0.007397771330960609,0.00828680856692604,-1.3169426110237734
-0.007395981330960608,0.0008903588617584406,-1.3132352600427357
-0.007394191330960608,0.00458858371434224,-1.320649962004811
-0.007392401330960609,0.00458858371434224,-1.320649962004811
-0.007390611330960609,0.00458858371434224,-1.3169426110237734
-0.007388821330960608,0.00458858371434224,-1.3169426110237734
-0.007387031330960608,-0.002807865990825359,-1.3132352600427357
-0.007385241330960609,0.0008903588617584406,-1.3169426110237734
-0.007383451330960609,0.0008903588617584406,-1.3132352600427357
-0.007381661330960608,-0.0065060908434091584,-1.3169426110237734
-0.007379871330960608,-0.0065060908434091584,-1.3169426110237734
-0.007378081330960609,0.00458858371434224,-1.320649962004811
-0.007376291330960609,0.00458858371434224,-1.3169426110237734
-0.007374501330960608,0.00458858371434224,-1.3169426110237734
-0.007372711330960608,0.0008903588617584406,-1.3132352600427357
-0.007370921330960609,-0.002807865990825359,-1.3132352600427357
-0.007369131330960609,-0.002807865990825359,-1.3206499620048078
-0.007367341330960608,-0.002807865990825359,-1.320649962004811
-0.0073655513309606084,0.0008903588617584406,-1.320649962004811
-0.007363761330960609,-0.002807865990825359,-1.3243573129858488
-0.007361971330960608,0.0008903588617584406,-1.320649962004811
-0.007360181330960608,0.0008903588617584406,-1.320649962004811
-0.0073583913309606085,0.0008903588617584406,-1.3169426110237734
-0.007356601330960609,-0.002807865990825359,-1.3169426110237734
-0.007354811330960608,0.0008903588617584406,-1.3169426110237734
-0.007353021330960608,-0.002807865990825359,-1.3132352600427357
-0.0073512313309606085,-0.0065060908434091584,-1.3132352600427357
-0.007349441330960609,0.0008903588617584406,-1.320649962004811
-0.007347651330960608,0.0008903588617584406,-1.320649962004811
-0.007345861330960608,0.00458858371434224,-1.3169426110237734
-0.0073440713309606085,0.0008903588617584406,-1.3169426110237734
-0.007342281330960609,0.0008903588617584406,-1.320649962004811
-0.007340491330960608,-0.002807865990825359,-1.3243573129858488
-0.007338701330960608,-0.002807865990825359,-1.3169426110237734
-0.0073369113309606085,-0.0065060908434091584,-1.320649962004811
-0.007335121330960609,-0.002807865990825359,-1.3169426110237734
-0.007333331330960608,0.0008903588617584406,-1.320649962004811
-0.007331541330960608,-0.002807865990825359,-1.320649962004811
-0.0073297513309606085,-0.0065060908434091584,-1.320649962004811
-0.007327961330960609,-0.002807865990825359,-1.3243573129858488
-0.007326171330960608,-0.002807865990825359,-1.320649962004811
-0.007324381330960608,0.0008903588617584406,-1.320649962004811
-0.007322591330960609,-0.002807865990825359,-1.320649962004811
-0.007320801330960609,-0.002807865990825359,-1.3169426110237734
-0.007319011330960608,-0.010204315695992958,-1.3169426110237734
-0.007317221330960608,-0.0065060908434091584,-1.320649962004811
-0.007315431330960609,-0.0065060908434091584,-1.3169426110237734
-0.007313641330960609,-0.0065060908434091584,-1.3132352600427357
-0.007311851330960608,-0.002807865990825359,-1.3132352600427357
-0.007310061330960608,-0.002807865990825359,-1.3169426110237734
-0.007308271330960609,-0.010204315695992958,-1.3169426110237734
-0.007306481330960609,-0.010204315695992958,-1.320649962004811
-0.007304691330960608,-0.0065060908434091584,-1.3169426110237734
-0.007302901330960608,-0.0065060908434091584,-1.3243573129858488
-0.007301111330960609,-0.002807865990825359,-1.320649962004811
-0.007299321330960609,-0.006506090843407477,-1.320649962004811
-0.007297531330960608,-0.0065060908434091584,-1.3169426110237734
-0.007295741330960608,-0.002807865990825359,-1.3243573129858488
-0.007293951330960609,-0.0065060908434091584,-1.320649962004811
-0.007292161330960608,-0.0065060908434091584,-1.3169426110237752
-0.007290371330960608,-0.0065060908434091584,-1.320649962004811
-0.0072885813309606085,-0.010204315695992958,-1.3169426110237734
-0.007286791330960609,-0.0065060908434091584,-1.320649962004811
-0.007285001330960608,-0.00650609084341084,-1.3169426110237734
-0.007283211330960608,-0.010204315695992958,-1.3169426110237734
-0.0072814213309606085,-0.010204315695992958,-1.3169426110237734
-0.007279631330960609,-0.013902540548576758,-1.320649962004811
-0.007277841330960608,-0.010204315695992958,-1.320649962004811
-0.007276051330960608,-0.010204315695992958,-1.3132352600427357
-0.0072742613309606085,-0.0065060908434091584,-1.3169426110237734
-0.007272471330960609,-0.010204315695992958,-1.3169426110237734
-0.007270681330960608,-0.010204315695992958,-1.320649962004811
-0.007268891330960608,-0.010204315695992958,-1.320649962004811
-0.0072671013309606085,-0.013902540548576758,-1.3243573129858488
-0.007265311330960609,-0.013902540548576758,-1.3169426110237734
-0.007263521330960608,-0.010204315695992958,-1.3169426110237734
-0.007261731330960608,-0.0065060908434091584,-1.320649962004811
-0.0072599413309606085,-0.010204315695992958,-1.320649962004811
-0.007258151330960609,-0.013902540548576758,-1.3169426110237734
-0.007256361330960608,-0.013902540548576758,-1.3169426110237734
-0.007254571330960608,-0.017600765401160557,-1.320649962004811
-0.0072527813309606086,-0.017600765401160557,-1.3169426110237734
-0.007250991330960609,-0.017600765401160557,-1.3169426110237734
-0.007249201330960608,-0.017600765401160557,-1.3169426110237734
-0.007247411330960608,-0.013902540548576758,-1.320649962004811
-0.007245621330960609,-0.010204315695992958,-1.320649962004811
-0.007243831330960609,-0.013902540548576758,-1.320649962004811
-0.007242041330960608,-0.013902540548576758,-1.320649962004811
-0.007240251330960608,-0.013902540548576758,-1.320649962004811
-0.007238461330960609,-0.013902540548576758,-1.3243573129858488
-0.007236671330960609,-0.013902540548576758,-1.3169426110237734
-0.007234881330960608,-0.017600765401160557,-1.3169426110237734
-0.007233091330960608,-0.013902540548576758,-1.3169426110237734
-0.007231301330960609,-0.010204315695992958,-1.3169426110237734
-0.007229511330960609,-0.021298990253744356,-1.3132352600427357
-0.007227721330960608,-0.013902540548576758,-1.3169426110237734
-0.007225931330960608,-0.010204315695992958,-1.320649962004811
-0.007224141330960609,-0.013902540548576758,-1.3169426110237734
-0.007222351330960609,-0.02129899025374099,-1.3206499620048093
-0.007220561330960608,-0.017600765401160557,-1.3169426110237734
-0.0072187713309606084,-0.017600765401160557,-1.3169426110237734
-0.007216981330960609,-0.017600765401160557,-1.320649962004811
-0.007215191330960608,-0.01390254054857844,-1.3206499620048078
-0.007213401330960608,-0.017600765401160557,-1.3132352600427357
-0.0072116113309606085,-0.013902540548576758,-1.3169426110237734
-0.007209821330960609,-0.017600765401160557,-1.3132352600427357
-0.007208031330960608,-0.013902540548576758,-1.3169426110237734
-0.007206241330960608,-0.013902540548576758,-1.320649962004811
-0.0072044513309606085,-0.017600765401160557,-1.3169426110237734
-0.007202661330960609,-0.017600765401160557,-1.320649962004811
-0.007200871330960608,-0.017600765401160557,-1.320649962004811
-0.007199081330960608,-0.021298990253744356,-1.320649962004811
-0.0071972913309606085,-0.021298990253744356,-1.320649962004811
-0.007195501330960609,-0.013902540548576758,-1.320649962004811
-0.007193711330960608,-0.021298990253744356,-1.3169426110237734
-0.007191921330960608,-0.017600765401160557,-1.309527909061698
-0.0071901313309606085,-0.013902540548576758,-1.3169426110237734
-0.007188341330960609,-0.021298990253744356,-1.3169426110237734
-0.007186551330960608,-0.021298990253744356,-1.3169426110237734
