100Hz/acq0005.csv

#Digilent WaveForms Oscilloscope Acquisition
#Device Name: Discovery2
#Serial Number: SN:210321AA28BE
#Date Time: 2023-05-24 14:48:30.368
#Sample rate: 558659Hz
#Samples: 8192
#Trigger: Source: Channel 1 Type: Edge Condition: Rising Level: 800 mV Hyst.: Auto HoldOff: 100 ns
#Channel 1: Range: 1 V/div Offset: 0 V Attenuation: 1 X Sample Mode: Average
#Channel 2: Range: 1 V/div Offset: 0 V Attenuation: 1 X Sample Mode: Average

Time (s),Channel 1 (V),Channel 2 (V)
-0.007741966838158254,0.05636373165051543,-1.320649962004811
-0.007740176838158254,0.05266550679793331,-1.324357312985847
-0.007738386838158254,0.05636373165051543,-1.3243573129858488
-0.007736596838158254,0.048967281945347836,-1.320649962004811
-0.007734806838158254,0.048967281945347836,-1.3132352600427357
-0.007733016838158253,0.04896728194534616,-1.3169426110237734
-0.007731226838158254,0.045269057092764034,-1.3169426110237734
-0.007729436838158254,0.048967281945347836,-1.3169426110237734
-0.007727646838158254,0.045269057092764034,-1.3132352600427357
-0.0077258568381582534,0.04157083224018024,-1.3132352600427357
-0.007724066838158254,0.045269057092764034,-1.3169426110237734
-0.007722276838158254,0.048967281945347836,-1.320649962004811
-0.007720486838158254,0.045269057092764034,-1.3169426110237734
-0.0077186968381582535,0.048967281945347836,-1.3169426110237734
-0.007716906838158254,0.048967281945347836,-1.3169426110237734
-0.007715116838158254,0.045269057092764034,-1.3132352600427357
-0.007713326838158254,0.045269057092764034,-1.3132352600427357
-0.0077115368381582535,0.045269057092764034,-1.3132352600427357
-0.007709746838158254,0.045269057092764034,-1.3132352600427357
-0.007707956838158254,0.045269057092764034,-1.3132352600427357
-0.007706166838158254,0.045269057092764034,-1.3169426110237734
-0.0077043768381582535,0.045269057092764034,-1.320649962004811
-0.007702586838158254,0.048967281945347836,-1.3132352600427357
-0.007700796838158254,0.045269057092764034,-1.320649962004811
-0.007699006838158254,0.045269057092764034,-1.320649962004811
-0.0076972168381582535,0.04157083224018024,-1.3169426110237734
-0.007695426838158254,0.04157083224018024,-1.3169426110237734
-0.007693636838158254,0.04157083224018024,-1.3169426110237734
-0.007691846838158254,0.04157083224018024,-1.3169426110237734
-0.0076900568381582535,0.04157083224018024,-1.3132352600427357
-0.007688266838158254,0.04157083224018024,-1.3132352600427357
-0.007686476838158254,0.03787260738759644,-1.3169426110237734
-0.007684686838158254,0.034174382535012635,-1.3169426110237734
-0.0076828968381582536,0.04157083224018024,-1.320649962004811
-0.007681106838158254,0.04157083224018024,-1.3132352600427357
-0.007679316838158254,0.04157083224018024,-1.3132352600427357
-0.007677526838158254,0.04157083224018024,-1.3169426110237734
-0.007675736838158254,0.034174382535012635,-1.3132352600427357
-0.007673946838158254,0.03787260738759644,-1.3169426110237734
-0.007672156838158254,0.04157083224018024,-1.3169426110237734
-0.007670366838158254,0.037872607387598116,-1.3132352600427375
-0.007668576838158254,0.03787260738759644,-1.3169426110237734
-0.007666786838158254,0.03787260738759644,-1.320649962004811
-0.007664996838158254,0.034174382535012635,-1.320649962004811
-0.007663206838158253,0.03787260738759476,-1.3169426110237716
-0.007661416838158254,0.034174382535012635,-1.3132352600427357
-0.007659626838158254,0.03787260738759644,-1.3169426110237734
-0.007657836838158254,0.03047615768242884,-1.3243573129858488
-0.007656046838158253,0.034174382535010955,-1.3206499620048093
-0.007654256838158254,0.03047615768242884,-1.3169426110237734
-0.007652466838158254,0.034174382535012635,-1.3169426110237734
-0.007650676838158254,0.034174382535012635,-1.3169426110237734
-0.0076488868381582534,0.034174382535012635,-1.3132352600427357
-0.007647096838158254,0.034174382535012635,-1.3169426110237734
-0.007645306838158254,0.03047615768242884,-1.3169426110237734
-0.007643516838158254,0.03047615768242884,-1.320649962004811
-0.0076417268381582535,0.034174382535012635,-1.3132352600427357
-0.007639936838158254,0.034174382535012635,-1.3169426110237734
-0.007638146838158254,0.034174382535012635,-1.3169426110237734
-0.007636356838158254,0.026777932829845037,-1.320649962004811
-0.0076345668381582535,0.03047615768242884,-1.3169426110237734
-0.007632776838158254,0.03047615768242884,-1.3169426110237734
-0.007630986838158254,0.03047615768242884,-1.3169426110237734
-0.007629196838158254,0.026777932829845037,-1.320649962004811
-0.0076274068381582535,0.03047615768242884,-1.3169426110237734
-0.007625616838158254,0.03047615768242884,-1.3132352600427357
-0.007623826838158254,0.034174382535012635,-1.3132352600427357
-0.007622036838158254,0.026777932829845037,-1.3169426110237734
-0.0076202468381582535,0.03047615768242884,-1.3169426110237734
-0.007618456838158254,0.03047615768242884,-1.3169426110237734
-0.007616666838158254,0.02307970797726124,-1.3169426110237734
-0.007614876838158254,0.02307970797726124,-1.3169426110237734
-0.0076130868381582536,0.026777932829845037,-1.3132352600427357
-0.007611296838158254,0.02307970797726124,-1.3169426110237734
-0.007609506838158254,0.026777932829845037,-1.320649962004811
-0.007607716838158254,0.03047615768242884,-1.3169426110237734
-0.007605926838158254,0.02307970797726124,-1.320649962004811
-0.007604136838158254,0.026777932829845037,-1.3243573129858488
-0.007602346838158254,0.026777932829845037,-1.320649962004811
-0.007600556838158254,0.02307970797726124,-1.3169426110237734
-0.007598766838158254,0.026777932829845037,-1.3169426110237734
-0.007596976838158254,0.02307970797726124,-1.3169426110237734
-0.007595186838158254,0.02307970797726124,-1.3243573129858488
-0.007593396838158254,0.02307970797726124,-1.3206499620048129
-0.007591606838158254,0.01938148312467744,-1.320649962004811
-0.007589816838158254,0.01938148312467744,-1.3169426110237734
-0.007588026838158254,0.02307970797726124,-1.3132352600427357
-0.007586236838158253,0.01938148312467744,-1.3169426110237716
-0.007584446838158254,0.01938148312467744,-1.3132352600427357
-0.007582656838158254,0.03047615768242884,-1.3169426110237734
-0.007580866838158254,0.02307970797726124,-1.3169426110237734
-0.0075790768381582534,0.01938148312467744,-1.320649962004811
-0.007577286838158254,0.02307970797726124,-1.320649962004811
-0.007575496838158254,0.02307970797726124,-1.3169426110237734
-0.007573706838158254,0.02307970797726124,-1.3169426110237734
-0.0075719168381582535,0.02307970797726124,-1.320649962004811
-0.007570126838158254,0.01938148312467744,-1.320649962004811
-0.007568336838158254,0.02307970797726124,-1.320649962004811
-0.007566546838158254,0.01938148312467744,-1.3169426110237734
-0.0075647568381582535,0.015683258272093638,-1.3169426110237734
-0.007562966838158254,0.026777932829845037,-1.3169426110237734
-0.007561176838158254,0.01938148312467744,-1.320649962004811
-0.007559386838158254,0.01938148312467744,-1.320649962004811
-0.0075575968381582535,0.02307970797726124,-1.320649962004811
-0.007555806838158254,0.01938148312467744,-1.3132352600427357
-0.007554016838158254,0.02307970797726124,-1.3169426110237734
-0.007552226838158254,0.01938148312467744,-1.320649962004811
-0.0075504368381582535,0.015683258272093638,-1.3169426110237734
-0.007548646838158254,0.01938148312467744,-1.320649962004811
-0.007546856838158254,0.015683258272093638,-1.320649962004811
-0.007545066838158254,0.015683258272093638,-1.3169426110237734
-0.0075432768381582535,0.01938148312467744,-1.320649962004811
-0.007541486838158254,0.015683258272093638,-1.320649962004811
-0.007539696838158254,0.015683258272093638,-1.3169426110237734
-0.007537906838158254,0.01198503341950984,-1.320649962004811
-0.0075361168381582536,0.015683258272093638,-1.3243573129858488
-0.007534326838158254,0.015683258272093638,-1.320649962004811
-0.007532536838158254,0.015683258272093638,-1.3243573129858488
-0.007530746838158254,0.01198503341950984,-1.3169426110237734
-0.007528956838158254,0.015683258272093638,-1.3169426110237734
-0.007527166838158254,0.01198503341950984,-1.3132352600427357
-0.007525376838158254,0.01198503341950984,-1.320649962004811
-0.007523586838158254,0.015683258272091955,-1.320649962004811
-0.007521796838158254,0.01198503341950984,-1.3169426110237734
-0.007520006838158254,0.01198503341950984,-1.320649962004811
-0.007518216838158254,0.015683258272093638,-1.3169426110237734
-0.007516426838158254,0.015683258272093638,-1.3169426110237734
-0.007514636838158254,0.00828680856692604,-1.320649962004811
-0.007512846838158254,0.01198503341950984,-1.3169426110237734
-0.007511056838158254,0.01198503341950984,-1.320649962004811
-0.007509266838158253,0.01198503341951152,-1.3206499620048093
-0.007507476838158254,0.015683258272093638,-1.3169426110237734
-0.007505686838158254,0.015683258272093638,-1.3169426110237734
-0.007503896838158254,0.01198503341950984,-1.3169426110237734
-0.0075021068381582534,0.00828680856692604,-1.320649962004811
-0.007500316838158254,0.01198503341950984,-1.320649962004811
-0.007498526838158254,0.01198503341950984,-1.320649962004811
-0.007496736838158254,0.00828680856692604,-1.320649962004811
-0.0074949468381582535,0.015683258272093638,-1.320649962004811
-0.007493156838158254,0.01198503341950984,-1.320649962004811
-0.007491366838158254,0.01198503341950984,-1.320649962004811
-0.007489576838158254,0.00828680856692604,-1.3169426110237734
-0.0074877868381582535,0.01198503341950984,-1.3169426110237734
-0.007485996838158254,0.01198503341950984,-1.3169426110237734
-0.007484206838158254,0.00828680856692604,-1.320649962004811
-0.007482416838158254,0.00828680856692604,-1.320649962004811
-0.0074806268381582535,0.00828680856692604,-1.320649962004811
-0.007478836838158254,0.00458858371434224,-1.3169426110237734
-0.007477046838158254,0.00458858371434224,-1.3243573129858488
-0.007475256838158254,0.00828680856692604,-1.3169426110237734
-0.0074734668381582535,0.00458858371434224,-1.3169426110237734
-0.007471676838158254,0.00458858371434224,-1.320649962004811
-0.007469886838158254,0.01198503341950984,-1.320649962004811
-0.007468096838158254,0.00828680856692604,-1.320649962004811
-0.0074663068381582536,0.00828680856692604,-1.3169426110237734
-0.007464516838158254,0.00828680856692604,-1.3169426110237734
-0.007462726838158254,0.00458858371434224,-1.3169426110237734
-0.007460936838158254,0.00828680856692604,-1.3132352600427357
-0.007459146838158254,0.00458858371434224,-1.3132352600427357
-0.007457356838158254,0.0008903588617584406,-1.3169426110237734
-0.007455566838158254,0.00458858371434224,-1.3132352600427357
-0.007453776838158254,0.00458858371434224,-1.320649962004811
-0.007451986838158254,0.00458858371434224,-1.320649962004811
-0.007450196838158254,0.00458858371434224,-1.3169426110237734
-0.007448406838158254,0.00458858371434224,-1.320649962004811
-0.007446616838158254,0.0008903588617601224,-1.320649962004811
-0.007444826838158254,0.00828680856692604,-1.3169426110237734
-0.007443036838158254,0.00458858371434224,-1.320649962004811
-0.007441246838158254,0.0008903588617584406,-1.320649962004811
-0.007439456838158253,0.004588583714343922,-1.3169426110237752
-0.007437666838158254,0.00828680856692604,-1.320649962004811
-0.007435876838158254,0.0008903588617584406,-1.320649962004811
-0.007434086838158254,-0.0065060908434091584,-1.3169426110237734
-0.0074322968381582534,-0.0065060908434091584,-1.320649962004811
-0.007430506838158254,-0.002807865990825359,-1.3132352600427357
-0.007428716838158254,0.0008903588617584406,-1.3169426110237734
-0.007426926838158254,0.0008903588617584406,-1.320649962004811
-0.0074251368381582535,0.00458858371434224,-1.320649962004811
-0.007423346838158254,0.0008903588617584406,-1.3169426110237734
-0.007421556838158254,-0.0065060908434091584,-1.3169426110237734
-0.007419766838158254,-0.002807865990825359,-1.3169426110237734
-0.0074179768381582535,-0.002807865990825359,-1.3169426110237734
-0.007416186838158254,0.0008903588617584406,-1.320649962004811
-0.007414396838158254,-0.002807865990825359,-1.320649962004811
-0.007412606838158254,0.0008903588617584406,-1.3132352600427357
-0.0074108168381582535,-0.002807865990825359,-1.3169426110237734
-0.007409026838158254,-0.002807865990825359,-1.320649962004811
-0.007407236838158254,-0.002807865990825359,-1.320649962004811
-0.007405446838158254,-0.0065060908434091584,-1.3169426110237734
-0.0074036568381582535,-0.002807865990825359,-1.3169426110237734
-0.007401866838158254,-0.002807865990825359,-1.3169426110237734
-0.007400076838158254,-0.002807865990825359,-1.3169426110237734
-0.007398286838158254,-0.002807865990825359,-1.3169426110237734
-0.0073964968381582535,0.0008903588617584406,-1.3169426110237734
-0.007394706838158254,-0.002807865990825359,-1.3169426110237734
-0.007392916838158254,-0.002807865990825359,-1.3169426110237734
-0.007391126838158254,0.0008903588617584406,-1.320649962004811
-0.0073893368381582536,-0.002807865990825359,-1.3169426110237734
-0.007387546838158254,-0.0065060908434091584,-1.3169426110237734
-0.007385756838158254,-0.0065060908434091584,-1.320649962004811
-0.007383966838158254,-0.0065060908434091584,-1.3169426110237734
-0.007382176838158254,-0.0065060908434091584,-1.320649962004811
-0.007380386838158254,-0.002807865990825359,-1.3169426110237734
-0.007378596838158254,-0.002807865990825359,-1.320649962004811
-0.007376806838158254,-0.010204315695992958,-1.320649962004811
-0.007375016838158254,-0.002807865990825359,-1.320649962004811
-0.007373226838158254,0.0008903588617584406,-1.320649962004811
-0.007371436838158254,-0.002807865990825359,-1.320649962004811
-0.007369646838158254,-0.002807865990825359,-1.320649962004811
-0.007367856838158254,-0.002807865990825359,-1.3169426110237734
-0.007366066838158254,-0.002807865990825359,-1.3169426110237734
-0.007364276838158254,-0.002807865990825359,-1.309527909061698
-0.007362486838158253,-0.0065060908434091584,-1.3132352600427375
-0.007360696838158254,-0.0065060908434091584,-1.3169426110237734
-0.007358906838158254,-0.010204315695992958,-1.3169426110237734
-0.007357116838158254,-0.0065060908434091584,-1.3169426110237734
-0.0073553268381582534,-0.0065060908434091584,-1.320649962004811
-0.007353536838158254,-0.010204315695992958,-1.3169426110237734
-0.007351746838158254,-0.0065060908434091584,-1.3169426110237734
-0.007349956838158254,-0.010204315695992958,-1.3169426110237734
-0.0073481668381582535,-0.010204315695992958,-1.320649962004811
-0.007346376838158254,-0.010204315695992958,-1.320649962004811
-0.007344586838158254,-0.010204315695992958,-1.320649962004811
-0.007342796838158254,-0.010204315695992958,-1.3243573129858488
-0.0073410068381582535,-0.010204315695992958,-1.320649962004811
-0.007339216838158254,-0.010204315695992958,-1.320649962004811
-0.007337426838158254,-0.013902540548576758,-1.3169426110237734
-0.007335636838158254,-0.010204315695992958,-1.3169426110237734
-0.0073338468381582535,-0.0065060908434091584,-1.3169426110237734
-0.007332056838158254,-0.0065060908434091584,-1.320649962004811
-0.007330266838158254,-0.010204315695992958,-1.3169426110237734
-0.007328476838158254,-0.010204315695992958,-1.3169426110237734
-0.0073266868381582535,-0.002807865990825359,-1.320649962004811
-0.007324896838158254,-0.013902540548576758,-1.320649962004811
-0.007323106838158254,-0.017600765401160557,-1.3132352600427357
-0.007321316838158254,-0.010204315695992958,-1.3169426110237734
-0.0073195268381582535,-0.017600765401160557,-1.3169426110237734
-0.007317736838158254,-0.013902540548576758,-1.3132352600427357
-0.007315946838158254,-0.010204315695992958,-1.3169426110237734
-0.007314156838158254,-0.013902540548576758,-1.320649962004811
-0.007312366838158254,-0.013902540548576758,-1.320649962004811
-0.007310576838158254,-0.017600765401160557,-1.320649962004811
-0.007308786838158254,-0.010204315695992958,-1.320649962004811
-0.007306996838158254,-0.010204315695992958,-1.320649962004811
-0.007305206838158254,-0.017600765401160557,-1.3169426110237734
-0.007303416838158254,-0.0065060908434091584,-1.3169426110237734
-0.007301626838158254,-0.010204315695992958,-1.3132352600427357
-0.007299836838158254,-0.010204315695992958,-1.3206499620048078
-0.007298046838158254,-0.013902540548576758,-1.320649962004811
-0.007296256838158254,-0.017600765401160557,-1.3169426110237734
-0.007294466838158254,-0.013902540548576758,-1.320649962004811
-0.007292676838158253,-0.021298990253742673,-1.3169426110237752
-0.007290886838158254,-0.017600765401160557,-1.320649962004811
-0.007289096838158254,-0.013902540548576758,-1.320649962004811
-0.007287306838158254,-0.013902540548576758,-1.320649962004811
-0.007285516838158253,-0.017600765401160557,-1.320649962004811
-0.007283726838158254,-0.017600765401160557,-1.320649962004811
-0.007281936838158254,-0.017600765401160557,-1.320649962004811
-0.007280146838158254,-0.013902540548576758,-1.3169426110237734
-0.0072783568381582535,-0.013902540548576758,-1.320649962004811
-0.007276566838158254,-0.010204315695992958,-1.3169426110237734
-0.007274776838158254,-0.010204315695992958,-1.3169426110237734
-0.007272986838158254,-0.013902540548576758,-1.3169426110237734
-0.0072711968381582535,-0.013902540548576758,-1.320649962004811
-0.007269406838158254,-0.017600765401160557,-1.3169426110237734
-0.007267616838158254,-0.017600765401160557,-1.3132352600427357
-0.007265826838158254,-0.021298990253744356,-1.320649962004811
-0.0072640368381582535,-0.021298990253744356,-1.3169426110237734
-0.007262246838158254,-0.017600765401160557,-1.3169426110237734
-0.007260456838158254,-0.017600765401160557,-1.320649962004811
-0.007258666838158254,-0.017600765401160557,-1.320649962004811
-0.0072568768381582535,-0.017600765401160557,-1.3169426110237734
-0.007255086838158254,-0.013902540548576758,-1.3169426110237734
-0.007253296838158254,-0.017600765401160557,-1.3169426110237734
-0.007251506838158254,-0.013902540548576758,-1.320649962004811
-0.0072497168381582535,-0.024997215106328158,-1.3169426110237734
-0.007247926838158254,-0.021298990253744356,-1.3169426110237734
-0.007246136838158254,-0.021298990253744356,-1.3169426110237734
-0.007244346838158254,-0.017600765401160557,-1.3169426110237734
-0.0072425568381582536,-0.017600765401160557,-1.3169426110237734
-0.007240766838158254,-0.017600765401160557,-1.3169426110237734
-0.007238976838158254,-0.017600765401160557,-1.3169426110237734
-0.007237186838158254,-0.013902540548576758,-1.3132352600427357
-0.007235396838158254,-0.021298990253744356,-1.3169426110237734
-0.007233606838158254,-0.021298990253744356,-1.3169426110237734
-0.007231816838158254,-0.017600765401160557,-1.320649962004811
-0.007230026838158254,-0.021298990253744356,-1.3169426110237734
-0.007228236838158254,-0.017600765401160557,-1.320649962004811
-0.007226446838158254,-0.017600765401160557,-1.3243573129858488
-0.007224656838158254,-0.017600765401160557,-1.3243573129858488
-0.007222866838158254,-0.021298990253742673,-1.3169426110237767
-0.007221076838158254,-0.024997215106328158,-1.320649962004811
-0.007219286838158254,-0.024997215106328158,-1.3169426110237734
-0.007217496838158254,-0.024997215106328158,-1.3169426110237734
-0.007215706838158253,-0.017600765401158874,-1.3169426110237752
-0.007213916838158254,-0.013902540548576758,-1.320649962004811
-0.007212126838158254,-0.021298990253744356,-1.320649962004811
-0.007210336838158254,-0.021298990253744356,-1.320649962004811
-0.0072085468381582534,-0.017600765401160557,-1.320649962004811
-0.007206756838158254,-0.017600765401160557,-1.320649962004811
-0.007204966838158254,-0.021298990253744356,-1.3169426110237734
-0.007203176838158254,-0.021298990253744356,-1.3169426110237734
-0.0072013868381582535,-0.024997215106328158,-1.320649962004811
-0.007199596838158254,-0.028695439958911956,-1.320649962004811
-0.007197806838158254,-0.021298990253744356,-1.320649962004811
-0.007196016838158254,-0.021298990253744356,-1.320649962004811
-0.0071942268381582535,-0.021298990253744356,-1.3169426110237734
-0.007192436838158254,-0.024997215106328158,-1.320649962004811
-0.007190646838158254,-0.021298990253744356,-1.320649962004811
-0.007188856838158254,-0.021298990253744356,-1.3169426110237734
