100Hz/acq0043.csv

#Digilent WaveForms Oscilloscope Acquisition
#Device Name: Discovery2
#Serial Number: SN:210321AA28BE
#Date Time: 2023-05-24 14:48:31.479
#Sample rate: 558659Hz
#Samples: 8192
#Trigger: Source: Channel 1 Type: Edge Condition: Rising Level: 800 mV Hyst.: Auto HoldOff: 100 ns
#Channel 1: Range: 1 V/div Offset: 0 V Attenuation: 1 X Sample Mode: Average
#Channel 2: Range: 1 V/div Offset: 0 V Attenuation: 1 X Sample Mode: Average

Time (s),Channel 1 (V),Channel 2 (V)
-0.007742540462050876,0.015683258272093638,-1.3169426110237734
-0.007740750462050876,0.015683258272093638,-1.3206499620048093
-0.0077389604620508754,0.015683258272093638,-1.3169426110237734
-0.007737170462050876,0.01938148312467744,-1.320649962004811
-0.007735380462050876,0.015683258272093638,-1.3169426110237734
-0.007733590462050875,0.01198503341950984,-1.3169426110237734
-0.0077318004620508755,0.01198503341950984,-1.3169426110237734
-0.007730010462050876,0.01198503341950984,-1.3169426110237734
-0.007728220462050876,0.01198503341950984,-1.320649962004811
-0.007726430462050875,0.015683258272093638,-1.3243573129858488
-0.0077246404620508755,0.00828680856692604,-1.320649962004811
-0.007722850462050876,0.00458858371434224,-1.3169426110237734
-0.007721060462050876,0.00828680856692604,-1.320649962004811
-0.007719270462050875,0.01198503341950984,-1.320649962004811
-0.0077174804620508755,0.00828680856692604,-1.3169426110237734
-0.007715690462050876,0.01198503341950984,-1.3169426110237734
-0.007713900462050876,0.01198503341950984,-1.3169426110237734
-0.007712110462050875,0.00458858371434224,-1.3169426110237734
-0.0077103204620508755,0.00828680856692604,-1.3169426110237734
-0.007708530462050876,0.00458858371434224,-1.3169426110237734
-0.007706740462050876,0.00828680856692604,-1.320649962004811
-0.007704950462050875,0.00828680856692604,-1.320649962004811
-0.0077031604620508756,0.0008903588617584406,-1.320649962004811
-0.007701370462050876,0.01198503341950984,-1.320649962004811
-0.007699580462050876,0.00458858371434224,-1.320649962004811
-0.007697790462050875,0.00458858371434224,-1.3169426110237734
-0.007696000462050876,0.00458858371434224,-1.320649962004811
-0.007694210462050876,0.0008903588617584406,-1.320649962004811
-0.007692420462050876,0.00458858371434224,-1.320649962004811
-0.007690630462050875,0.0008903588617584406,-1.3169426110237734
-0.007688840462050876,0.00458858371434224,-1.3132352600427357
-0.007687050462050876,0.0008903588617584406,-1.3169426110237734
-0.007685260462050876,0.0008903588617584406,-1.3169426110237734
-0.007683470462050875,0.00458858371434224,-1.3169426110237734
-0.007681680462050876,0.0008903588617584406,-1.320649962004811
-0.007679890462050876,-0.002807865990825359,-1.320649962004811
-0.007678100462050876,0.0008903588617584406,-1.3169426110237734
-0.007676310462050875,0.0008903588617584406,-1.3243573129858488
-0.007674520462050876,0.0008903588617584406,-1.320649962004811
-0.007672730462050876,0.0008903588617584406,-1.3169426110237734
-0.007670940462050876,0.0008903588617584406,-1.3206499620048093
-0.0076691504620508754,0.0008903588617584406,-1.3243573129858488
-0.007667360462050876,0.00458858371434224,-1.320649962004811
-0.007665570462050876,0.00458858371434224,-1.3169426110237734
-0.007663780462050875,0.004588583714340558,-1.3169426110237734
-0.0076619904620508755,0.0008903588617584406,-1.3169426110237734
-0.007660200462050876,0.0008903588617584406,-1.320649962004811
-0.007658410462050876,-0.0065060908434091584,-1.3169426110237734
-0.007656620462050875,-0.002807865990825359,-1.324357312985847
-0.0076548304620508755,-0.002807865990825359,-1.320649962004811
-0.007653040462050876,0.0008903588617584406,-1.3169426110237734
-0.007651250462050876,0.0008903588617584406,-1.320649962004811
-0.007649460462050875,-0.002807865990825359,-1.3169426110237734
-0.0076476704620508755,0.0008903588617584406,-1.320649962004811
-0.007645880462050876,-0.002807865990825359,-1.320649962004811
-0.007644090462050876,-0.002807865990825359,-1.320649962004811
-0.007642300462050875,-0.002807865990825359,-1.3169426110237734
-0.0076405104620508755,-0.002807865990825359,-1.3169426110237734
-0.007638720462050876,0.0008903588617584406,-1.320649962004811
-0.007636930462050876,0.0008903588617584406,-1.320649962004811
-0.007635140462050875,-0.0065060908434091584,-1.3169426110237734
-0.0076333504620508755,-0.002807865990825359,-1.3169426110237734
-0.007631560462050876,-0.002807865990825359,-1.320649962004811
-0.007629770462050876,-0.0065060908434091584,-1.320649962004811
-0.007627980462050875,-0.0065060908434091584,-1.320649962004811
-0.0076261904620508756,-0.002807865990825359,-1.320649962004811
-0.007624400462050876,-0.0065060908434091584,-1.320649962004811
-0.007622610462050876,-0.002807865990825359,-1.3243573129858488
-0.007620820462050875,-0.010204315695992958,-1.320649962004811
-0.007619030462050876,-0.010204315695992958,-1.320649962004811
-0.007617240462050876,-0.010204315695992958,-1.320649962004811
-0.007615450462050876,-0.013902540548576758,-1.320649962004811
-0.007613660462050875,-0.010204315695992958,-1.3169426110237734
-0.007611870462050876,-0.010204315695992958,-1.3243573129858488
-0.007610080462050876,-0.017600765401160557,-1.3169426110237734
-0.007608290462050876,-0.010204315695992958,-1.320649962004811
-0.007606500462050875,-0.010204315695992958,-1.320649962004811
-0.007604710462050876,-0.010204315695992958,-1.3169426110237734
-0.007602920462050876,-0.010204315695992958,-1.3280646639668865
-0.007601130462050876,-0.0065060908434091584,-1.320649962004811
-0.007599340462050875,-0.010204315695992958,-1.3132352600427357
-0.007597550462050876,-0.010204315695992958,-1.320649962004811
-0.007595760462050876,-0.013902540548576758,-1.320649962004811
-0.007593970462050876,-0.013902540548576758,-1.320649962004811
-0.0075921804620508754,-0.010204315695992958,-1.320649962004811
-0.007590390462050876,-0.013902540548576758,-1.320649962004811
-0.007588600462050876,-0.021298990253744356,-1.320649962004811
-0.007586810462050875,-0.017600765401158874,-1.324357312985847
-0.0075850204620508755,-0.013902540548576758,-1.320649962004811
-0.007583230462050876,-0.010204315695992958,-1.3243573129858488
-0.007581440462050876,-0.010204315695992958,-1.3132352600427357
-0.007579650462050875,-0.017600765401160557,-1.3169426110237734
-0.0075778604620508755,-0.010204315695992958,-1.320649962004811
-0.007576070462050876,-0.013902540548576758,-1.320649962004811
-0.007574280462050876,-0.013902540548576758,-1.3169426110237734
-0.007572490462050875,0.00458858371434224,-1.3169426110237734
-0.0075707004620508755,0.01198503341950984,-1.320649962004811
-0.007568910462050876,0.00828680856692604,-1.320649962004811
-0.007567120462050876,0.00458858371434224,-1.3132352600427357
-0.007565330462050875,0.0008903588617584406,-1.3169426110237734
-0.0075635404620508755,-0.002807865990825359,-1.3169426110237734
-0.007561750462050876,-0.010204315695992958,-1.3169426110237734
-0.007559960462050876,-0.013902540548576758,-1.320649962004811
-0.007558170462050875,-0.017600765401160557,-1.3169426110237734
-0.0075563804620508756,-0.017600765401160557,-1.320649962004811
-0.007554590462050876,-0.010204315695992958,-1.320649962004811
-0.007552800462050876,-0.017600765401160557,-1.3169426110237734
-0.007551010462050875,-0.017600765401160557,-1.320649962004811
-0.007549220462050876,-0.021298990253744356,-1.320649962004811
-0.007547430462050876,-0.017600765401160557,-1.320649962004811
-0.007545640462050876,-0.021298990253744356,-1.320649962004811
-0.007543850462050875,-0.024997215106328158,-1.320649962004811
-0.007542060462050876,-0.021298990253744356,-1.3169426110237734
-0.007540270462050876,-0.021298990253744356,-1.3243573129858488
-0.007538480462050876,-0.024997215106328158,-1.320649962004811
-0.007536690462050875,-0.024997215106328158,-1.320649962004811
-0.007534900462050876,-0.024997215106328158,-1.320649962004811
-0.007533110462050876,-0.024997215106328158,-1.3169426110237734
-0.007531320462050876,-0.024997215106328158,-1.320649962004811
-0.007529530462050875,-0.021298990253744356,-1.3169426110237734
-0.007527740462050876,-0.021298990253744356,-1.320649962004811
-0.007525950462050876,-0.024997215106328158,-1.3243573129858488
-0.007524160462050876,-0.028695439958910274,-1.3206499620048129
-0.0075223704620508754,-0.028695439958911956,-1.320649962004811
-0.007520580462050876,-0.028695439958911956,-1.320649962004811
-0.007518790462050876,-0.028695439958911956,-1.3169426110237734
-0.007517000462050876,-0.02499721510632984,-1.3206499620048093
-0.0075152104620508755,-0.024997215106328158,-1.3169426110237734
-0.007513420462050876,-0.032393664811495755,-1.3169426110237734
-0.007511630462050876,-0.028695439958911956,-1.3169426110237734
-0.007509840462050875,-0.028695439958910274,-1.3169426110237752
-0.0075080504620508755,-0.024997215106328158,-1.320649962004811
-0.007506260462050876,-0.024997215106328158,-1.320649962004811
-0.007504470462050876,-0.024997215106328158,-1.320649962004811
-0.007502680462050875,-0.024997215106328158,-1.320649962004811
-0.0075008904620508755,-0.024997215106328158,-1.320649962004811
-0.007499100462050876,-0.032393664811495755,-1.320649962004811
-0.007497310462050876,-0.032393664811495755,-1.3169426110237734
-0.007495520462050875,-0.032393664811495755,-1.3169426110237734
-0.0074937304620508755,-0.032393664811495755,-1.3132352600427357
-0.007491940462050876,-0.028695439958911956,-1.3243573129858488
-0.007490150462050876,-0.028695439958911956,-1.3169426110237734
-0.007488360462050875,-0.032393664811495755,-1.320649962004811
-0.0074865704620508755,-0.03609188966407956,-1.3243573129858488
-0.007484780462050876,-0.032393664811495755,-1.320649962004811
-0.007482990462050876,-0.03609188966407956,-1.3243573129858488
-0.007481200462050875,-0.03609188966407956,-1.3243573129858488
-0.0074794104620508756,-0.03609188966407956,-1.3243573129858488
-0.007477620462050876,-0.032393664811495755,-1.320649962004811
-0.007475830462050876,-0.03609188966407956,-1.320649962004811
-0.007474040462050875,-0.032393664811495755,-1.320649962004811
-0.007472250462050876,-0.032393664811495755,-1.320649962004811
-0.007470460462050876,-0.028695439958911956,-1.3169426110237734
-0.007468670462050876,-0.032393664811495755,-1.320649962004811
-0.007466880462050875,-0.032393664811495755,-1.3169426110237734
-0.007465090462050876,-0.03609188966407956,-1.3243573129858488
-0.007463300462050876,-0.03609188966407956,-1.3169426110237734
-0.007461510462050876,-0.03609188966407956,-1.3169426110237734
-0.007459720462050875,-0.03609188966407956,-1.3169426110237734
-0.007457930462050876,-0.03609188966407956,-1.3243573129858488
-0.007456140462050876,-0.03609188966407956,-1.3169426110237734
-0.007454350462050876,-0.03609188966407956,-1.3169426110237734
-0.007452560462050875,-0.03609188966407956,-1.3132352600427357
-0.007450770462050876,-0.032393664811495755,-1.3169426110237734
-0.007448980462050876,-0.032393664811495755,-1.3169426110237734
-0.007447190462050876,-0.03609188966407788,-1.3169426110237734
-0.0074454004620508754,-0.03979011451666335,-1.3169426110237734
-0.007443610462050876,-0.03609188966407956,-1.3169426110237734
-0.007441820462050876,-0.03979011451666335,-1.320649962004811
-0.007440030462050875,-0.03979011451666335,-1.320649962004811
-0.0074382404620508755,-0.03979011451666335,-1.320649962004811
-0.007436450462050876,-0.03609188966407956,-1.320649962004811
-0.007434660462050876,-0.043488339369247155,-1.320649962004811
-0.007432870462050875,-0.03609188966407956,-1.3169426110237734
-0.0074310804620508755,-0.03979011451666335,-1.3169426110237734
-0.007429290462050876,-0.03979011451666335,-1.3169426110237734
-0.007427500462050876,-0.03979011451666335,-1.3169426110237734
-0.007425710462050875,-0.043488339369247155,-1.3169426110237734
-0.0074239204620508755,-0.03979011451666335,-1.3132352600427357
-0.007422130462050876,-0.043488339369247155,-1.3169426110237734
-0.007420340462050876,-0.03609188966407956,-1.3169426110237734
-0.007418550462050875,-0.03609188966407956,-1.3169426110237734
-0.0074167604620508755,-0.03979011451666335,-1.3169426110237734
-0.007414970462050876,-0.03609188966407956,-1.320649962004811
-0.007413180462050876,-0.03979011451666335,-1.3132352600427357
-0.007411390462050875,-0.043488339369247155,-1.3243573129858488
-0.0074096004620508756,-0.043488339369247155,-1.320649962004811
-0.007407810462050876,-0.03979011451666335,-1.320649962004811
-0.007406020462050876,-0.04718656422183096,-1.3169426110237734
-0.007404230462050875,-0.03979011451666335,-1.320649962004811
-0.007402440462050876,-0.043488339369247155,-1.3243573129858488
-0.007400650462050876,-0.04718656422183096,-1.320649962004811
-0.007398860462050876,-0.03979011451666335,-1.320649962004811
-0.007397070462050875,-0.043488339369247155,-1.3169426110237734
-0.007395280462050876,-0.04718656422183096,-1.320649962004811
-0.007393490462050876,-0.03979011451666335,-1.320649962004811
-0.007391700462050876,-0.043488339369247155,-1.320649962004811
-0.007389910462050875,-0.043488339369247155,-1.3169426110237734
-0.007388120462050876,-0.043488339369247155,-1.320649962004811
-0.007386330462050876,-0.03979011451666335,-1.320649962004811
-0.007384540462050876,-0.03609188966407956,-1.320649962004811
-0.007382750462050875,-0.03979011451666335,-1.3169426110237734
-0.007380960462050876,-0.03979011451666335,-1.320649962004811
-0.007379170462050876,-0.043488339369247155,-1.3132352600427357
-0.007377380462050876,-0.03979011451666335,-1.320649962004811
-0.0073755904620508754,-0.03609188966407956,-1.320649962004811
-0.007373800462050876,-0.03979011451666335,-1.3169426110237734
-0.007372010462050876,-0.043488339369247155,-1.320649962004811
-0.007370220462050876,-0.043488339369247155,-1.313235260042739
-0.0073684304620508755,-0.03979011451666335,-1.320649962004811
-0.007366640462050876,-0.04718656422183096,-1.320649962004811
-0.007364850462050876,-0.043488339369247155,-1.3169426110237734
-0.007363060462050875,-0.043488339369247155,-1.320649962004811
-0.0073612704620508755,-0.043488339369247155,-1.320649962004811
-0.007359480462050876,-0.043488339369247155,-1.320649962004811
-0.007357690462050876,-0.043488339369247155,-1.3169426110237734
-0.007355900462050875,-0.043488339369247155,-1.3169426110237734
-0.0073541104620508755,-0.04718656422183096,-1.3169426110237734
-0.007352320462050876,-0.043488339369247155,-1.3169426110237734
-0.007350530462050876,-0.043488339369247155,-1.3169426110237734
-0.007348740462050875,-0.04718656422183096,-1.3169426110237734
-0.0073469504620508755,-0.04718656422183096,-1.320649962004811
-0.007345160462050876,-0.04718656422183096,-1.320649962004811
-0.007343370462050876,-0.04718656422183096,-1.320649962004811
-0.007341580462050875,-0.04718656422183096,-1.3243573129858488
-0.0073397904620508755,-0.043488339369247155,-1.3169426110237734
-0.007338000462050876,-0.04718656422183096,-1.320649962004811
-0.007336210462050876,-0.04718656422183096,-1.3243573129858488
-0.007334420462050875,-0.05088478907441475,-1.320649962004811
-0.0073326304620508756,-0.04718656422183096,-1.3169426110237734
-0.007330840462050876,-0.05088478907441475,-1.320649962004811
-0.007329050462050876,-0.04718656422183096,-1.320649962004811
-0.007327260462050875,-0.054583013926998554,-1.320649962004811
-0.007325470462050876,-0.04718656422183096,-1.320649962004811
-0.007323680462050876,-0.05088478907441475,-1.320649962004811
-0.007321890462050876,-0.05088478907441475,-1.3169426110237734
-0.007320100462050875,-0.05088478907441475,-1.3169426110237734
-0.007318310462050876,-0.05088478907441475,-1.320649962004811
-0.007316520462050876,-0.05088478907441475,-1.3169426110237734
-0.007314730462050876,-0.05088478907441475,-1.320649962004811
-0.007312940462050875,-0.05828123877958235,-1.320649962004811
-0.007311150462050876,-0.054583013926998554,-1.3243573129858488
-0.007309360462050876,-0.05088478907441475,-1.3132352600427357
-0.007307570462050876,-0.05088478907441475,-1.3169426110237734
-0.007305780462050875,-0.05088478907441475,-1.320649962004811
-0.007303990462050876,-0.05088478907441475,-1.320649962004811
-0.007302200462050876,-0.05088478907441475,-1.3169426110237734
-0.007300410462050876,-0.058281238779578984,-1.3169426110237734
-0.0072986204620508754,-0.05828123877958235,-1.320649962004811
-0.007296830462050876,-0.05828123877958235,-1.320649962004811
-0.007295040462050876,-0.054583013926998554,-1.3169426110237734
-0.007293250462050875,-0.054583013926998554,-1.3169426110237716
-0.0072914604620508755,-0.054583013926998554,-1.3132352600427357
-0.007289670462050876,-0.05828123877958235,-1.3169426110237734
-0.007287880462050876,-0.054583013926998554,-1.3169426110237734
-0.007286090462050875,-0.06197946363216447,-1.320649962004811
-0.0072843004620508755,-0.05828123877958235,-1.320649962004811
-0.007282510462050876,-0.05088478907441475,-1.3169426110237734
-0.007280720462050876,-0.06197946363216615,-1.320649962004811
-0.007278930462050875,-0.054583013926998554,-1.320649962004811
-0.0072771404620508755,-0.05828123877958235,-1.320649962004811
-0.007275350462050876,-0.06197946363216615,-1.320649962004811
-0.007273560462050876,-0.054583013926998554,-1.320649962004811
-0.007271770462050875,-0.05828123877958235,-1.320649962004811
-0.0072699804620508755,-0.054583013926998554,-1.3169426110237734
-0.007268190462050876,-0.054583013926998554,-1.3169426110237734
-0.007266400462050876,-0.06197946363216615,-1.3132352600427357
-0.007264610462050875,-0.05828123877958235,-1.3169426110237734
-0.0072628204620508756,-0.05828123877958235,-1.3169426110237734
-0.007261030462050876,-0.06197946363216615,-1.320649962004811
-0.007259240462050876,-0.05828123877958235,-1.320649962004811
-0.007257450462050875,-0.05828123877958235,-1.3169426110237734
-0.007255660462050876,-0.06197946363216615,-1.3243573129858488
-0.007253870462050876,-0.05828123877958235,-1.3169426110237734
-0.007252080462050876,-0.05828123877958235,-1.320649962004811
-0.007250290462050875,-0.05828123877958235,-1.3169426110237734
-0.007248500462050876,-0.054583013926998554,-1.320649962004811
-0.007246710462050876,-0.05828123877958235,-1.320649962004811
-0.007244920462050876,-0.05828123877958235,-1.320649962004811
-0.007243130462050875,-0.06197946363216615,-1.320649962004811
-0.007241340462050876,-0.05828123877958235,-1.320649962004811
-0.007239550462050876,-0.06197946363216615,-1.3243573129858488
-0.007237760462050876,-0.05828123877958235,-1.320649962004811
-0.007235970462050875,-0.06197946363216615,-1.320649962004811
-0.007234180462050876,-0.06937591333733376,-1.320649962004811
-0.007232390462050876,-0.06567768848474995,-1.3169426110237734
-0.007230600462050876,-0.06197946363216615,-1.3169426110237734
-0.0072288104620508754,-0.06567768848474995,-1.3169426110237734
-0.007227020462050876,-0.06197946363216615,-1.320649962004811
-0.007225230462050876,-0.06197946363216615,-1.320649962004811
-0.007223440462050876,-0.0693759133373304,-1.320649962004811
-0.0072216504620508755,-0.06197946363216615,-1.320649962004811
-0.007219860462050876,-0.06197946363216615,-1.320649962004811
-0.007218070462050876,-0.06567768848474995,-1.3169426110237734
-0.007216280462050875,-0.05828123877958235,-1.320649962004811
-0.0072144904620508755,-0.05828123877958235,-1.320649962004811
-0.007212700462050876,-0.06567768848474995,-1.3169426110237734
-0.007210910462050876,-0.06197946363216615,-1.320649962004811
-0.007209120462050875,-0.06567768848474995,-1.3169426110237734
-0.0072073304620508755,-0.06567768848474995,-1.3169426110237734
-0.007205540462050876,-0.06937591333733376,-1.3243573129858488
-0.007203750462050876,-0.06937591333733376,-1.320649962004811
-0.007201960462050875,-0.06937591333733376,-1.3169426110237734
-0.0072001704620508755,-0.06937591333733376,-1.3243573129858488
-0.007198380462050876,-0.06567768848474995,-1.320649962004811
-0.007196590462050876,-0.06567768848474995,-1.3132352600427357
-0.007194800462050875,-0.06937591333733376,-1.3243573129858488
-0.0071930104620508755,-0.06937591333733376,-1.3169426110237734
-0.007191220462050876,-0.06937591333733376,-1.320649962004811
