100Hz/acq0024.csv

#Digilent WaveForms Oscilloscope Acquisition
#Device Name: Discovery2
#Serial Number: SN:210321AA28BE
#Date Time: 2023-05-24 14:48:30.929
#Sample rate: 558659Hz
#Samples: 8192
#Trigger: Source: Channel 1 Type: Edge Condition: Rising Level: 800 mV Hyst.: Auto HoldOff: 100 ns
#Channel 1: Range: 1 V/div Offset: 0 V Attenuation: 1 X Sample Mode: Average
#Channel 2: Range: 1 V/div Offset: 0 V Attenuation: 1 X Sample Mode: Average

Time (s),Channel 1 (V),Channel 2 (V)
-0.007741808804419131,0.00828680856692604,-1.3169426110237734
-0.0077400188044191316,0.00828680856692604,-1.3206499620048093
-0.007738228804419131,0.00828680856692604,-1.320649962004811
-0.007736438804419131,0.00828680856692604,-1.3132352600427357
-0.007734648804419131,0.01198503341950984,-1.3169426110237734
-0.007732858804419131,0.01198503341950984,-1.3132352600427375
-0.007731068804419131,0.01198503341950984,-1.3169426110237734
-0.007729278804419131,0.00458858371434224,-1.3169426110237734
-0.007727488804419131,0.00458858371434224,-1.320649962004811
-0.007725698804419131,0.01198503341950984,-1.3169426110237734
-0.007723908804419131,0.00828680856692604,-1.3169426110237734
-0.007722118804419131,0.00828680856692604,-1.320649962004811
-0.007720328804419131,0.01198503341950984,-1.320649962004811
-0.007718538804419131,0.00828680856692604,-1.320649962004811
-0.007716748804419131,0.00828680856692604,-1.3243573129858488
-0.007714958804419131,0.00828680856692604,-1.320649962004811
-0.007713168804419131,0.00458858371434224,-1.3169426110237734
-0.007711378804419131,0.00828680856692604,-1.3169426110237734
-0.007709588804419131,0.00828680856692604,-1.3169426110237734
-0.007707798804419131,0.0008903588617584406,-1.320649962004811
-0.0077060088044191314,0.00458858371434224,-1.3169426110237734
-0.007704218804419131,0.00458858371434224,-1.320649962004811
-0.007702428804419131,0.00458858371434224,-1.3169426110237734
-0.007700638804419131,0.00458858371434224,-1.320649962004811
-0.0076988488044191315,0.0008903588617584406,-1.3169426110237734
-0.007697058804419131,0.00458858371434224,-1.320649962004811
-0.007695268804419131,-0.002807865990825359,-1.320649962004811
-0.007693478804419131,0.0008903588617584406,-1.3169426110237734
-0.0076916888044191315,-0.002807865990825359,-1.3132352600427357
-0.007689898804419131,0.0008903588617584406,-1.320649962004811
-0.007688108804419131,0.00458858371434224,-1.320649962004811
-0.007686318804419131,0.0008903588617584406,-1.320649962004811
-0.0076845288044191315,0.0008903588617584406,-1.3169426110237734
-0.007682738804419131,-0.002807865990825359,-1.3169426110237734
-0.007680948804419131,-0.002807865990825359,-1.320649962004811
-0.007679158804419131,-0.0065060908434091584,-1.320649962004811
-0.0076773688044191315,-0.0065060908434091584,-1.3243573129858488
-0.007675578804419131,-0.002807865990825359,-1.320649962004811
-0.007673788804419131,-0.0065060908434091584,-1.3169426110237734
-0.007671998804419131,-0.0065060908434091584,-1.3169426110237734
-0.0076702088044191315,-0.0065060908434091584,-1.3169426110237734
-0.007668418804419131,-0.010204315695992958,-1.320649962004811
-0.007666628804419131,-0.002807865990825359,-1.3169426110237734
-0.007664838804419131,0.0008903588617584406,-1.3169426110237734
-0.007663048804419131,0.0008903588617550771,-1.3169426110237752
-0.007661258804419131,-0.0065060908434091584,-1.320649962004811
-0.007659468804419131,-0.010204315695992958,-1.3243573129858488
-0.007657678804419131,-0.010204315695992958,-1.3169426110237734
-0.007655888804419131,-0.0065060908434091584,-1.320649962004811
-0.007654098804419131,-0.0065060908434091584,-1.320649962004811
-0.007652308804419131,-0.0065060908434091584,-1.320649962004811
-0.007650518804419131,-0.010204315695992958,-1.3169426110237734
-0.007648728804419131,-0.0065060908434091584,-1.320649962004811
-0.007646938804419131,-0.0065060908434091584,-1.3169426110237734
-0.007645148804419131,-0.0065060908434091584,-1.320649962004811
-0.007643358804419131,-0.0065060908434091584,-1.3169426110237734
-0.007641568804419131,-0.010204315695992958,-1.3132352600427357
-0.007639778804419131,-0.017600765401160557,-1.320649962004811
-0.007637988804419131,-0.013902540548576758,-1.320649962004811
-0.007636198804419131,-0.010204315695992958,-1.3169426110237734
-0.007634408804419131,-0.010204315695992958,-1.3169426110237734
-0.007632618804419131,-0.0065060908434091584,-1.3132352600427357
-0.007630828804419131,-0.002807865990825359,-1.3132352600427357
-0.0076290388044191314,-0.010204315695992958,-1.3132352600427357
-0.007627248804419131,-0.013902540548576758,-1.3169426110237734
-0.007625458804419131,-0.010204315695992958,-1.320649962004811
-0.007623668804419131,-0.010204315695992958,-1.320649962004811
-0.0076218788044191315,-0.013902540548576758,-1.3243573129858488
-0.007620088804419131,-0.010204315695992958,-1.3169426110237734
-0.007618298804419131,-0.013902540548576758,-1.3169426110237734
-0.007616508804419131,-0.013902540548576758,-1.3169426110237734
-0.0076147188044191315,-0.013902540548576758,-1.3169426110237734
-0.007612928804419131,-0.010204315695992958,-1.3169426110237734
-0.007611138804419131,-0.013902540548576758,-1.3169426110237734
-0.007609348804419131,-0.013902540548576758,-1.3169426110237734
-0.0076075588044191315,-0.013902540548576758,-1.3169426110237734
-0.007605768804419131,-0.013902540548576758,-1.3169426110237734
-0.007603978804419131,-0.013902540548576758,-1.3243573129858488
-0.007602188804419131,-0.017600765401160557,-1.3169426110237734
-0.0076003988044191315,-0.013902540548576758,-1.320649962004811
-0.007598608804419131,-0.017600765401160557,-1.320649962004811
-0.007596818804419131,-0.013902540548576758,-1.320649962004811
-0.007595028804419131,-0.017600765401160557,-1.3169426110237734
-0.0075932388044191316,-0.017600765401160557,-1.3169426110237734
-0.007591448804419131,-0.021298990253744356,-1.3169426110237734
-0.007589658804419131,-0.021298990253744356,-1.3243573129858488
-0.007587868804419131,-0.017600765401160557,-1.320649962004811
-0.007586078804419131,-0.017600765401160557,-1.324357312985847
-0.007584288804419131,-0.017600765401160557,-1.320649962004811
-0.007582498804419131,-0.017600765401160557,-1.320649962004811
-0.007580708804419131,-0.021298990253744356,-1.320649962004811
-0.007578918804419131,-0.017600765401160557,-1.3169426110237734
-0.007577128804419131,-0.017600765401160557,-1.3243573129858488
-0.007575338804419131,-0.017600765401160557,-1.3169426110237734
-0.007573548804419131,-0.013902540548576758,-1.320649962004811
-0.007571758804419131,-0.017600765401160557,-1.320649962004811
-0.007569968804419131,-0.021298990253744356,-1.320649962004811
-0.007568178804419131,-0.021298990253744356,-1.3169426110237734
-0.007566388804419131,-0.017600765401160557,-1.3169426110237734
-0.007564598804419131,-0.024997215106328158,-1.3169426110237734
-0.007562808804419131,-0.021298990253744356,-1.320649962004811
-0.007561018804419131,-0.024997215106328158,-1.3169426110237734
-0.0075592288044191314,-0.021298990253744356,-1.3169426110237734
-0.007557438804419131,-0.021298990253744356,-1.320649962004811
-0.007555648804419131,-0.024997215106328158,-1.320649962004811
-0.007553858804419131,-0.021298990253744356,-1.320649962004811
-0.0075520688044191315,-0.024997215106328158,-1.320649962004811
-0.007550278804419131,-0.024997215106328158,-1.320649962004811
-0.007548488804419131,-0.021298990253744356,-1.3169426110237734
-0.007546698804419131,-0.024997215106328158,-1.3132352600427357
-0.0075449088044191315,-0.028695439958911956,-1.3169426110237734
-0.007543118804419131,-0.024997215106328158,-1.3169426110237734
-0.007541328804419131,-0.021298990253744356,-1.320649962004811
-0.007539538804419131,-0.028695439958911956,-1.3243573129858488
-0.0075377488044191315,-0.024997215106328158,-1.320649962004811
-0.007535958804419131,-0.024997215106328158,-1.3169426110237734
-0.007534168804419131,-0.021298990253744356,-1.320649962004811
-0.007532378804419131,-0.024997215106328158,-1.320649962004811
-0.0075305888044191315,-0.024997215106328158,-1.320649962004811
-0.007528798804419131,-0.028695439958911956,-1.3169426110237734
-0.007527008804419131,-0.024997215106328158,-1.3169426110237734
-0.007525218804419131,-0.028695439958911956,-1.3169426110237734
-0.0075234288044191315,-0.028695439958911956,-1.3169426110237734
-0.007521638804419131,-0.024997215106328158,-1.3132352600427357
-0.007519848804419131,-0.028695439958911956,-1.3169426110237734
-0.007518058804419131,-0.021298990253744356,-1.3243573129858488
-0.0075162688044191316,-0.028695439958908595,-1.3206499620048129
-0.007514478804419131,-0.032393664811495755,-1.320649962004811
-0.007512688804419131,-0.024997215106328158,-1.3243573129858488
-0.007510898804419131,-0.024997215106328158,-1.3243573129858488
-0.007509108804419131,-0.032393664811495755,-1.3169426110237734
-0.007507318804419131,-0.032393664811495755,-1.3169426110237734
-0.007505528804419131,-0.028695439958911956,-1.3169426110237734
-0.007503738804419131,-0.032393664811495755,-1.320649962004811
-0.007501948804419131,-0.028695439958911956,-1.320649962004811
-0.007500158804419131,-0.032393664811495755,-1.3169426110237734
-0.007498368804419131,-0.032393664811495755,-1.3132352600427357
-0.007496578804419131,-0.032393664811495755,-1.3169426110237734
-0.007494788804419131,-0.028695439958911956,-1.3169426110237734
-0.007492998804419131,-0.028695439958911956,-1.320649962004811
-0.007491208804419131,-0.03609188966407956,-1.320649962004811
-0.007489418804419131,-0.032393664811495755,-1.3169426110237734
-0.007487628804419131,-0.032393664811495755,-1.320649962004811
-0.007485838804419131,-0.032393664811495755,-1.3169426110237734
-0.007484048804419131,-0.03609188966407956,-1.3169426110237734
-0.0074822588044191314,-0.03609188966407956,-1.320649962004811
-0.007480468804419131,-0.032393664811495755,-1.320649962004811
-0.007478678804419131,-0.032393664811495755,-1.3169426110237734
-0.007476888804419131,-0.032393664811495755,-1.3169426110237734
-0.0074750988044191315,-0.032393664811495755,-1.320649962004811
-0.007473308804419131,-0.032393664811495755,-1.3169426110237734
-0.007471518804419131,-0.032393664811495755,-1.3243573129858488
-0.007469728804419131,-0.032393664811495755,-1.320649962004811
-0.0074679388044191315,-0.03979011451666335,-1.3243573129858488
-0.007466148804419131,-0.03609188966407956,-1.3169426110237734
-0.007464358804419131,-0.03979011451666335,-1.3169426110237734
-0.007462568804419131,-0.03609188966407956,-1.320649962004811
-0.0074607788044191315,-0.032393664811495755,-1.3169426110237734
-0.007458988804419131,-0.032393664811495755,-1.320649962004811
-0.007457198804419131,-0.03609188966407956,-1.3169426110237734
-0.007455408804419131,-0.03609188966407956,-1.320649962004811
-0.0074536188044191315,-0.03979011451666335,-1.320649962004811
-0.007451828804419131,-0.03609188966407956,-1.320649962004811
-0.007450038804419131,-0.03979011451666335,-1.3169426110237734
-0.007448248804419131,-0.043488339369247155,-1.320649962004811
-0.0074464588044191315,-0.043488339369247155,-1.3169426110237752
-0.007444668804419131,-0.03979011451666335,-1.3169426110237734
-0.007442878804419131,-0.03609188966407956,-1.320649962004811
-0.007441088804419131,-0.03979011451666335,-1.320649962004811
-0.007439298804419131,-0.043488339369245475,-1.324357312985847
-0.007437508804419131,-0.03979011451666335,-1.320649962004811
-0.007435718804419131,-0.043488339369247155,-1.3169426110237734
-0.007433928804419131,-0.043488339369247155,-1.3169426110237734
-0.007432138804419131,-0.03979011451666335,-1.320649962004811
-0.007430348804419131,-0.043488339369247155,-1.320649962004811
-0.007428558804419131,-0.03979011451666335,-1.320649962004811
-0.007426768804419131,-0.03979011451666335,-1.320649962004811
-0.007424978804419131,-0.043488339369247155,-1.320649962004811
-0.007423188804419131,-0.043488339369247155,-1.3169426110237734
-0.007421398804419131,-0.043488339369247155,-1.3243573129858488
-0.007419608804419131,-0.043488339369247155,-1.320649962004811
-0.007417818804419131,-0.03979011451666335,-1.3169426110237734
-0.007416028804419131,-0.043488339369247155,-1.320649962004811
-0.007414238804419131,-0.043488339369247155,-1.3169426110237734
-0.007412448804419131,-0.043488339369247155,-1.320649962004811
-0.007410658804419131,-0.04718656422183096,-1.320649962004811
-0.007408868804419131,-0.04718656422183096,-1.3243573129858488
-0.007407078804419131,-0.043488339369247155,-1.320649962004811
-0.0074052888044191315,-0.043488339369247155,-1.320649962004811
-0.007403498804419131,-0.03979011451666335,-1.3169426110237734
-0.007401708804419131,-0.043488339369247155,-1.3132352600427357
-0.007399918804419131,-0.043488339369247155,-1.320649962004811
-0.0073981288044191315,-0.043488339369247155,-1.320649962004811
-0.007396338804419131,-0.043488339369247155,-1.320649962004811
-0.007394548804419131,-0.04718656422183096,-1.3132352600427357
-0.007392758804419131,-0.03979011451666335,-1.320649962004811
-0.0073909688044191315,-0.04718656422183096,-1.320649962004811
-0.007389178804419131,-0.04718656422183096,-1.320649962004811
-0.007387388804419131,-0.03979011451666335,-1.320649962004811
-0.007385598804419131,-0.043488339369247155,-1.3243573129858488
-0.0073838088044191315,-0.04718656422183096,-1.320649962004811
-0.007382018804419131,-0.043488339369247155,-1.3169426110237734
-0.007380228804419131,-0.043488339369247155,-1.320649962004811
-0.007378438804419131,-0.04718656422183096,-1.320649962004811
-0.0073766488044191315,-0.04718656422183096,-1.3169426110237734
-0.007374858804419131,-0.04718656422183096,-1.3169426110237734
-0.007373068804419131,-0.043488339369247155,-1.3132352600427357
-0.007371278804419131,-0.03979011451666335,-1.3169426110237734
-0.0073694888044191316,-0.05088478907440971,-1.3169426110237734
-0.007367698804419131,-0.04718656422183096,-1.3169426110237734
-0.007365908804419131,-0.05088478907441475,-1.320649962004811
-0.007364118804419131,-0.05828123877958235,-1.320649962004811
-0.007362328804419131,-0.05088478907441307,-1.3206499620048093
-0.007360538804419131,-0.04718656422183096,-1.3169426110237734
-0.007358748804419131,-0.05088478907441475,-1.320649962004811
-0.007356958804419131,-0.05088478907441475,-1.3243573129858488
-0.007355168804419131,-0.05088478907441475,-1.320649962004811
-0.007353378804419131,-0.043488339369247155,-1.3243573129858488
-0.007351588804419131,-0.043488339369247155,-1.3243573129858488
-0.007349798804419131,-0.04718656422183096,-1.3169426110237734
-0.007348008804419131,-0.04718656422183096,-1.320649962004811
-0.007346218804419131,-0.04718656422183096,-1.320649962004811
-0.007344428804419131,-0.04718656422183096,-1.320649962004811
-0.007342638804419131,-0.04718656422183096,-1.3132352600427357
-0.007340848804419131,-0.054583013926998554,-1.320649962004811
-0.007339058804419131,-0.054583013926998554,-1.320649962004811
-0.007337268804419131,-0.054583013926998554,-1.3169426110237734
-0.0073354788044191314,-0.054583013926998554,-1.3169426110237734
-0.007333688804419131,-0.05088478907441475,-1.3169426110237734
-0.007331898804419131,-0.05088478907441475,-1.320649962004811
-0.007330108804419131,-0.05828123877958235,-1.3243573129858488
-0.0073283188044191315,-0.054583013926998554,-1.320649962004811
-0.007326528804419131,-0.04718656422183096,-1.320649962004811
-0.007324738804419131,-0.05088478907441475,-1.320649962004811
-0.007322948804419131,-0.05088478907441475,-1.3169426110237734
-0.0073211588044191315,-0.054583013926998554,-1.3169426110237734
-0.007319368804419131,-0.054583013926998554,-1.3243573129858488
-0.007317578804419131,-0.05828123877958235,-1.3243573129858488
-0.007315788804419131,-0.054583013926998554,-1.320649962004811
-0.0073139988044191315,-0.05828123877958235,-1.3169426110237734
-0.007312208804419131,-0.05828123877958235,-1.3169426110237734
-0.007310418804419131,-0.06197946363216615,-1.3169426110237734
-0.007308628804419131,-0.054583013926998554,-1.3169426110237734
-0.0073068388044191315,-0.054583013926998554,-1.3169426110237734
-0.007305048804419131,-0.054583013926998554,-1.3169426110237734
-0.007303258804419131,-0.054583013926998554,-1.320649962004811
-0.007301468804419131,-0.06197946363216615,-1.3169426110237734
-0.0072996788044191315,-0.05828123877958403,-1.3169426110237734
-0.007297888804419131,-0.05828123877958235,-1.320649962004811
-0.007296098804419131,-0.05828123877958235,-1.320649962004811
-0.007294308804419131,-0.05828123877958235,-1.3169426110237734
-0.007292518804419131,-0.06197946363216447,-1.3169426110237734
-0.007290728804419131,-0.05828123877958235,-1.3169426110237734
-0.007288938804419131,-0.054583013926998554,-1.320649962004811
-0.007287148804419131,-0.05828123877958235,-1.3243573129858488
-0.007285358804419131,-0.05458301392700192,-1.3206499620048093
-0.007283568804419131,-0.06197946363216615,-1.3169426110237734
-0.007281778804419131,-0.06197946363216615,-1.3169426110237734
-0.007279988804419131,-0.06197946363216615,-1.320649962004811
-0.007278198804419131,-0.06197946363216615,-1.3169426110237734
-0.007276408804419131,-0.06197946363216615,-1.3169426110237734
-0.007274618804419131,-0.06197946363216615,-1.320649962004811
-0.007272828804419131,-0.06197946363216615,-1.320649962004811
-0.007271038804419131,-0.06567768848474995,-1.320649962004811
-0.007269248804419131,-0.06567768848474995,-1.3132352600427357
-0.007267458804419131,-0.06567768848474995,-1.320649962004811
-0.007265668804419131,-0.06197946363216615,-1.320649962004811
-0.007263878804419131,-0.06567768848474995,-1.320649962004811
-0.007262088804419131,-0.06197946363216615,-1.320649962004811
-0.007260298804419131,-0.06567768848474995,-1.3169426110237734
-0.0072585088044191315,-0.06197946363216615,-1.3169426110237734
-0.007256718804419131,-0.06197946363216615,-1.3169426110237734
-0.007254928804419131,-0.05828123877958235,-1.320649962004811
-0.007253138804419131,-0.06197946363216615,-1.3132352600427357
-0.0072513488044191315,-0.05828123877958235,-1.3169426110237734
-0.007249558804419131,-0.06197946363216615,-1.3132352600427357
-0.007247768804419131,-0.06567768848474995,-1.3169426110237734
-0.007245978804419131,-0.06197946363216615,-1.3169426110237734
-0.0072441888044191315,-0.06937591333733376,-1.3132352600427357
-0.007242398804419131,-0.06567768848474995,-1.3132352600427357
-0.007240608804419131,-0.06197946363216615,-1.3169426110237734
-0.007238818804419131,-0.06567768848474995,-1.3243573129858488
-0.0072370288044191315,-0.06567768848474995,-1.320649962004811
-0.007235238804419131,-0.06567768848474995,-1.320649962004811
-0.007233448804419131,-0.06937591333733376,-1.320649962004811
-0.007231658804419131,-0.06567768848474995,-1.3169426110237734
-0.0072298688044191315,-0.06197946363216615,-1.3169426110237734
-0.007228078804419131,-0.07307413818991755,-1.320649962004811
-0.007226288804419131,-0.06567768848474995,-1.3243573129858488
-0.007224498804419131,-0.06937591333733376,-1.320649962004811
-0.0072227088044191316,-0.06937591333733376,-1.3169426110237752
-0.007220918804419131,-0.06567768848474995,-1.3169426110237734
-0.007219128804419131,-0.06567768848474995,-1.3169426110237734
-0.007217338804419131,-0.06197946363216615,-1.3169426110237734
-0.007215548804419131,-0.06197946363216952,-1.320649962004811
-0.007213758804419131,-0.06937591333733376,-1.320649962004811
-0.007211968804419131,-0.06937591333733376,-1.3169426110237734
-0.007210178804419131,-0.06937591333733376,-1.3169426110237734
-0.007208388804419131,-0.06937591333733376,-1.3169426110237734
-0.007206598804419131,-0.06567768848474995,-1.320649962004811
-0.007204808804419131,-0.06567768848474995,-1.320649962004811
-0.007203018804419131,-0.07307413818991755,-1.3132352600427357
-0.007201228804419131,-0.07307413818991755,-1.3132352600427357
-0.007199438804419131,-0.06937591333733376,-1.3132352600427357
-0.007197648804419131,-0.07307413818991755,-1.3132352600427357
-0.007195858804419131,-0.06937591333733376,-1.3132352600427357
-0.007194068804419131,-0.06197946363216615,-1.3132352600427357
-0.007192278804419131,-0.06567768848474995,-1.320649962004811
