100Hz/acq0079.csv

#Digilent WaveForms Oscilloscope Acquisition
#Device Name: Discovery2
#Serial Number: SN:210321AA28BE
#Date Time: 2023-05-24 14:48:32.529
#Sample rate: 558659Hz
#Samples: 8192
#Trigger: Source: Channel 1 Type: Edge Condition: Rising Level: 800 mV Hyst.: Auto HoldOff: 100 ns
#Channel 1: Range: 1 V/div Offset: 0 V Attenuation: 1 X Sample Mode: Average
#Channel 2: Range: 1 V/div Offset: 0 V Attenuation: 1 X Sample Mode: Average

Time (s),Channel 1 (V),Channel 2 (V)
-0.00774176602112409,0.01198503341950984,-1.3169426110237734
-0.00773997602112409,0.015683258272091955,-1.3206499620048093
-0.00773818602112409,0.00828680856692604,-1.3132352600427357
-0.00773639602112409,0.01198503341950984,-1.320649962004811
-0.00773460602112409,0.01198503341950984,-1.3169426110237734
-0.0077328160211240895,0.01198503341950984,-1.3169426110237752
-0.00773102602112409,0.01198503341950984,-1.320649962004811
-0.00772923602112409,0.01198503341950984,-1.3169426110237734
-0.00772744602112409,0.01198503341950984,-1.320649962004811
-0.0077256560211240895,0.00828680856692604,-1.3169426110237734
-0.00772386602112409,0.01198503341950984,-1.320649962004811
-0.00772207602112409,0.01198503341950984,-1.320649962004811
-0.00772028602112409,0.01198503341950984,-1.320649962004811
-0.0077184960211240895,0.01198503341950984,-1.320649962004811
-0.00771670602112409,0.01198503341950984,-1.3132352600427357
-0.00771491602112409,0.015683258272093638,-1.3169426110237734
-0.00771312602112409,0.01198503341950984,-1.320649962004811
-0.0077113360211240895,0.00828680856692604,-1.3169426110237734
-0.00770954602112409,0.00828680856692604,-1.3169426110237734
-0.00770775602112409,0.01198503341950984,-1.320649962004811
-0.00770596602112409,0.00458858371434224,-1.3169426110237734
-0.0077041760211240895,0.0008903588617584406,-1.3132352600427357
-0.00770238602112409,0.00458858371434224,-1.3169426110237734
-0.00770059602112409,0.00458858371434224,-1.320649962004811
-0.00769880602112409,0.00458858371434224,-1.320649962004811
-0.0076970160211240896,0.00458858371434224,-1.3169426110237734
-0.00769522602112409,0.00458858371434224,-1.3169426110237734
-0.00769343602112409,0.0008903588617584406,-1.309527909061698
-0.00769164602112409,0.00458858371434224,-1.3169426110237734
-0.00768985602112409,0.00458858371434224,-1.3169426110237734
-0.00768806602112409,0.00458858371434224,-1.3169426110237734
-0.00768627602112409,0.00458858371434224,-1.3169426110237734
-0.00768448602112409,0.0008903588617584406,-1.320649962004811
-0.00768269602112409,0.0008903588617584406,-1.320649962004811
-0.00768090602112409,0.0008903588617584406,-1.320649962004811
-0.00767911602112409,-0.002807865990825359,-1.320649962004811
-0.00767732602112409,0.0008903588617584406,-1.320649962004811
-0.00767553602112409,0.00828680856692604,-1.320649962004811
-0.00767374602112409,0.00458858371434224,-1.320649962004811
-0.00767195602112409,0.0008903588617584406,-1.3169426110237734
-0.00767016602112409,0.004588583714340558,-1.3169426110237734
-0.00766837602112409,0.0008903588617584406,-1.3169426110237734
-0.00766658602112409,-0.002807865990825359,-1.3243573129858488
-0.00766479602112409,0.00458858371434224,-1.320649962004811
-0.0076630060211240894,0.004588583714340558,-1.320649962004811
-0.00766121602112409,0.0008903588617584406,-1.320649962004811
-0.00765942602112409,0.0008903588617584406,-1.320649962004811
-0.00765763602112409,-0.0065060908434091584,-1.320649962004811
-0.0076558460211240895,-0.0028078659908270407,-1.3243573129858488
-0.00765405602112409,-0.0065060908434091584,-1.3243573129858488
-0.00765226602112409,-0.002807865990825359,-1.3243573129858488
-0.00765047602112409,0.0008903588617584406,-1.3169426110237734
-0.0076486860211240895,0.0008903588617584406,-1.3169426110237734
-0.00764689602112409,-0.0065060908434091584,-1.3169426110237734
-0.00764510602112409,-0.0065060908434091584,-1.320649962004811
-0.00764331602112409,-0.010204315695992958,-1.3243573129858488
-0.0076415260211240895,-0.002807865990825359,-1.320649962004811
-0.00763973602112409,-0.0065060908434091584,-1.3132352600427357
-0.00763794602112409,-0.010204315695992958,-1.320649962004811
-0.00763615602112409,-0.010204315695992958,-1.3169426110237734
-0.0076343660211240895,-0.010204315695992958,-1.320649962004811
-0.00763257602112409,-0.010204315695992958,-1.320649962004811
-0.00763078602112409,-0.002807865990825359,-1.320649962004811
-0.00762899602112409,-0.002807865990825359,-1.3243573129858488
-0.0076272060211240895,-0.0065060908434091584,-1.3243573129858488
-0.00762541602112409,-0.0065060908434091584,-1.3169426110237734
-0.00762362602112409,-0.010204315695992958,-1.3169426110237734
-0.00762183602112409,-0.010204315695992958,-1.320649962004811
-0.00762004602112409,-0.010204315695992958,-1.320649962004811
-0.00761825602112409,-0.013902540548576758,-1.320649962004811
-0.00761646602112409,-0.013902540548576758,-1.3169426110237734
-0.00761467602112409,-0.017600765401160557,-1.320649962004811
-0.00761288602112409,-0.0065060908434091584,-1.3169426110237734
-0.00761109602112409,-0.002807865990825359,-1.3169426110237734
-0.00760930602112409,-0.010204315695992958,-1.320649962004811
-0.00760751602112409,-0.013902540548576758,-1.320649962004811
-0.00760572602112409,-0.013902540548576758,-1.320649962004811
-0.00760393602112409,-0.013902540548576758,-1.320649962004811
-0.00760214602112409,-0.013902540548576758,-1.320649962004811
-0.00760035602112409,-0.010204315695992958,-1.320649962004811
-0.00759856602112409,-0.013902540548576758,-1.320649962004811
-0.00759677602112409,-0.013902540548576758,-1.320649962004811
-0.00759498602112409,-0.017600765401160557,-1.320649962004811
-0.00759319602112409,-0.017600765401160557,-1.3169426110237752
-0.00759140602112409,-0.017600765401160557,-1.320649962004811
-0.00758961602112409,-0.017600765401160557,-1.320649962004811
-0.00758782602112409,-0.010204315695992958,-1.320649962004811
-0.0075860360211240895,-0.017600765401158874,-1.3169426110237752
-0.00758424602112409,-0.013902540548576758,-1.320649962004811
-0.00758245602112409,-0.013902540548576758,-1.320649962004811
-0.00758066602112409,-0.017600765401160557,-1.320649962004811
-0.0075788760211240895,-0.017600765401160557,-1.320649962004811
-0.00757708602112409,-0.013902540548576758,-1.3169426110237734
-0.00757529602112409,-0.017600765401160557,-1.3169426110237734
-0.00757350602112409,-0.021298990253744356,-1.320649962004811
-0.0075717160211240895,-0.017600765401160557,-1.3169426110237734
-0.00756992602112409,-0.021298990253744356,-1.3169426110237734
-0.00756813602112409,-0.017600765401160557,-1.3169426110237734
-0.00756634602112409,-0.021298990253744356,-1.320649962004811
-0.0075645560211240895,-0.024997215106328158,-1.320649962004811
-0.00756276602112409,-0.017600765401160557,-1.320649962004811
-0.00756097602112409,-0.021298990253744356,-1.3169426110237734
-0.00755918602112409,-0.021298990253744356,-1.320649962004811
-0.0075573960211240895,-0.021298990253744356,-1.320649962004811
-0.00755560602112409,-0.021298990253744356,-1.320649962004811
-0.00755381602112409,-0.024997215106328158,-1.320649962004811
-0.00755202602112409,-0.017600765401160557,-1.3169426110237734
-0.0075502360211240896,-0.024997215106328158,-1.320649962004811
-0.00754844602112409,-0.017600765401160557,-1.3169426110237734
-0.00754665602112409,-0.021298990253744356,-1.3132352600427357
-0.00754486602112409,-0.024997215106328158,-1.320649962004811
-0.00754307602112409,-0.024997215106328158,-1.3169426110237734
-0.00754128602112409,-0.021298990253744356,-1.3169426110237734
-0.00753949602112409,-0.024997215106328158,-1.320649962004811
-0.00753770602112409,-0.028695439958911956,-1.3169426110237734
-0.00753591602112409,-0.028695439958911956,-1.320649962004811
-0.00753412602112409,-0.024997215106328158,-1.3169426110237734
-0.00753233602112409,-0.024997215106328158,-1.320649962004811
-0.00753054602112409,-0.024997215106328158,-1.3169426110237734
-0.00752875602112409,-0.028695439958911956,-1.3169426110237734
-0.00752696602112409,-0.028695439958911956,-1.3169426110237734
-0.00752517602112409,-0.028695439958911956,-1.3169426110237734
-0.00752338602112409,-0.02499721510632984,-1.3206499620048093
-0.00752159602112409,-0.024997215106328158,-1.3169426110237734
-0.00751980602112409,-0.024997215106328158,-1.3132352600427357
-0.00751801602112409,-0.028695439958911956,-1.3169426110237734
-0.00751622602112409,-0.028695439958911956,-1.3206499620048093
-0.00751443602112409,-0.028695439958911956,-1.320649962004811
-0.00751264602112409,-0.032393664811495755,-1.320649962004811
-0.00751085602112409,-0.028695439958911956,-1.320649962004811
-0.0075090660211240895,-0.024997215106328158,-1.3169426110237734
-0.00750727602112409,-0.024997215106328158,-1.3169426110237734
-0.00750548602112409,-0.032393664811495755,-1.320649962004811
-0.00750369602112409,-0.032393664811495755,-1.320649962004811
-0.0075019060211240895,-0.03979011451666335,-1.3243573129858488
-0.00750011602112409,-0.032393664811495755,-1.3243573129858488
-0.00749832602112409,-0.028695439958911956,-1.320649962004811
-0.00749653602112409,-0.032393664811495755,-1.3132352600427357
-0.0074947460211240895,-0.032393664811495755,-1.3169426110237734
-0.00749295602112409,-0.032393664811495755,-1.320649962004811
-0.00749116602112409,-0.03609188966407956,-1.3169426110237734
-0.00748937602112409,-0.032393664811495755,-1.3169426110237734
-0.0074875860211240895,-0.032393664811495755,-1.3169426110237734
-0.00748579602112409,-0.032393664811495755,-1.3169426110237734
-0.00748400602112409,-0.032393664811495755,-1.320649962004811
-0.00748221602112409,-0.032393664811495755,-1.3169426110237734
-0.0074804260211240895,-0.032393664811495755,-1.3169426110237734
-0.00747863602112409,-0.032393664811495755,-1.3169426110237734
-0.00747684602112409,-0.032393664811495755,-1.320649962004811
-0.00747505602112409,-0.032393664811495755,-1.3169426110237734
-0.00747326602112409,-0.032393664811495755,-1.320649962004811
-0.00747147602112409,-0.032393664811495755,-1.320649962004811
-0.00746968602112409,-0.032393664811495755,-1.3169426110237734
-0.00746789602112409,-0.032393664811495755,-1.320649962004811
-0.00746610602112409,-0.03979011451666335,-1.3169426110237734
-0.00746431602112409,-0.032393664811495755,-1.320649962004811
-0.00746252602112409,-0.03609188966407956,-1.3169426110237734
-0.00746073602112409,-0.028695439958911956,-1.320649962004811
-0.00745894602112409,-0.03609188966407956,-1.320649962004811
-0.00745715602112409,-0.03979011451666335,-1.320649962004811
-0.00745536602112409,-0.03979011451666335,-1.3169426110237734
-0.00745357602112409,-0.03979011451666335,-1.320649962004811
-0.00745178602112409,-0.03609188966407956,-1.3243573129858488
-0.00744999602112409,-0.03979011451666335,-1.3243573129858488
-0.00744820602112409,-0.03979011451666335,-1.3169426110237734
-0.00744641602112409,-0.043488339369245475,-1.3169426110237734
-0.00744462602112409,-0.03609188966407956,-1.3169426110237734
-0.00744283602112409,-0.043488339369247155,-1.3169426110237734
-0.00744104602112409,-0.043488339369247155,-1.3169426110237734
-0.0074392560211240895,-0.04348833936924379,-1.3169426110237716
-0.00743746602112409,-0.03609188966407956,-1.3132352600427357
-0.00743567602112409,-0.03979011451666335,-1.320649962004811
-0.00743388602112409,-0.043488339369247155,-1.3169426110237734
-0.0074320960211240895,-0.043488339369247155,-1.320649962004811
-0.00743030602112409,-0.043488339369247155,-1.320649962004811
-0.00742851602112409,-0.03979011451666335,-1.320649962004811
-0.00742672602112409,-0.043488339369247155,-1.3132352600427357
-0.0074249360211240895,-0.03979011451666335,-1.320649962004811
-0.00742314602112409,-0.043488339369247155,-1.320649962004811
-0.00742135602112409,-0.03979011451666335,-1.3169426110237734
-0.00741956602112409,-0.03609188966407956,-1.320649962004811
-0.0074177760211240895,-0.043488339369247155,-1.3169426110237734
-0.00741598602112409,-0.043488339369247155,-1.320649962004811
-0.00741419602112409,-0.04718656422183096,-1.320649962004811
-0.00741240602112409,-0.04718656422183096,-1.3169426110237734
-0.0074106160211240895,-0.043488339369247155,-1.320649962004811
-0.00740882602112409,-0.05088478907441475,-1.3169426110237734
-0.00740703602112409,-0.04718656422183096,-1.3169426110237734
-0.00740524602112409,-0.04718656422183096,-1.320649962004811
-0.0074034560211240896,-0.04718656422183096,-1.320649962004811
-0.00740166602112409,-0.043488339369247155,-1.3169426110237734
-0.00739987602112409,-0.043488339369247155,-1.320649962004811
-0.00739808602112409,-0.043488339369247155,-1.320649962004811
-0.00739629602112409,-0.043488339369247155,-1.320649962004811
-0.00739450602112409,-0.03979011451666335,-1.320649962004811
-0.00739271602112409,-0.04718656422183096,-1.3169426110237734
-0.00739092602112409,-0.043488339369247155,-1.3169426110237734
-0.00738913602112409,-0.03979011451666335,-1.320649962004811
-0.00738734602112409,-0.04718656422183096,-1.320649962004811
-0.00738555602112409,-0.05088478907441475,-1.3169426110237734
-0.00738376602112409,-0.04718656422183096,-1.320649962004811
-0.00738197602112409,-0.054583013926998554,-1.3169426110237734
-0.00738018602112409,-0.04718656422183096,-1.320649962004811
-0.00737839602112409,-0.05088478907441475,-1.3243573129858488
-0.00737660602112409,-0.04718656422183096,-1.3169426110237734
-0.00737481602112409,-0.054583013926998554,-1.320649962004811
-0.00737302602112409,-0.05088478907441475,-1.320649962004811
-0.00737123602112409,-0.05088478907441475,-1.320649962004811
-0.00736944602112409,-0.047186564221832636,-1.320649962004811
-0.00736765602112409,-0.04718656422183096,-1.320649962004811
-0.00736586602112409,-0.04718656422183096,-1.3169426110237734
-0.00736407602112409,-0.05088478907441475,-1.3169426110237734
-0.0073622860211240895,-0.04718656422183432,-1.3243573129858455
-0.00736049602112409,-0.054583013926998554,-1.3169426110237734
-0.00735870602112409,-0.054583013926998554,-1.3169426110237734
-0.00735691602112409,-0.054583013926998554,-1.320649962004811
-0.0073551260211240895,-0.05088478907441475,-1.3169426110237734
-0.00735333602112409,-0.05088478907441475,-1.320649962004811
-0.00735154602112409,-0.05088478907441475,-1.320649962004811
-0.00734975602112409,-0.04718656422183096,-1.3132352600427357
-0.0073479660211240895,-0.05088478907441475,-1.3169426110237734
-0.00734617602112409,-0.05088478907441475,-1.3132352600427357
-0.00734438602112409,-0.05088478907441475,-1.3169426110237734
-0.00734259602112409,-0.05088478907441475,-1.3169426110237734
-0.0073408060211240895,-0.04718656422183096,-1.3169426110237734
-0.00733901602112409,-0.04718656422183096,-1.320649962004811
-0.00733722602112409,-0.05088478907441475,-1.320649962004811
-0.00733543602112409,-0.04718656422183096,-1.320649962004811
-0.0073336460211240895,-0.04718656422183096,-1.320649962004811
-0.00733185602112409,-0.04718656422183096,-1.320649962004811
-0.00733006602112409,-0.05088478907441475,-1.320649962004811
-0.00732827602112409,-0.05088478907441475,-1.3169426110237734
-0.0073264860211240896,-0.054583013926998554,-1.3169426110237734
-0.00732469602112409,-0.04718656422183096,-1.3169426110237734
-0.00732290602112409,-0.04718656422183096,-1.320649962004811
-0.00732111602112409,-0.054583013926998554,-1.320649962004811
-0.00731932602112409,-0.054583013926998554,-1.320649962004811
-0.00731753602112409,-0.054583013926998554,-1.320649962004811
-0.00731574602112409,-0.054583013926998554,-1.3169426110237734
-0.00731395602112409,-0.054583013926998554,-1.3243573129858488
-0.00731216602112409,-0.054583013926998554,-1.320649962004811
-0.00731037602112409,-0.054583013926998554,-1.3169426110237734
-0.00730858602112409,-0.05828123877958235,-1.320649962004811
-0.00730679602112409,-0.054583013926998554,-1.3169426110237734
-0.00730500602112409,-0.05828123877958235,-1.3169426110237734
-0.00730321602112409,-0.05828123877958235,-1.3169426110237734
-0.00730142602112409,-0.06197946363216615,-1.3169426110237734
-0.00729963602112409,-0.05458301392700192,-1.3206499620048093
-0.00729784602112409,-0.06197946363216615,-1.320649962004811
-0.00729605602112409,-0.06197946363216615,-1.3169426110237734
-0.00729426602112409,-0.05828123877958235,-1.320649962004811
-0.0072924760211240894,-0.06197946363216615,-1.320649962004811
-0.00729068602112409,-0.06197946363216615,-1.320649962004811
-0.00728889602112409,-0.05828123877958235,-1.3169426110237734
-0.00728710602112409,-0.06197946363216615,-1.320649962004811
-0.0072853160211240895,-0.05828123877958235,-1.3206499620048093
-0.00728352602112409,-0.05828123877958235,-1.3169426110237734
-0.00728173602112409,-0.05828123877958235,-1.3243573129858488
-0.00727994602112409,-0.054583013926998554,-1.3243573129858488
-0.0072781560211240895,-0.05828123877958235,-1.320649962004811
-0.00727636602112409,-0.05828123877958235,-1.320649962004811
-0.00727457602112409,-0.06197946363216615,-1.320649962004811
-0.00727278602112409,-0.06567768848474995,-1.3169426110237734
-0.0072709960211240895,-0.06197946363216615,-1.320649962004811
-0.00726920602112409,-0.06197946363216615,-1.320649962004811
-0.00726741602112409,-0.06197946363216615,-1.320649962004811
-0.00726562602112409,-0.05828123877958235,-1.320649962004811
-0.0072638360211240895,-0.05828123877958235,-1.320649962004811
-0.00726204602112409,-0.054583013926998554,-1.320649962004811
-0.00726025602112409,-0.05828123877958235,-1.320649962004811
-0.00725846602112409,-0.06197946363216615,-1.3169426110237734
-0.0072566760211240896,-0.06197946363216615,-1.3169426110237734
-0.00725488602112409,-0.06197946363216615,-1.320649962004811
-0.00725309602112409,-0.06197946363216615,-1.320649962004811
-0.00725130602112409,-0.06197946363216615,-1.3169426110237734
-0.00724951602112409,-0.06567768848474995,-1.320649962004811
-0.00724772602112409,-0.06567768848474995,-1.320649962004811
-0.00724593602112409,-0.06197946363216615,-1.3169426110237734
-0.00724414602112409,-0.06567768848474995,-1.320649962004811
-0.00724235602112409,-0.06937591333733376,-1.3169426110237734
-0.00724056602112409,-0.06567768848474995,-1.3169426110237734
-0.00723877602112409,-0.06937591333733376,-1.3169426110237734
-0.00723698602112409,-0.06567768848474995,-1.320649962004811
-0.00723519602112409,-0.06937591333733376,-1.320649962004811
-0.00723340602112409,-0.06567768848474995,-1.3243573129858488
-0.00723161602112409,-0.06197946363216615,-1.3169426110237734
-0.00722982602112409,-0.06197946363216615,-1.320649962004811
-0.00722803602112409,-0.06197946363216615,-1.3169426110237734
-0.00722624602112409,-0.06567768848474995,-1.3169426110237734
-0.00722445602112409,-0.06567768848474995,-1.3243573129858488
-0.00722266602112409,-0.06197946363216783,-1.3206499620048129
-0.00722087602112409,-0.06567768848474995,-1.3169426110237734
-0.00721908602112409,-0.06197946363216615,-1.320649962004811
-0.00721729602112409,-0.06567768848474995,-1.3169426110237734
-0.0072155060211240895,-0.06567768848474995,-1.3169426110237752
-0.00721371602112409,-0.06567768848474995,-1.320649962004811
-0.00721192602112409,-0.05828123877958235,-1.320649962004811
-0.00721013602112409,-0.06567768848474995,-1.320649962004811
-0.0072083460211240895,-0.06937591333733376,-1.3169426110237734
-0.00720655602112409,-0.06937591333733376,-1.3169426110237734
-0.00720476602112409,-0.06567768848474995,-1.320649962004811
-0.00720297602112409,-0.06937591333733376,-1.3243573129858488
-0.0072011860211240895,-0.06567768848474995,-1.3243573129858488
-0.00719939602112409,-0.06567768848474995,-1.3169426110237734
-0.00719760602112409,-0.06937591333733376,-1.3169426110237734
-0.00719581602112409,-0.06937591333733376,-1.3169426110237734
-0.0071940260211240895,-0.07307413818991755,-1.3169426110237734
-0.00719223602112409,-0.06567768848474995,-1.3243573129858488
-0.00719044602112409,-0.06937591333733376,-1.3169426110237734
-0.00718865602112409,-0.06937591333733376,-1.3243573129858488
-0.0071868660211240895,-0.07307413818991755,-1.320649962004811
-0.00718507602112409,-0.06937591333733376,-1.320649962004811
-0.00718328602112409,-0.07307413818991755,-1.320649962004811
