100Hz/acq0009.csv

#Digilent WaveForms Oscilloscope Acquisition
#Device Name: Discovery2
#Serial Number: SN:210321AA28BE
#Date Time: 2023-05-24 14:48:30.491
#Sample rate: 558659Hz
#Samples: 8192
#Trigger: Source: Channel 1 Type: Edge Condition: Rising Level: 800 mV Hyst.: Auto HoldOff: 100 ns
#Channel 1: Range: 1 V/div Offset: 0 V Attenuation: 1 X Sample Mode: Average
#Channel 2: Range: 1 V/div Offset: 0 V Attenuation: 1 X Sample Mode: Average

Time (s),Channel 1 (V),Channel 2 (V)
-0.007741621407149229,0.07115663106085063,-1.3243573129858488
-0.007739831407149229,0.07115663106085063,-1.3206499620048129
-0.007738041407149229,0.06745840620826683,-1.3169426110237734
-0.007736251407149229,0.06745840620826683,-1.3169426110237734
-0.007734461407149229,0.06376018135568304,-1.3169426110237734
-0.007732671407149228,0.06376018135568472,-1.3169426110237752
-0.007730881407149229,0.06745840620826683,-1.320649962004811
-0.007729091407149229,0.06745840620826683,-1.320649962004811
-0.007727301407149229,0.06006195650309923,-1.3169426110237734
-0.007725511407149228,0.06376018135568304,-1.3169426110237734
-0.007723721407149229,0.06376018135568304,-1.320649962004811
-0.007721931407149229,0.06376018135568304,-1.3169426110237734
-0.007720141407149229,0.06376018135568304,-1.3169426110237734
-0.007718351407149228,0.06745840620826683,-1.3132352600427357
-0.007716561407149229,0.06745840620826683,-1.3169426110237734
-0.007714771407149229,0.06006195650309923,-1.3169426110237734
-0.007712981407149229,0.06006195650309923,-1.3132352600427357
-0.0077111914071492284,0.06006195650309923,-1.3169426110237734
-0.007709401407149229,0.06745840620826683,-1.320649962004811
-0.007707611407149229,0.06376018135568304,-1.320649962004811
-0.007705821407149229,0.06006195650309923,-1.3169426110237734
-0.0077040314071492285,0.06006195650309923,-1.3243573129858488
-0.007702241407149229,0.06006195650309923,-1.3169426110237734
-0.007700451407149229,0.06006195650309923,-1.3169426110237734
-0.007698661407149229,0.06006195650309923,-1.3169426110237734
-0.0076968714071492285,0.06006195650309923,-1.320649962004811
-0.007695081407149229,0.06006195650309923,-1.3169426110237734
-0.007693291407149229,0.06006195650309923,-1.3132352600427357
-0.007691501407149229,0.06006195650309923,-1.3132352600427357
-0.0076897114071492285,0.06006195650309923,-1.3169426110237734
-0.007687921407149229,0.05636373165051543,-1.320649962004811
-0.007686131407149229,0.05636373165051543,-1.3169426110237734
-0.007684341407149229,0.05636373165051543,-1.3132352600427357
-0.0076825514071492285,0.05636373165051543,-1.3169426110237734
-0.007680761407149229,0.06376018135568304,-1.320649962004811
-0.007678971407149229,0.05636373165051543,-1.3243573129858488
-0.007677181407149229,0.05636373165051543,-1.3169426110237734
-0.0076753914071492286,0.05636373165051543,-1.3169426110237734
-0.007673601407149229,0.05636373165051543,-1.320649962004811
-0.007671811407149229,0.05636373165051543,-1.3169426110237734
-0.007670021407149229,0.05266550679793331,-1.3206499620048093
-0.007668231407149229,0.05636373165051543,-1.3169426110237734
-0.007666441407149229,0.05636373165051543,-1.3169426110237734
-0.007664651407149229,0.05266550679793163,-1.3169426110237734
-0.007662861407149228,0.048967281945349515,-1.3169426110237752
-0.007661071407149229,0.05266550679793163,-1.320649962004811
-0.007659281407149229,0.05266550679793163,-1.3169426110237734
-0.007657491407149229,0.05266550679793163,-1.320649962004811
-0.007655701407149228,0.0489672819453512,-1.3169426110237734
-0.007653911407149229,0.05636373165051543,-1.3169426110237734
-0.007652121407149229,0.05636373165051543,-1.3169426110237734
-0.007650331407149229,0.05636373165051543,-1.3169426110237734
-0.007648541407149228,0.048967281945347836,-1.3169426110237734
-0.007646751407149229,0.048967281945347836,-1.320649962004811
-0.007644961407149229,0.048967281945347836,-1.320649962004811
-0.007643171407149229,0.048967281945347836,-1.3169426110237734
-0.0076413814071492284,0.048967281945347836,-1.320649962004811
-0.007639591407149229,0.048967281945347836,-1.320649962004811
-0.007637801407149229,0.048967281945347836,-1.3169426110237734
-0.007636011407149229,0.04157083224018024,-1.320649962004811
-0.0076342214071492285,0.05266550679793163,-1.320649962004811
-0.007632431407149229,0.048967281945347836,-1.320649962004811
-0.007630641407149229,0.045269057092764034,-1.320649962004811
-0.007628851407149229,0.045269057092764034,-1.3169426110237734
-0.0076270614071492285,0.048967281945347836,-1.3169426110237734
-0.007625271407149229,0.045269057092764034,-1.3169426110237734
-0.007623481407149229,0.045269057092764034,-1.3169426110237734
-0.007621691407149229,0.045269057092764034,-1.320649962004811
-0.0076199014071492285,0.04157083224018024,-1.309527909061698
-0.007618111407149229,0.04157083224018024,-1.3169426110237734
-0.007616321407149229,0.04157083224018024,-1.3243573129858488
-0.007614531407149229,0.03787260738759644,-1.320649962004811
-0.0076127414071492285,0.045269057092764034,-1.320649962004811
-0.007610951407149229,0.045269057092764034,-1.3169426110237734
-0.007609161407149229,0.045269057092764034,-1.320649962004811
-0.007607371407149229,0.045269057092764034,-1.320649962004811
-0.0076055814071492285,0.04157083224018024,-1.320649962004811
-0.007603791407149229,0.04157083224018024,-1.3132352600427357
-0.007602001407149229,0.045269057092764034,-1.320649962004811
-0.007600211407149229,0.045269057092764034,-1.3169426110237734
-0.0075984214071492286,0.03787260738759644,-1.3169426110237734
-0.007596631407149229,0.04157083224018024,-1.3169426110237734
-0.007594841407149229,0.04157083224018024,-1.320649962004811
-0.007593051407149229,0.04157083224018024,-1.320649962004811
-0.007591261407149229,0.034174382535012635,-1.320649962004811
-0.007589471407149229,0.03787260738759644,-1.320649962004811
-0.007587681407149229,0.04157083224018024,-1.320649962004811
-0.007585891407149228,0.034174382535014314,-1.3169426110237734
-0.007584101407149229,0.03787260738759644,-1.3169426110237734
-0.007582311407149229,0.03787260738759644,-1.3169426110237734
-0.007580521407149229,0.03787260738759644,-1.320649962004811
-0.007578731407149228,0.03787260738759644,-1.320649962004811
-0.007576941407149229,0.03787260738759644,-1.320649962004811
-0.007575151407149229,0.034174382535012635,-1.320649962004811
-0.007573361407149229,0.04157083224018024,-1.3243573129858488
-0.007571571407149228,0.034174382535012635,-1.3132352600427357
-0.007569781407149229,0.04157083224018024,-1.3169426110237734
-0.007567991407149229,0.03787260738759644,-1.320649962004811
-0.007566201407149229,0.04157083224018024,-1.3169426110237734
-0.0075644114071492284,0.03787260738759644,-1.3132352600427357
-0.007562621407149229,0.034174382535012635,-1.3169426110237734
-0.007560831407149229,0.034174382535012635,-1.3169426110237734
-0.007559041407149229,0.034174382535012635,-1.320649962004811
-0.0075572514071492285,0.03787260738759644,-1.320649962004811
-0.007555461407149229,0.03787260738759644,-1.3132352600427357
-0.007553671407149229,0.03047615768242884,-1.3132352600427357
-0.007551881407149229,0.03047615768242884,-1.3169426110237734
-0.0075500914071492285,0.03047615768242884,-1.3169426110237734
-0.007548301407149229,0.03047615768242884,-1.3169426110237734
-0.007546511407149229,0.034174382535012635,-1.3169426110237734
-0.007544721407149229,0.03047615768242884,-1.3169426110237734
-0.0075429314071492285,0.034174382535012635,-1.3169426110237734
-0.007541141407149229,0.034174382535012635,-1.3169426110237734
-0.007539351407149229,0.03047615768242884,-1.3169426110237734
-0.007537561407149229,0.034174382535012635,-1.320649962004811
-0.0075357714071492285,0.026777932829845037,-1.3169426110237734
-0.007533981407149229,0.03047615768242884,-1.3132352600427357
-0.007532191407149229,0.034174382535012635,-1.3169426110237734
-0.007530401407149229,0.026777932829845037,-1.3169426110237734
-0.0075286114071492286,0.03047615768242884,-1.3132352600427357
-0.007526821407149229,0.03047615768242884,-1.3169426110237734
-0.007525031407149229,0.026777932829845037,-1.3132352600427357
-0.007523241407149229,0.026777932829845037,-1.3169426110237716
-0.007521451407149229,0.02307970797726124,-1.3169426110237734
-0.007519661407149229,0.026777932829845037,-1.3169426110237734
-0.007517871407149229,0.03047615768242884,-1.3169426110237734
-0.007516081407149229,0.02677793282984672,-1.3169426110237734
-0.007514291407149229,0.03047615768242884,-1.3169426110237734
-0.007512501407149229,0.026777932829845037,-1.3169426110237734
-0.007510711407149229,0.03047615768242884,-1.3243573129858488
-0.007508921407149228,0.026777932829845037,-1.3169426110237734
-0.007507131407149229,0.026777932829845037,-1.3169426110237734
-0.007505341407149229,0.026777932829845037,-1.3169426110237734
-0.007503551407149229,0.026777932829845037,-1.3132352600427357
-0.007501761407149228,0.026777932829845037,-1.320649962004811
-0.007499971407149229,0.02307970797726124,-1.3169426110237734
-0.007498181407149229,0.01938148312467744,-1.320649962004811
-0.007496391407149229,0.02307970797726124,-1.3169426110237734
-0.0074946014071492284,0.03047615768242884,-1.3169426110237734
-0.007492811407149229,0.026777932829845037,-1.320649962004811
-0.007491021407149229,0.02307970797726124,-1.3169426110237734
-0.007489231407149229,0.026777932829845037,-1.3169426110237734
-0.0074874414071492285,0.02307970797726124,-1.320649962004811
-0.007485651407149229,0.026777932829845037,-1.3132352600427357
-0.007483861407149229,0.01938148312467744,-1.3169426110237734
-0.007482071407149229,0.026777932829845037,-1.320649962004811
-0.0074802814071492285,0.02307970797726124,-1.3169426110237734
-0.007478491407149229,0.02307970797726124,-1.320649962004811
-0.007476701407149229,0.02307970797726124,-1.320649962004811
-0.007474911407149229,0.02307970797726124,-1.320649962004811
-0.0074731214071492285,0.02307970797726124,-1.3243573129858488
-0.007471331407149229,0.02307970797726124,-1.320649962004811
-0.007469541407149229,0.01938148312467744,-1.3169426110237734
-0.007467751407149229,0.015683258272093638,-1.320649962004811
-0.0074659614071492285,0.015683258272093638,-1.320649962004811
-0.007464171407149229,0.02307970797726124,-1.3169426110237734
-0.007462381407149229,0.026777932829845037,-1.320649962004811
-0.007460591407149229,0.02307970797726124,-1.3169426110237734
-0.0074588014071492285,0.02307970797726124,-1.3169426110237734
-0.007457011407149229,0.015683258272093638,-1.3169426110237734
-0.007455221407149229,0.015683258272093638,-1.3169426110237734
-0.007453431407149229,0.015683258272093638,-1.3169426110237734
-0.0074516414071492286,0.01198503341950984,-1.3132352600427357
-0.007449851407149229,0.015683258272093638,-1.3169426110237734
-0.007448061407149229,0.015683258272093638,-1.3169426110237734
-0.007446271407149229,0.015683258272093638,-1.3169426110237734
-0.007444481407149229,0.015683258272093638,-1.3169426110237734
-0.007442691407149229,0.015683258272093638,-1.320649962004811
-0.007440901407149229,0.01938148312467744,-1.3243573129858488
-0.007439111407149228,0.015683258272093638,-1.320649962004811
-0.007437321407149229,0.015683258272093638,-1.320649962004811
-0.007435531407149229,0.015683258272093638,-1.320649962004811
-0.007433741407149229,0.01938148312467744,-1.3169426110237734
-0.007431951407149228,0.015683258272093638,-1.3243573129858488
-0.007430161407149229,0.015683258272093638,-1.320649962004811
-0.007428371407149229,0.015683258272093638,-1.3169426110237734
-0.007426581407149229,0.015683258272093638,-1.3169426110237734
-0.007424791407149228,0.015683258272093638,-1.3169426110237734
-0.007423001407149229,0.01198503341950984,-1.320649962004811
-0.007421211407149229,0.015683258272093638,-1.3169426110237734
-0.007419421407149229,0.015683258272093638,-1.320649962004811
-0.0074176314071492284,0.015683258272093638,-1.3243573129858488
-0.007415841407149229,0.015683258272093638,-1.320649962004811
-0.007414051407149229,0.01938148312467744,-1.320649962004811
-0.007412261407149229,0.015683258272093638,-1.3169426110237734
-0.0074104714071492285,0.00828680856692604,-1.3132352600427357
-0.007408681407149229,0.00828680856692604,-1.3169426110237734
-0.007406891407149229,0.015683258272093638,-1.320649962004811
-0.007405101407149229,0.01198503341950984,-1.320649962004811
-0.0074033114071492285,0.01198503341950984,-1.3169426110237734
-0.007401521407149229,0.00458858371434224,-1.3169426110237734
-0.007399731407149229,0.00828680856692604,-1.3169426110237734
-0.007397941407149229,0.00828680856692604,-1.320649962004811
-0.0073961514071492285,0.015683258272093638,-1.320649962004811
-0.007394361407149229,0.00828680856692604,-1.3169426110237734
-0.007392571407149229,0.015683258272093638,-1.3132352600427357
-0.007390781407149229,0.00828680856692604,-1.3169426110237734
-0.0073889914071492285,0.015683258272093638,-1.3132352600427357
-0.007387201407149229,0.01198503341950984,-1.3169426110237734
-0.007385411407149229,0.01198503341950984,-1.3169426110237734
-0.007383621407149229,0.015683258272093638,-1.3169426110237734
-0.0073818314071492286,0.015683258272093638,-1.3169426110237734
-0.007380041407149229,0.00828680856692604,-1.320649962004811
-0.007378251407149229,0.01198503341950984,-1.3243573129858488
-0.007376461407149229,0.00828680856692604,-1.3243573129858488
-0.007374671407149229,0.00458858371434224,-1.320649962004811
-0.007372881407149229,0.00458858371434224,-1.320649962004811
-0.007371091407149229,0.00458858371434224,-1.3169426110237734
-0.007369301407149229,0.00458858371434224,-1.3169426110237734
-0.007367511407149229,0.00828680856692604,-1.320649962004811
-0.007365721407149229,0.00458858371434224,-1.3169426110237734
-0.007363931407149229,0.00828680856692604,-1.320649962004811
-0.007362141407149228,0.00828680856692604,-1.3169426110237734
-0.007360351407149229,0.00828680856692604,-1.3169426110237734
-0.007358561407149229,0.00828680856692604,-1.3169426110237734
-0.007356771407149229,0.00458858371434224,-1.320649962004811
-0.007354981407149228,0.00458858371434224,-1.3169426110237734
-0.007353191407149229,0.0008903588617584406,-1.3169426110237734
-0.007351401407149229,0.00828680856692604,-1.3169426110237734
-0.007349611407149229,0.00828680856692604,-1.3169426110237734
-0.0073478214071492284,0.00458858371434224,-1.3132352600427357
-0.007346031407149229,0.00458858371434224,-1.3169426110237734
-0.007344241407149229,0.0008903588617584406,-1.320649962004811
-0.007342451407149229,0.00828680856692604,-1.3169426110237734
-0.0073406614071492285,0.00458858371434224,-1.3169426110237734
-0.007338871407149229,0.00458858371434224,-1.3169426110237734
-0.007337081407149229,0.00828680856692604,-1.320649962004811
-0.007335291407149229,-0.002807865990825359,-1.3243573129858488
-0.0073335014071492285,0.00458858371434224,-1.320649962004811
-0.007331711407149229,0.00828680856692604,-1.3243573129858488
-0.007329921407149229,0.00828680856692604,-1.320649962004811
-0.007328131407149229,0.00828680856692604,-1.320649962004811
-0.0073263414071492285,0.0008903588617584406,-1.3169426110237734
-0.007324551407149229,0.00458858371434224,-1.3169426110237734
-0.007322761407149229,0.0008903588617584406,-1.3169426110237734
-0.007320971407149229,-0.002807865990825359,-1.320649962004811
-0.0073191814071492285,-0.002807865990825359,-1.320649962004811
-0.007317391407149229,-0.002807865990825359,-1.3169426110237734
-0.007315601407149229,0.0008903588617584406,-1.320649962004811
-0.007313811407149229,0.0008903588617584406,-1.320649962004811
-0.0073120214071492285,0.00458858371434224,-1.3243573129858488
-0.007310231407149229,0.00458858371434224,-1.320649962004811
-0.007308441407149229,0.0008903588617584406,-1.320649962004811
-0.007306651407149229,0.0008903588617584406,-1.3169426110237734
-0.0073048614071492286,0.00828680856692604,-1.3132352600427357
-0.007303071407149229,0.0008903588617584406,-1.3169426110237734
-0.007301281407149229,-0.002807865990825359,-1.3132352600427357
-0.007299491407149229,0.0008903588617567588,-1.3169426110237716
-0.007297701407149229,-0.002807865990825359,-1.3169426110237734
-0.007295911407149229,-0.0065060908434091584,-1.3169426110237734
-0.007294121407149229,-0.002807865990825359,-1.3169426110237734
-0.007292331407149228,-0.010204315695989594,-1.3169426110237734
-0.007290541407149229,-0.002807865990825359,-1.3169426110237734
-0.007288751407149229,0.00458858371434224,-1.3169426110237734
-0.007286961407149229,-0.002807865990825359,-1.3169426110237734
-0.007285171407149228,0.0008903588617567589,-1.3169426110237716
-0.007283381407149229,-0.002807865990825359,-1.3132352600427357
-0.007281591407149229,-0.002807865990825359,-1.3169426110237734
-0.007279801407149229,-0.002807865990825359,-1.3169426110237734
-0.007278011407149228,0.0008903588617584406,-1.3169426110237734
-0.007276221407149229,-0.002807865990825359,-1.3169426110237734
-0.007274431407149229,-0.0065060908434091584,-1.320649962004811
-0.007272641407149229,-0.002807865990825359,-1.3169426110237734
-0.0072708514071492284,-0.002807865990825359,-1.3169426110237734
-0.007269061407149229,-0.0065060908434091584,-1.320649962004811
-0.007267271407149229,-0.002807865990825359,-1.3169426110237734
-0.007265481407149229,-0.002807865990825359,-1.3169426110237734
-0.0072636914071492285,-0.002807865990825359,-1.3169426110237734
-0.007261901407149229,-0.0065060908434091584,-1.320649962004811
-0.007260111407149229,0.0008903588617584406,-1.3169426110237734
-0.007258321407149229,-0.002807865990825359,-1.3132352600427357
-0.0072565314071492285,-0.0065060908434091584,-1.3169426110237734
-0.007254741407149229,-0.002807865990825359,-1.3169426110237734
-0.007252951407149229,-0.002807865990825359,-1.3169426110237734
-0.007251161407149229,0.0008903588617584406,-1.3169426110237734
-0.0072493714071492285,-0.0065060908434091584,-1.3243573129858488
-0.007247581407149229,-0.002807865990825359,-1.3169426110237734
-0.007245791407149229,-0.0065060908434091584,-1.3132352600427357
-0.007244001407149229,-0.0065060908434091584,-1.320649962004811
-0.0072422114071492285,-0.0065060908434091584,-1.320649962004811
-0.007240421407149229,-0.0065060908434091584,-1.3169426110237734
-0.007238631407149229,-0.002807865990825359,-1.3169426110237734
-0.007236841407149229,-0.0065060908434091584,-1.3169426110237734
-0.0072350514071492286,-0.0065060908434091584,-1.3169426110237734
-0.007233261407149229,-0.010204315695992958,-1.3169426110237734
-0.007231471407149229,-0.0065060908434091584,-1.3169426110237734
-0.007229681407149229,-0.010204315695992958,-1.3169426110237734
-0.007227891407149229,-0.010204315695992958,-1.3169426110237734
-0.007226101407149229,-0.0065060908434091584,-1.3169426110237734
-0.007224311407149229,-0.0065060908434091584,-1.320649962004811
-0.007222521407149229,-0.010204315695991277,-1.320649962004811
-0.007220731407149229,-0.013902540548576758,-1.3169426110237734
-0.007218941407149229,-0.010204315695992958,-1.3169426110237734
-0.007217151407149229,-0.0065060908434091584,-1.320649962004811
-0.007215361407149228,-0.010204315695992958,-1.3169426110237752
-0.007213571407149229,-0.010204315695992958,-1.320649962004811
-0.007211781407149229,-0.010204315695992958,-1.3243573129858488
-0.007209991407149229,-0.010204315695992958,-1.320649962004811
-0.007208201407149228,-0.0065060908434091584,-1.320649962004811
-0.007206411407149229,-0.010204315695992958,-1.320649962004811
-0.007204621407149229,-0.010204315695992958,-1.3169426110237734
-0.007202831407149229,-0.017600765401160557,-1.309527909061698
-0.007201041407149228,-0.010204315695992958,-1.3132352600427357
-0.007199251407149229,-0.017600765401160557,-1.3169426110237734
-0.007197461407149229,-0.013902540548576758,-1.3132352600427357
-0.007195671407149229,-0.013902540548576758,-1.3169426110237734
-0.0071938814071492285,-0.013902540548576758,-1.3132352600427357
-0.007192091407149229,-0.010204315695992958,-1.3132352600427357
-0.007190301407149229,-0.013902540548576758,-1.3169426110237734
-0.007188511407149229,-0.017600765401160557,-1.3169426110237734
-0.0071867214071492285,-0.010204315695992958,-1.3169426110237734
