100Hz/acq0097.csv

#Digilent WaveForms Oscilloscope Acquisition
#Device Name: Discovery2
#Serial Number: SN:210321AA28BE
#Date Time: 2023-05-24 14:48:33.045
#Sample rate: 558659Hz
#Samples: 8192
#Trigger: Source: Channel 1 Type: Edge Condition: Rising Level: 800 mV Hyst.: Auto HoldOff: 100 ns
#Channel 1: Range: 1 V/div Offset: 0 V Attenuation: 1 X Sample Mode: Average
#Channel 2: Range: 1 V/div Offset: 0 V Attenuation: 1 X Sample Mode: Average

Time (s),Channel 1 (V),Channel 2 (V)
-0.007741802830657192,0.01938148312467744,-1.320649962004811
-0.0077400128306571924,0.023079707977259556,-1.320649962004811
-0.007738222830657192,0.01938148312467744,-1.320649962004811
-0.007736432830657192,0.02307970797726124,-1.320649962004811
-0.007734642830657192,0.01938148312467744,-1.3169426110237734
-0.007732852830657192,0.01568325827209532,-1.313235260042739
-0.007731062830657192,0.01938148312467744,-1.320649962004811
-0.007729272830657192,0.01198503341950984,-1.3132352600427357
-0.007727482830657192,0.015683258272093638,-1.320649962004811
-0.007725692830657192,0.015683258272093638,-1.320649962004811
-0.007723902830657192,0.015683258272093638,-1.3169426110237734
-0.007722112830657192,0.015683258272093638,-1.320649962004811
-0.007720322830657192,0.015683258272093638,-1.320649962004811
-0.007718532830657192,0.015683258272093638,-1.3169426110237734
-0.007716742830657192,0.01938148312467744,-1.320649962004811
-0.007714952830657192,0.015683258272093638,-1.3169426110237734
-0.007713162830657192,0.01198503341950984,-1.320649962004811
-0.007711372830657192,0.01938148312467744,-1.320649962004811
-0.007709582830657192,0.00828680856692604,-1.320649962004811
-0.007707792830657192,0.01198503341950984,-1.320649962004811
-0.007706002830657192,0.00828680856692604,-1.3169426110237734
-0.007704212830657192,0.01198503341950984,-1.3169426110237734
-0.007702422830657192,0.015683258272093638,-1.3169426110237734
-0.007700632830657192,0.01938148312467744,-1.3169426110237734
-0.007698842830657192,0.01198503341950984,-1.320649962004811
-0.007697052830657192,0.00828680856692604,-1.320649962004811
-0.007695262830657192,0.015683258272093638,-1.3243573129858488
-0.007693472830657192,0.01198503341950984,-1.3243573129858488
-0.007691682830657192,0.015683258272093638,-1.3243573129858488
-0.007689892830657192,0.01198503341950984,-1.320649962004811
-0.007688102830657192,0.01198503341950984,-1.3169426110237734
-0.007686312830657192,0.01198503341950984,-1.320649962004811
-0.007684522830657192,0.01198503341950984,-1.320649962004811
-0.007682732830657192,0.01198503341950984,-1.3169426110237734
-0.007680942830657192,0.01198503341950984,-1.320649962004811
-0.007679152830657192,0.00828680856692604,-1.320649962004811
-0.007677362830657192,0.01198503341950984,-1.3243573129858488
-0.007675572830657192,0.00828680856692604,-1.320649962004811
-0.007673782830657192,0.00458858371434224,-1.3243573129858488
-0.007671992830657192,0.00828680856692604,-1.320649962004811
-0.007670202830657192,0.004588583714343922,-1.324357312985847
-0.007668412830657192,0.00458858371434224,-1.3169426110237734
-0.007666622830657192,0.00458858371434224,-1.320649962004811
-0.007664832830657192,0.00458858371434224,-1.320649962004811
-0.007663042830657192,0.00458858371434224,-1.3206499620048093
-0.007661252830657192,0.00458858371434224,-1.3169426110237734
-0.007659462830657192,0.00458858371434224,-1.320649962004811
-0.007657672830657192,0.00458858371434224,-1.3169426110237734
-0.007655882830657192,0.00458858371434224,-1.320649962004811
-0.007654092830657192,0.00458858371434224,-1.320649962004811
-0.007652302830657192,0.0008903588617584406,-1.3243573129858488
-0.007650512830657192,0.0008903588617584406,-1.320649962004811
-0.007648722830657192,0.0008903588617584406,-1.320649962004811
-0.007646932830657192,0.00828680856692604,-1.320649962004811
-0.007645142830657192,0.0008903588617584406,-1.3169426110237734
-0.007643352830657192,0.0008903588617584406,-1.320649962004811
-0.007641562830657192,0.00458858371434224,-1.3243573129858488
-0.007639772830657192,0.0008903588617584406,-1.3169426110237734
-0.007637982830657192,0.0008903588617584406,-1.3132352600427357
-0.007636192830657192,0.0008903588617584406,-1.3169426110237734
-0.007634402830657192,0.0008903588617584406,-1.320649962004811
-0.007632612830657192,0.0008903588617584406,-1.320649962004811
-0.007630822830657192,-0.002807865990825359,-1.3169426110237734
-0.007629032830657192,0.0008903588617584406,-1.320649962004811
-0.007627242830657192,0.0008903588617584406,-1.3169426110237734
-0.007625452830657192,0.00458858371434224,-1.320649962004811
-0.007623662830657192,0.0008903588617584406,-1.3132352600427357
-0.007621872830657192,0.00458858371434224,-1.3169426110237734
-0.007620082830657192,0.0008903588617584406,-1.320649962004811
-0.007618292830657192,0.00458858371434224,-1.3132352600427357
-0.007616502830657192,0.00458858371434224,-1.320649962004811
-0.007614712830657192,0.00458858371434224,-1.320649962004811
-0.007612922830657192,0.0008903588617584406,-1.3280646639668865
-0.007611132830657192,0.0008903588617584406,-1.320649962004811
-0.007609342830657192,-0.002807865990825359,-1.3169426110237734
-0.007607552830657192,0.0008903588617584406,-1.3169426110237734
-0.007605762830657192,0.00458858371434224,-1.3169426110237734
-0.007603972830657192,0.0008903588617584406,-1.3169426110237734
-0.007602182830657192,0.0008903588617584406,-1.320649962004811
-0.007600392830657192,-0.0065060908434091584,-1.3169426110237734
-0.007598602830657192,-0.0065060908434091584,-1.320649962004811
-0.007596812830657192,-0.0065060908434091584,-1.3132352600427357
-0.007595022830657192,-0.010204315695992958,-1.320649962004811
-0.0075932328306571924,-0.010204315695992958,-1.320649962004811
-0.007591442830657192,-0.010204315695992958,-1.3169426110237734
-0.007589652830657192,-0.0065060908434091584,-1.320649962004811
-0.007587862830657192,-0.0065060908434091584,-1.320649962004811
-0.007586072830657192,-0.00650609084341084,-1.3169426110237734
-0.007584282830657192,-0.010204315695992958,-1.3169426110237734
-0.007582492830657192,-0.002807865990825359,-1.320649962004811
-0.007580702830657192,-0.002807865990825359,-1.3169426110237734
-0.007578912830657192,-0.010204315695992958,-1.320649962004811
-0.007577122830657192,-0.0065060908434091584,-1.320649962004811
-0.007575332830657192,-0.0065060908434091584,-1.3243573129858488
-0.007573542830657192,-0.010204315695992958,-1.320649962004811
-0.007571752830657192,-0.002807865990825359,-1.320649962004811
-0.007569962830657192,-0.010204315695992958,-1.320649962004811
-0.007568172830657192,-0.0065060908434091584,-1.3169426110237734
-0.007566382830657192,-0.010204315695992958,-1.320649962004811
-0.007564592830657192,-0.010204315695992958,-1.3132352600427357
-0.007562802830657192,-0.0065060908434091584,-1.3169426110237734
-0.007561012830657192,-0.010204315695992958,-1.3169426110237734
-0.007559222830657192,-0.010204315695992958,-1.3169426110237734
-0.007557432830657192,-0.0065060908434091584,-1.3169426110237734
-0.007555642830657192,-0.010204315695992958,-1.3169426110237734
-0.007553852830657192,-0.010204315695992958,-1.3169426110237734
-0.007552062830657192,-0.013902540548576758,-1.3169426110237734
-0.007550272830657192,-0.010204315695992958,-1.3243573129858488
-0.007548482830657192,-0.010204315695992958,-1.320649962004811
-0.007546692830657192,-0.002807865990825359,-1.3169426110237734
-0.007544902830657192,-0.013902540548576758,-1.3169426110237734
-0.007543112830657192,-0.013902540548576758,-1.3169426110237734
-0.007541322830657192,-0.013902540548576758,-1.3169426110237734
-0.007539532830657192,-0.010204315695992958,-1.3169426110237734
-0.007537742830657192,-0.010204315695992958,-1.3169426110237734
-0.007535952830657192,-0.017600765401160557,-1.3169426110237734
-0.007534162830657192,-0.010204315695992958,-1.3169426110237734
-0.007532372830657192,-0.013902540548576758,-1.320649962004811
-0.007530582830657192,-0.013902540548576758,-1.3132352600427357
-0.007528792830657192,-0.013902540548576758,-1.3169426110237734
-0.007527002830657192,-0.017600765401160557,-1.3169426110237734
-0.007525212830657192,-0.017600765401160557,-1.3132352600427357
-0.007523422830657192,-0.017600765401160557,-1.3169426110237716
-0.007521632830657192,-0.017600765401160557,-1.3169426110237734
-0.007519842830657192,-0.013902540548576758,-1.3169426110237734
-0.007518052830657192,-0.013902540548576758,-1.3169426110237734
-0.0075162628306571925,-0.010204315695994639,-1.3169426110237734
-0.007514472830657192,-0.013902540548576758,-1.320649962004811
-0.007512682830657192,-0.010204315695992958,-1.3243573129858488
-0.007510892830657192,-0.013902540548576758,-1.320649962004811
-0.007509102830657192,-0.013902540548575077,-1.3206499620048093
-0.007507312830657192,-0.010204315695992958,-1.3169426110237734
-0.007505522830657192,-0.013902540548576758,-1.3169426110237734
-0.007503732830657192,-0.017600765401160557,-1.3169426110237734
-0.007501942830657192,-0.017600765401160557,-1.3169426110237734
-0.007500152830657192,-0.021298990253744356,-1.320649962004811
-0.007498362830657192,-0.017600765401160557,-1.3169426110237734
-0.007496572830657192,-0.017600765401160557,-1.3132352600427357
-0.007494782830657192,-0.017600765401160557,-1.3169426110237734
-0.007492992830657192,-0.017600765401160557,-1.320649962004811
-0.007491202830657192,-0.017600765401160557,-1.320649962004811
-0.007489412830657192,-0.017600765401160557,-1.3169426110237734
-0.007487622830657192,-0.013902540548576758,-1.3169426110237734
-0.007485832830657192,-0.021298990253744356,-1.3132352600427357
-0.007484042830657192,-0.017600765401160557,-1.3169426110237734
-0.007482252830657192,-0.024997215106328158,-1.3169426110237734
-0.007480462830657192,-0.021298990253744356,-1.3169426110237734
-0.007478672830657192,-0.017600765401160557,-1.3169426110237734
-0.007476882830657192,-0.017600765401160557,-1.3169426110237734
-0.007475092830657192,-0.021298990253744356,-1.320649962004811
-0.007473302830657192,-0.021298990253744356,-1.3169426110237734
-0.007471512830657192,-0.021298990253744356,-1.320649962004811
-0.007469722830657192,-0.021298990253744356,-1.3243573129858488
-0.007467932830657192,-0.021298990253744356,-1.3169426110237734
-0.007466142830657192,-0.021298990253744356,-1.3132352600427357
-0.007464352830657192,-0.017600765401160557,-1.3169426110237734
-0.007462562830657192,-0.021298990253744356,-1.320649962004811
-0.007460772830657192,-0.017600765401160557,-1.320649962004811
-0.007458982830657192,-0.021298990253744356,-1.3169426110237734
-0.007457192830657192,-0.021298990253744356,-1.3132352600427357
-0.007455402830657192,-0.021298990253744356,-1.3169426110237734
-0.007453612830657192,-0.024997215106328158,-1.3169426110237734
-0.007451822830657192,-0.021298990253744356,-1.320649962004811
-0.007450032830657192,-0.021298990253744356,-1.320649962004811
-0.007448242830657192,-0.024997215106328158,-1.320649962004811
-0.0074464528306571924,-0.02129899025374604,-1.320649962004811
-0.007444662830657192,-0.017600765401160557,-1.320649962004811
-0.007442872830657192,-0.024997215106328158,-1.3169426110237734
-0.007441082830657192,-0.024997215106328158,-1.3169426110237734
-0.007439292830657192,-0.028695439958911956,-1.320649962004811
-0.007437502830657192,-0.028695439958911956,-1.320649962004811
-0.007435712830657192,-0.024997215106328158,-1.3169426110237734
-0.007433922830657192,-0.024997215106328158,-1.3169426110237734
-0.007432132830657192,-0.024997215106328158,-1.3169426110237734
-0.007430342830657192,-0.024997215106328158,-1.3169426110237734
-0.007428552830657192,-0.024997215106328158,-1.3169426110237734
-0.007426762830657192,-0.021298990253744356,-1.3132352600427357
-0.007424972830657192,-0.021298990253744356,-1.320649962004811
-0.007423182830657192,-0.024997215106328158,-1.3169426110237734
-0.007421392830657192,-0.024997215106328158,-1.3169426110237734
-0.007419602830657192,-0.021298990253744356,-1.320649962004811
-0.007417812830657192,-0.028695439958911956,-1.3169426110237734
-0.007416022830657192,-0.024997215106328158,-1.3169426110237734
-0.007414232830657192,-0.021298990253744356,-1.3169426110237734
-0.007412442830657192,-0.021298990253744356,-1.320649962004811
-0.007410652830657192,-0.017600765401160557,-1.3169426110237734
-0.007408862830657192,-0.021298990253744356,-1.320649962004811
-0.007407072830657192,-0.028695439958911956,-1.3169426110237734
-0.007405282830657192,-0.024997215106328158,-1.320649962004811
-0.007403492830657192,-0.028695439958911956,-1.320649962004811
-0.007401702830657192,-0.024997215106328158,-1.3169426110237734
-0.007399912830657192,-0.024997215106328158,-1.320649962004811
-0.007398122830657192,-0.024997215106328158,-1.320649962004811
-0.007396332830657192,-0.028695439958911956,-1.3169426110237734
-0.007394542830657192,-0.028695439958911956,-1.320649962004811
-0.007392752830657192,-0.032393664811495755,-1.3169426110237734
-0.007390962830657192,-0.032393664811495755,-1.3132352600427357
-0.007389172830657192,-0.032393664811495755,-1.3169426110237734
-0.007387382830657192,-0.03609188966407956,-1.320649962004811
-0.007385592830657192,-0.032393664811495755,-1.320649962004811
-0.007383802830657192,-0.03609188966407956,-1.320649962004811
-0.007382012830657192,-0.032393664811495755,-1.3169426110237734
-0.007380222830657192,-0.028695439958911956,-1.3132352600427357
-0.007378432830657192,-0.024997215106328158,-1.320649962004811
-0.007376642830657192,-0.021298990253744356,-1.3169426110237734
-0.007374852830657192,-0.028695439958911956,-1.3169426110237734
-0.007373062830657192,-0.028695439958911956,-1.320649962004811
-0.007371272830657192,-0.032393664811495755,-1.320649962004811
-0.0073694828306571925,-0.032393664811495755,-1.3169426110237752
-0.007367692830657192,-0.03609188966407956,-1.320649962004811
-0.007365902830657192,-0.028695439958911956,-1.320649962004811
-0.007364112830657192,-0.03609188966407956,-1.3243573129858488
-0.007362322830657192,-0.032393664811497434,-1.324357312985847
-0.007360532830657192,-0.03609188966407956,-1.320649962004811
-0.007358742830657192,-0.03609188966407956,-1.3169426110237734
-0.007356952830657192,-0.03609188966407956,-1.3169426110237734
-0.007355162830657192,-0.03609188966407956,-1.3132352600427357
-0.007353372830657192,-0.032393664811495755,-1.3169426110237734
-0.007351582830657192,-0.03979011451666335,-1.3169426110237734
-0.007349792830657192,-0.03609188966407956,-1.320649962004811
-0.007348002830657192,-0.03609188966407956,-1.3169426110237734
-0.007346212830657192,-0.03609188966407956,-1.3169426110237734
-0.007344422830657192,-0.03609188966407956,-1.320649962004811
-0.007342632830657192,-0.03609188966407956,-1.3243573129858488
-0.007340842830657192,-0.03979011451666335,-1.320649962004811
-0.007339052830657192,-0.03609188966407956,-1.320649962004811
-0.007337262830657192,-0.03979011451666335,-1.3169426110237734
-0.007335472830657192,-0.032393664811495755,-1.3169426110237734
-0.007333682830657192,-0.03609188966407956,-1.3169426110237734
-0.007331892830657192,-0.03609188966407956,-1.320649962004811
-0.007330102830657192,-0.03609188966407956,-1.320649962004811
-0.007328312830657192,-0.03609188966407956,-1.3169426110237734
-0.007326522830657192,-0.03609188966407956,-1.320649962004811
-0.007324732830657192,-0.03979011451666335,-1.3169426110237734
-0.007322942830657192,-0.043488339369247155,-1.320649962004811
-0.007321152830657192,-0.03979011451666335,-1.3169426110237734
-0.007319362830657192,-0.03979011451666335,-1.3169426110237734
-0.007317572830657192,-0.03979011451666335,-1.3132352600427357
-0.007315782830657192,-0.03609188966407956,-1.3169426110237734
-0.007313992830657192,-0.03609188966407956,-1.3169426110237734
-0.007312202830657192,-0.032393664811495755,-1.320649962004811
-0.007310412830657192,-0.032393664811495755,-1.320649962004811
-0.007308622830657192,-0.032393664811495755,-1.320649962004811
-0.007306832830657192,-0.03609188966407956,-1.320649962004811
-0.007305042830657192,-0.03979011451666335,-1.3243573129858488
-0.007303252830657192,-0.04718656422183096,-1.3243573129858488
-0.007301462830657192,-0.043488339369247155,-1.3169426110237734
-0.0072996728306571924,-0.03979011451666503,-1.3132352600427375
-0.007297882830657192,-0.03979011451666335,-1.3169426110237734
-0.007296092830657192,-0.03609188966407956,-1.3169426110237734
-0.007294302830657192,-0.03609188966407956,-1.3169426110237734
-0.007292512830657192,-0.043488339369245475,-1.313235260042739
-0.007290722830657192,-0.03979011451666335,-1.320649962004811
-0.007288932830657192,-0.03979011451666335,-1.3243573129858488
-0.007287142830657192,-0.03609188966407956,-1.3243573129858488
-0.007285352830657192,-0.043488339369247155,-1.3169426110237734
-0.007283562830657192,-0.043488339369247155,-1.3169426110237734
-0.007281772830657192,-0.03979011451666335,-1.320649962004811
-0.007279982830657192,-0.03979011451666335,-1.3169426110237734
-0.007278192830657192,-0.03979011451666335,-1.3132352600427357
-0.007276402830657192,-0.043488339369247155,-1.3169426110237734
-0.007274612830657192,-0.043488339369247155,-1.3132352600427357
-0.007272822830657192,-0.043488339369247155,-1.3132352600427357
-0.007271032830657192,-0.03979011451666335,-1.3132352600427357
-0.007269242830657192,-0.043488339369247155,-1.3169426110237734
-0.007267452830657192,-0.04718656422183096,-1.3169426110237734
-0.007265662830657192,-0.04718656422183096,-1.3169426110237734
-0.007263872830657192,-0.043488339369247155,-1.320649962004811
-0.007262082830657192,-0.043488339369247155,-1.3169426110237734
-0.007260292830657192,-0.043488339369247155,-1.320649962004811
-0.007258502830657192,-0.043488339369247155,-1.3132352600427357
-0.007256712830657192,-0.04718656422183096,-1.3169426110237734
-0.007254922830657192,-0.054583013926998554,-1.3169426110237734
-0.007253132830657192,-0.04718656422183096,-1.3132352600427357
-0.007251342830657192,-0.04718656422183096,-1.3169426110237734
-0.007249552830657192,-0.05088478907441475,-1.3169426110237734
-0.007247762830657192,-0.04718656422183096,-1.320649962004811
-0.007245972830657192,-0.04718656422183096,-1.320649962004811
-0.007244182830657192,-0.04718656422183096,-1.320649962004811
-0.007242392830657192,-0.043488339369247155,-1.320649962004811
-0.007240602830657192,-0.04718656422183096,-1.3169426110237734
-0.007238812830657192,-0.043488339369247155,-1.3169426110237734
-0.007237022830657192,-0.04718656422183096,-1.3169426110237734
-0.007235232830657192,-0.04718656422183096,-1.3169426110237734
-0.007233442830657192,-0.043488339369247155,-1.3169426110237734
-0.007231652830657192,-0.043488339369247155,-1.309527909061698
-0.007229862830657192,-0.03979011451666335,-1.3132352600427357
-0.007228072830657192,-0.04718656422183096,-1.320649962004811
-0.007226282830657192,-0.04718656422183096,-1.3243573129858488
-0.007224492830657192,-0.043488339369247155,-1.3169426110237734
-0.0072227028306571925,-0.04718656422182928,-1.3206499620048093
-0.007220912830657192,-0.05088478907441475,-1.320649962004811
-0.007219122830657192,-0.04718656422183096,-1.320649962004811
-0.007217332830657192,-0.04718656422183096,-1.3169426110237734
-0.007215542830657192,-0.043488339369245475,-1.320649962004811
-0.007213752830657192,-0.03979011451666335,-1.320649962004811
-0.007211962830657192,-0.04718656422183096,-1.320649962004811
-0.007210172830657192,-0.043488339369247155,-1.320649962004811
-0.007208382830657192,-0.04718656422183096,-1.3169426110237734
-0.007206592830657192,-0.04718656422183096,-1.3169426110237734
-0.007204802830657192,-0.043488339369247155,-1.3169426110237734
-0.007203012830657192,-0.04718656422183096,-1.320649962004811
-0.007201222830657192,-0.05088478907441475,-1.320649962004811
-0.007199432830657192,-0.043488339369247155,-1.320649962004811
-0.007197642830657192,-0.05088478907441475,-1.320649962004811
-0.007195852830657192,-0.04718656422183096,-1.3169426110237734
-0.007194062830657192,-0.04718656422183096,-1.3169426110237734
-0.007192272830657192,-0.043488339369247155,-1.3132352600427357
-0.007190482830657192,-0.054583013926998554,-1.3169426110237734
