100Hz/acq0021.csv

#Digilent WaveForms Oscilloscope Acquisition
#Device Name: Discovery2
#Serial Number: SN:210321AA28BE
#Date Time: 2023-05-24 14:48:30.842
#Sample rate: 558659Hz
#Samples: 8192
#Trigger: Source: Channel 1 Type: Edge Condition: Rising Level: 800 mV Hyst.: Auto HoldOff: 100 ns
#Channel 1: Range: 1 V/div Offset: 0 V Attenuation: 1 X Sample Mode: Average
#Channel 2: Range: 1 V/div Offset: 0 V Attenuation: 1 X Sample Mode: Average

Time (s),Channel 1 (V),Channel 2 (V)
-0.00774132905628236,0.06745840620826683,-1.320649962004811
-0.00773953905628236,0.06745840620826683,-1.320649962004811
-0.007737749056282359,0.06376018135568304,-1.320649962004811
-0.00773595905628236,0.06745840620826683,-1.3169426110237734
-0.00773416905628236,0.06745840620826683,-1.3169426110237734
-0.007732379056282359,0.07485485591342939,-1.3169426110237734
-0.007730589056282359,0.06376018135568304,-1.3169426110237734
-0.00772879905628236,0.06006195650309923,-1.3243573129858488
-0.00772700905628236,0.06006195650309923,-1.3169426110237734
-0.007725219056282359,0.06745840620826683,-1.3169426110237734
-0.007723429056282359,0.06376018135568304,-1.3169426110237734
-0.00772163905628236,0.07115663106085063,-1.320649962004811
-0.00771984905628236,0.06745840620826683,-1.320649962004811
-0.007718059056282359,0.06745840620826683,-1.320649962004811
-0.007716269056282359,0.06745840620826683,-1.3243573129858488
-0.00771447905628236,0.05636373165051543,-1.3169426110237734
-0.00771268905628236,0.06376018135568304,-1.3169426110237734
-0.007710899056282359,0.06376018135568304,-1.320649962004811
-0.007709109056282359,0.05636373165051543,-1.3169426110237734
-0.00770731905628236,0.06006195650309923,-1.320649962004811
-0.00770552905628236,0.06376018135568304,-1.320649962004811
-0.007703739056282359,0.06376018135568304,-1.320649962004811
-0.0077019490562823595,0.06006195650309923,-1.3169426110237734
-0.00770015905628236,0.06006195650309923,-1.320649962004811
-0.00769836905628236,0.06006195650309923,-1.3169426110237734
-0.007696579056282359,0.06006195650309923,-1.3132352600427357
-0.0076947890562823595,0.06006195650309923,-1.320649962004811
-0.00769299905628236,0.05636373165051543,-1.320649962004811
-0.00769120905628236,0.06006195650309923,-1.320649962004811
-0.007689419056282359,0.06006195650309923,-1.320649962004811
-0.0076876290562823595,0.06006195650309923,-1.3169426110237734
-0.00768583905628236,0.05636373165051543,-1.320649962004811
-0.00768404905628236,0.06006195650309923,-1.320649962004811
-0.007682259056282359,0.05636373165051543,-1.320649962004811
-0.0076804690562823595,0.05266550679793163,-1.320649962004811
-0.00767867905628236,0.05266550679793163,-1.3169426110237734
-0.00767688905628236,0.05266550679793163,-1.3169426110237734
-0.007675099056282359,0.05266550679793163,-1.320649962004811
-0.0076733090562823595,0.048967281945347836,-1.320649962004811
-0.00767151905628236,0.05266550679793163,-1.3169426110237734
-0.00766972905628236,0.056363731650513754,-1.3206499620048093
-0.007667939056282359,0.05636373165051543,-1.3169426110237734
-0.0076661490562823596,0.05636373165051543,-1.3169426110237734
-0.00766435905628236,0.05266550679793163,-1.3169426110237734
-0.007662569056282359,0.05266550679793163,-1.3206499620048093
-0.007660779056282359,0.05266550679793163,-1.3169426110237734
-0.00765898905628236,0.048967281945347836,-1.3169426110237734
-0.00765719905628236,0.05636373165051543,-1.3169426110237734
-0.007655409056282359,0.05636373165051207,-1.3206499620048093
-0.007653619056282359,0.048967281945347836,-1.3169426110237734
-0.00765182905628236,0.048967281945347836,-1.3243573129858488
-0.00765003905628236,0.048967281945347836,-1.3243573129858488
-0.007648249056282359,0.048967281945347836,-1.3243573129858488
-0.007646459056282359,0.045269057092764034,-1.320649962004811
-0.00764466905628236,0.045269057092764034,-1.3169426110237734
-0.00764287905628236,0.05266550679793163,-1.3169426110237734
-0.007641089056282359,0.05266550679793163,-1.320649962004811
-0.007639299056282359,0.045269057092764034,-1.3169426110237734
-0.00763750905628236,0.045269057092764034,-1.3169426110237734
-0.00763571905628236,0.048967281945347836,-1.3169426110237734
-0.007633929056282359,0.048967281945347836,-1.3169426110237734
-0.0076321390562823594,0.048967281945347836,-1.320649962004811
-0.00763034905628236,0.045269057092764034,-1.320649962004811
-0.00762855905628236,0.045269057092764034,-1.3169426110237734
-0.007626769056282359,0.048967281945347836,-1.3243573129858488
-0.0076249790562823595,0.048967281945347836,-1.320649962004811
-0.00762318905628236,0.048967281945347836,-1.320649962004811
-0.00762139905628236,0.04157083224018024,-1.320649962004811
-0.007619609056282359,0.045269057092764034,-1.3243573129858488
-0.0076178190562823595,0.048967281945347836,-1.3243573129858488
-0.00761602905628236,0.045269057092764034,-1.3169426110237734
-0.00761423905628236,0.04157083224018024,-1.320649962004811
-0.007612449056282359,0.04157083224018024,-1.320649962004811
-0.0076106590562823595,0.04157083224018024,-1.3169426110237734
-0.00760886905628236,0.045269057092764034,-1.320649962004811
-0.00760707905628236,0.04157083224018024,-1.320649962004811
-0.007605289056282359,0.04157083224018024,-1.320649962004811
-0.0076034990562823595,0.045269057092764034,-1.320649962004811
-0.00760170905628236,0.04157083224018024,-1.3169426110237734
-0.00759991905628236,0.04157083224018024,-1.3169426110237734
-0.007598129056282359,0.03787260738759644,-1.3169426110237734
-0.0075963390562823595,0.045269057092764034,-1.3169426110237734
-0.00759454905628236,0.04157083224018024,-1.320649962004811
-0.00759275905628236,0.04157083224018024,-1.3169426110237752
-0.007590969056282359,0.045269057092764034,-1.3169426110237734
-0.0075891790562823596,0.045269057092764034,-1.320649962004811
-0.00758738905628236,0.045269057092764034,-1.3169426110237734
-0.007585599056282359,0.045269057092762355,-1.3206499620048093
-0.007583809056282359,0.04157083224018024,-1.3169426110237734
-0.00758201905628236,0.034174382535012635,-1.320649962004811
-0.00758022905628236,0.034174382535012635,-1.3169426110237734
-0.007578439056282359,0.03787260738759644,-1.3132352600427357
-0.007576649056282359,0.03787260738759644,-1.3169426110237734
-0.00757485905628236,0.034174382535012635,-1.3169426110237734
-0.00757306905628236,0.03787260738759644,-1.3132352600427357
-0.007571279056282359,0.03787260738759644,-1.3169426110237734
-0.007569489056282359,0.034174382535012635,-1.3169426110237734
-0.00756769905628236,0.034174382535012635,-1.3169426110237734
-0.00756590905628236,0.034174382535012635,-1.3169426110237734
-0.007564119056282359,0.03787260738759644,-1.3169426110237734
-0.007562329056282359,0.04157083224018024,-1.320649962004811
-0.00756053905628236,0.03787260738759644,-1.3169426110237734
-0.00755874905628236,0.03787260738759644,-1.3132352600427357
-0.007556959056282359,0.034174382535012635,-1.3132352600427357
-0.0075551690562823594,0.034174382535012635,-1.320649962004811
-0.00755337905628236,0.03787260738759644,-1.3169426110237734
-0.00755158905628236,0.034174382535012635,-1.3169426110237734
-0.007549799056282359,0.034174382535012635,-1.3169426110237734
-0.0075480090562823595,0.03047615768242884,-1.3169426110237734
-0.00754621905628236,0.03047615768242884,-1.320649962004811
-0.00754442905628236,0.03047615768242884,-1.3243573129858488
-0.007542639056282359,0.034174382535012635,-1.320649962004811
-0.0075408490562823595,0.03787260738759644,-1.3169426110237734
-0.00753905905628236,0.034174382535012635,-1.3169426110237734
-0.00753726905628236,0.03047615768242884,-1.3132352600427357
-0.007535479056282359,0.03047615768242884,-1.3169426110237734
-0.0075336890562823595,0.03047615768242884,-1.3169426110237734
-0.00753189905628236,0.03047615768242884,-1.3169426110237734
-0.00753010905628236,0.03047615768242884,-1.3169426110237734
-0.007528319056282359,0.03047615768242884,-1.3169426110237734
-0.0075265290562823595,0.03047615768242884,-1.320649962004811
-0.00752473905628236,0.034174382535012635,-1.3243573129858488
-0.00752294905628236,0.030476157682430522,-1.3206499620048129
-0.007521159056282359,0.034174382535012635,-1.320649962004811
-0.0075193690562823596,0.03047615768242884,-1.3243573129858488
-0.00751757905628236,0.026777932829845037,-1.3169426110237734
-0.00751578905628236,0.030476157682427157,-1.3206499620048093
-0.007513999056282359,0.03047615768242884,-1.3169426110237734
-0.00751220905628236,0.01938148312467744,-1.3169426110237734
-0.00751041905628236,0.03047615768242884,-1.320649962004811
-0.007508629056282359,0.02677793282984672,-1.3206499620048093
-0.007506839056282359,0.03047615768242884,-1.3169426110237734
-0.00750504905628236,0.03047615768242884,-1.3169426110237734
-0.00750325905628236,0.02307970797726124,-1.320649962004811
-0.007501469056282359,0.02307970797726124,-1.3243573129858488
-0.007499679056282359,0.026777932829845037,-1.320649962004811
-0.00749788905628236,0.026777932829845037,-1.320649962004811
-0.00749609905628236,0.026777932829845037,-1.3169426110237734
-0.007494309056282359,0.026777932829845037,-1.3169426110237734
-0.007492519056282359,0.03047615768242884,-1.3169426110237734
-0.00749072905628236,0.026777932829845037,-1.320649962004811
-0.00748893905628236,0.02307970797726124,-1.320649962004811
-0.007487149056282359,0.026777932829845037,-1.320649962004811
-0.0074853590562823594,0.02307970797726124,-1.320649962004811
-0.00748356905628236,0.01938148312467744,-1.320649962004811
-0.00748177905628236,0.01938148312467744,-1.320649962004811
-0.007479989056282359,0.026777932829845037,-1.3169426110237734
-0.0074781990562823595,0.02307970797726124,-1.3169426110237734
-0.00747640905628236,0.015683258272093638,-1.320649962004811
-0.00747461905628236,0.01938148312467744,-1.3169426110237734
-0.007472829056282359,0.02307970797726124,-1.3169426110237734
-0.0074710390562823595,0.015683258272093638,-1.3169426110237734
-0.00746924905628236,0.015683258272093638,-1.3169426110237734
-0.00746745905628236,0.01938148312467744,-1.320649962004811
-0.007465669056282359,0.015683258272093638,-1.3169426110237734
-0.0074638790562823595,0.015683258272093638,-1.320649962004811
-0.00746208905628236,0.015683258272093638,-1.3243573129858488
-0.00746029905628236,0.02307970797726124,-1.320649962004811
-0.007458509056282359,0.02307970797726124,-1.320649962004811
-0.0074567190562823595,0.02307970797726124,-1.3169426110237734
-0.00745492905628236,0.026777932829845037,-1.320649962004811
-0.00745313905628236,0.01938148312467744,-1.3243573129858488
-0.007451349056282359,0.01938148312467744,-1.320649962004811
-0.0074495590562823595,0.015683258272093638,-1.3169426110237734
-0.00744776905628236,0.015683258272093638,-1.320649962004811
-0.00744597905628236,0.019381483124675757,-1.320649962004811
-0.007444189056282359,0.01198503341950984,-1.320649962004811
-0.0074423990562823596,0.015683258272093638,-1.320649962004811
-0.00744060905628236,0.01198503341950984,-1.3243573129858488
-0.007438819056282359,0.019381483124675757,-1.320649962004811
-0.007437029056282359,0.015683258272093638,-1.320649962004811
-0.00743523905628236,0.01198503341950984,-1.320649962004811
-0.00743344905628236,0.015683258272093638,-1.3169426110237734
-0.007431659056282359,0.01198503341950984,-1.320649962004811
-0.007429869056282359,0.01938148312467744,-1.320649962004811
-0.00742807905628236,0.015683258272093638,-1.320649962004811
-0.00742628905628236,0.015683258272093638,-1.320649962004811
-0.007424499056282359,0.01198503341950984,-1.3169426110237734
-0.007422709056282359,0.015683258272093638,-1.3169426110237734
-0.00742091905628236,0.015683258272093638,-1.320649962004811
-0.00741912905628236,0.01198503341950984,-1.320649962004811
-0.007417339056282359,0.015683258272093638,-1.320649962004811
-0.007415549056282359,0.00828680856692604,-1.320649962004811
-0.00741375905628236,0.01198503341950984,-1.320649962004811
-0.00741196905628236,0.00828680856692604,-1.3169426110237734
-0.007410179056282359,0.00828680856692604,-1.3169426110237734
-0.0074083890562823594,0.01198503341950984,-1.3132352600427357
-0.00740659905628236,0.015683258272093638,-1.3169426110237734
-0.00740480905628236,0.01198503341950984,-1.3169426110237734
-0.007403019056282359,0.01198503341950984,-1.3169426110237734
-0.0074012290562823595,0.00828680856692604,-1.320649962004811
-0.00739943905628236,0.00828680856692604,-1.320649962004811
-0.00739764905628236,0.00828680856692604,-1.3169426110237734
-0.007395859056282359,0.00828680856692604,-1.320649962004811
-0.0073940690562823595,0.00828680856692604,-1.3169426110237734
-0.00739227905628236,0.00828680856692604,-1.3243573129858488
-0.00739048905628236,0.00828680856692604,-1.320649962004811
-0.007388699056282359,0.00828680856692604,-1.320649962004811
-0.0073869090562823595,0.00458858371434224,-1.320649962004811
-0.00738511905628236,0.00458858371434224,-1.320649962004811
-0.00738332905628236,0.00828680856692604,-1.320649962004811
-0.007381539056282359,0.00828680856692604,-1.3243573129858488
-0.0073797490562823595,0.00458858371434224,-1.320649962004811
-0.00737795905628236,0.00828680856692604,-1.3169426110237734
-0.00737616905628236,0.00458858371434224,-1.320649962004811
-0.007374379056282359,0.00828680856692604,-1.320649962004811
-0.0073725890562823596,0.00458858371434224,-1.3169426110237734
-0.00737079905628236,0.00828680856692604,-1.3169426110237734
-0.00736900905628236,0.00828680856692604,-1.3169426110237734
-0.007367219056282359,0.0008903588617584406,-1.320649962004811
-0.00736542905628236,0.0008903588617584406,-1.3243573129858488
-0.00736363905628236,0.00458858371434224,-1.3243573129858488
-0.007361849056282359,0.00458858371434224,-1.3206499620048078
-0.007360059056282359,0.00458858371434224,-1.3132352600427357
-0.00735826905628236,0.00828680856692604,-1.3169426110237734
-0.00735647905628236,0.01198503341950984,-1.3169426110237734
-0.007354689056282359,0.00458858371434224,-1.320649962004811
-0.007352899056282359,0.00458858371434224,-1.3169426110237734
-0.00735110905628236,0.00828680856692604,-1.3169426110237734
-0.00734931905628236,0.00828680856692604,-1.3169426110237734
-0.007347529056282359,0.00458858371434224,-1.3132352600427357
-0.007345739056282359,0.00458858371434224,-1.3169426110237734
-0.00734394905628236,-0.002807865990825359,-1.320649962004811
-0.00734215905628236,-0.002807865990825359,-1.320649962004811
-0.007340369056282359,0.0008903588617584406,-1.3169426110237734
-0.0073385790562823594,0.0008903588617584406,-1.320649962004811
-0.00733678905628236,0.0008903588617584406,-1.320649962004811
-0.00733499905628236,-0.002807865990825359,-1.320649962004811
-0.007333209056282359,0.0008903588617584406,-1.320649962004811
-0.0073314190562823595,-0.002807865990825359,-1.3243573129858488
-0.00732962905628236,-0.002807865990825359,-1.320649962004811
-0.00732783905628236,0.0008903588617584406,-1.320649962004811
-0.007326049056282359,0.0008903588617584406,-1.3132352600427357
-0.0073242590562823595,0.0008903588617584406,-1.320649962004811
-0.00732246905628236,0.0008903588617584406,-1.320649962004811
-0.00732067905628236,0.0008903588617584406,-1.3243573129858488
-0.007318889056282359,-0.002807865990825359,-1.320649962004811
-0.0073170990562823595,-0.002807865990825359,-1.320649962004811
-0.00731530905628236,0.0008903588617584406,-1.320649962004811
-0.00731351905628236,0.0008903588617584406,-1.320649962004811
-0.007311729056282359,0.0008903588617584406,-1.320649962004811
-0.0073099390562823595,0.0008903588617584406,-1.320649962004811
-0.00730814905628236,-0.002807865990825359,-1.320649962004811
-0.00730635905628236,-0.002807865990825359,-1.3169426110237734
-0.007304569056282359,-0.002807865990825359,-1.3243573129858488
-0.0073027790562823595,-0.010204315695992958,-1.320649962004811
-0.00730098905628236,-0.002807865990825359,-1.3243573129858488
-0.00729919905628236,-0.002807865990825359,-1.3169426110237767
-0.007297409056282359,-0.002807865990825359,-1.320649962004811
-0.0072956190562823596,0.0008903588617584406,-1.320649962004811
-0.00729382905628236,-0.0065060908434091584,-1.320649962004811
-0.007292039056282359,-0.0065060908434091584,-1.320649962004811
-0.007290249056282359,-0.0065060908434091584,-1.320649962004811
-0.00728845905628236,-0.0065060908434091584,-1.3243573129858488
-0.00728666905628236,-0.002807865990825359,-1.3243573129858488
-0.007284879056282359,-0.0028078659908270407,-1.3206499620048093
-0.007283089056282359,-0.0065060908434091584,-1.3169426110237734
-0.00728129905628236,-0.010204315695992958,-1.3243573129858488
-0.00727950905628236,-0.010204315695992958,-1.320649962004811
-0.007277719056282359,-0.0065060908434091584,-1.3243573129858488
-0.007275929056282359,-0.0065060908434091584,-1.320649962004811
-0.00727413905628236,-0.0065060908434091584,-1.320649962004811
-0.00727234905628236,-0.0065060908434091584,-1.320649962004811
-0.007270559056282359,-0.002807865990825359,-1.320649962004811
-0.007268769056282359,-0.002807865990825359,-1.3169426110237734
-0.00726697905628236,-0.0065060908434091584,-1.3169426110237734
-0.00726518905628236,-0.010204315695992958,-1.3169426110237734
-0.007263399056282359,-0.0065060908434091584,-1.320649962004811
-0.0072616090562823594,-0.010204315695992958,-1.3169426110237734
-0.00725981905628236,-0.0065060908434091584,-1.320649962004811
-0.00725802905628236,-0.013902540548576758,-1.320649962004811
-0.007256239056282359,-0.010204315695992958,-1.3243573129858488
-0.0072544490562823595,-0.0065060908434091584,-1.3243573129858488
-0.00725265905628236,-0.0065060908434091584,-1.3243573129858488
-0.00725086905628236,-0.0065060908434091584,-1.320649962004811
-0.007249079056282359,-0.013902540548576758,-1.320649962004811
-0.0072472890562823595,-0.010204315695992958,-1.3243573129858488
-0.00724549905628236,-0.013902540548576758,-1.3169426110237734
-0.00724370905628236,-0.010204315695992958,-1.3132352600427357
-0.007241919056282359,-0.010204315695992958,-1.320649962004811
-0.0072401290562823595,-0.0065060908434091584,-1.3243573129858488
-0.00723833905628236,-0.013902540548576758,-1.3243573129858488
-0.00723654905628236,-0.013902540548576758,-1.320649962004811
-0.007234759056282359,-0.013902540548576758,-1.3243573129858488
-0.0072329690562823595,-0.010204315695992958,-1.3243573129858488
-0.00723117905628236,-0.013902540548576758,-1.320649962004811
-0.00722938905628236,-0.017600765401160557,-1.320649962004811
-0.007227599056282359,-0.0065060908434091584,-1.320649962004811
-0.0072258090562823596,-0.010204315695992958,-1.3169426110237734
-0.00722401905628236,-0.0065060908434091584,-1.320649962004811
-0.00722222905628236,-0.0065060908434091584,-1.3169426110237752
-0.007220439056282359,-0.0065060908434091584,-1.320649962004811
-0.00721864905628236,-0.017600765401160557,-1.320649962004811
-0.00721685905628236,-0.010204315695992958,-1.3169426110237734
-0.007215069056282359,-0.013902540548575077,-1.3169426110237752
-0.007213279056282359,-0.010204315695992958,-1.320649962004811
-0.00721148905628236,-0.013902540548576758,-1.320649962004811
-0.00720969905628236,-0.017600765401160557,-1.320649962004811
-0.007207909056282359,-0.013902540548576758,-1.3169426110237734
-0.007206119056282359,-0.017600765401160557,-1.3169426110237734
-0.00720432905628236,-0.017600765401160557,-1.320649962004811
-0.00720253905628236,-0.017600765401160557,-1.320649962004811
-0.007200749056282359,-0.017600765401160557,-1.320649962004811
-0.007198959056282359,-0.017600765401160557,-1.320649962004811
-0.00719716905628236,-0.017600765401160557,-1.3169426110237734
-0.00719537905628236,-0.021298990253744356,-1.320649962004811
-0.007193589056282359,-0.013902540548576758,-1.320649962004811
-0.0071917990562823594,-0.010204315695992958,-1.320649962004811
-0.00719000905628236,-0.017600765401160557,-1.3243573129858488
-0.00718821905628236,-0.013902540548576758,-1.320649962004811
-0.007186429056282359,-0.013902540548576758,-1.320649962004811
-0.0071846390562823595,-0.013902540548576758,-1.3169426110237734
-0.00718284905628236,-0.017600765401160557,-1.3243573129858488
-0.00718105905628236,-0.017600765401160557,-1.3169426110237734
