100Hz/acq0013.csv

#Digilent WaveForms Oscilloscope Acquisition
#Device Name: Discovery2
#Serial Number: SN:210321AA28BE
#Date Time: 2023-05-24 14:48:30.610
#Sample rate: 558659Hz
#Samples: 8192
#Trigger: Source: Channel 1 Type: Edge Condition: Rising Level: 800 mV Hyst.: Auto HoldOff: 100 ns
#Channel 1: Range: 1 V/div Offset: 0 V Attenuation: 1 X Sample Mode: Average
#Channel 2: Range: 1 V/div Offset: 0 V Attenuation: 1 X Sample Mode: Average

Time (s),Channel 1 (V),Channel 2 (V)
-0.007741431282128642,0.04157083224018024,-1.3169426110237734
-0.007739641282128642,0.04157083224018024,-1.3206499620048093
-0.007737851282128641,0.04157083224018024,-1.320649962004811
-0.0077360612821286414,0.045269057092764034,-1.320649962004811
-0.007734271282128642,0.045269057092764034,-1.320649962004811
-0.007732481282128641,0.045269057092762355,-1.3206499620048093
-0.007730691282128641,0.04157083224018024,-1.3169426110237734
-0.0077289012821286415,0.03787260738759644,-1.3169426110237734
-0.007727111282128642,0.03787260738759644,-1.3169426110237734
-0.007725321282128641,0.045269057092764034,-1.320649962004811
-0.007723531282128641,0.04157083224018024,-1.3169426110237734
-0.0077217412821286415,0.03787260738759644,-1.320649962004811
-0.007719951282128642,0.034174382535012635,-1.320649962004811
-0.007718161282128641,0.034174382535012635,-1.3243573129858488
-0.007716371282128641,0.034174382535012635,-1.320649962004811
-0.0077145812821286415,0.04157083224018024,-1.3243573129858488
-0.007712791282128642,0.04157083224018024,-1.320649962004811
-0.007711001282128641,0.04157083224018024,-1.3169426110237734
-0.007709211282128641,0.04157083224018024,-1.3169426110237734
-0.0077074212821286415,0.03787260738759644,-1.3169426110237734
-0.007705631282128642,0.03787260738759644,-1.320649962004811
-0.007703841282128641,0.03787260738759644,-1.3169426110237734
-0.007702051282128641,0.034174382535012635,-1.320649962004811
-0.0077002612821286415,0.03787260738759644,-1.320649962004811
-0.007698471282128642,0.04157083224018024,-1.320649962004811
-0.007696681282128641,0.034174382535012635,-1.320649962004811
-0.007694891282128641,0.034174382535012635,-1.320649962004811
-0.0076931012821286416,0.03787260738759644,-1.320649962004811
-0.007691311282128642,0.03047615768242884,-1.3169426110237734
-0.007689521282128641,0.03047615768242884,-1.3169426110237734
-0.007687731282128641,0.03787260738759644,-1.3169426110237734
-0.007685941282128642,0.03047615768242884,-1.3169426110237734
-0.007684151282128642,0.034174382535012635,-1.320649962004811
-0.007682361282128641,0.034174382535012635,-1.320649962004811
-0.007680571282128641,0.034174382535012635,-1.320649962004811
-0.007678781282128642,0.03047615768242884,-1.3169426110237734
-0.007676991282128642,0.026777932829845037,-1.3169426110237734
-0.007675201282128641,0.034174382535012635,-1.3169426110237734
-0.007673411282128641,0.03047615768242884,-1.3169426110237734
-0.007671621282128642,0.03047615768242884,-1.320649962004811
-0.007669831282128642,0.02677793282984672,-1.320649962004811
-0.007668041282128641,0.02307970797726124,-1.3243573129858488
-0.007666251282128641,0.02307970797726124,-1.3169426110237734
-0.007664461282128642,0.03047615768242884,-1.3169426110237734
-0.007662671282128641,0.030476157682425477,-1.3206499620048078
-0.007660881282128641,0.02307970797726124,-1.3132352600427357
-0.0076590912821286414,0.03047615768242884,-1.3132352600427357
-0.007657301282128642,0.03047615768242884,-1.3132352600427357
-0.007655511282128641,0.02307970797726124,-1.3169426110237734
-0.007653721282128641,0.02307970797726124,-1.3169426110237734
-0.0076519312821286415,0.026777932829845037,-1.3169426110237734
-0.007650141282128642,0.03047615768242884,-1.3132352600427357
-0.007648351282128641,0.026777932829845037,-1.320649962004811
-0.007646561282128641,0.026777932829845037,-1.3169426110237734
-0.0076447712821286415,0.03047615768242884,-1.3169426110237734
-0.007642981282128642,0.026777932829845037,-1.3169426110237734
-0.007641191282128641,0.02307970797726124,-1.3169426110237734
-0.007639401282128641,0.026777932829845037,-1.320649962004811
-0.0076376112821286415,0.02307970797726124,-1.320649962004811
-0.007635821282128642,0.01938148312467744,-1.3169426110237734
-0.007634031282128641,0.02307970797726124,-1.3132352600427357
-0.007632241282128641,0.02307970797726124,-1.320649962004811
-0.0076304512821286415,0.026777932829845037,-1.320649962004811
-0.007628661282128642,0.02307970797726124,-1.3169426110237734
-0.007626871282128641,0.01938148312467744,-1.320649962004811
-0.007625081282128641,0.02307970797726124,-1.3169426110237734
-0.0076232912821286416,0.01938148312467744,-1.3169426110237734
-0.007621501282128642,0.01938148312467744,-1.3169426110237734
-0.007619711282128641,0.01938148312467744,-1.309527909061698
-0.007617921282128641,0.01938148312467744,-1.3169426110237734
-0.007616131282128642,0.026777932829845037,-1.320649962004811
-0.007614341282128642,0.026777932829845037,-1.3243573129858488
-0.007612551282128641,0.02307970797726124,-1.320649962004811
-0.007610761282128641,0.026777932829845037,-1.3169426110237734
-0.007608971282128642,0.01938148312467744,-1.320649962004811
-0.007607181282128642,0.01938148312467744,-1.3243573129858488
-0.007605391282128641,0.015683258272093638,-1.320649962004811
-0.007603601282128641,0.015683258272093638,-1.3169426110237734
-0.007601811282128642,0.015683258272093638,-1.3169426110237734
-0.007600021282128642,0.015683258272093638,-1.3132352600427357
-0.007598231282128641,0.015683258272093638,-1.3169426110237734
-0.007596441282128641,0.01198503341950984,-1.3169426110237734
-0.007594651282128642,0.015683258272093638,-1.3169426110237734
-0.007592861282128642,0.011985033419511522,-1.3169426110237734
-0.007591071282128641,0.015683258272093638,-1.3169426110237734
-0.0075892812821286414,0.01198503341950984,-1.3169426110237734
-0.007587491282128642,0.01938148312467744,-1.320649962004811
-0.007585701282128641,0.01198503341950984,-1.320649962004811
-0.007583911282128641,0.01198503341950984,-1.320649962004811
-0.0075821212821286415,0.01198503341950984,-1.3243573129858488
-0.007580331282128642,0.015683258272093638,-1.320649962004811
-0.007578541282128641,0.01938148312467744,-1.3132352600427357
-0.007576751282128641,0.015683258272093638,-1.320649962004811
-0.0075749612821286415,0.015683258272093638,-1.320649962004811
-0.007573171282128642,0.015683258272093638,-1.3243573129858488
-0.007571381282128641,0.01198503341950984,-1.320649962004811
-0.007569591282128641,0.00828680856692604,-1.3169426110237734
-0.0075678012821286415,0.01198503341950984,-1.3243573129858488
-0.007566011282128642,0.01198503341950984,-1.3243573129858488
-0.007564221282128641,0.015683258272093638,-1.320649962004811
-0.007562431282128641,0.015683258272093638,-1.3243573129858488
-0.0075606412821286415,0.01198503341950984,-1.320649962004811
-0.007558851282128642,0.01198503341950984,-1.3243573129858488
-0.007557061282128641,0.01198503341950984,-1.3169426110237734
-0.007555271282128641,0.01198503341950984,-1.320649962004811
-0.0075534812821286415,0.00828680856692604,-1.320649962004811
-0.007551691282128642,0.00828680856692604,-1.320649962004811
-0.007549901282128641,0.00828680856692604,-1.320649962004811
-0.007548111282128641,0.00458858371434224,-1.320649962004811
-0.0075463212821286416,0.00458858371434224,-1.3243573129858488
-0.007544531282128642,0.00458858371434224,-1.3169426110237734
-0.007542741282128641,0.00458858371434224,-1.320649962004811
-0.007540951282128641,0.00828680856692604,-1.320649962004811
-0.007539161282128642,0.00828680856692604,-1.3169426110237734
-0.007537371282128642,0.0008903588617584406,-1.320649962004811
-0.007535581282128641,0.0008903588617584406,-1.320649962004811
-0.007533791282128641,0.00458858371434224,-1.320649962004811
-0.007532001282128642,0.00458858371434224,-1.320649962004811
-0.007530211282128642,0.00458858371434224,-1.320649962004811
-0.007528421282128641,0.00458858371434224,-1.320649962004811
-0.007526631282128641,0.00458858371434224,-1.3169426110237734
-0.007524841282128642,-0.002807865990825359,-1.320649962004811
-0.007523051282128642,-0.002807865990825359,-1.320649962004811
-0.007521261282128641,0.00458858371434224,-1.3169426110237734
-0.007519471282128641,0.0008903588617584406,-1.320649962004811
-0.007517681282128642,0.00458858371434224,-1.3243573129858488
-0.007515891282128642,0.00458858371434224,-1.3206499620048129
-0.007514101282128641,0.00458858371434224,-1.3169426110237734
-0.0075123112821286414,0.00458858371434224,-1.320649962004811
-0.007510521282128642,0.0008903588617584406,-1.3169426110237734
-0.007508731282128641,0.0008903588617584406,-1.320649962004811
-0.007506941282128641,0.0008903588617584406,-1.320649962004811
-0.0075051512821286415,0.00458858371434224,-1.3169426110237734
-0.007503361282128642,0.0008903588617584406,-1.3169426110237734
-0.007501571282128641,0.00458858371434224,-1.3169426110237734
-0.007499781282128641,0.00458858371434224,-1.320649962004811
-0.0074979912821286415,-0.002807865990825359,-1.320649962004811
-0.007496201282128642,0.0008903588617584406,-1.320649962004811
-0.007494411282128641,0.00458858371434224,-1.320649962004811
-0.007492621282128641,-0.0065060908434091584,-1.320649962004811
-0.0074908312821286415,-0.002807865990825359,-1.320649962004811
-0.007489041282128642,-0.0065060908434091584,-1.3169426110237734
-0.007487251282128641,-0.0065060908434091584,-1.3169426110237734
-0.007485461282128641,-0.002807865990825359,-1.3243573129858488
-0.0074836712821286415,0.0008903588617584406,-1.3169426110237734
-0.007481881282128642,0.0008903588617584406,-1.320649962004811
-0.007480091282128641,-0.002807865990825359,-1.3243573129858488
-0.007478301282128641,0.00458858371434224,-1.3169426110237734
-0.0074765112821286416,-0.002807865990825359,-1.3132352600427357
-0.007474721282128642,-0.002807865990825359,-1.3169426110237734
-0.007472931282128641,-0.0065060908434091584,-1.3169426110237734
-0.007471141282128641,-0.0065060908434091584,-1.3243573129858488
-0.007469351282128642,-0.0065060908434091584,-1.320649962004811
-0.007467561282128642,-0.0065060908434091584,-1.320649962004811
-0.007465771282128641,-0.010204315695992958,-1.320649962004811
-0.007463981282128641,-0.0065060908434091584,-1.320649962004811
-0.007462191282128642,-0.010204315695992958,-1.320649962004811
-0.007460401282128642,-0.0065060908434091584,-1.320649962004811
-0.007458611282128641,-0.0065060908434091584,-1.320649962004811
-0.007456821282128641,-0.0065060908434091584,-1.3243573129858488
-0.007455031282128642,-0.010204315695992958,-1.320649962004811
-0.007453241282128642,-0.010204315695992958,-1.3169426110237734
-0.007451451282128641,-0.0065060908434091584,-1.3169426110237734
-0.007449661282128641,-0.0065060908434091584,-1.3169426110237734
-0.007447871282128642,-0.0065060908434091584,-1.320649962004811
-0.007446081282128642,-0.0065060908434091584,-1.320649962004811
-0.007444291282128641,-0.002807865990825359,-1.3243573129858488
-0.007442501282128641,-0.010204315695992958,-1.320649962004811
-0.007440711282128642,-0.002807865990825359,-1.320649962004811
-0.007438921282128641,-0.00650609084341084,-1.324357312985847
-0.007437131282128641,-0.010204315695992958,-1.320649962004811
-0.0074353412821286415,-0.0065060908434091584,-1.320649962004811
-0.007433551282128642,-0.013902540548576758,-1.3243573129858488
-0.007431761282128641,-0.0065060908434091584,-1.320649962004811
-0.007429971282128641,-0.010204315695992958,-1.3132352600427357
-0.0074281812821286415,-0.010204315695992958,-1.3169426110237734
-0.007426391282128642,-0.010204315695992958,-1.320649962004811
-0.007424601282128641,-0.013902540548576758,-1.320649962004811
-0.007422811282128641,-0.013902540548576758,-1.320649962004811
-0.0074210212821286415,-0.013902540548576758,-1.320649962004811
-0.007419231282128642,-0.010204315695992958,-1.320649962004811
-0.007417441282128641,-0.010204315695992958,-1.320649962004811
-0.007415651282128641,-0.017600765401160557,-1.320649962004811
-0.0074138612821286415,-0.0065060908434091584,-1.3169426110237734
-0.007412071282128642,-0.010204315695992958,-1.320649962004811
-0.007410281282128641,-0.013902540548576758,-1.320649962004811
-0.007408491282128641,-0.013902540548576758,-1.320649962004811
-0.0074067012821286415,-0.013902540548576758,-1.320649962004811
-0.007404911282128642,-0.017600765401160557,-1.3169426110237734
-0.007403121282128641,-0.013902540548576758,-1.3169426110237734
-0.007401331282128641,-0.013902540548576758,-1.320649962004811
-0.0073995412821286416,-0.017600765401160557,-1.320649962004811
-0.007397751282128642,-0.017600765401160557,-1.320649962004811
-0.007395961282128641,-0.017600765401160557,-1.3169426110237734
-0.007394171282128641,-0.017600765401160557,-1.320649962004811
-0.007392381282128642,-0.013902540548576758,-1.3169426110237734
-0.007390591282128642,-0.017600765401160557,-1.320649962004811
-0.007388801282128641,-0.013902540548576758,-1.3169426110237734
-0.007387011282128641,-0.017600765401160557,-1.3169426110237734
-0.007385221282128642,-0.017600765401160557,-1.3169426110237734
-0.007383431282128642,-0.017600765401160557,-1.3243573129858488
-0.007381641282128641,-0.010204315695992958,-1.3243573129858488
-0.007379851282128641,-0.010204315695992958,-1.320649962004811
-0.007378061282128642,-0.017600765401160557,-1.320649962004811
-0.007376271282128642,-0.021298990253744356,-1.320649962004811
-0.007374481282128641,-0.024997215106328158,-1.3169426110237734
-0.007372691282128641,-0.017600765401160557,-1.3169426110237734
-0.007370901282128642,-0.017600765401160557,-1.320649962004811
-0.007369111282128642,-0.021298990253742673,-1.313235260042739
-0.007367321282128641,-0.024997215106328158,-1.3132352600427357
-0.0073655312821286414,-0.021298990253744356,-1.3169426110237734
-0.007363741282128642,-0.017600765401160557,-1.3169426110237734
-0.007361951282128641,-0.01760076540116224,-1.3169426110237734
-0.007360161282128641,-0.021298990253744356,-1.3169426110237734
-0.0073583712821286415,-0.021298990253744356,-1.320649962004811
-0.007356581282128642,-0.021298990253744356,-1.320649962004811
-0.007354791282128641,-0.021298990253744356,-1.320649962004811
-0.007353001282128641,-0.024997215106328158,-1.3169426110237734
-0.0073512112821286415,-0.017600765401160557,-1.3169426110237734
-0.007349421282128642,-0.017600765401160557,-1.320649962004811
-0.007347631282128641,-0.017600765401160557,-1.320649962004811
-0.007345841282128641,-0.021298990253744356,-1.320649962004811
-0.0073440512821286415,-0.024997215106328158,-1.3169426110237734
-0.007342261282128642,-0.017600765401160557,-1.3169426110237734
-0.007340471282128641,-0.021298990253744356,-1.3169426110237734
-0.007338681282128641,-0.021298990253744356,-1.320649962004811
-0.0073368912821286415,-0.021298990253744356,-1.320649962004811
-0.007335101282128642,-0.024997215106328158,-1.3169426110237734
-0.007333311282128641,-0.024997215106328158,-1.3169426110237734
-0.007331521282128641,-0.021298990253744356,-1.3243573129858488
-0.0073297312821286415,-0.017600765401160557,-1.320649962004811
-0.007327941282128642,-0.021298990253744356,-1.3169426110237734
-0.007326151282128641,-0.024997215106328158,-1.3132352600427357
-0.007324361282128641,-0.028695439958911956,-1.320649962004811
-0.007322571282128642,-0.024997215106328158,-1.3169426110237734
-0.007320781282128642,-0.024997215106328158,-1.320649962004811
-0.007318991282128641,-0.024997215106328158,-1.320649962004811
-0.007317201282128641,-0.024997215106328158,-1.3169426110237734
-0.007315411282128642,-0.021298990253744356,-1.320649962004811
-0.007313621282128642,-0.028695439958911956,-1.3243573129858488
-0.007311831282128641,-0.028695439958911956,-1.320649962004811
-0.007310041282128641,-0.028695439958911956,-1.3169426110237734
-0.007308251282128642,-0.021298990253744356,-1.3169426110237734
-0.007306461282128642,-0.028695439958911956,-1.3169426110237734
-0.007304671282128641,-0.032393664811495755,-1.3169426110237734
-0.007302881282128641,-0.021298990253744356,-1.320649962004811
-0.007301091282128642,-0.024997215106328158,-1.320649962004811
-0.007299301282128642,-0.028695439958910274,-1.3169426110237752
-0.007297511282128641,-0.024997215106328158,-1.320649962004811
-0.007295721282128641,-0.028695439958911956,-1.320649962004811
-0.007293931282128642,-0.028695439958911956,-1.320649962004811
-0.007292141282128641,-0.03979011451665831,-1.3206499620048093
-0.007290351282128641,-0.028695439958911956,-1.3169426110237734
-0.0072885612821286415,-0.032393664811495755,-1.3169426110237734
-0.007286771282128642,-0.028695439958911956,-1.320649962004811
-0.007284981282128641,-0.028695439958910274,-1.3169426110237752
-0.007283191282128641,-0.024997215106328158,-1.320649962004811
-0.0072814012821286415,-0.028695439958911956,-1.320649962004811
-0.007279611282128642,-0.028695439958911956,-1.320649962004811
-0.007277821282128641,-0.028695439958911956,-1.3243573129858488
-0.007276031282128641,-0.032393664811495755,-1.320649962004811
-0.0072742412821286415,-0.032393664811495755,-1.320649962004811
-0.007272451282128642,-0.032393664811495755,-1.3169426110237734
-0.007270661282128641,-0.032393664811495755,-1.320649962004811
-0.007268871282128641,-0.028695439958911956,-1.3169426110237734
-0.0072670812821286415,-0.028695439958911956,-1.3132352600427357
-0.007265291282128642,-0.032393664811495755,-1.3169426110237734
-0.007263501282128641,-0.032393664811495755,-1.320649962004811
-0.007261711282128641,-0.032393664811495755,-1.3169426110237734
-0.0072599212821286415,-0.032393664811495755,-1.3169426110237734
-0.007258131282128642,-0.032393664811495755,-1.320649962004811
-0.007256341282128641,-0.032393664811495755,-1.3169426110237734
-0.007254551282128641,-0.03609188966407956,-1.3243573129858488
-0.0072527612821286416,-0.028695439958911956,-1.3169426110237734
-0.007250971282128642,-0.032393664811495755,-1.3169426110237734
-0.007249181282128641,-0.032393664811495755,-1.320649962004811
-0.007247391282128641,-0.03609188966407956,-1.3169426110237734
-0.007245601282128642,-0.032393664811495755,-1.3132352600427357
-0.007243811282128642,-0.03609188966407956,-1.3169426110237734
-0.007242021282128641,-0.032393664811495755,-1.3243573129858488
-0.007240231282128641,-0.03609188966407956,-1.320649962004811
-0.007238441282128642,-0.032393664811495755,-1.3169426110237734
-0.007236651282128642,-0.03609188966407956,-1.320649962004811
-0.007234861282128641,-0.032393664811495755,-1.3132352600427357
-0.007233071282128641,-0.03609188966407956,-1.3169426110237734
-0.007231281282128642,-0.03609188966407956,-1.3169426110237734
-0.007229491282128642,-0.032393664811495755,-1.3169426110237734
-0.007227701282128641,-0.03609188966407956,-1.320649962004811
-0.007225911282128641,-0.03979011451666335,-1.3169426110237734
-0.007224121282128642,-0.032393664811495755,-1.3243573129858488
-0.007222331282128642,-0.03609188966407788,-1.3169426110237767
-0.007220541282128641,-0.032393664811495755,-1.3169426110237734
-0.0072187512821286414,-0.032393664811495755,-1.3169426110237734
-0.007216961282128642,-0.03979011451666335,-1.3243573129858488
-0.007215171282128641,-0.04718656422182759,-1.3169426110237752
-0.007213381282128641,-0.03979011451666335,-1.320649962004811
-0.0072115912821286415,-0.03979011451666335,-1.320649962004811
-0.007209801282128642,-0.03609188966407956,-1.3169426110237734
-0.007208011282128641,-0.03979011451666335,-1.320649962004811
-0.007206221282128641,-0.03609188966407956,-1.3169426110237734
-0.0072044312821286415,-0.03979011451666335,-1.3169426110237734
-0.007202641282128642,-0.03979011451666335,-1.3169426110237734
-0.007200851282128641,-0.043488339369247155,-1.3169426110237734
-0.007199061282128641,-0.043488339369247155,-1.3169426110237734
-0.0071972712821286415,-0.043488339369247155,-1.320649962004811
-0.007195481282128642,-0.03979011451666335,-1.3169426110237734
-0.007193691282128641,-0.03609188966407956,-1.3169426110237734
-0.007191901282128641,-0.03979011451666335,-1.320649962004811
-0.0071901112821286415,-0.03979011451666335,-1.3169426110237734
-0.007188321282128642,-0.03979011451666335,-1.320649962004811
