100Hz/acq0040.csv

#Digilent WaveForms Oscilloscope Acquisition
#Device Name: Discovery2
#Serial Number: SN:210321AA28BE
#Date Time: 2023-05-24 14:48:31.397
#Sample rate: 558659Hz
#Samples: 8192
#Trigger: Source: Channel 1 Type: Edge Condition: Rising Level: 800 mV Hyst.: Auto HoldOff: 100 ns
#Channel 1: Range: 1 V/div Offset: 0 V Attenuation: 1 X Sample Mode: Average
#Channel 2: Range: 1 V/div Offset: 0 V Attenuation: 1 X Sample Mode: Average

Time (s),Channel 1 (V),Channel 2 (V)
-0.00774145779296875,0.06745840620826683,-1.3169426110237734
-0.00773966779296875,0.06745840620826683,-1.3206499620048093
-0.0077378777929687495,0.07115663106085063,-1.3169426110237734
-0.00773608779296875,0.06745840620826683,-1.3169426110237734
-0.00773429779296875,0.07115663106085063,-1.3169426110237734
-0.007732507792968749,0.06745840620826515,-1.320649962004811
-0.0077307177929687495,0.06376018135568304,-1.320649962004811
-0.00772892779296875,0.06376018135568304,-1.3169426110237734
-0.00772713779296875,0.06376018135568304,-1.3132352600427357
-0.007725347792968749,0.06745840620826683,-1.3169426110237734
-0.0077235577929687495,0.06376018135568304,-1.3132352600427357
-0.00772176779296875,0.06006195650309923,-1.320649962004811
-0.00771997779296875,0.06376018135568304,-1.3169426110237734
-0.007718187792968749,0.06006195650309923,-1.3243573129858488
-0.0077163977929687495,0.06006195650309923,-1.3169426110237734
-0.00771460779296875,0.06376018135568304,-1.3169426110237734
-0.00771281779296875,0.05636373165051543,-1.3169426110237734
-0.007711027792968749,0.06745840620826683,-1.3169426110237734
-0.0077092377929687496,0.06376018135568304,-1.3132352600427357
-0.00770744779296875,0.06006195650309923,-1.320649962004811
-0.00770565779296875,0.06376018135568304,-1.320649962004811
-0.007703867792968749,0.06376018135568304,-1.320649962004811
-0.00770207779296875,0.06745840620826683,-1.309527909061698
-0.00770028779296875,0.06006195650309923,-1.3169426110237734
-0.00769849779296875,0.06006195650309923,-1.320649962004811
-0.007696707792968749,0.06006195650309923,-1.3132352600427357
-0.00769491779296875,0.05636373165051543,-1.3132352600427357
-0.00769312779296875,0.05266550679793163,-1.3132352600427357
-0.00769133779296875,0.05266550679793163,-1.3169426110237734
-0.007689547792968749,0.05266550679793163,-1.3169426110237734
-0.00768775779296875,0.05636373165051543,-1.3169426110237734
-0.00768596779296875,0.06006195650309923,-1.3169426110237734
-0.00768417779296875,0.05266550679793163,-1.320649962004811
-0.007682387792968749,0.05636373165051543,-1.3132352600427357
-0.00768059779296875,0.05636373165051543,-1.3169426110237734
-0.00767880779296875,0.05266550679793163,-1.3132352600427357
-0.00767701779296875,0.05636373165051543,-1.3169426110237734
-0.0076752277929687494,0.05266550679793163,-1.3132352600427357
-0.00767343779296875,0.06006195650309923,-1.3132352600427357
-0.00767164779296875,0.06376018135568304,-1.3169426110237734
-0.00766985779296875,0.052665506797936676,-1.3206499620048093
-0.0076680677929687495,0.05266550679793163,-1.3169426110237734
-0.00766627779296875,0.05636373165051543,-1.320649962004811
-0.00766448779296875,0.05266550679793163,-1.3169426110237734
-0.007662697792968749,0.05266550679792995,-1.3206499620048093
-0.0076609077929687495,0.048967281945347836,-1.3169426110237734
-0.00765911779296875,0.05266550679793163,-1.320649962004811
-0.00765732779296875,0.05636373165051543,-1.320649962004811
-0.007655537792968749,0.05266550679793163,-1.320649962004811
-0.0076537477929687495,0.05266550679793163,-1.320649962004811
-0.00765195779296875,0.05266550679793163,-1.3169426110237734
-0.00765016779296875,0.045269057092764034,-1.3169426110237734
-0.007648377792968749,0.048967281945347836,-1.3169426110237734
-0.0076465877929687495,0.048967281945347836,-1.3132352600427357
-0.00764479779296875,0.045269057092764034,-1.3169426110237734
-0.00764300779296875,0.05266550679793163,-1.3169426110237734
-0.007641217792968749,0.048967281945347836,-1.3132352600427357
-0.0076394277929687495,0.048967281945347836,-1.3169426110237734
-0.00763763779296875,0.048967281945347836,-1.3169426110237734
-0.00763584779296875,0.048967281945347836,-1.3132352600427357
-0.007634057792968749,0.045269057092764034,-1.320649962004811
-0.0076322677929687496,0.05266550679793163,-1.320649962004811
-0.00763047779296875,0.045269057092764034,-1.320649962004811
-0.00762868779296875,0.045269057092764034,-1.3132352600427357
-0.007626897792968749,0.048967281945347836,-1.3169426110237734
-0.00762510779296875,0.048967281945347836,-1.3132352600427357
-0.00762331779296875,0.048967281945347836,-1.3169426110237734
-0.00762152779296875,0.045269057092764034,-1.3169426110237734
-0.007619737792968749,0.04157083224018024,-1.3169426110237734
-0.00761794779296875,0.048967281945347836,-1.3169426110237734
-0.00761615779296875,0.045269057092764034,-1.3169426110237734
-0.00761436779296875,0.04157083224018024,-1.3169426110237734
-0.007612577792968749,0.045269057092764034,-1.3169426110237734
-0.00761078779296875,0.04157083224018024,-1.3169426110237734
-0.00760899779296875,0.04157083224018024,-1.3169426110237734
-0.00760720779296875,0.045269057092764034,-1.3169426110237734
-0.007605417792968749,0.045269057092764034,-1.320649962004811
-0.00760362779296875,0.045269057092764034,-1.3169426110237734
-0.00760183779296875,0.03787260738759644,-1.3132352600427357
-0.00760004779296875,0.03787260738759644,-1.320649962004811
-0.0075982577929687494,0.04157083224018024,-1.3169426110237734
-0.00759646779296875,0.045269057092764034,-1.320649962004811
-0.00759467779296875,0.04157083224018024,-1.3243573129858488
-0.00759288779296875,0.037872607387598116,-1.3206499620048129
-0.0075910977929687495,0.04157083224018024,-1.320649962004811
-0.00758930779296875,0.03787260738759644,-1.3169426110237734
-0.00758751779296875,0.04157083224018024,-1.320649962004811
-0.007585727792968749,0.03787260738759476,-1.3169426110237734
-0.0075839377929687495,0.034174382535012635,-1.3169426110237734
-0.00758214779296875,0.04157083224018024,-1.3169426110237734
-0.00758035779296875,0.03047615768242884,-1.3169426110237734
-0.007578567792968749,0.03787260738759644,-1.320649962004811
-0.0075767777929687495,0.04157083224018024,-1.3169426110237734
-0.00757498779296875,0.04157083224018024,-1.3169426110237734
-0.00757319779296875,0.04157083224018024,-1.3169426110237734
-0.007571407792968749,0.03787260738759644,-1.320649962004811
-0.0075696177929687495,0.03787260738759644,-1.320649962004811
-0.00756782779296875,0.034174382535012635,-1.320649962004811
-0.00756603779296875,0.03787260738759644,-1.3169426110237734
-0.007564247792968749,0.04157083224018024,-1.320649962004811
-0.0075624577929687496,0.03787260738759644,-1.3169426110237734
-0.00756066779296875,0.034174382535012635,-1.3169426110237734
-0.00755887779296875,0.034174382535012635,-1.320649962004811
-0.007557087792968749,0.034174382535012635,-1.3169426110237734
-0.00755529779296875,0.034174382535012635,-1.3169426110237734
-0.00755350779296875,0.034174382535012635,-1.3169426110237734
-0.00755171779296875,0.034174382535012635,-1.320649962004811
-0.007549927792968749,0.034174382535012635,-1.320649962004811
-0.00754813779296875,0.034174382535012635,-1.3243573129858488
-0.00754634779296875,0.034174382535012635,-1.320649962004811
-0.00754455779296875,0.03047615768242884,-1.3169426110237734
-0.007542767792968749,0.026777932829845037,-1.3132352600427357
-0.00754097779296875,0.034174382535012635,-1.3169426110237734
-0.00753918779296875,0.03047615768242884,-1.3169426110237734
-0.00753739779296875,0.03047615768242884,-1.320649962004811
-0.007535607792968749,0.034174382535012635,-1.3169426110237734
-0.00753381779296875,0.03787260738759644,-1.320649962004811
-0.00753202779296875,0.03787260738759644,-1.3243573129858488
-0.00753023779296875,0.03047615768242884,-1.3169426110237734
-0.0075284477929687494,0.03047615768242884,-1.3169426110237734
-0.00752665779296875,0.026777932829845037,-1.3169426110237734
-0.00752486779296875,0.03047615768242884,-1.320649962004811
-0.00752307779296875,0.034174382535010955,-1.3169426110237752
-0.0075212877929687495,0.03047615768242884,-1.3132352600427357
-0.00751949779296875,0.034174382535012635,-1.3132352600427357
-0.00751770779296875,0.03047615768242884,-1.3169426110237734
-0.00751591779296875,0.03047615768242884,-1.3206499620048093
-0.0075141277929687495,0.02307970797726124,-1.320649962004811
-0.00751233779296875,0.03047615768242884,-1.320649962004811
-0.00751054779296875,0.02307970797726124,-1.320649962004811
-0.007508757792968749,0.030476157682430522,-1.3169426110237734
-0.0075069677929687495,0.034174382535012635,-1.3169426110237734
-0.00750517779296875,0.02307970797726124,-1.3169426110237734
-0.00750338779296875,0.026777932829845037,-1.320649962004811
-0.007501597792968749,0.03047615768242884,-1.320649962004811
-0.0074998077929687495,0.02307970797726124,-1.3169426110237734
-0.00749801779296875,0.026777932829845037,-1.3169426110237734
-0.00749622779296875,0.026777932829845037,-1.3169426110237734
-0.007494437792968749,0.02307970797726124,-1.3169426110237734
-0.0074926477929687495,0.02307970797726124,-1.320649962004811
-0.00749085779296875,0.02307970797726124,-1.3169426110237734
-0.00748906779296875,0.02307970797726124,-1.320649962004811
-0.007487277792968749,0.01938148312467744,-1.320649962004811
-0.0074854877929687496,0.02307970797726124,-1.3132352600427357
-0.00748369779296875,0.02307970797726124,-1.3169426110237734
-0.00748190779296875,0.01938148312467744,-1.3169426110237734
-0.007480117792968749,0.01938148312467744,-1.3169426110237734
-0.00747832779296875,0.02307970797726124,-1.3169426110237734
-0.00747653779296875,0.02307970797726124,-1.3169426110237734
-0.00747474779296875,0.02307970797726124,-1.3169426110237734
-0.007472957792968749,0.026777932829845037,-1.3243573129858488
-0.00747116779296875,0.01938148312467744,-1.3169426110237734
-0.00746937779296875,0.01938148312467744,-1.320649962004811
-0.00746758779296875,0.01938148312467744,-1.320649962004811
-0.007465797792968749,0.015683258272093638,-1.320649962004811
-0.00746400779296875,0.015683258272093638,-1.320649962004811
-0.00746221779296875,0.015683258272093638,-1.3169426110237734
-0.00746042779296875,0.015683258272093638,-1.3169426110237734
-0.007458637792968749,0.015683258272093638,-1.3169426110237734
-0.00745684779296875,0.01938148312467744,-1.320649962004811
-0.00745505779296875,0.01938148312467744,-1.3169426110237734
-0.00745326779296875,0.01938148312467744,-1.320649962004811
-0.0074514777929687494,0.01938148312467744,-1.3169426110237734
-0.00744968779296875,0.02307970797726124,-1.320649962004811
-0.00744789779296875,0.01938148312467744,-1.3169426110237734
-0.00744610779296875,0.01938148312467744,-1.3169426110237734
-0.0074443177929687495,0.015683258272093638,-1.3169426110237734
-0.00744252779296875,0.015683258272093638,-1.3169426110237734
-0.00744073779296875,0.01938148312467744,-1.3169426110237734
-0.007438947792968749,0.01198503341950984,-1.3243573129858455
-0.0074371577929687495,0.01198503341950984,-1.3169426110237734
-0.00743536779296875,0.015683258272093638,-1.3169426110237734
-0.00743357779296875,0.01938148312467744,-1.320649962004811
-0.007431787792968749,0.015683258272093638,-1.320649962004811
-0.0074299977929687495,0.015683258272093638,-1.3132352600427357
-0.00742820779296875,0.01938148312467744,-1.320649962004811
-0.00742641779296875,0.02307970797726124,-1.3132352600427357
-0.007424627792968749,0.01938148312467744,-1.3132352600427357
-0.0074228377929687495,0.015683258272093638,-1.3132352600427357
-0.00742104779296875,0.01198503341950984,-1.320649962004811
-0.00741925779296875,0.015683258272093638,-1.3169426110237734
-0.007417467792968749,0.01198503341950984,-1.320649962004811
-0.0074156777929687496,0.015683258272093638,-1.3169426110237734
-0.00741388779296875,0.015683258272093638,-1.3169426110237734
-0.00741209779296875,0.00828680856692604,-1.320649962004811
-0.007410307792968749,0.00828680856692604,-1.3132352600427357
-0.00740851779296875,0.01198503341950984,-1.3169426110237734
-0.00740672779296875,0.01198503341950984,-1.3169426110237734
-0.00740493779296875,0.00828680856692604,-1.320649962004811
-0.007403147792968749,0.01198503341950984,-1.3169426110237734
-0.00740135779296875,0.015683258272093638,-1.3169426110237734
-0.00739956779296875,0.015683258272093638,-1.3169426110237734
-0.00739777779296875,0.015683258272093638,-1.3132352600427357
-0.007395987792968749,0.01198503341950984,-1.3169426110237734
-0.00739419779296875,0.01938148312467744,-1.3169426110237734
-0.00739240779296875,0.015683258272093638,-1.3169426110237734
-0.00739061779296875,0.01198503341950984,-1.3132352600427357
-0.007388827792968749,0.00828680856692604,-1.3169426110237734
-0.00738703779296875,0.00458858371434224,-1.320649962004811
-0.00738524779296875,0.01198503341950984,-1.320649962004811
-0.00738345779296875,0.00828680856692604,-1.320649962004811
-0.007381667792968749,0.00828680856692604,-1.3243573129858488
-0.00737987779296875,0.01198503341950984,-1.3169426110237734
-0.00737808779296875,0.00828680856692604,-1.320649962004811
-0.00737629779296875,0.00828680856692604,-1.320649962004811
-0.0073745077929687495,0.00828680856692604,-1.3169426110237734
-0.00737271779296875,0.00458858371434224,-1.3169426110237734
-0.00737092779296875,0.00828680856692604,-1.3169426110237734
-0.00736913779296875,0.004588583714343922,-1.3169426110237734
-0.0073673477929687495,0.00458858371434224,-1.320649962004811
-0.00736555779296875,0.00828680856692604,-1.3243573129858488
-0.00736376779296875,0.00828680856692604,-1.320649962004811
-0.007361977792968749,0.0008903588617634858,-1.3206499620048093
-0.0073601877929687495,0.01198503341950984,-1.3169426110237734
-0.00735839779296875,0.00458858371434224,-1.3169426110237734
-0.00735660779296875,0.00458858371434224,-1.3169426110237734
-0.007354817792968749,0.00828680856692604,-1.3169426110237734
-0.0073530277929687495,0.00458858371434224,-1.320649962004811
-0.00735123779296875,0.0008903588617584406,-1.3169426110237734
-0.00734944779296875,0.00458858371434224,-1.3169426110237734
-0.007347657792968749,0.00458858371434224,-1.3169426110237734
-0.0073458677929687495,0.00828680856692604,-1.3169426110237734
-0.00734407779296875,0.00458858371434224,-1.320649962004811
-0.00734228779296875,0.00458858371434224,-1.320649962004811
-0.007340497792968749,0.00458858371434224,-1.320649962004811
-0.0073387077929687496,0.0008903588617584406,-1.3132352600427357
-0.00733691779296875,0.00828680856692604,-1.3169426110237734
-0.00733512779296875,0.0008903588617584406,-1.320649962004811
-0.007333337792968749,0.00458858371434224,-1.320649962004811
-0.00733154779296875,0.00458858371434224,-1.3132352600427357
-0.00732975779296875,0.0008903588617584406,-1.3243573129858488
-0.00732796779296875,-0.002807865990825359,-1.3169426110237734
-0.007326177792968749,-0.002807865990825359,-1.320649962004811
-0.00732438779296875,-0.002807865990825359,-1.3169426110237734
-0.00732259779296875,0.0008903588617584406,-1.320649962004811
-0.00732080779296875,0.0008903588617584406,-1.320649962004811
-0.007319017792968749,0.0008903588617584406,-1.320649962004811
-0.00731722779296875,0.00458858371434224,-1.320649962004811
-0.00731543779296875,0.0008903588617584406,-1.320649962004811
-0.00731364779296875,0.0008903588617584406,-1.320649962004811
-0.007311857792968749,-0.002807865990825359,-1.320649962004811
-0.00731006779296875,-0.0065060908434091584,-1.320649962004811
-0.00730827779296875,0.0008903588617584406,-1.3132352600427357
-0.00730648779296875,0.0008903588617584406,-1.3169426110237734
-0.0073046977929687494,0.0008903588617584406,-1.320649962004811
-0.00730290779296875,-0.0065060908434091584,-1.320649962004811
-0.00730111779296875,0.0008903588617584406,-1.320649962004811
-0.00729932779296875,0.0008903588617584406,-1.320649962004811
-0.0072975377929687495,-0.0065060908434091584,-1.320649962004811
-0.00729574779296875,-0.002807865990825359,-1.3169426110237734
-0.00729395779296875,0.0008903588617584406,-1.320649962004811
-0.007292167792968749,-0.006506090843407477,-1.3169426110237734
-0.0072903777929687495,-0.002807865990825359,-1.3169426110237734
-0.00728858779296875,-0.002807865990825359,-1.320649962004811
-0.00728679779296875,-0.002807865990825359,-1.320649962004811
-0.007285007792968749,-0.002807865990825359,-1.320649962004811
-0.0072832177929687495,-0.002807865990825359,-1.320649962004811
-0.00728142779296875,-0.002807865990825359,-1.320649962004811
-0.00727963779296875,-0.002807865990825359,-1.3243573129858488
-0.007277847792968749,-0.010204315695992958,-1.320649962004811
-0.0072760577929687495,-0.010204315695992958,-1.3169426110237734
-0.00727426779296875,-0.0065060908434091584,-1.3169426110237734
-0.00727247779296875,-0.0065060908434091584,-1.3169426110237734
-0.007270687792968749,-0.002807865990825359,-1.3169426110237734
-0.0072688977929687495,-0.010204315695992958,-1.3169426110237734
-0.00726710779296875,-0.002807865990825359,-1.320649962004811
-0.00726531779296875,-0.002807865990825359,-1.320649962004811
-0.007263527792968749,-0.002807865990825359,-1.320649962004811
-0.00726173779296875,-0.002807865990825359,-1.3169426110237734
-0.00725994779296875,-0.010204315695992958,-1.3132352600427357
-0.00725815779296875,-0.010204315695992958,-1.3132352600427357
-0.007256367792968749,-0.0065060908434091584,-1.3169426110237734
-0.00725457779296875,-0.002807865990825359,-1.3169426110237734
-0.00725278779296875,-0.002807865990825359,-1.320649962004811
-0.00725099779296875,0.0008903588617584406,-1.3169426110237734
-0.007249207792968749,-0.0065060908434091584,-1.320649962004811
-0.00724741779296875,-0.010204315695992958,-1.3169426110237734
-0.00724562779296875,-0.0065060908434091584,-1.320649962004811
-0.00724383779296875,-0.010204315695992958,-1.320649962004811
-0.007242047792968749,-0.010204315695992958,-1.3243573129858488
-0.00724025779296875,-0.0065060908434091584,-1.320649962004811
-0.00723846779296875,-0.010204315695992958,-1.3169426110237734
-0.00723667779296875,-0.0065060908434091584,-1.3169426110237734
-0.007234887792968749,-0.010204315695992958,-1.3169426110237734
-0.00723309779296875,-0.010204315695992958,-1.320649962004811
-0.00723130779296875,-0.013902540548576758,-1.320649962004811
-0.00722951779296875,-0.013902540548576758,-1.3169426110237734
-0.0072277277929687495,-0.010204315695992958,-1.3169426110237734
-0.00722593779296875,-0.010204315695992958,-1.3169426110237734
-0.00722414779296875,-0.010204315695992958,-1.3243573129858488
-0.00722235779296875,-0.010204315695992958,-1.3169426110237767
-0.0072205677929687495,-0.010204315695992958,-1.3169426110237734
-0.00721877779296875,-0.0065060908434091584,-1.3169426110237734
-0.00721698779296875,-0.010204315695992958,-1.3169426110237734
-0.007215197792968749,-0.013902540548576758,-1.3169426110237752
-0.0072134077929687495,-0.013902540548576758,-1.320649962004811
-0.00721161779296875,-0.017600765401160557,-1.3169426110237734
-0.00720982779296875,-0.010204315695992958,-1.3169426110237734
-0.007208037792968749,-0.013902540548576758,-1.3169426110237734
-0.0072062477929687495,-0.010204315695992958,-1.320649962004811
-0.00720445779296875,-0.013902540548576758,-1.3169426110237734
-0.00720266779296875,-0.010204315695992958,-1.320649962004811
-0.007200877792968749,-0.013902540548576758,-1.320649962004811
-0.0071990877929687495,-0.013902540548576758,-1.3243573129858488
-0.00719729779296875,-0.010204315695992958,-1.320649962004811
-0.00719550779296875,-0.010204315695992958,-1.320649962004811
-0.007193717792968749,-0.013902540548576758,-1.3132352600427357
-0.0071919277929687496,-0.013902540548576758,-1.3169426110237734
-0.00719013779296875,-0.013902540548576758,-1.320649962004811
-0.00718834779296875,-0.013902540548576758,-1.3169426110237734
-0.007186557792968749,-0.010204315695992958,-1.3169426110237734
-0.00718476779296875,-0.013902540548576758,-1.3169426110237734
-0.00718297779296875,-0.017600765401160557,-1.3169426110237734
-0.00718118779296875,-0.021298990253744356,-1.320649962004811
-0.007179397792968749,-0.017600765401160557,-1.320649962004811
