100Hz/acq0050.csv

#Digilent WaveForms Oscilloscope Acquisition
#Device Name: Discovery2
#Serial Number: SN:210321AA28BE
#Date Time: 2023-05-24 14:48:31.672
#Sample rate: 558659Hz
#Samples: 8192
#Trigger: Source: Channel 1 Type: Edge Condition: Rising Level: 800 mV Hyst.: Auto HoldOff: 100 ns
#Channel 1: Range: 1 V/div Offset: 0 V Attenuation: 1 X Sample Mode: Average
#Channel 2: Range: 1 V/div Offset: 0 V Attenuation: 1 X Sample Mode: Average

Time (s),Channel 1 (V),Channel 2 (V)
-0.007742094771796111,0.052665506797928266,-1.3169426110237752
-0.007740304771796111,0.04526905709276571,-1.3206499620048093
-0.0077385147717961116,0.048967281945347836,-1.3169426110237734
-0.007736724771796112,0.048967281945347836,-1.3169426110237734
-0.007734934771796112,0.05266550679793163,-1.3169426110237734
-0.0077331447717961105,0.052665506797928266,-1.3169426110237734
-0.007731354771796111,0.048967281945349515,-1.3169426110237734
-0.007729564771796111,0.05266550679793163,-1.3169426110237752
-0.007727774771796111,0.052665506797928266,-1.320649962004811
-0.007725984771796111,0.045269057092764034,-1.320649962004811
-0.007724194771796112,0.045269057092764034,-1.320649962004811
-0.007722404771796112,0.045269057092764034,-1.3169426110237734
-0.007720614771796112,0.045269057092764034,-1.320649962004811
-0.0077188247717961105,0.045269057092764034,-1.320649962004811
-0.007717034771796111,0.045269057092764034,-1.320649962004811
-0.007715244771796111,0.045269057092764034,-1.320649962004811
-0.007713454771796111,0.045269057092764034,-1.320649962004811
-0.007711664771796111,0.045269057092764034,-1.320649962004811
-0.007709874771796112,0.045269057092764034,-1.3169426110237734
-0.007708084771796112,0.045269057092764034,-1.320649962004811
-0.007706294771796112,0.045269057092764034,-1.3243573129858488
-0.007704504771796111,0.04157083224018024,-1.3169426110237734
-0.007702714771796111,0.04157083224018192,-1.3169426110237734
-0.007700924771796111,0.045269057092762355,-1.3169426110237752
-0.007699134771796111,0.04157083224017856,-1.3206499620048093
-0.0076973447717961115,0.03787260738759644,-1.3169426110237734
-0.007695554771796112,0.03787260738759644,-1.320649962004811
-0.007693764771796112,0.045269057092764034,-1.3169426110237734
-0.007691974771796112,0.045269057092764034,-1.3132352600427357
-0.007690184771796111,0.04157083224018024,-1.3169426110237752
-0.007688394771796111,0.04157083224017856,-1.320649962004811
-0.007686604771796111,0.03787260738759644,-1.320649962004811
-0.007684814771796111,0.03787260738759644,-1.320649962004811
-0.0076830247717961115,0.03787260738759644,-1.320649962004811
-0.007681234771796112,0.04157083224018024,-1.3169426110237734
-0.007679444771796112,0.034174382535012635,-1.320649962004811
-0.007677654771796112,0.04157083224018024,-1.320649962004811
-0.007675864771796111,0.04526905709276067,-1.3206499620048129
-0.007674074771796111,0.037872607387598116,-1.3243573129858488
-0.007672284771796111,0.04157083224018192,-1.324357312985847
-0.007670494771796111,0.04526905709276067,-1.3206499620048093
-0.0076687047717961115,0.03787260738759644,-1.3169426110237734
-0.007666914771796112,0.03787260738759644,-1.3169426110237734
-0.007665124771796112,0.03787260738759644,-1.3243573129858488
-0.0076633347717961105,0.0378726073875998,-1.320649962004811
-0.007661544771796111,0.04157083224017687,-1.320649962004811
-0.007659754771796111,0.034174382535012635,-1.3206499620048093
-0.007657964771796111,0.034174382535014314,-1.3169426110237734
-0.007656174771796111,0.03787260738759476,-1.3169426110237734
-0.007654384771796112,0.034174382535012635,-1.3169426110237734
-0.007652594771796112,0.03047615768242884,-1.3169426110237734
-0.007650804771796112,0.03787260738759644,-1.3169426110237734
-0.0076490147717961105,0.034174382535016,-1.3206499620048078
-0.007647224771796111,0.03787260738759476,-1.3169426110237734
-0.007645434771796111,0.034174382535014314,-1.3169426110237734
-0.007643644771796111,0.03787260738759644,-1.3169426110237716
-0.007641854771796111,0.03787260738759644,-1.3132352600427357
-0.007640064771796112,0.034174382535012635,-1.3169426110237734
-0.007638274771796112,0.034174382535012635,-1.3169426110237734
-0.007636484771796112,0.034174382535012635,-1.3169426110237734
-0.0076346947717961106,0.03047615768242884,-1.3169426110237734
-0.007632904771796111,0.030476157682430522,-1.3169426110237716
-0.007631114771796111,0.034174382535010955,-1.3132352600427375
-0.007629324771796111,0.030476157682430522,-1.3169426110237752
-0.0076275347717961114,0.034174382535012635,-1.320649962004811
-0.007625744771796112,0.034174382535012635,-1.3169426110237734
-0.007623954771796112,0.03047615768242884,-1.3169426110237734
-0.007622164771796112,0.034174382535012635,-1.3169426110237734
-0.007620374771796111,0.034174382535010955,-1.3169426110237734
-0.007618584771796111,0.03047615768242884,-1.3169426110237734
-0.007616794771796111,0.03047615768242884,-1.3169426110237734
-0.007615004771796111,0.03047615768242884,-1.3169426110237716
-0.0076132147717961115,0.03047615768242884,-1.3132352600427357
-0.007611424771796112,0.03047615768242884,-1.320649962004811
-0.007609634771796112,0.026777932829845037,-1.3169426110237734
-0.007607844771796112,0.026777932829845037,-1.320649962004811
-0.007606054771796111,0.03047615768242884,-1.320649962004811
-0.007604264771796111,0.03047615768242884,-1.3206499620048093
-0.007602474771796111,0.030476157682427157,-1.3169426110237716
-0.007600684771796111,0.026777932829845037,-1.3132352600427357
-0.0075988947717961115,0.026777932829845037,-1.3132352600427357
-0.007597104771796112,0.026777932829845037,-1.320649962004811
-0.007595314771796112,0.03047615768242884,-1.3169426110237734
-0.007593524771796112,0.02677793282984672,-1.3169426110237734
-0.007591734771796111,0.02307970797726124,-1.3169426110237734
-0.007589944771796111,0.02307970797726124,-1.3169426110237752
-0.007588154771796111,0.02307970797726292,-1.320649962004811
-0.007586364771796111,0.026777932829843355,-1.320649962004811
-0.007584574771796112,0.02307970797726124,-1.320649962004811
-0.007582784771796112,0.026777932829845037,-1.3169426110237734
-0.007580994771796112,0.026777932829845037,-1.3132352600427357
-0.0075792047717961105,0.02307970797726124,-1.3169426110237767
-0.007577414771796111,0.0230797079772646,-1.320649962004811
-0.007575624771796111,0.03047615768242884,-1.320649962004811
-0.007573834771796111,0.030476157682425477,-1.320649962004811
-0.007572044771796111,0.02307970797726124,-1.320649962004811
-0.007570254771796112,0.02307970797726124,-1.320649962004811
-0.007568464771796112,0.01938148312467744,-1.320649962004811
-0.007566674771796112,0.02307970797726124,-1.320649962004811
-0.0075648847717961105,0.015683258272093638,-1.3169426110237734
-0.007563094771796111,0.01568325827209532,-1.3169426110237734
-0.007561304771796111,0.019381483124679123,-1.3169426110237752
-0.007559514771796111,0.02307970797726292,-1.320649962004811
-0.0075577247717961114,0.026777932829845037,-1.320649962004811
-0.007555934771796112,0.01938148312467744,-1.3169426110237734
-0.007554144771796112,0.02307970797726124,-1.3169426110237734
-0.007552354771796112,0.015683258272093638,-1.3169426110237734
-0.007550564771796111,0.019381483124679123,-1.3169426110237752
-0.007548774771796111,0.02307970797726124,-1.320649962004811
-0.007546984771796111,0.02307970797726124,-1.320649962004811
-0.007545194771796111,0.02307970797726124,-1.3206499620048093
-0.0075434047717961115,0.02307970797726124,-1.3169426110237734
-0.007541614771796112,0.01938148312467744,-1.3169426110237734
-0.007539824771796112,0.02307970797726124,-1.3243573129858488
-0.007538034771796112,0.01938148312467744,-1.3169426110237734
-0.007536244771796111,0.01568325827209532,-1.320649962004811
-0.007534454771796111,0.01938148312467744,-1.320649962004811
-0.007532664771796111,0.01938148312467744,-1.320649962004811
-0.007530874771796111,0.01938148312467744,-1.320649962004811
-0.0075290847717961115,0.01938148312467744,-1.320649962004811
-0.007527294771796112,0.02307970797726124,-1.320649962004811
-0.007525504771796112,0.01938148312467744,-1.3169426110237734
-0.007523714771796112,0.011985033419513203,-1.3206499620048093
-0.007521924771796111,0.01938148312467744,-1.3169426110237752
-0.007520134771796111,0.019381483124674078,-1.320649962004811
-0.007518344771796111,0.01198503341950984,-1.3206499620048093
-0.007516554771796111,0.01198503341951152,-1.3169426110237752
-0.0075147647717961116,0.015683258272093638,-1.320649962004811
-0.007512974771796112,0.01198503341950984,-1.320649962004811
-0.007511184771796112,0.015683258272093638,-1.320649962004811
-0.0075093947717961105,0.015683258272090276,-1.3243573129858421
-0.007507604771796111,0.01198503341950984,-1.3169426110237752
-0.007505814771796111,0.01198503341950984,-1.320649962004811
-0.007504024771796111,0.011985033419508158,-1.320649962004811
-0.007502234771796111,0.00828680856692604,-1.320649962004811
-0.007500444771796112,0.00828680856692604,-1.320649962004811
-0.007498654771796112,0.00828680856692604,-1.320649962004811
-0.007496864771796112,0.00828680856692604,-1.3169426110237734
-0.0074950747717961105,0.011985033419506476,-1.320649962004811
-0.007493284771796111,0.00828680856692604,-1.3206499620048129
-0.007491494771796111,0.00828680856692604,-1.324357312985847
-0.007489704771796111,0.00828680856692604,-1.320649962004811
-0.007487914771796111,0.00828680856692604,-1.320649962004811
-0.007486124771796112,0.00458858371434224,-1.3243573129858488
-0.007484334771796112,0.01198503341950984,-1.3243573129858488
-0.007482544771796112,0.01198503341950984,-1.3243573129858488
-0.007480754771796111,0.008286808566927721,-1.3206499620048129
-0.007478964771796111,0.011985033419508158,-1.324357312985847
-0.007477174771796111,0.00828680856692604,-1.3206499620048093
-0.007475384771796111,0.00828680856692604,-1.3169426110237752
-0.0074735947717961115,0.00828680856692604,-1.320649962004811
-0.007471804771796112,0.00828680856692604,-1.320649962004811
-0.007470014771796112,0.00828680856692604,-1.3169426110237734
-0.007468224771796112,0.00828680856692604,-1.3169426110237734
-0.007466434771796111,0.004588583714345604,-1.3206499620048093
-0.007464644771796111,0.011985033419506476,-1.3169426110237752
-0.007462854771796111,0.004588583714345604,-1.320649962004811
-0.007461064771796111,0.011985033419506476,-1.3206499620048093
-0.0074592747717961115,0.00458858371434224,-1.3169426110237734
-0.007457484771796112,0.00828680856692604,-1.3169426110237734
-0.007455694771796112,0.00828680856692604,-1.320649962004811
-0.007453904771796112,0.00458858371434224,-1.320649962004811
-0.007452114771796111,0.004588583714343922,-1.324357312985847
-0.007450324771796111,0.00828680856692436,-1.320649962004811
-0.007448534771796111,0.00458858371434224,-1.320649962004811
-0.007446744771796111,0.004588583714345604,-1.320649962004811
-0.0074449547717961116,0.01198503341950984,-1.320649962004811
-0.007443164771796112,0.01198503341950984,-1.320649962004811
-0.007441374771796112,0.0008903588617584406,-1.320649962004811
-0.0074395847717961105,0.0008903588617618041,-1.3169426110237767
-0.007437794771796111,0.004588583714340558,-1.3206499620048093
-0.007436004771796111,0.0008903588617601223,-1.3169426110237752
-0.007434214771796111,0.004588583714340558,-1.3206499620048093
-0.007432424771796111,0.0008903588617584406,-1.3169426110237734
-0.007430634771796112,0.0008903588617584406,-1.3169426110237734
-0.007428844771796112,0.0008903588617584406,-1.320649962004811
-0.007427054771796112,0.00458858371434224,-1.3169426110237734
-0.0074252647717961105,0.0008903588617618041,-1.3243573129858455
-0.007423474771796111,0.004588583714340558,-1.3206499620048093
-0.007421684771796111,0.0008903588617567589,-1.3169426110237752
-0.007419894771796111,-0.002807865990823677,-1.320649962004811
-0.007418104771796111,0.0008903588617584406,-1.320649962004811
-0.007416314771796112,0.00828680856692604,-1.320649962004811
-0.007414524771796112,0.0008903588617584406,-1.320649962004811
-0.007412734771796112,-0.002807865990825359,-1.320649962004811
-0.007410944771796111,0.0008903588617567589,-1.320649962004811
-0.007409154771796111,-0.002807865990823677,-1.3206499620048093
-0.007407364771796111,0.0008903588617584406,-1.3169426110237734
-0.007405574771796111,0.0008903588617584406,-1.3169426110237767
-0.0074037847717961115,0.0008903588617584406,-1.3243573129858488
-0.007401994771796112,-0.002807865990825359,-1.320649962004811
-0.007400204771796112,-0.0065060908434091584,-1.320649962004811
-0.007398414771796112,-0.0065060908434091584,-1.320649962004811
-0.007396624771796111,-0.002807865990823677,-1.320649962004811
-0.007394834771796111,0.0008903588617584406,-1.3206499620048093
-0.007393044771796111,0.0008903588617584406,-1.3169426110237752
-0.007391254771796111,0.0008903588617550771,-1.3206499620048093
-0.0073894647717961115,-0.0065060908434091584,-1.3169426110237734
-0.007387674771796112,-0.002807865990825359,-1.3169426110237734
-0.007385884771796112,0.0008903588617584406,-1.3169426110237734
-0.007384094771796112,-0.002807865990825359,-1.320649962004811
-0.007382304771796111,-0.002807865990825359,-1.3206499620048093
-0.007380514771796111,-0.0028078659908219953,-1.3169426110237752
-0.007378724771796111,0.004588583714340558,-1.3206499620048093
-0.007376934771796111,0.0008903588617584406,-1.3169426110237734
-0.0073751447717961115,0.0008903588617584406,-1.3169426110237734
-0.007373354771796112,-0.002807865990825359,-1.3169426110237734
-0.007371564771796112,-0.002807865990825359,-1.3169426110237734
-0.007369774771796112,-0.002807865990825359,-1.3206499620048093
-0.007367984771796111,-0.002807865990825359,-1.3169426110237734
-0.007366194771796111,-0.002807865990825359,-1.3169426110237752
-0.007364404771796111,-0.002807865990825359,-1.320649962004811
-0.007362614771796111,-0.0028078659908270407,-1.320649962004811
-0.007360824771796112,-0.0065060908434091584,-1.320649962004811
-0.007359034771796112,-0.002807865990825359,-1.320649962004811
-0.007357244771796112,-0.010204315695992958,-1.3132352600427357
-0.0073554547717961105,-0.010204315695989594,-1.313235260042739
-0.007353664771796111,-0.0065060908434091584,-1.3169426110237767
-0.007351874771796111,-0.0065060908434091584,-1.3243573129858455
-0.007350084771796111,-0.006506090843407477,-1.3169426110237752
-0.007348294771796111,-0.002807865990825359,-1.320649962004811
-0.007346504771796112,-0.010204315695992958,-1.320649962004811
-0.007344714771796112,-0.010204315695992958,-1.320649962004811
-0.007342924771796112,-0.0065060908434091584,-1.320649962004811
-0.0073411347717961106,-0.0028078659908287226,-1.320649962004811
-0.007339344771796111,-0.0065060908434091584,-1.3206499620048129
-0.007337554771796111,-0.0065060908434091584,-1.324357312985847
-0.007335764771796111,-0.0065060908434091584,-1.320649962004811
-0.0073339747717961114,-0.0065060908434091584,-1.320649962004811
-0.007332184771796112,-0.010204315695992958,-1.3169426110237734
-0.007330394771796112,-0.0065060908434091584,-1.3169426110237734
-0.007328604771796112,-0.0065060908434091584,-1.320649962004811
-0.007326814771796111,-0.010204315695992958,-1.320649962004811
-0.007325024771796111,-0.010204315695991277,-1.3206499620048129
-0.007323234771796111,-0.00650609084341084,-1.324357312985847
-0.007321444771796111,-0.010204315695992958,-1.320649962004811
-0.0073196547717961115,-0.010204315695992958,-1.320649962004811
-0.007317864771796112,-0.013902540548576758,-1.320649962004811
-0.007316074771796112,-0.013902540548576758,-1.3132352600427357
-0.007314284771796112,-0.017600765401160557,-1.3169426110237734
-0.007312494771796111,-0.017600765401158874,-1.3169426110237767
-0.007310704771796111,-0.013902540548576758,-1.324357312985847
-0.007308914771796111,-0.013902540548575077,-1.3206499620048093
-0.007307124771796111,-0.010204315695992958,-1.3169426110237734
-0.0073053347717961115,-0.010204315695992958,-1.3169426110237734
-0.007303544771796112,-0.010204315695992958,-1.320649962004811
-0.007301754771796112,-0.010204315695992958,-1.3169426110237734
-0.007299964771796112,-0.013902540548575076,-1.3206499620048093
-0.007298174771796111,-0.006506090843412522,-1.3169426110237734
-0.007296384771796111,-0.013902540548576758,-1.3169426110237752
-0.007294594771796111,-0.013902540548575077,-1.3206499620048093
-0.007292804771796111,-0.010204315695994639,-1.3169426110237734
-0.007291014771796112,-0.013902540548576758,-1.3169426110237734
-0.007289224771796112,-0.010204315695992958,-1.320649962004811
-0.007287434771796112,-0.013902540548576758,-1.320649962004811
-0.0072856447717961105,-0.010204315695992958,-1.320649962004811
-0.007283854771796111,-0.010204315695994639,-1.3206499620048129
-0.007282064771796111,-0.013902540548575077,-1.3243573129858488
-0.007280274771796111,-0.010204315695994639,-1.324357312985847
-0.007278484771796111,-0.013902540548576758,-1.320649962004811
-0.007276694771796112,-0.010204315695992958,-1.320649962004811
-0.007274904771796112,-0.013902540548576758,-1.3169426110237734
-0.007273114771796112,-0.010204315695992958,-1.320649962004811
-0.0072713247717961105,-0.010204315695996322,-1.3206499620048078
-0.007269534771796111,-0.01390254054857844,-1.3169426110237752
-0.007267744771796111,-0.017600765401158874,-1.320649962004811
-0.007265954771796111,-0.013902540548576758,-1.3206499620048093
-0.007264164771796111,-0.013902540548576758,-1.3169426110237734
-0.007262374771796112,-0.013902540548576758,-1.320649962004811
-0.007260584771796112,-0.017600765401160557,-1.3243573129858488
-0.007258794771796112,-0.021298990253744356,-1.3169426110237734
-0.007257004771796111,-0.010204315695996322,-1.3206499620048093
-0.007255214771796111,-0.017600765401157195,-1.3169426110237734
-0.007253424771796111,-0.010204315695994639,-1.3169426110237752
-0.007251634771796111,-0.013902540548576758,-1.320649962004811
-0.0072498447717961115,-0.013902540548576758,-1.320649962004811
-0.007248054771796112,-0.013902540548576758,-1.320649962004811
-0.007246264771796112,-0.021298990253744356,-1.3243573129858488
-0.007244474771796112,-0.017600765401160557,-1.320649962004811
-0.007242684771796111,-0.017600765401160557,-1.320649962004811
-0.007240894771796111,-0.01760076540116224,-1.320649962004811
-0.007239104771796111,-0.021298990253742673,-1.320649962004811
-0.007237314771796111,-0.017600765401158874,-1.3206499620048093
-0.0072355247717961115,-0.013902540548576758,-1.3169426110237734
-0.007233734771796112,-0.017600765401160557,-1.3169426110237734
-0.007231944771796112,-0.017600765401160557,-1.320649962004811
-0.007230154771796112,-0.017600765401160557,-1.320649962004811
-0.007228364771796111,-0.021298990253744356,-1.3169426110237716
-0.007226574771796111,-0.021298990253742673,-1.3132352600427375
-0.007224784771796111,-0.017600765401160557,-1.3169426110237716
-0.007222994771796111,-0.017600765401160557,-1.313235260042739
-0.0072212047717961116,-0.017600765401160557,-1.320649962004811
-0.007219414771796112,-0.017600765401160557,-1.3169426110237734
-0.007217624771796112,-0.021298990253744356,-1.3169426110237734
-0.0072158347717961105,-0.01760076540116392,-1.3169426110237767
-0.007214044771796111,-0.021298990253742673,-1.320649962004811
-0.007212254771796111,-0.017600765401160557,-1.320649962004811
-0.007210464771796111,-0.01760076540116224,-1.3206499620048078
-0.007208674771796111,-0.021298990253744356,-1.3132352600427357
-0.007206884771796112,-0.017600765401160557,-1.3132352600427357
-0.007205094771796112,-0.021298990253744356,-1.3169426110237734
-0.007203304771796112,-0.021298990253744356,-1.320649962004811
-0.0072015147717961105,-0.028695439958901867,-1.320649962004811
-0.007199724771796111,-0.01760076540116224,-1.3206499620048093
-0.007197934771796111,-0.02129899025374604,-1.3169426110237752
-0.007196144771796111,-0.024997215106328158,-1.320649962004811
-0.007194354771796111,-0.024997215106328158,-1.320649962004811
-0.007192564771796112,-0.024997215106328158,-1.3169426110237734
-0.007190774771796112,-0.024997215106328158,-1.320649962004811
-0.007188984771796112,-0.028695439958911956,-1.3169426110237734
