100Hz/acq0086.csv

#Digilent WaveForms Oscilloscope Acquisition
#Device Name: Discovery2
#Serial Number: SN:210321AA28BE
#Date Time: 2023-05-24 14:48:32.726
#Sample rate: 558659Hz
#Samples: 8192
#Trigger: Source: Channel 1 Type: Edge Condition: Rising Level: 800 mV Hyst.: Auto HoldOff: 100 ns
#Channel 1: Range: 1 V/div Offset: 0 V Attenuation: 1 X Sample Mode: Average
#Channel 2: Range: 1 V/div Offset: 0 V Attenuation: 1 X Sample Mode: Average

Time (s),Channel 1 (V),Channel 2 (V)
-0.00774141128755603,0.00828680856692604,-1.3243573129858488
-0.0077396212875560306,0.00828680856692604,-1.3169426110237767
-0.00773783128755603,0.01198503341950984,-1.320649962004811
-0.00773604128755603,0.01198503341950984,-1.3169426110237734
-0.00773425128755603,0.00828680856692604,-1.3169426110237734
-0.00773246128755603,0.004588583714343922,-1.3169426110237734
-0.00773067128755603,0.00828680856692604,-1.3169426110237734
-0.00772888128755603,0.00828680856692604,-1.320649962004811
-0.00772709128755603,0.01198503341950984,-1.3132352600427357
-0.00772530128755603,0.00828680856692604,-1.3169426110237734
-0.00772351128755603,0.00828680856692604,-1.320649962004811
-0.00772172128755603,0.01198503341950984,-1.320649962004811
-0.00771993128755603,0.00828680856692604,-1.320649962004811
-0.00771814128755603,0.00458858371434224,-1.3243573129858488
-0.00771635128755603,0.00458858371434224,-1.320649962004811
-0.00771456128755603,0.00828680856692604,-1.3169426110237734
-0.00771277128755603,0.0008903588617584406,-1.320649962004811
-0.00771098128755603,0.00458858371434224,-1.320649962004811
-0.00770919128755603,0.00828680856692604,-1.3132352600427357
-0.00770740128755603,0.00828680856692604,-1.3169426110237734
-0.0077056112875560304,0.00828680856692604,-1.3169426110237734
-0.00770382128755603,0.00458858371434224,-1.3169426110237734
-0.00770203128755603,0.00458858371434224,-1.320649962004811
-0.00770024128755603,0.00828680856692604,-1.320649962004811
-0.0076984512875560305,0.00458858371434224,-1.320649962004811
-0.00769666128755603,0.00458858371434224,-1.3169426110237734
-0.00769487128755603,-0.002807865990825359,-1.3169426110237734
-0.00769308128755603,0.0008903588617584406,-1.320649962004811
-0.0076912912875560305,-0.002807865990825359,-1.320649962004811
-0.00768950128755603,-0.002807865990825359,-1.3169426110237734
-0.00768771128755603,0.0008903588617584406,-1.3132352600427357
-0.00768592128755603,-0.002807865990825359,-1.320649962004811
-0.0076841312875560305,-0.002807865990825359,-1.320649962004811
-0.00768234128755603,-0.0065060908434091584,-1.320649962004811
-0.00768055128755603,0.0008903588617584406,-1.3243573129858488
-0.00767876128755603,-0.002807865990825359,-1.3169426110237734
-0.0076769712875560305,-0.002807865990825359,-1.320649962004811
-0.00767518128755603,-0.002807865990825359,-1.320649962004811
-0.00767339128755603,-0.002807865990825359,-1.3169426110237734
-0.00767160128755603,-0.002807865990825359,-1.3169426110237734
-0.0076698112875560305,-0.002807865990825359,-1.3169426110237734
-0.00766802128755603,-0.002807865990825359,-1.3169426110237734
-0.00766623128755603,-0.002807865990825359,-1.320649962004811
-0.00766444128755603,0.0008903588617584406,-1.320649962004811
-0.00766265128755603,-0.0065060908434091584,-1.3206499620048093
-0.00766086128755603,-0.0065060908434091584,-1.3169426110237734
-0.00765907128755603,-0.0065060908434091584,-1.3243573129858488
-0.00765728128755603,-0.002807865990825359,-1.3243573129858488
-0.00765549128755603,-0.0028078659908270407,-1.3169426110237734
-0.00765370128755603,-0.0065060908434091584,-1.3169426110237734
-0.00765191128755603,-0.002807865990825359,-1.3169426110237734
-0.00765012128755603,-0.013902540548576758,-1.320649962004811
-0.00764833128755603,-0.010204315695992958,-1.3132352600427357
-0.00764654128755603,-0.010204315695992958,-1.3169426110237734
-0.00764475128755603,-0.013902540548576758,-1.320649962004811
-0.00764296128755603,-0.013902540548576758,-1.320649962004811
-0.00764117128755603,-0.010204315695992958,-1.320649962004811
-0.00763938128755603,-0.0065060908434091584,-1.3169426110237734
-0.00763759128755603,-0.002807865990825359,-1.320649962004811
-0.00763580128755603,-0.013902540548576758,-1.3243573129858488
-0.00763401128755603,-0.010204315695992958,-1.3243573129858488
-0.00763222128755603,-0.013902540548576758,-1.320649962004811
-0.00763043128755603,-0.013902540548576758,-1.320649962004811
-0.0076286412875560304,-0.010204315695992958,-1.3243573129858488
-0.00762685128755603,-0.013902540548576758,-1.320649962004811
-0.00762506128755603,-0.010204315695992958,-1.320649962004811
-0.00762327128755603,-0.013902540548576758,-1.320649962004811
-0.0076214812875560305,-0.017600765401160557,-1.320649962004811
-0.00761969128755603,-0.013902540548576758,-1.320649962004811
-0.00761790128755603,-0.013902540548576758,-1.320649962004811
-0.00761611128755603,-0.017600765401160557,-1.320649962004811
-0.0076143212875560305,-0.017600765401160557,-1.3169426110237734
-0.00761253128755603,-0.017600765401160557,-1.3169426110237734
-0.00761074128755603,-0.017600765401160557,-1.320649962004811
-0.00760895128755603,-0.010204315695992958,-1.320649962004811
-0.0076071612875560305,-0.017600765401160557,-1.320649962004811
-0.00760537128755603,-0.017600765401160557,-1.3243573129858488
-0.00760358128755603,-0.017600765401160557,-1.3243573129858488
-0.00760179128755603,-0.021298990253744356,-1.3169426110237734
-0.0076000012875560305,-0.013902540548576758,-1.320649962004811
-0.00759821128755603,-0.013902540548576758,-1.320649962004811
-0.00759642128755603,-0.017600765401160557,-1.320649962004811
-0.00759463128755603,-0.017600765401160557,-1.3169426110237734
-0.0075928412875560305,-0.013902540548578441,-1.3169426110237734
-0.00759105128755603,-0.017600765401160557,-1.3169426110237734
-0.00758926128755603,-0.017600765401160557,-1.3132352600427357
-0.00758747128755603,-0.017600765401160557,-1.3169426110237734
-0.00758568128755603,-0.017600765401160557,-1.3206499620048093
-0.00758389128755603,-0.017600765401160557,-1.3169426110237734
-0.00758210128755603,-0.021298990253744356,-1.3132352600427357
-0.00758031128755603,-0.024997215106328158,-1.3169426110237734
-0.00757852128755603,-0.021298990253744356,-1.3169426110237734
-0.00757673128755603,-0.024997215106328158,-1.3169426110237734
-0.00757494128755603,-0.021298990253744356,-1.320649962004811
-0.00757315128755603,-0.021298990253744356,-1.3169426110237734
-0.00757136128755603,-0.021298990253744356,-1.3169426110237734
-0.00756957128755603,-0.021298990253744356,-1.3169426110237734
-0.00756778128755603,-0.024997215106328158,-1.320649962004811
-0.00756599128755603,-0.024997215106328158,-1.3169426110237734
-0.00756420128755603,-0.024997215106328158,-1.320649962004811
-0.00756241128755603,-0.028695439958911956,-1.3169426110237734
-0.00756062128755603,-0.021298990253744356,-1.3169426110237734
-0.00755883128755603,-0.021298990253744356,-1.3169426110237734
-0.00755704128755603,-0.024997215106328158,-1.3280646639668865
-0.00755525128755603,-0.028695439958911956,-1.3243573129858488
-0.00755346128755603,-0.024997215106328158,-1.320649962004811
-0.0075516712875560305,-0.028695439958911956,-1.3169426110237734
-0.00754988128755603,-0.028695439958911956,-1.320649962004811
-0.00754809128755603,-0.024997215106328158,-1.3169426110237734
-0.00754630128755603,-0.028695439958911956,-1.320649962004811
-0.0075445112875560305,-0.024997215106328158,-1.320649962004811
-0.00754272128755603,-0.021298990253744356,-1.320649962004811
-0.00754093128755603,-0.024997215106328158,-1.320649962004811
-0.00753914128755603,-0.021298990253744356,-1.3243573129858488
-0.0075373512875560305,-0.024997215106328158,-1.320649962004811
-0.00753556128755603,-0.028695439958911956,-1.320649962004811
-0.00753377128755603,-0.028695439958911956,-1.320649962004811
-0.00753198128755603,-0.028695439958911956,-1.320649962004811
-0.0075301912875560305,-0.032393664811495755,-1.320649962004811
-0.00752840128755603,-0.032393664811495755,-1.3169426110237734
-0.00752661128755603,-0.032393664811495755,-1.320649962004811
-0.00752482128755603,-0.032393664811495755,-1.320649962004811
-0.0075230312875560305,-0.03609188966407788,-1.320649962004811
-0.00752124128755603,-0.032393664811495755,-1.3169426110237734
-0.00751945128755603,-0.032393664811495755,-1.320649962004811
-0.00751766128755603,-0.024997215106328158,-1.320649962004811
-0.0075158712875560306,-0.024997215106328158,-1.3169426110237752
-0.00751408128755603,-0.024997215106328158,-1.320649962004811
-0.00751229128755603,-0.024997215106328158,-1.320649962004811
-0.00751050128755603,-0.03609188966407956,-1.3169426110237734
-0.00750871128755603,-0.024997215106328158,-1.320649962004811
-0.00750692128755603,-0.024997215106328158,-1.320649962004811
-0.00750513128755603,-0.03609188966407956,-1.320649962004811
-0.00750334128755603,-0.028695439958911956,-1.3169426110237734
-0.00750155128755603,-0.032393664811495755,-1.320649962004811
-0.00749976128755603,-0.032393664811495755,-1.320649962004811
-0.00749797128755603,-0.03609188966407956,-1.3169426110237734
-0.00749618128755603,-0.032393664811495755,-1.3169426110237734
-0.00749439128755603,-0.032393664811495755,-1.320649962004811
-0.00749260128755603,-0.03609188966407956,-1.3169426110237734
-0.00749081128755603,-0.03609188966407956,-1.3169426110237734
-0.00748902128755603,-0.032393664811495755,-1.3169426110237734
-0.00748723128755603,-0.032393664811495755,-1.320649962004811
-0.00748544128755603,-0.03609188966407956,-1.3169426110237734
-0.00748365128755603,-0.03609188966407956,-1.3169426110237734
-0.0074818612875560304,-0.03979011451666335,-1.3169426110237734
-0.00748007128755603,-0.03979011451666335,-1.3169426110237734
-0.00747828128755603,-0.03979011451666335,-1.320649962004811
-0.00747649128755603,-0.03609188966407956,-1.320649962004811
-0.0074747012875560305,-0.03609188966407956,-1.320649962004811
-0.00747291128755603,-0.03609188966407956,-1.3169426110237734
-0.00747112128755603,-0.03609188966407956,-1.3243573129858488
-0.00746933128755603,-0.03609188966407956,-1.3169426110237734
-0.0074675412875560305,-0.043488339369247155,-1.320649962004811
-0.00746575128755603,-0.03609188966407956,-1.3169426110237734
-0.00746396128755603,-0.043488339369247155,-1.3169426110237734
-0.00746217128755603,-0.043488339369247155,-1.3169426110237734
-0.0074603812875560305,-0.043488339369247155,-1.3169426110237734
-0.00745859128755603,-0.03979011451666335,-1.320649962004811
-0.00745680128755603,-0.043488339369247155,-1.3169426110237734
-0.00745501128755603,-0.043488339369247155,-1.3169426110237734
-0.0074532212875560305,-0.043488339369247155,-1.320649962004811
-0.00745143128755603,-0.03979011451666335,-1.320649962004811
-0.00744964128755603,-0.03609188966407956,-1.320649962004811
-0.00744785128755603,-0.043488339369247155,-1.3132352600427357
-0.0074460612875560305,-0.03979011451666503,-1.3169426110237716
-0.00744427128755603,-0.043488339369247155,-1.320649962004811
-0.00744248128755603,-0.04718656422183096,-1.3169426110237734
-0.00744069128755603,-0.043488339369247155,-1.320649962004811
-0.00743890128755603,-0.04718656422183096,-1.320649962004811
-0.00743711128755603,-0.04718656422183096,-1.320649962004811
-0.00743532128755603,-0.043488339369247155,-1.320649962004811
-0.00743353128755603,-0.03979011451666335,-1.3169426110237734
-0.00743174128755603,-0.043488339369247155,-1.320649962004811
-0.00742995128755603,-0.043488339369247155,-1.320649962004811
-0.00742816128755603,-0.043488339369247155,-1.320649962004811
-0.00742637128755603,-0.04718656422183096,-1.3169426110237734
-0.00742458128755603,-0.043488339369247155,-1.3169426110237734
-0.00742279128755603,-0.04718656422183096,-1.3169426110237734
-0.00742100128755603,-0.04718656422183096,-1.3132352600427357
-0.00741921128755603,-0.04718656422183096,-1.3169426110237734
-0.00741742128755603,-0.04718656422183096,-1.320649962004811
-0.00741563128755603,-0.04718656422183096,-1.320649962004811
-0.00741384128755603,-0.04718656422183096,-1.3280646639668865
-0.00741205128755603,-0.04718656422183096,-1.320649962004811
-0.00741026128755603,-0.05088478907441475,-1.3169426110237734
-0.00740847128755603,-0.043488339369247155,-1.3169426110237734
-0.00740668128755603,-0.04718656422183096,-1.3169426110237734
-0.0074048912875560305,-0.043488339369247155,-1.3169426110237734
-0.00740310128755603,-0.05088478907441475,-1.3169426110237734
-0.00740131128755603,-0.043488339369247155,-1.320649962004811
-0.00739952128755603,-0.05088478907441475,-1.320649962004811
-0.0073977312875560305,-0.04718656422183096,-1.320649962004811
-0.00739594128755603,-0.04718656422183096,-1.3243573129858488
-0.00739415128755603,-0.04718656422183096,-1.320649962004811
-0.00739236128755603,-0.05088478907441475,-1.3169426110237734
-0.0073905712875560305,-0.054583013926998554,-1.320649962004811
-0.00738878128755603,-0.04718656422183096,-1.320649962004811
-0.00738699128755603,-0.043488339369247155,-1.320649962004811
-0.00738520128755603,-0.04718656422183096,-1.320649962004811
-0.0073834112875560305,-0.04718656422183096,-1.3132352600427357
-0.00738162128755603,-0.04718656422183096,-1.320649962004811
-0.00737983128755603,-0.05088478907441475,-1.3169426110237734
-0.00737804128755603,-0.04718656422183096,-1.3169426110237734
-0.0073762512875560305,-0.04718656422183096,-1.3169426110237734
-0.00737446128755603,-0.05088478907441475,-1.320649962004811
-0.00737267128755603,-0.054583013926998554,-1.3243573129858488
-0.00737088128755603,-0.05828123877958235,-1.3243573129858488
-0.0073690912875560306,-0.05458301392700023,-1.3206499620048129
-0.00736730128755603,-0.054583013926998554,-1.3169426110237734
-0.00736551128755603,-0.05088478907441475,-1.320649962004811
-0.00736372128755603,-0.054583013926998554,-1.3132352600427357
-0.00736193128755603,-0.05828123877958067,-1.3206499620048093
-0.00736014128755603,-0.054583013926998554,-1.3169426110237734
-0.00735835128755603,-0.054583013926998554,-1.3169426110237734
-0.00735656128755603,-0.054583013926998554,-1.3169426110237734
-0.00735477128755603,-0.05828123877958235,-1.3132352600427357
-0.00735298128755603,-0.05828123877958235,-1.320649962004811
-0.00735119128755603,-0.054583013926998554,-1.3132352600427357
-0.00734940128755603,-0.054583013926998554,-1.320649962004811
-0.00734761128755603,-0.054583013926998554,-1.3169426110237734
-0.00734582128755603,-0.05828123877958235,-1.3132352600427357
-0.00734403128755603,-0.05828123877958235,-1.3169426110237734
-0.00734224128755603,-0.05828123877958235,-1.320649962004811
-0.00734045128755603,-0.054583013926998554,-1.320649962004811
-0.00733866128755603,-0.054583013926998554,-1.3169426110237734
-0.00733687128755603,-0.05828123877958235,-1.320649962004811
-0.0073350812875560304,-0.05828123877958235,-1.320649962004811
-0.00733329128755603,-0.05828123877958235,-1.3132352600427357
-0.00733150128755603,-0.054583013926998554,-1.3243573129858488
-0.00732971128755603,-0.05828123877958235,-1.3169426110237734
-0.0073279212875560305,-0.05828123877958235,-1.3169426110237734
-0.00732613128755603,-0.06197946363216615,-1.3169426110237734
-0.00732434128755603,-0.05828123877958235,-1.3132352600427357
-0.00732255128755603,-0.06197946363216615,-1.3132352600427357
-0.0073207612875560305,-0.054583013926998554,-1.3132352600427357
-0.00731897128755603,-0.054583013926998554,-1.3169426110237734
-0.00731718128755603,-0.054583013926998554,-1.3169426110237734
-0.00731539128755603,-0.05828123877958235,-1.3169426110237734
-0.0073136012875560305,-0.05828123877958235,-1.3132352600427357
-0.00731181128755603,-0.054583013926998554,-1.320649962004811
-0.00731002128755603,-0.054583013926998554,-1.320649962004811
-0.00730823128755603,-0.05828123877958235,-1.3243573129858488
-0.0073064412875560305,-0.054583013926998554,-1.320649962004811
-0.00730465128755603,-0.054583013926998554,-1.3169426110237734
-0.00730286128755603,-0.05828123877958235,-1.3169426110237734
-0.00730107128755603,-0.05828123877958235,-1.3169426110237734
-0.0072992812875560305,-0.05828123877958235,-1.3206499620048093
-0.00729749128755603,-0.05828123877958235,-1.320649962004811
-0.00729570128755603,-0.06197946363216615,-1.320649962004811
-0.00729391128755603,-0.06197946363216615,-1.320649962004811
-0.00729212128755603,-0.06197946363216615,-1.320649962004811
-0.00729033128755603,-0.06197946363216615,-1.320649962004811
-0.00728854128755603,-0.05828123877958235,-1.3169426110237734
-0.00728675128755603,-0.06197946363216615,-1.3169426110237734
-0.00728496128755603,-0.06197946363216615,-1.3169426110237734
-0.00728317128755603,-0.06197946363216615,-1.3169426110237734
-0.00728138128755603,-0.06937591333733376,-1.3132352600427357
-0.00727959128755603,-0.06197946363216615,-1.3169426110237734
-0.00727780128755603,-0.06197946363216615,-1.3169426110237734
-0.00727601128755603,-0.06567768848474995,-1.320649962004811
-0.00727422128755603,-0.06197946363216615,-1.320649962004811
-0.00727243128755603,-0.05828123877958235,-1.320649962004811
-0.00727064128755603,-0.05828123877958235,-1.3169426110237734
-0.00726885128755603,-0.06567768848474995,-1.320649962004811
-0.00726706128755603,-0.06567768848474995,-1.320649962004811
-0.00726527128755603,-0.06567768848474995,-1.3169426110237734
-0.00726348128755603,-0.05828123877958235,-1.320649962004811
-0.00726169128755603,-0.06197946363216615,-1.3169426110237734
-0.00725990128755603,-0.06567768848474995,-1.320649962004811
-0.0072581112875560305,-0.06197946363216615,-1.320649962004811
-0.00725632128755603,-0.06567768848474995,-1.320649962004811
-0.00725453128755603,-0.06197946363216615,-1.3169426110237734
-0.00725274128755603,-0.06567768848474995,-1.320649962004811
-0.0072509512875560305,-0.06937591333733376,-1.320649962004811
-0.00724916128755603,-0.06567768848474995,-1.3243573129858488
-0.00724737128755603,-0.06567768848474995,-1.3169426110237734
-0.00724558128755603,-0.06937591333733376,-1.3169426110237734
-0.0072437912875560305,-0.06567768848474995,-1.320649962004811
-0.00724200128755603,-0.06197946363216615,-1.3169426110237734
-0.00724021128755603,-0.06567768848474995,-1.320649962004811
-0.00723842128755603,-0.06567768848474995,-1.3169426110237734
-0.0072366312875560305,-0.06567768848474995,-1.320649962004811
-0.00723484128755603,-0.06567768848474995,-1.320649962004811
-0.00723305128755603,-0.06197946363216615,-1.320649962004811
-0.00723126128755603,-0.06567768848474995,-1.3243573129858488
-0.0072294712875560305,-0.06567768848474995,-1.3169426110237734
-0.00722768128755603,-0.06567768848474995,-1.320649962004811
-0.00722589128755603,-0.06937591333733376,-1.320649962004811
-0.00722410128755603,-0.06567768848474995,-1.3169426110237734
-0.0072223112875560306,-0.06567768848474995,-1.3169426110237734
-0.00722052128755603,-0.06937591333733376,-1.3169426110237734
-0.00721873128755603,-0.06197946363216615,-1.3169426110237734
-0.00721694128755603,-0.06937591333733376,-1.320649962004811
-0.00721515128755603,-0.06937591333733376,-1.3169426110237734
-0.00721336128755603,-0.06937591333733376,-1.3169426110237734
-0.00721157128755603,-0.06937591333733376,-1.3169426110237734
-0.00720978128755603,-0.06567768848474995,-1.3169426110237734
-0.00720799128755603,-0.06937591333733376,-1.320649962004811
-0.00720620128755603,-0.07307413818991755,-1.3169426110237734
-0.00720441128755603,-0.06937591333733376,-1.320649962004811
-0.00720262128755603,-0.06937591333733376,-1.3169426110237734
-0.00720083128755603,-0.07307413818991755,-1.320649962004811
-0.00719904128755603,-0.06937591333733376,-1.3169426110237734
-0.00719725128755603,-0.06937591333733376,-1.3169426110237734
-0.00719546128755603,-0.06937591333733376,-1.3132352600427357
-0.00719367128755603,-0.06937591333733376,-1.3169426110237734
-0.00719188128755603,-0.06937591333733376,-1.3132352600427357
-0.00719009128755603,-0.07307413818991755,-1.320649962004811
-0.0071883012875560304,-0.06937591333733376,-1.320649962004811
-0.00718651128755603,-0.07307413818991755,-1.3169426110237734
-0.00718472128755603,-0.06937591333733376,-1.320649962004811
-0.00718293128755603,-0.06937591333733376,-1.3132352600427357
