100Hz/acq0085.csv

#Digilent WaveForms Oscilloscope Acquisition
#Device Name: Discovery2
#Serial Number: SN:210321AA28BE
#Date Time: 2023-05-24 14:48:32.697
#Sample rate: 558659Hz
#Samples: 8192
#Trigger: Source: Channel 1 Type: Edge Condition: Rising Level: 800 mV Hyst.: Auto HoldOff: 100 ns
#Channel 1: Range: 1 V/div Offset: 0 V Attenuation: 1 X Sample Mode: Average
#Channel 2: Range: 1 V/div Offset: 0 V Attenuation: 1 X Sample Mode: Average

Time (s),Channel 1 (V),Channel 2 (V)
-0.0077412804803931754,0.026777932829845037,-1.320649962004811
-0.007739490480393176,0.019381483124680805,-1.320649962004811
-0.007737700480393175,0.015683258272093638,-1.3243573129858488
-0.007735910480393175,0.02307970797726124,-1.320649962004811
-0.0077341204803931755,0.01938148312467744,-1.3243573129858488
-0.007732330480393175,0.019381483124679123,-1.3206499620048093
-0.007730540480393175,0.02307970797726124,-1.3169426110237734
-0.007728750480393175,0.02307970797726124,-1.3169426110237734
-0.0077269604803931755,0.01938148312467744,-1.3169426110237734
-0.007725170480393175,0.015683258272093638,-1.320649962004811
-0.007723380480393175,0.015683258272093638,-1.320649962004811
-0.007721590480393175,0.01198503341950984,-1.320649962004811
-0.0077198004803931755,0.01198503341950984,-1.320649962004811
-0.007718010480393175,0.02307970797726124,-1.320649962004811
-0.007716220480393175,0.01938148312467744,-1.320649962004811
-0.007714430480393175,0.01198503341950984,-1.3243573129858488
-0.0077126404803931755,0.01938148312467744,-1.320649962004811
-0.007710850480393175,0.015683258272093638,-1.3132352600427357
-0.007709060480393175,0.01938148312467744,-1.3169426110237734
-0.007707270480393175,0.015683258272093638,-1.3169426110237734
-0.0077054804803931756,0.01938148312467744,-1.320649962004811
-0.007703690480393175,0.015683258272093638,-1.320649962004811
-0.007701900480393175,0.01938148312467744,-1.3243573129858488
-0.007700110480393175,0.01938148312467744,-1.3243573129858488
-0.007698320480393176,0.01938148312467744,-1.320649962004811
-0.007696530480393175,0.01198503341950984,-1.3243573129858488
-0.007694740480393175,0.015683258272093638,-1.3243573129858488
-0.007692950480393175,0.01938148312467744,-1.320649962004811
-0.007691160480393176,0.00828680856692604,-1.3132352600427357
-0.007689370480393175,0.01198503341950984,-1.3169426110237734
-0.007687580480393175,0.00828680856692604,-1.320649962004811
-0.007685790480393175,0.01198503341950984,-1.320649962004811
-0.007684000480393176,0.01198503341950984,-1.3243573129858488
-0.007682210480393175,0.00458858371434224,-1.320649962004811
-0.007680420480393175,0.01198503341950984,-1.320649962004811
-0.007678630480393175,0.015683258272093638,-1.320649962004811
-0.007676840480393176,0.015683258272093638,-1.3243573129858488
-0.007675050480393175,0.00828680856692604,-1.320649962004811
-0.007673260480393175,0.015683258272093638,-1.3169426110237734
-0.0076714704803931754,0.00828680856692604,-1.3169426110237734
-0.007669680480393176,0.011985033419508156,-1.3169426110237734
-0.007667890480393175,0.01198503341950984,-1.3169426110237734
-0.007666100480393175,0.00458858371434224,-1.320649962004811
-0.0076643104803931755,0.00828680856692604,-1.3243573129858488
-0.007662520480393175,0.004588583714343922,-1.320649962004811
-0.007660730480393175,0.00828680856692604,-1.320649962004811
-0.007658940480393175,0.00458858371434224,-1.320649962004811
-0.0076571504803931755,0.00458858371434224,-1.3243573129858488
-0.007655360480393175,0.0008903588617584406,-1.3243573129858455
-0.007653570480393175,0.0008903588617584406,-1.3169426110237734
-0.007651780480393175,0.00458858371434224,-1.320649962004811
-0.0076499904803931755,0.0008903588617584406,-1.320649962004811
-0.007648200480393175,0.00458858371434224,-1.3169426110237734
-0.007646410480393175,-0.002807865990825359,-1.320649962004811
-0.007644620480393175,0.00458858371434224,-1.3169426110237734
-0.0076428304803931755,0.00458858371434224,-1.320649962004811
-0.007641040480393175,0.0008903588617584406,-1.3169426110237734
-0.007639250480393175,0.00458858371434224,-1.3243573129858488
-0.007637460480393175,0.00458858371434224,-1.3243573129858488
-0.0076356704803931755,0.0008903588617584406,-1.320649962004811
-0.007633880480393175,0.0008903588617584406,-1.3243573129858488
-0.007632090480393175,0.0008903588617584406,-1.3243573129858488
-0.007630300480393175,0.00828680856692604,-1.320649962004811
-0.0076285104803931756,0.00458858371434224,-1.320649962004811
-0.007626720480393175,-0.002807865990825359,-1.320649962004811
-0.007624930480393175,-0.002807865990825359,-1.320649962004811
-0.007623140480393175,0.0008903588617584406,-1.320649962004811
-0.007621350480393176,-0.0065060908434091584,-1.320649962004811
-0.007619560480393175,-0.002807865990825359,-1.320649962004811
-0.007617770480393175,-0.002807865990825359,-1.320649962004811
-0.007615980480393175,-0.002807865990825359,-1.3169426110237734
-0.007614190480393176,0.0008903588617584406,-1.3169426110237734
-0.007612400480393175,0.0008903588617584406,-1.320649962004811
-0.007610610480393175,-0.0065060908434091584,-1.320649962004811
-0.007608820480393175,-0.002807865990825359,-1.320649962004811
-0.007607030480393176,-0.002807865990825359,-1.3169426110237734
-0.007605240480393175,-0.0065060908434091584,-1.3243573129858488
-0.007603450480393175,-0.002807865990825359,-1.320649962004811
-0.007601660480393175,-0.002807865990825359,-1.3169426110237734
-0.007599870480393176,-0.0065060908434091584,-1.320649962004811
-0.007598080480393175,-0.002807865990825359,-1.320649962004811
-0.007596290480393175,-0.0065060908434091584,-1.3169426110237734
-0.0075945004803931754,-0.002807865990825359,-1.3169426110237734
-0.007592710480393176,-0.002807865990825359,-1.3169426110237734
-0.007590920480393175,-0.0065060908434091584,-1.3169426110237734
-0.007589130480393175,-0.010204315695992958,-1.320649962004811
-0.0075873404803931755,-0.010204315695992958,-1.3243573129858488
-0.007585550480393175,-0.010204315695991277,-1.3169426110237734
-0.007583760480393175,-0.0065060908434091584,-1.3169426110237734
-0.007581970480393175,-0.002807865990825359,-1.320649962004811
-0.0075801804803931755,-0.0065060908434091584,-1.320649962004811
-0.007578390480393175,-0.010204315695992958,-1.320649962004811
-0.007576600480393175,-0.010204315695992958,-1.320649962004811
-0.007574810480393175,-0.002807865990825359,-1.3132352600427357
-0.0075730204803931755,-0.0065060908434091584,-1.320649962004811
-0.007571230480393175,-0.002807865990825359,-1.320649962004811
-0.007569440480393175,-0.0065060908434091584,-1.3169426110237734
-0.007567650480393175,-0.0065060908434091584,-1.3169426110237734
-0.0075658604803931755,-0.002807865990825359,-1.3243573129858488
-0.007564070480393175,-0.002807865990825359,-1.3243573129858488
-0.007562280480393175,-0.0065060908434091584,-1.320649962004811
-0.007560490480393175,-0.002807865990825359,-1.3169426110237734
-0.0075587004803931756,-0.0065060908434091584,-1.3243573129858488
-0.007556910480393175,-0.0065060908434091584,-1.320649962004811
-0.007555120480393175,-0.0065060908434091584,-1.320649962004811
-0.007553330480393175,-0.010204315695992958,-1.320649962004811
-0.007551540480393176,-0.013902540548576758,-1.320649962004811
-0.007549750480393175,-0.013902540548576758,-1.3243573129858488
-0.007547960480393175,-0.013902540548576758,-1.320649962004811
-0.007546170480393175,-0.010204315695992958,-1.320649962004811
-0.007544380480393176,-0.017600765401160557,-1.3169426110237734
-0.007542590480393175,-0.010204315695992958,-1.3169426110237734
-0.007540800480393175,-0.010204315695992958,-1.320649962004811
-0.007539010480393175,-0.013902540548576758,-1.3169426110237734
-0.007537220480393176,-0.013902540548576758,-1.3169426110237734
-0.007535430480393175,-0.017600765401160557,-1.320649962004811
-0.007533640480393175,-0.013902540548576758,-1.3243573129858488
-0.007531850480393175,-0.013902540548576758,-1.3243573129858488
-0.007530060480393176,-0.017600765401160557,-1.3169426110237734
-0.007528270480393175,-0.021298990253744356,-1.3169426110237734
-0.007526480480393175,-0.013902540548576758,-1.320649962004811
-0.0075246904803931754,-0.013902540548576758,-1.3243573129858488
-0.007522900480393176,-0.017600765401158874,-1.3206499620048129
-0.007521110480393175,-0.013902540548576758,-1.320649962004811
-0.007519320480393175,-0.021298990253744356,-1.3169426110237734
-0.0075175304803931755,-0.017600765401160557,-1.3169426110237734
-0.007515740480393176,-0.013902540548578441,-1.3169426110237734
-0.007513950480393175,-0.017600765401160557,-1.3132352600427357
-0.007512160480393175,-0.021298990253744356,-1.320649962004811
-0.0075103704803931755,-0.017600765401160557,-1.320649962004811
-0.007508580480393175,-0.01760076540116224,-1.320649962004811
-0.007506790480393175,-0.021298990253744356,-1.320649962004811
-0.007505000480393175,-0.017600765401160557,-1.320649962004811
-0.0075032104803931755,-0.017600765401160557,-1.3169426110237734
-0.007501420480393175,-0.017600765401160557,-1.320649962004811
-0.007499630480393175,-0.017600765401160557,-1.3169426110237734
-0.007497840480393175,-0.021298990253744356,-1.320649962004811
-0.0074960504803931755,-0.017600765401160557,-1.320649962004811
-0.007494260480393175,-0.017600765401160557,-1.320649962004811
-0.007492470480393175,-0.017600765401160557,-1.320649962004811
-0.007490680480393175,-0.021298990253744356,-1.3169426110237734
-0.0074888904803931755,-0.024997215106328158,-1.320649962004811
-0.007487100480393175,-0.021298990253744356,-1.320649962004811
-0.007485310480393175,-0.017600765401160557,-1.3169426110237734
-0.007483520480393175,-0.021298990253744356,-1.3169426110237734
-0.0074817304803931756,-0.021298990253744356,-1.3169426110237734
-0.007479940480393175,-0.024997215106328158,-1.3132352600427357
-0.007478150480393175,-0.021298990253744356,-1.3169426110237734
-0.007476360480393175,-0.021298990253744356,-1.3169426110237734
-0.007474570480393176,-0.021298990253744356,-1.3169426110237734
-0.007472780480393175,-0.013902540548576758,-1.3169426110237734
-0.007470990480393175,-0.017600765401160557,-1.320649962004811
-0.007469200480393175,-0.024997215106328158,-1.320649962004811
-0.007467410480393176,-0.021298990253744356,-1.320649962004811
-0.007465620480393175,-0.017600765401160557,-1.320649962004811
-0.007463830480393175,-0.028695439958911956,-1.3169426110237734
-0.007462040480393175,-0.021298990253744356,-1.320649962004811
-0.007460250480393176,-0.024997215106328158,-1.320649962004811
-0.007458460480393175,-0.024997215106328158,-1.3169426110237734
-0.007456670480393175,-0.021298990253744356,-1.3169426110237734
-0.007454880480393175,-0.021298990253744356,-1.3169426110237734
-0.007453090480393176,-0.017600765401160557,-1.3169426110237734
-0.007451300480393175,-0.024997215106328158,-1.3169426110237734
-0.007449510480393175,-0.021298990253744356,-1.3169426110237734
-0.0074477204803931754,-0.024997215106328158,-1.3169426110237734
-0.007445930480393176,-0.02129899025374604,-1.3169426110237734
-0.007444140480393175,-0.024997215106328158,-1.3132352600427357
-0.007442350480393175,-0.028695439958911956,-1.3169426110237734
-0.0074405604803931755,-0.024997215106328158,-1.3169426110237734
-0.007438770480393175,-0.03239366481149071,-1.3169426110237752
-0.007436980480393175,-0.021298990253744356,-1.320649962004811
-0.007435190480393175,-0.028695439958911956,-1.320649962004811
-0.0074334004803931755,-0.028695439958911956,-1.320649962004811
-0.007431610480393175,-0.024997215106328158,-1.320649962004811
-0.007429820480393175,-0.024997215106328158,-1.320649962004811
-0.007428030480393175,-0.024997215106328158,-1.3169426110237734
-0.0074262404803931755,-0.021298990253744356,-1.3169426110237734
-0.007424450480393175,-0.028695439958911956,-1.320649962004811
-0.007422660480393175,-0.024997215106328158,-1.3169426110237734
-0.007420870480393175,-0.024997215106328158,-1.3169426110237734
-0.0074190804803931755,-0.028695439958911956,-1.320649962004811
-0.007417290480393175,-0.028695439958911956,-1.3169426110237734
-0.007415500480393175,-0.032393664811495755,-1.320649962004811
-0.007413710480393175,-0.028695439958911956,-1.320649962004811
-0.0074119204803931756,-0.03609188966407956,-1.3132352600427357
-0.007410130480393175,-0.032393664811495755,-1.3169426110237734
-0.007408340480393175,-0.032393664811495755,-1.3169426110237734
-0.007406550480393175,-0.024997215106328158,-1.320649962004811
-0.007404760480393176,-0.028695439958911956,-1.320649962004811
-0.007402970480393175,-0.024997215106328158,-1.3169426110237734
-0.007401180480393175,-0.024997215106328158,-1.3169426110237734
-0.007399390480393175,-0.028695439958911956,-1.3169426110237734
-0.007397600480393176,-0.028695439958911956,-1.3169426110237734
-0.007395810480393175,-0.032393664811495755,-1.320649962004811
-0.007394020480393175,-0.03609188966407956,-1.320649962004811
-0.007392230480393175,-0.032393664811495755,-1.320649962004811
-0.007390440480393176,-0.032393664811495755,-1.320649962004811
-0.007388650480393175,-0.03609188966407956,-1.3169426110237734
-0.007386860480393175,-0.032393664811495755,-1.3169426110237734
-0.007385070480393175,-0.032393664811495755,-1.320649962004811
-0.007383280480393176,-0.028695439958911956,-1.320649962004811
-0.007381490480393175,-0.028695439958911956,-1.3169426110237734
-0.007379700480393175,-0.028695439958911956,-1.3169426110237734
-0.0073779104803931754,-0.032393664811495755,-1.3169426110237734
-0.007376120480393176,-0.032393664811495755,-1.3169426110237734
-0.007374330480393175,-0.032393664811495755,-1.3169426110237734
-0.007372540480393175,-0.032393664811495755,-1.320649962004811
-0.0073707504803931755,-0.028695439958911956,-1.3243573129858488
-0.007368960480393176,-0.03609188966407619,-1.3206499620048129
-0.007367170480393175,-0.028695439958911956,-1.3132352600427357
-0.007365380480393175,-0.028695439958911956,-1.3132352600427357
-0.0073635904803931755,-0.024997215106328158,-1.320649962004811
-0.007361800480393175,-0.02499721510633152,-1.3206499620048093
-0.007360010480393175,-0.032393664811495755,-1.3169426110237734
-0.007358220480393175,-0.028695439958911956,-1.320649962004811
-0.0073564304803931755,-0.032393664811495755,-1.3169426110237734
-0.007354640480393175,-0.03609188966407956,-1.3169426110237734
-0.007352850480393175,-0.032393664811495755,-1.3169426110237734
-0.007351060480393175,-0.032393664811495755,-1.320649962004811
-0.0073492704803931755,-0.03609188966407956,-1.320649962004811
-0.007347480480393175,-0.03609188966407956,-1.3169426110237734
-0.007345690480393175,-0.028695439958911956,-1.3169426110237734
-0.007343900480393175,-0.03609188966407956,-1.320649962004811
-0.0073421104803931755,-0.03609188966407956,-1.3243573129858488
-0.007340320480393175,-0.03979011451666335,-1.3169426110237734
-0.007338530480393175,-0.03609188966407956,-1.3169426110237734
-0.007336740480393175,-0.03979011451666335,-1.3169426110237734
-0.0073349504803931756,-0.03609188966407956,-1.320649962004811
-0.007333160480393175,-0.03609188966407956,-1.320649962004811
-0.007331370480393175,-0.03979011451666335,-1.320649962004811
-0.007329580480393175,-0.03609188966407956,-1.3169426110237734
-0.007327790480393176,-0.03609188966407956,-1.3169426110237734
-0.007326000480393175,-0.03609188966407956,-1.3243573129858488
-0.007324210480393175,-0.03609188966407956,-1.320649962004811
-0.007322420480393175,-0.03609188966407956,-1.320649962004811
-0.007320630480393176,-0.03979011451666335,-1.3169426110237734
-0.007318840480393175,-0.03979011451666335,-1.3132352600427357
-0.007317050480393175,-0.03609188966407956,-1.3169426110237734
-0.007315260480393175,-0.03609188966407956,-1.3169426110237734
-0.007313470480393176,-0.03609188966407956,-1.3169426110237734
-0.007311680480393175,-0.043488339369247155,-1.3169426110237734
-0.007309890480393175,-0.043488339369247155,-1.3132352600427357
-0.007308100480393175,-0.03979011451666335,-1.320649962004811
-0.007306310480393176,-0.03979011451666335,-1.320649962004811
-0.007304520480393175,-0.03979011451666335,-1.320649962004811
-0.007302730480393175,-0.032393664811495755,-1.3243573129858488
-0.0073009404803931754,-0.03979011451666335,-1.320649962004811
-0.007299150480393176,-0.03979011451666335,-1.3169426110237752
-0.007297360480393175,-0.043488339369247155,-1.320649962004811
-0.007295570480393175,-0.043488339369247155,-1.320649962004811
-0.0072937804803931755,-0.03609188966407956,-1.320649962004811
-0.007291990480393175,-0.03979011451665999,-1.320649962004811
-0.007290200480393175,-0.032393664811495755,-1.320649962004811
-0.007288410480393175,-0.03609188966407956,-1.320649962004811
-0.0072866204803931755,-0.043488339369247155,-1.320649962004811
-0.007284830480393175,-0.043488339369247155,-1.320649962004811
-0.007283040480393175,-0.043488339369247155,-1.320649962004811
-0.007281250480393175,-0.043488339369247155,-1.320649962004811
-0.0072794604803931755,-0.03979011451666335,-1.320649962004811
-0.007277670480393175,-0.043488339369247155,-1.3132352600427357
-0.007275880480393175,-0.04718656422183096,-1.3169426110237734
-0.007274090480393175,-0.043488339369247155,-1.320649962004811
-0.0072723004803931755,-0.043488339369247155,-1.3169426110237734
-0.007270510480393175,-0.043488339369247155,-1.320649962004811
-0.007268720480393175,-0.043488339369247155,-1.320649962004811
-0.007266930480393175,-0.043488339369247155,-1.3169426110237734
-0.0072651404803931756,-0.03979011451666335,-1.320649962004811
-0.007263350480393175,-0.03979011451666335,-1.320649962004811
-0.007261560480393175,-0.03609188966407956,-1.320649962004811
-0.007259770480393175,-0.043488339369247155,-1.320649962004811
-0.007257980480393176,-0.04718656422183096,-1.3169426110237734
-0.007256190480393175,-0.04718656422183096,-1.3169426110237734
-0.007254400480393175,-0.04718656422183096,-1.3169426110237734
-0.007252610480393175,-0.04718656422183096,-1.3169426110237734
-0.007250820480393176,-0.043488339369247155,-1.3169426110237734
-0.007249030480393175,-0.043488339369247155,-1.3169426110237734
-0.007247240480393175,-0.043488339369247155,-1.3132352600427357
-0.007245450480393175,-0.043488339369247155,-1.320649962004811
-0.007243660480393176,-0.043488339369247155,-1.3169426110237734
-0.007241870480393175,-0.04718656422183096,-1.320649962004811
-0.007240080480393175,-0.043488339369247155,-1.3243573129858488
-0.007238290480393175,-0.043488339369247155,-1.320649962004811
-0.007236500480393176,-0.043488339369247155,-1.3169426110237734
-0.007234710480393175,-0.04718656422183096,-1.3169426110237734
-0.007232920480393175,-0.043488339369247155,-1.3169426110237734
-0.0072311304803931754,-0.03979011451666335,-1.320649962004811
-0.007229340480393176,-0.04718656422183096,-1.320649962004811
-0.007227550480393175,-0.043488339369247155,-1.320649962004811
-0.007225760480393175,-0.04718656422183096,-1.320649962004811
-0.0072239704803931755,-0.04718656422183096,-1.320649962004811
-0.007222180480393176,-0.04718656422183096,-1.320649962004811
-0.007220390480393175,-0.043488339369247155,-1.3169426110237734
-0.007218600480393175,-0.043488339369247155,-1.3169426110237734
-0.0072168104803931755,-0.043488339369247155,-1.320649962004811
-0.007215020480393175,-0.043488339369247155,-1.320649962004811
-0.007213230480393175,-0.043488339369247155,-1.320649962004811
-0.007211440480393175,-0.04718656422183096,-1.320649962004811
-0.0072096504803931755,-0.04718656422183096,-1.320649962004811
-0.007207860480393175,-0.054583013926998554,-1.3169426110237734
-0.007206070480393175,-0.05088478907441475,-1.3243573129858488
-0.007204280480393175,-0.04718656422183096,-1.320649962004811
-0.0072024904803931755,-0.043488339369247155,-1.320649962004811
-0.007200700480393175,-0.04718656422183096,-1.320649962004811
-0.007198910480393175,-0.04718656422183096,-1.320649962004811
-0.007197120480393175,-0.04718656422183096,-1.320649962004811
-0.0071953304803931755,-0.043488339369247155,-1.3169426110237734
-0.007193540480393175,-0.04718656422183096,-1.3169426110237734
-0.007191750480393175,-0.04718656422183096,-1.3132352600427357
