100Hz/acq0016.csv

#Digilent WaveForms Oscilloscope Acquisition
#Device Name: Discovery2
#Serial Number: SN:210321AA28BE
#Date Time: 2023-05-24 14:48:30.694
#Sample rate: 558659Hz
#Samples: 8192
#Trigger: Source: Channel 1 Type: Edge Condition: Rising Level: 800 mV Hyst.: Auto HoldOff: 100 ns
#Channel 1: Range: 1 V/div Offset: 0 V Attenuation: 1 X Sample Mode: Average
#Channel 2: Range: 1 V/div Offset: 0 V Attenuation: 1 X Sample Mode: Average

Time (s),Channel 1 (V),Channel 2 (V)
-0.00774136867668968,0.06745840620826683,-1.3169426110237734
-0.00773957867668968,0.06376018135568472,-1.3169426110237734
-0.00773778867668968,0.06745840620826683,-1.3169426110237734
-0.00773599867668968,0.07485485591343444,-1.320649962004811
-0.00773420867668968,0.06745840620826683,-1.3169426110237734
-0.00773241867668968,0.06745840620826515,-1.3169426110237716
-0.00773062867668968,0.06376018135568304,-1.3132352600427357
-0.00772883867668968,0.06006195650309923,-1.3169426110237734
-0.00772704867668968,0.06006195650309923,-1.3169426110237734
-0.00772525867668968,0.06376018135568304,-1.3132352600427357
-0.00772346867668968,0.06006195650309923,-1.3169426110237734
-0.00772167867668968,0.07115663106085063,-1.320649962004811
-0.00771988867668968,0.07115663106085063,-1.320649962004811
-0.00771809867668968,0.06376018135568304,-1.3243573129858488
-0.00771630867668968,0.06376018135568304,-1.320649962004811
-0.00771451867668968,0.06376018135568304,-1.3169426110237734
-0.00771272867668968,0.06006195650309923,-1.3169426110237734
-0.00771093867668968,0.06376018135568304,-1.320649962004811
-0.00770914867668968,0.05636373165051543,-1.3169426110237734
-0.00770735867668968,0.06745840620826683,-1.320649962004811
-0.00770556867668968,0.06006195650309923,-1.3169426110237734
-0.00770377867668968,0.05636373165051543,-1.3169426110237734
-0.00770198867668968,0.05636373165051543,-1.3132352600427357
-0.00770019867668968,0.06376018135568304,-1.320649962004811
-0.00769840867668968,0.05636373165051543,-1.3169426110237734
-0.00769661867668968,0.05636373165051543,-1.3132352600427357
-0.00769482867668968,0.06006195650309923,-1.320649962004811
-0.00769303867668968,0.06006195650309923,-1.320649962004811
-0.00769124867668968,0.05636373165051543,-1.3169426110237734
-0.00768945867668968,0.06006195650309923,-1.320649962004811
-0.00768766867668968,0.05636373165051543,-1.3243573129858488
-0.00768587867668968,0.06376018135568304,-1.320649962004811
-0.00768408867668968,0.05636373165051543,-1.320649962004811
-0.00768229867668968,0.05636373165051543,-1.320649962004811
-0.00768050867668968,0.05266550679793163,-1.320649962004811
-0.00767871867668968,0.05266550679793163,-1.3169426110237734
-0.00767692867668968,0.05636373165051543,-1.320649962004811
-0.00767513867668968,0.05636373165051543,-1.3169426110237734
-0.00767334867668968,0.05266550679793163,-1.3169426110237734
-0.00767155867668968,0.05266550679793163,-1.320649962004811
-0.00766976867668968,0.056363731650513754,-1.324357312985847
-0.00766797867668968,0.048967281945347836,-1.320649962004811
-0.00766618867668968,0.05266550679793163,-1.320649962004811
-0.00766439867668968,0.048967281945347836,-1.3169426110237734
-0.0076626086766896796,0.056363731650513754,-1.3169426110237716
-0.00766081867668968,0.05266550679793163,-1.3132352600427357
-0.00765902867668968,0.05636373165051543,-1.3132352600427357
-0.00765723867668968,0.048967281945347836,-1.320649962004811
-0.00765544867668968,0.045269057092764034,-1.324357312985847
-0.00765365867668968,0.045269057092764034,-1.320649962004811
-0.00765186867668968,0.048967281945347836,-1.320649962004811
-0.00765007867668968,0.048967281945347836,-1.3243573129858488
-0.00764828867668968,0.048967281945347836,-1.320649962004811
-0.00764649867668968,0.05636373165051543,-1.320649962004811
-0.00764470867668968,0.048967281945347836,-1.3169426110237734
-0.00764291867668968,0.05266550679793163,-1.3169426110237734
-0.00764112867668968,0.048967281945347836,-1.3169426110237734
-0.00763933867668968,0.045269057092764034,-1.3169426110237734
-0.00763754867668968,0.05266550679793163,-1.3169426110237734
-0.00763575867668968,0.048967281945347836,-1.3169426110237734
-0.00763396867668968,0.04157083224018024,-1.3169426110237734
-0.00763217867668968,0.048967281945347836,-1.3169426110237734
-0.00763038867668968,0.045269057092764034,-1.320649962004811
-0.00762859867668968,0.048967281945347836,-1.3243573129858488
-0.00762680867668968,0.045269057092764034,-1.320649962004811
-0.00762501867668968,0.04157083224018024,-1.3243573129858488
-0.00762322867668968,0.04157083224018024,-1.320649962004811
-0.00762143867668968,0.045269057092764034,-1.3169426110237734
-0.00761964867668968,0.045269057092764034,-1.3169426110237734
-0.00761785867668968,0.045269057092764034,-1.3169426110237734
-0.00761606867668968,0.045269057092764034,-1.3169426110237734
-0.00761427867668968,0.04157083224018024,-1.3169426110237734
-0.00761248867668968,0.03787260738759644,-1.320649962004811
-0.00761069867668968,0.04157083224018024,-1.3169426110237734
-0.00760890867668968,0.034174382535012635,-1.320649962004811
-0.00760711867668968,0.04157083224018024,-1.320649962004811
-0.00760532867668968,0.04157083224018024,-1.3169426110237734
-0.00760353867668968,0.04157083224018024,-1.3169426110237734
-0.00760174867668968,0.04157083224018024,-1.3169426110237734
-0.00759995867668968,0.03787260738759644,-1.3132352600427357
-0.00759816867668968,0.04157083224018024,-1.3169426110237734
-0.00759637867668968,0.04157083224018024,-1.3169426110237734
-0.00759458867668968,0.04157083224018024,-1.3169426110237734
-0.00759279867668968,0.034174382535016,-1.3169426110237734
-0.00759100867668968,0.034174382535012635,-1.3132352600427357
-0.00758921867668968,0.04157083224018024,-1.320649962004811
-0.00758742867668968,0.03787260738759644,-1.3169426110237734
-0.00758563867668968,0.04157083224017687,-1.320649962004811
-0.00758384867668968,0.034174382535012635,-1.320649962004811
-0.00758205867668968,0.04157083224018024,-1.320649962004811
-0.00758026867668968,0.04157083224018024,-1.320649962004811
-0.00757847867668968,0.045269057092764034,-1.3169426110237734
-0.00757668867668968,0.04157083224018024,-1.3169426110237734
-0.00757489867668968,0.034174382535012635,-1.3132352600427357
-0.00757310867668968,0.04157083224018024,-1.320649962004811
-0.00757131867668968,0.03787260738759644,-1.3169426110237734
-0.00756952867668968,0.03787260738759644,-1.3169426110237734
-0.00756773867668968,0.034174382535012635,-1.3169426110237734
-0.00756594867668968,0.034174382535012635,-1.3169426110237734
-0.00756415867668968,0.03787260738759644,-1.320649962004811
-0.00756236867668968,0.03787260738759644,-1.320649962004811
-0.00756057867668968,0.034174382535012635,-1.3169426110237734
-0.00755878867668968,0.034174382535012635,-1.3169426110237734
-0.00755699867668968,0.034174382535012635,-1.3169426110237734
-0.00755520867668968,0.03047615768242884,-1.320649962004811
-0.00755341867668968,0.03047615768242884,-1.3169426110237734
-0.00755162867668968,0.034174382535012635,-1.3169426110237734
-0.00754983867668968,0.03047615768242884,-1.3169426110237734
-0.00754804867668968,0.026777932829845037,-1.320649962004811
-0.00754625867668968,0.034174382535012635,-1.320649962004811
-0.00754446867668968,0.04157083224018024,-1.3132352600427357
-0.00754267867668968,0.034174382535012635,-1.3169426110237734
-0.00754088867668968,0.03047615768242884,-1.3169426110237734
-0.00753909867668968,0.034174382535012635,-1.320649962004811
-0.00753730867668968,0.034174382535012635,-1.320649962004811
-0.00753551867668968,0.034174382535012635,-1.320649962004811
-0.00753372867668968,0.026777932829845037,-1.320649962004811
-0.00753193867668968,0.026777932829845037,-1.320649962004811
-0.00753014867668968,0.03047615768242884,-1.320649962004811
-0.00752835867668968,0.03047615768242884,-1.3169426110237734
-0.00752656867668968,0.026777932829845037,-1.3169426110237734
-0.00752477867668968,0.03047615768242884,-1.3169426110237734
-0.00752298867668968,0.02677793282984672,-1.3132352600427375
-0.00752119867668968,0.03047615768242884,-1.3132352600427357
-0.00751940867668968,0.026777932829845037,-1.320649962004811
-0.00751761867668968,0.03047615768242884,-1.320649962004811
-0.00751582867668968,0.02677793282984672,-1.3169426110237752
-0.00751403867668968,0.026777932829845037,-1.3169426110237734
-0.00751224867668968,0.026777932829845037,-1.320649962004811
-0.00751045867668968,0.03047615768242884,-1.3169426110237734
-0.00750866867668968,0.02307970797726292,-1.3132352600427375
-0.00750687867668968,0.026777932829845037,-1.3169426110237734
-0.00750508867668968,0.026777932829845037,-1.320649962004811
-0.00750329867668968,0.02307970797726124,-1.320649962004811
-0.00750150867668968,0.02307970797726124,-1.320649962004811
-0.00749971867668968,0.03047615768242884,-1.3169426110237734
-0.00749792867668968,0.01938148312467744,-1.3132352600427357
-0.00749613867668968,0.01938148312467744,-1.3169426110237734
-0.00749434867668968,0.02307970797726124,-1.3169426110237734
-0.00749255867668968,0.02307970797726124,-1.320649962004811
-0.00749076867668968,0.01938148312467744,-1.320649962004811
-0.00748897867668968,0.026777932829845037,-1.3169426110237734
-0.00748718867668968,0.026777932829845037,-1.3169426110237734
-0.00748539867668968,0.026777932829845037,-1.3169426110237734
-0.00748360867668968,0.026777932829845037,-1.320649962004811
-0.00748181867668968,0.02307970797726124,-1.3169426110237734
-0.00748002867668968,0.02307970797726124,-1.3169426110237734
-0.00747823867668968,0.02307970797726124,-1.3169426110237734
-0.00747644867668968,0.02307970797726124,-1.3169426110237734
-0.00747465867668968,0.02307970797726124,-1.3132352600427357
-0.00747286867668968,0.01938148312467744,-1.3132352600427357
-0.00747107867668968,0.015683258272093638,-1.3132352600427357
-0.00746928867668968,0.01938148312467744,-1.320649962004811
-0.00746749867668968,0.01938148312467744,-1.3169426110237734
-0.00746570867668968,0.015683258272093638,-1.320649962004811
-0.00746391867668968,0.01938148312467744,-1.3132352600427357
-0.00746212867668968,0.01938148312467744,-1.320649962004811
-0.00746033867668968,0.015683258272093638,-1.3243573129858488
-0.00745854867668968,0.015683258272093638,-1.3169426110237734
-0.00745675867668968,0.01938148312467744,-1.3169426110237734
-0.00745496867668968,0.01938148312467744,-1.3169426110237734
-0.00745317867668968,0.015683258272093638,-1.320649962004811
-0.00745138867668968,0.015683258272093638,-1.320649962004811
-0.00744959867668968,0.01198503341950984,-1.320649962004811
-0.00744780867668968,0.015683258272093638,-1.3169426110237734
-0.00744601867668968,0.015683258272093638,-1.3169426110237734
-0.00744422867668968,0.01198503341950984,-1.320649962004811
-0.00744243867668968,0.01938148312467744,-1.3169426110237734
-0.00744064867668968,0.01938148312467744,-1.320649962004811
-0.00743885867668968,0.019381483124679123,-1.3206499620048093
-0.00743706867668968,0.02307970797726124,-1.3169426110237734
-0.00743527867668968,0.02307970797726124,-1.3132352600427357
-0.00743348867668968,0.01938148312467744,-1.3169426110237734
-0.00743169867668968,0.01198503341950984,-1.3169426110237734
-0.00742990867668968,0.01198503341950984,-1.3169426110237734
-0.00742811867668968,0.00828680856692604,-1.320649962004811
-0.00742632867668968,0.00828680856692604,-1.3169426110237734
-0.00742453867668968,0.01198503341950984,-1.320649962004811
-0.00742274867668968,0.01198503341950984,-1.3243573129858488
-0.00742095867668968,0.01198503341950984,-1.320649962004811
-0.00741916867668968,0.015683258272093638,-1.320649962004811
-0.00741737867668968,0.015683258272093638,-1.320649962004811
-0.00741558867668968,0.01198503341950984,-1.3169426110237734
-0.00741379867668968,0.01198503341950984,-1.320649962004811
-0.00741200867668968,0.01198503341950984,-1.320649962004811
-0.00741021867668968,0.015683258272093638,-1.3169426110237734
-0.00740842867668968,0.01198503341950984,-1.320649962004811
-0.00740663867668968,0.015683258272093638,-1.320649962004811
-0.00740484867668968,0.00828680856692604,-1.3169426110237734
-0.00740305867668968,0.00828680856692604,-1.3132352600427357
-0.00740126867668968,0.00828680856692604,-1.309527909061698
-0.00739947867668968,0.00458858371434224,-1.320649962004811
-0.00739768867668968,0.00828680856692604,-1.3243573129858488
-0.00739589867668968,0.00828680856692604,-1.3243573129858488
-0.00739410867668968,0.01198503341950984,-1.320649962004811
-0.00739231867668968,0.00828680856692604,-1.320649962004811
-0.00739052867668968,0.00828680856692604,-1.3169426110237734
-0.00738873867668968,0.015683258272093638,-1.3132352600427357
-0.00738694867668968,0.01198503341950984,-1.320649962004811
-0.00738515867668968,0.00458858371434224,-1.320649962004811
-0.00738336867668968,0.00458858371434224,-1.320649962004811
-0.00738157867668968,0.00458858371434224,-1.320649962004811
-0.00737978867668968,0.00458858371434224,-1.320649962004811
-0.00737799867668968,0.00828680856692604,-1.3169426110237734
-0.00737620867668968,-0.002807865990825359,-1.320649962004811
-0.00737441867668968,0.0008903588617584406,-1.3169426110237734
-0.00737262867668968,0.00458858371434224,-1.3169426110237734
-0.00737083867668968,0.00458858371434224,-1.3169426110237734
-0.00736904867668968,0.008286808566924358,-1.3169426110237734
-0.00736725867668968,0.00458858371434224,-1.3132352600427357
-0.00736546867668968,0.00458858371434224,-1.320649962004811
-0.00736367867668968,0.00458858371434224,-1.320649962004811
-0.00736188867668968,0.0045885837143388765,-1.3169426110237734
-0.00736009867668968,-0.002807865990825359,-1.3169426110237734
-0.00735830867668968,0.00458858371434224,-1.3169426110237734
-0.00735651867668968,0.00458858371434224,-1.320649962004811
-0.00735472867668968,0.00458858371434224,-1.3243573129858488
-0.00735293867668968,0.00828680856692604,-1.320649962004811
-0.00735114867668968,0.00458858371434224,-1.3243573129858488
-0.00734935867668968,0.0008903588617584406,-1.320649962004811
-0.00734756867668968,0.0008903588617584406,-1.3169426110237734
-0.00734577867668968,0.00458858371434224,-1.3132352600427357
-0.00734398867668968,0.00458858371434224,-1.3243573129858488
-0.00734219867668968,0.0008903588617584406,-1.320649962004811
-0.00734040867668968,0.00458858371434224,-1.320649962004811
-0.00733861867668968,0.00458858371434224,-1.3243573129858488
-0.00733682867668968,0.00458858371434224,-1.320649962004811
-0.00733503867668968,0.0008903588617584406,-1.320649962004811
-0.00733324867668968,-0.002807865990825359,-1.320649962004811
-0.00733145867668968,-0.010204315695992958,-1.320649962004811
-0.00732966867668968,-0.002807865990825359,-1.3169426110237734
-0.00732787867668968,0.0008903588617584406,-1.320649962004811
-0.00732608867668968,0.0008903588617584406,-1.320649962004811
-0.00732429867668968,0.0008903588617584406,-1.3243573129858488
-0.00732250867668968,0.00458858371434224,-1.320649962004811
-0.00732071867668968,0.00458858371434224,-1.320649962004811
-0.00731892867668968,0.0008903588617584406,-1.320649962004811
-0.00731713867668968,-0.002807865990825359,-1.320649962004811
-0.00731534867668968,-0.002807865990825359,-1.320649962004811
-0.00731355867668968,0.0008903588617584406,-1.320649962004811
-0.00731176867668968,-0.002807865990825359,-1.320649962004811
-0.00730997867668968,-0.0065060908434091584,-1.320649962004811
-0.00730818867668968,0.0008903588617584406,-1.3169426110237734
-0.00730639867668968,-0.0065060908434091584,-1.3169426110237734
-0.00730460867668968,0.0008903588617584406,-1.320649962004811
-0.00730281867668968,-0.0065060908434091584,-1.3169426110237734
-0.00730102867668968,-0.010204315695992958,-1.320649962004811
-0.00729923867668968,-0.0028078659908287226,-1.320649962004811
-0.00729744867668968,-0.0065060908434091584,-1.320649962004811
-0.00729565867668968,-0.002807865990825359,-1.320649962004811
-0.00729386867668968,-0.0065060908434091584,-1.320649962004811
-0.0072920786766896796,-0.006506090843407477,-1.3169426110237752
-0.00729028867668968,-0.002807865990825359,-1.320649962004811
-0.00728849867668968,-0.0065060908434091584,-1.320649962004811
-0.00728670867668968,-0.010204315695992958,-1.3243573129858488
-0.00728491867668968,-0.0028078659908270407,-1.324357312985847
-0.00728312867668968,-0.0065060908434091584,-1.320649962004811
-0.00728133867668968,-0.0065060908434091584,-1.3243573129858488
-0.00727954867668968,-0.010204315695992958,-1.320649962004811
-0.00727775867668968,-0.0065060908434091584,-1.320649962004811
-0.00727596867668968,-0.002807865990825359,-1.320649962004811
-0.00727417867668968,-0.002807865990825359,-1.320649962004811
-0.00727238867668968,-0.0065060908434091584,-1.320649962004811
-0.00727059867668968,-0.013902540548576758,-1.320649962004811
-0.00726880867668968,-0.013902540548576758,-1.320649962004811
-0.00726701867668968,-0.010204315695992958,-1.320649962004811
-0.00726522867668968,-0.013902540548576758,-1.3169426110237734
-0.00726343867668968,-0.010204315695992958,-1.320649962004811
-0.00726164867668968,-0.013902540548576758,-1.3169426110237734
-0.00725985867668968,-0.013902540548576758,-1.320649962004811
-0.00725806867668968,-0.013902540548576758,-1.320649962004811
-0.00725627867668968,-0.0065060908434091584,-1.3169426110237734
-0.00725448867668968,-0.0065060908434091584,-1.3169426110237734
-0.00725269867668968,-0.010204315695992958,-1.3243573129858488
-0.00725090867668968,-0.010204315695992958,-1.3243573129858488
-0.00724911867668968,-0.010204315695992958,-1.3243573129858488
-0.00724732867668968,-0.010204315695992958,-1.320649962004811
-0.00724553867668968,-0.013902540548576758,-1.320649962004811
-0.00724374867668968,-0.013902540548576758,-1.3243573129858488
-0.00724195867668968,-0.010204315695992958,-1.3243573129858488
-0.00724016867668968,-0.010204315695992958,-1.320649962004811
-0.00723837867668968,-0.013902540548576758,-1.320649962004811
-0.00723658867668968,-0.013902540548576758,-1.320649962004811
-0.00723479867668968,-0.010204315695992958,-1.3169426110237734
-0.00723300867668968,-0.013902540548576758,-1.320649962004811
-0.00723121867668968,-0.010204315695992958,-1.320649962004811
-0.00722942867668968,-0.013902540548576758,-1.320649962004811
-0.00722763867668968,-0.010204315695992958,-1.3132352600427357
-0.00722584867668968,-0.013902540548576758,-1.320649962004811
-0.00722405867668968,-0.013902540548576758,-1.320649962004811
-0.00722226867668968,-0.017600765401158874,-1.320649962004811
-0.00722047867668968,-0.013902540548576758,-1.320649962004811
-0.00721868867668968,-0.017600765401160557,-1.320649962004811
-0.00721689867668968,-0.017600765401160557,-1.3280646639668865
-0.00721510867668968,-0.017600765401160557,-1.3169426110237752
-0.00721331867668968,-0.017600765401160557,-1.320649962004811
-0.00721152867668968,-0.017600765401160557,-1.320649962004811
-0.00720973867668968,-0.017600765401160557,-1.320649962004811
-0.00720794867668968,-0.021298990253744356,-1.320649962004811
-0.00720615867668968,-0.013902540548576758,-1.3169426110237734
-0.00720436867668968,-0.010204315695992958,-1.3169426110237734
-0.00720257867668968,-0.017600765401160557,-1.3169426110237734
-0.00720078867668968,-0.021298990253744356,-1.320649962004811
-0.00719899867668968,-0.021298990253744356,-1.320649962004811
-0.00719720867668968,-0.021298990253744356,-1.320649962004811
-0.00719541867668968,-0.013902540548576758,-1.3243573129858488
-0.00719362867668968,-0.017600765401160557,-1.320649962004811
-0.00719183867668968,-0.017600765401160557,-1.320649962004811
-0.00719004867668968,-0.021298990253744356,-1.3169426110237734
-0.00718825867668968,-0.017600765401160557,-1.3169426110237734
-0.00718646867668968,-0.017600765401160557,-1.320649962004811
-0.00718467867668968,-0.021298990253744356,-1.3169426110237734
-0.00718288867668968,-0.017600765401160557,-1.3243573129858488
-0.00718109867668968,-0.017600765401160557,-1.3243573129858488
-0.00717930867668968,-0.010204315695992958,-1.3243573129858488
-0.00717751867668968,-0.017600765401160557,-1.320649962004811
-0.00717572867668968,-0.017600765401160557,-1.320649962004811
-0.00717393867668968,-0.021298990253744356,-1.320649962004811
