100Hz/acq0022.csv

#Digilent WaveForms Oscilloscope Acquisition
#Device Name: Discovery2
#Serial Number: SN:210321AA28BE
#Date Time: 2023-05-24 14:48:30.869
#Sample rate: 558659Hz
#Samples: 8192
#Trigger: Source: Channel 1 Type: Edge Condition: Rising Level: 800 mV Hyst.: Auto HoldOff: 100 ns
#Channel 1: Range: 1 V/div Offset: 0 V Attenuation: 1 X Sample Mode: Average
#Channel 2: Range: 1 V/div Offset: 0 V Attenuation: 1 X Sample Mode: Average

Time (s),Channel 1 (V),Channel 2 (V)
-0.007741442884805484,0.05636373165051543,-1.320649962004811
-0.007739652884805485,0.05636373165051543,-1.320649962004811
-0.007737862884805484,0.05266550679793163,-1.320649962004811
-0.007736072884805484,0.05266550679793163,-1.3169426110237734
-0.007734282884805484,0.05636373165051543,-1.320649962004811
-0.007732492884805484,0.05266550679793163,-1.3169426110237752
-0.007730702884805484,0.05266550679793163,-1.320649962004811
-0.007728912884805484,0.048967281945347836,-1.320649962004811
-0.007727122884805484,0.05636373165051543,-1.320649962004811
-0.007725332884805484,0.05266550679793163,-1.320649962004811
-0.007723542884805484,0.05266550679793163,-1.320649962004811
-0.007721752884805484,0.05266550679793163,-1.3132352600427357
-0.0077199628848054844,0.048967281945347836,-1.3169426110237734
-0.007718172884805484,0.045269057092764034,-1.3243573129858488
-0.007716382884805484,0.045269057092764034,-1.320649962004811
-0.007714592884805484,0.048967281945347836,-1.3169426110237734
-0.0077128028848054845,0.05266550679793163,-1.3243573129858488
-0.007711012884805484,0.048967281945347836,-1.320649962004811
-0.007709222884805484,0.045269057092764034,-1.320649962004811
-0.007707432884805484,0.045269057092764034,-1.320649962004811
-0.0077056428848054845,0.03787260738759644,-1.320649962004811
-0.007703852884805484,0.048967281945347836,-1.320649962004811
-0.007702062884805484,0.048967281945347836,-1.320649962004811
-0.007700272884805484,0.045269057092764034,-1.3169426110237734
-0.0076984828848054845,0.048967281945347836,-1.3169426110237734
-0.007696692884805484,0.045269057092764034,-1.3169426110237734
-0.007694902884805484,0.045269057092764034,-1.3169426110237734
-0.007693112884805484,0.048967281945347836,-1.320649962004811
-0.0076913228848054845,0.05266550679793163,-1.320649962004811
-0.007689532884805484,0.045269057092764034,-1.320649962004811
-0.007687742884805484,0.045269057092764034,-1.3169426110237734
-0.007685952884805484,0.045269057092764034,-1.320649962004811
-0.0076841628848054845,0.034174382535012635,-1.3169426110237734
-0.007682372884805484,0.04157083224018024,-1.3169426110237734
-0.007680582884805484,0.04157083224018024,-1.320649962004811
-0.007678792884805484,0.03787260738759644,-1.3169426110237734
-0.007677002884805485,0.03787260738759644,-1.3169426110237734
-0.007675212884805484,0.03787260738759644,-1.320649962004811
-0.007673422884805484,0.045269057092764034,-1.320649962004811
-0.007671632884805484,0.03787260738759644,-1.320649962004811
-0.007669842884805485,0.03787260738759644,-1.324357312985847
-0.007668052884805484,0.045269057092764034,-1.320649962004811
-0.007666262884805484,0.04157083224018024,-1.3169426110237734
-0.007664472884805484,0.045269057092764034,-1.320649962004811
-0.007662682884805484,0.03787260738759644,-1.3206499620048093
-0.007660892884805484,0.03787260738759644,-1.3169426110237734
-0.007659102884805484,0.03787260738759644,-1.3169426110237734
-0.007657312884805484,0.04157083224018024,-1.3169426110237734
-0.007655522884805484,0.04157083224017687,-1.3206499620048093
-0.007653732884805484,0.034174382535012635,-1.3169426110237734
-0.007651942884805484,0.03787260738759644,-1.3169426110237734
-0.007650152884805484,0.03787260738759644,-1.320649962004811
-0.007648362884805484,0.04157083224018024,-1.3169426110237734
-0.007646572884805484,0.04157083224018024,-1.320649962004811
-0.007644782884805484,0.03787260738759644,-1.320649962004811
-0.0076429928848054845,0.04157083224018024,-1.320649962004811
-0.007641202884805484,0.03787260738759644,-1.3169426110237734
-0.007639412884805484,0.034174382535012635,-1.3243573129858488
-0.007637622884805484,0.03787260738759644,-1.320649962004811
-0.0076358328848054845,0.03787260738759644,-1.3169426110237734
-0.007634042884805484,0.034174382535012635,-1.3169426110237734
-0.007632252884805484,0.03787260738759644,-1.3243573129858488
-0.007630462884805484,0.034174382535012635,-1.320649962004811
-0.0076286728848054845,0.03787260738759644,-1.3169426110237734
-0.007626882884805484,0.03787260738759644,-1.3169426110237734
-0.007625092884805484,0.03787260738759644,-1.320649962004811
-0.007623302884805484,0.034174382535012635,-1.320649962004811
-0.0076215128848054845,0.034174382535012635,-1.3169426110237734
-0.007619722884805484,0.03047615768242884,-1.320649962004811
-0.007617932884805484,0.034174382535012635,-1.3169426110237734
-0.007616142884805484,0.034174382535012635,-1.320649962004811
-0.0076143528848054845,0.04157083224018024,-1.320649962004811
-0.007612562884805484,0.03047615768242884,-1.320649962004811
-0.007610772884805484,0.03047615768242884,-1.3169426110237734
-0.007608982884805484,0.03047615768242884,-1.3169426110237734
-0.0076071928848054846,0.034174382535012635,-1.320649962004811
-0.007605402884805484,0.026777932829845037,-1.320649962004811
-0.007603612884805484,0.03047615768242884,-1.320649962004811
-0.007601822884805484,0.03047615768242884,-1.320649962004811
-0.007600032884805485,0.03047615768242884,-1.3169426110237734
-0.007598242884805484,0.026777932829845037,-1.3169426110237734
-0.007596452884805484,0.03047615768242884,-1.320649962004811
-0.007594662884805484,0.03047615768242884,-1.3132352600427357
-0.007592872884805485,0.03047615768242884,-1.3169426110237716
-0.007591082884805484,0.03047615768242884,-1.3169426110237734
-0.007589292884805484,0.026777932829845037,-1.3169426110237734
-0.007587502884805484,0.026777932829845037,-1.3243573129858488
-0.007585712884805484,0.03417438253500759,-1.3206499620048093
-0.007583922884805484,0.02307970797726124,-1.3169426110237734
-0.007582132884805484,0.026777932829845037,-1.3169426110237734
-0.007580342884805484,0.03047615768242884,-1.320649962004811
-0.007578552884805484,0.026777932829845037,-1.320649962004811
-0.007576762884805484,0.026777932829845037,-1.3169426110237734
-0.007574972884805484,0.02307970797726124,-1.3169426110237734
-0.0075731828848054844,0.03047615768242884,-1.3169426110237734
-0.007571392884805484,0.02307970797726124,-1.320649962004811
-0.007569602884805484,0.026777932829845037,-1.3169426110237734
-0.007567812884805484,0.01938148312467744,-1.320649962004811
-0.0075660228848054845,0.02307970797726124,-1.320649962004811
-0.007564232884805484,0.015683258272093638,-1.320649962004811
-0.007562442884805484,0.015683258272093638,-1.3169426110237734
-0.007560652884805484,0.02307970797726124,-1.3169426110237734
-0.0075588628848054845,0.03047615768242884,-1.320649962004811
-0.007557072884805484,0.02307970797726124,-1.320649962004811
-0.007555282884805484,0.02307970797726124,-1.3132352600427357
-0.007553492884805484,0.02307970797726124,-1.320649962004811
-0.0075517028848054845,0.02307970797726124,-1.3169426110237734
-0.007549912884805484,0.02307970797726124,-1.3169426110237734
-0.007548122884805484,0.02307970797726124,-1.320649962004811
-0.007546332884805484,0.01938148312467744,-1.320649962004811
-0.0075445428848054845,0.01938148312467744,-1.3169426110237734
-0.007542752884805484,0.01938148312467744,-1.3169426110237734
-0.007540962884805484,0.01938148312467744,-1.3169426110237734
-0.007539172884805484,0.01938148312467744,-1.3169426110237734
-0.0075373828848054845,0.015683258272093638,-1.3243573129858488
-0.007535592884805484,0.015683258272093638,-1.320649962004811
-0.007533802884805484,0.01938148312467744,-1.320649962004811
-0.007532012884805484,0.02307970797726124,-1.3132352600427357
-0.007530222884805485,0.01938148312467744,-1.320649962004811
-0.007528432884805484,0.01938148312467744,-1.3169426110237734
-0.007526642884805484,0.02307970797726124,-1.320649962004811
-0.007524852884805484,0.01938148312467744,-1.320649962004811
-0.007523062884805485,0.01568325827209532,-1.3169426110237752
-0.007521272884805484,0.01938148312467744,-1.320649962004811
-0.007519482884805484,0.01938148312467744,-1.320649962004811
-0.007517692884805484,0.015683258272093638,-1.3280646639668865
-0.007515902884805485,0.019381483124675757,-1.3206499620048144
-0.007514112884805484,0.015683258272093638,-1.3169426110237734
-0.007512322884805484,0.015683258272093638,-1.320649962004811
-0.007510532884805484,0.015683258272093638,-1.3169426110237734
-0.007508742884805484,0.015683258272093638,-1.320649962004811
-0.007506952884805484,0.015683258272093638,-1.320649962004811
-0.007505162884805484,0.015683258272093638,-1.320649962004811
-0.007503372884805484,0.01198503341950984,-1.320649962004811
-0.007501582884805484,0.015683258272093638,-1.3169426110237734
-0.007499792884805484,0.01198503341950984,-1.320649962004811
-0.007498002884805484,0.015683258272093638,-1.320649962004811
-0.0074962128848054844,0.015683258272093638,-1.3169426110237734
-0.007494422884805484,0.015683258272093638,-1.3243573129858488
-0.007492632884805484,0.015683258272093638,-1.3132352600427357
-0.007490842884805484,0.015683258272093638,-1.3169426110237734
-0.0074890528848054845,0.01198503341950984,-1.320649962004811
-0.007487262884805484,0.015683258272093638,-1.320649962004811
-0.007485472884805484,0.01198503341950984,-1.3169426110237734
-0.007483682884805484,0.01198503341950984,-1.320649962004811
-0.0074818928848054845,0.015683258272093638,-1.320649962004811
-0.007480102884805484,0.01198503341950984,-1.320649962004811
-0.007478312884805484,0.01198503341950984,-1.320649962004811
-0.007476522884805484,0.01198503341950984,-1.3169426110237734
-0.0074747328848054845,0.00828680856692604,-1.3169426110237734
-0.007472942884805484,0.00828680856692604,-1.320649962004811
-0.007471152884805484,0.00458858371434224,-1.320649962004811
-0.007469362884805484,0.00828680856692604,-1.320649962004811
-0.0074675728848054845,0.00828680856692604,-1.3169426110237734
-0.007465782884805484,0.00828680856692604,-1.3169426110237734
-0.007463992884805484,0.00458858371434224,-1.3169426110237734
-0.007462202884805484,0.00458858371434224,-1.320649962004811
-0.0074604128848054846,0.01198503341950984,-1.3243573129858488
-0.007458622884805484,0.01198503341950984,-1.3243573129858488
-0.007456832884805484,0.01198503341950984,-1.320649962004811
-0.007455042884805484,0.00828680856692604,-1.320649962004811
-0.007453252884805485,0.00828680856692604,-1.3169426110237734
-0.007451462884805484,0.00828680856692604,-1.3169426110237734
-0.007449672884805484,0.00828680856692604,-1.3169426110237734
-0.007447882884805484,0.00458858371434224,-1.320649962004811
-0.007446092884805485,0.008286808566924358,-1.320649962004811
-0.007444302884805484,0.00828680856692604,-1.320649962004811
-0.007442512884805484,0.00458858371434224,-1.320649962004811
-0.007440722884805484,0.00828680856692604,-1.320649962004811
-0.007438932884805484,0.00458858371434224,-1.3206499620048129
-0.007437142884805484,0.00458858371434224,-1.3243573129858488
-0.007435352884805484,0.00458858371434224,-1.320649962004811
-0.007433562884805484,0.0008903588617584406,-1.3243573129858488
-0.007431772884805484,0.00458858371434224,-1.320649962004811
-0.007429982884805484,0.00458858371434224,-1.3243573129858488
-0.007428192884805484,0.00458858371434224,-1.320649962004811
-0.0074264028848054844,0.00458858371434224,-1.320649962004811
-0.007424612884805484,0.0008903588617584406,-1.320649962004811
-0.007422822884805484,0.0008903588617584406,-1.3243573129858488
-0.007421032884805484,0.00458858371434224,-1.3243573129858488
-0.0074192428848054845,0.00458858371434224,-1.3243573129858488
-0.007417452884805484,0.00458858371434224,-1.320649962004811
-0.007415662884805484,0.00458858371434224,-1.3169426110237734
-0.007413872884805484,0.0008903588617584406,-1.3243573129858488
-0.0074120828848054845,0.00458858371434224,-1.320649962004811
-0.007410292884805484,0.00828680856692604,-1.320649962004811
-0.007408502884805484,0.00458858371434224,-1.320649962004811
-0.007406712884805484,0.0008903588617584406,-1.3169426110237734
-0.0074049228848054845,0.0008903588617584406,-1.320649962004811
-0.007403132884805484,0.0008903588617584406,-1.3243573129858488
-0.007401342884805484,-0.002807865990825359,-1.3169426110237734
-0.007399552884805484,-0.002807865990825359,-1.3132352600427357
-0.0073977628848054845,0.00458858371434224,-1.320649962004811
-0.007395972884805484,-0.002807865990825359,-1.320649962004811
-0.007394182884805484,0.0008903588617584406,-1.320649962004811
-0.007392392884805484,0.0008903588617584406,-1.320649962004811
-0.0073906028848054845,-0.002807865990825359,-1.3169426110237734
-0.007388812884805484,0.0008903588617584406,-1.3169426110237734
-0.007387022884805484,0.00458858371434224,-1.3169426110237734
-0.007385232884805484,0.0008903588617584406,-1.3169426110237734
-0.0073834428848054846,0.0008903588617584406,-1.3169426110237734
-0.007381652884805484,0.00458858371434224,-1.320649962004811
-0.007379862884805484,0.00458858371434224,-1.320649962004811
-0.007378072884805484,-0.002807865990825359,-1.3243573129858488
-0.007376282884805485,0.0008903588617584406,-1.320649962004811
-0.007374492884805484,0.00458858371434224,-1.3169426110237734
-0.007372702884805484,0.0008903588617584406,-1.320649962004811
-0.007370912884805484,0.0008903588617584406,-1.3243573129858488
-0.007369122884805485,0.0008903588617584406,-1.3169426110237767
-0.007367332884805484,-0.002807865990825359,-1.320649962004811
-0.007365542884805484,-0.0065060908434091584,-1.3169426110237734
-0.007363752884805484,0.0008903588617584406,-1.3132352600427357
-0.007361962884805484,-0.002807865990825359,-1.320649962004811
-0.007360172884805484,-0.002807865990825359,-1.320649962004811
-0.007358382884805484,-0.002807865990825359,-1.320649962004811
-0.007356592884805484,-0.002807865990825359,-1.3169426110237734
-0.007354802884805484,-0.0065060908434091584,-1.320649962004811
-0.007353012884805484,-0.002807865990825359,-1.3169426110237734
-0.007351222884805484,0.0008903588617584406,-1.320649962004811
-0.0073494328848054844,-0.002807865990825359,-1.320649962004811
-0.007347642884805484,-0.002807865990825359,-1.320649962004811
-0.007345852884805484,-0.002807865990825359,-1.3169426110237734
-0.007344062884805484,-0.002807865990825359,-1.3169426110237734
-0.0073422728848054845,-0.002807865990825359,-1.3169426110237734
-0.007340482884805484,-0.0065060908434091584,-1.3169426110237734
-0.007338692884805484,-0.002807865990825359,-1.3132352600427357
-0.007336902884805484,-0.0065060908434091584,-1.3243573129858488
-0.0073351128848054845,-0.002807865990825359,-1.3169426110237734
-0.007333322884805484,-0.002807865990825359,-1.3132352600427357
-0.007331532884805484,-0.010204315695992958,-1.320649962004811
-0.007329742884805484,-0.0065060908434091584,-1.320649962004811
-0.0073279528848054845,-0.010204315695992958,-1.320649962004811
-0.007326162884805484,-0.0065060908434091584,-1.3169426110237734
-0.007324372884805484,-0.002807865990825359,-1.3169426110237734
-0.007322582884805484,-0.002807865990825359,-1.3132352600427357
-0.0073207928848054845,-0.010204315695992958,-1.3169426110237734
-0.007319002884805484,-0.002807865990825359,-1.3169426110237734
-0.007317212884805484,-0.010204315695992958,-1.320649962004811
-0.007315422884805484,-0.0065060908434091584,-1.320649962004811
-0.0073136328848054846,-0.010204315695992958,-1.3169426110237734
-0.007311842884805484,-0.010204315695992958,-1.3169426110237734
-0.007310052884805484,-0.0065060908434091584,-1.320649962004811
-0.007308262884805484,-0.0065060908434091584,-1.320649962004811
-0.007306472884805485,-0.010204315695992958,-1.3169426110237734
-0.007304682884805484,-0.017600765401160557,-1.3169426110237734
-0.007302892884805484,-0.002807865990825359,-1.320649962004811
-0.007301102884805484,0.00828680856692604,-1.320649962004811
-0.007299312884805485,0.019381483124672395,-1.320649962004811
-0.007297522884805484,0.01198503341950984,-1.3169426110237734
-0.007295732884805484,0.01198503341950984,-1.320649962004811
-0.007293942884805484,0.00828680856692604,-1.3243573129858488
-0.007292152884805484,0.0008903588617550771,-1.324357312985847
-0.007290362884805484,-0.0065060908434091584,-1.320649962004811
-0.007288572884805484,-0.002807865990825359,-1.320649962004811
-0.007286782884805484,-0.0065060908434091584,-1.3132352600427357
-0.007284992884805484,-0.010204315695992958,-1.3169426110237734
-0.007283202884805484,-0.010204315695992958,-1.3169426110237734
-0.007281412884805484,-0.013902540548576758,-1.3169426110237734
-0.0072796228848054844,-0.010204315695992958,-1.320649962004811
-0.007277832884805484,-0.013902540548576758,-1.3132352600427357
-0.007276042884805484,-0.013902540548576758,-1.3169426110237734
-0.007274252884805484,-0.010204315695992958,-1.3132352600427357
-0.0072724628848054845,-0.010204315695992958,-1.3169426110237734
-0.007270672884805484,-0.010204315695992958,-1.320649962004811
-0.007268882884805484,-0.013902540548576758,-1.3169426110237734
-0.007267092884805484,-0.013902540548576758,-1.3169426110237734
-0.0072653028848054845,-0.017600765401160557,-1.320649962004811
-0.007263512884805484,-0.017600765401160557,-1.320649962004811
-0.007261722884805484,-0.010204315695992958,-1.3169426110237734
-0.007259932884805484,-0.013902540548576758,-1.3169426110237734
-0.0072581428848054845,-0.017600765401160557,-1.3169426110237734
-0.007256352884805484,-0.017600765401160557,-1.320649962004811
-0.007254562884805484,-0.017600765401160557,-1.320649962004811
-0.007252772884805484,-0.017600765401160557,-1.320649962004811
-0.0072509828848054845,-0.013902540548576758,-1.3280646639668865
-0.007249192884805484,-0.013902540548576758,-1.3169426110237734
-0.007247402884805484,-0.013902540548576758,-1.320649962004811
-0.007245612884805484,-0.017600765401160557,-1.3132352600427357
-0.0072438228848054845,-0.013902540548576758,-1.3132352600427357
-0.007242032884805484,-0.013902540548576758,-1.3169426110237734
-0.007240242884805484,-0.017600765401160557,-1.320649962004811
-0.007238452884805484,-0.010204315695992958,-1.3169426110237734
-0.0072366628848054846,-0.013902540548576758,-1.3243573129858488
-0.007234872884805484,-0.021298990253744356,-1.3169426110237734
-0.007233082884805484,-0.021298990253744356,-1.3169426110237734
-0.007231292884805484,-0.013902540548576758,-1.320649962004811
-0.007229502884805485,-0.017600765401160557,-1.3169426110237734
-0.007227712884805484,-0.017600765401160557,-1.320649962004811
-0.007225922884805484,-0.013902540548576758,-1.320649962004811
-0.007224132884805484,-0.017600765401160557,-1.320649962004811
-0.007222342884805485,-0.021298990253742673,-1.320649962004811
-0.007220552884805484,-0.021298990253744356,-1.3169426110237734
-0.007218762884805484,-0.017600765401160557,-1.3169426110237734
-0.007216972884805484,-0.021298990253744356,-1.320649962004811
-0.007215182884805484,-0.02129899025374604,-1.3206499620048129
-0.007213392884805484,-0.024997215106328158,-1.3243573129858488
-0.007211602884805484,-0.021298990253744356,-1.3169426110237734
-0.007209812884805484,-0.017600765401160557,-1.3169426110237734
-0.007208022884805484,-0.017600765401160557,-1.3132352600427357
-0.007206232884805484,-0.017600765401160557,-1.3169426110237734
-0.007204442884805484,-0.017600765401160557,-1.3132352600427357
-0.0072026528848054844,-0.024997215106328158,-1.3169426110237734
-0.007200862884805484,-0.021298990253744356,-1.3169426110237734
-0.007199072884805484,-0.021298990253744356,-1.320649962004811
-0.007197282884805484,-0.024997215106328158,-1.3169426110237734
-0.0071954928848054845,-0.024997215106328158,-1.3169426110237734
-0.007193702884805484,-0.017600765401160557,-1.320649962004811
-0.007191912884805484,-0.024997215106328158,-1.320649962004811
-0.007190122884805484,-0.021298990253744356,-1.320649962004811
-0.0071883328848054845,-0.017600765401160557,-1.3169426110237734
-0.007186542884805484,-0.024997215106328158,-1.320649962004811
