100Hz/acq0062.csv

#Digilent WaveForms Oscilloscope Acquisition
#Device Name: Discovery2
#Serial Number: SN:210321AA28BE
#Date Time: 2023-05-24 14:48:32.029
#Sample rate: 558659Hz
#Samples: 8192
#Trigger: Source: Channel 1 Type: Edge Condition: Rising Level: 800 mV Hyst.: Auto HoldOff: 100 ns
#Channel 1: Range: 1 V/div Offset: 0 V Attenuation: 1 X Sample Mode: Average
#Channel 2: Range: 1 V/div Offset: 0 V Attenuation: 1 X Sample Mode: Average

Time (s),Channel 1 (V),Channel 2 (V)
-0.007741303850775663,0.015683258272093638,-1.3243573129858488
-0.007739513850775663,0.011985033419511522,-1.3169426110237767
-0.007737723850775663,0.01198503341950984,-1.3169426110237734
-0.007735933850775663,0.015683258272093638,-1.320649962004811
-0.007734143850775663,0.00828680856692604,-1.3169426110237734
-0.0077323538507756626,0.011985033419506476,-1.3206499620048093
-0.007730563850775663,0.00458858371434224,-1.3169426110237734
-0.007728773850775663,0.00828680856692604,-1.320649962004811
-0.007726983850775663,0.01198503341950984,-1.3243573129858488
-0.007725193850775663,0.00458858371434224,-1.320649962004811
-0.007723403850775663,0.00828680856692604,-1.3243573129858488
-0.007721613850775663,0.00458858371434224,-1.320649962004811
-0.007719823850775663,0.00458858371434224,-1.320649962004811
-0.007718033850775663,0.01198503341950984,-1.320649962004811
-0.007716243850775663,0.00828680856692604,-1.3169426110237734
-0.007714453850775663,0.00828680856692604,-1.320649962004811
-0.007712663850775663,0.00828680856692604,-1.3169426110237734
-0.007710873850775663,0.00458858371434224,-1.3132352600427357
-0.007709083850775663,0.00828680856692604,-1.3132352600427357
-0.007707293850775663,0.00458858371434224,-1.3169426110237734
-0.007705503850775663,0.00458858371434224,-1.320649962004811
-0.007703713850775663,0.00458858371434224,-1.320649962004811
-0.007701923850775663,0.00458858371434224,-1.320649962004811
-0.007700133850775663,0.0008903588617584406,-1.3169426110237734
-0.007698343850775663,0.0008903588617584406,-1.3132352600427357
-0.007696553850775663,0.0008903588617584406,-1.3132352600427357
-0.007694763850775663,0.00458858371434224,-1.3169426110237734
-0.007692973850775663,0.00458858371434224,-1.3169426110237734
-0.007691183850775663,0.0008903588617584406,-1.3169426110237734
-0.007689393850775663,-0.002807865990825359,-1.320649962004811
-0.007687603850775663,0.00458858371434224,-1.3132352600427357
-0.007685813850775663,0.0008903588617584406,-1.3132352600427357
-0.007684023850775663,0.00458858371434224,-1.320649962004811
-0.007682233850775663,0.00458858371434224,-1.3169426110237734
-0.007680443850775663,0.0008903588617584406,-1.3132352600427357
-0.007678653850775663,0.0008903588617584406,-1.320649962004811
-0.007676863850775663,-0.002807865990825359,-1.3169426110237734
-0.007675073850775663,-0.002807865990825359,-1.3169426110237734
-0.007673283850775663,-0.002807865990825359,-1.3169426110237734
-0.007671493850775663,-0.002807865990825359,-1.3169426110237734
-0.007669703850775663,-0.002807865990825359,-1.3206499620048093
-0.007667913850775663,-0.002807865990825359,-1.320649962004811
-0.007666123850775663,-0.002807865990825359,-1.320649962004811
-0.007664333850775663,0.00458858371434224,-1.320649962004811
-0.0076625438507756626,0.0008903588617584406,-1.3206499620048093
-0.007660753850775663,0.0008903588617584406,-1.3169426110237734
-0.007658963850775663,-0.002807865990825359,-1.3169426110237734
-0.007657173850775663,0.0008903588617584406,-1.3169426110237734
-0.007655383850775663,0.0008903588617567589,-1.3169426110237734
-0.007653593850775663,-0.002807865990825359,-1.3169426110237734
-0.007651803850775663,-0.002807865990825359,-1.320649962004811
-0.007650013850775663,-0.0065060908434091584,-1.3169426110237734
-0.007648223850775663,-0.002807865990825359,-1.320649962004811
-0.007646433850775663,-0.002807865990825359,-1.320649962004811
-0.007644643850775663,-0.0065060908434091584,-1.3169426110237734
-0.007642853850775663,-0.0065060908434091584,-1.320649962004811
-0.007641063850775663,-0.010204315695992958,-1.320649962004811
-0.007639273850775663,-0.0065060908434091584,-1.3169426110237734
-0.007637483850775663,-0.002807865990825359,-1.3169426110237734
-0.007635693850775663,-0.0065060908434091584,-1.320649962004811
-0.007633903850775663,-0.002807865990825359,-1.3169426110237734
-0.007632113850775663,-0.0065060908434091584,-1.3169426110237734
-0.007630323850775663,-0.002807865990825359,-1.3169426110237734
-0.007628533850775663,-0.010204315695992958,-1.320649962004811
-0.007626743850775663,-0.013902540548576758,-1.3169426110237734
-0.007624953850775663,-0.002807865990825359,-1.3132352600427357
-0.007623163850775663,0.0008903588617584406,-1.3169426110237734
-0.007621373850775663,0.0008903588617584406,-1.320649962004811
-0.007619583850775663,-0.0065060908434091584,-1.3132352600427357
-0.007617793850775663,-0.002807865990825359,-1.3169426110237734
-0.007616003850775663,-0.010204315695992958,-1.320649962004811
-0.007614213850775663,-0.010204315695992958,-1.320649962004811
-0.007612423850775663,-0.0065060908434091584,-1.3132352600427357
-0.007610633850775663,-0.010204315695992958,-1.3169426110237734
-0.007608843850775663,-0.010204315695992958,-1.320649962004811
-0.007607053850775663,-0.010204315695992958,-1.320649962004811
-0.007605263850775663,-0.010204315695992958,-1.3132352600427357
-0.007603473850775663,-0.0065060908434091584,-1.320649962004811
-0.007601683850775663,-0.010204315695992958,-1.320649962004811
-0.007599893850775663,-0.013902540548576758,-1.3169426110237734
-0.007598103850775663,-0.010204315695992958,-1.3169426110237734
-0.007596313850775663,-0.010204315695992958,-1.320649962004811
-0.007594523850775663,-0.013902540548576758,-1.320649962004811
-0.007592733850775663,-0.013902540548576758,-1.3169426110237752
-0.007590943850775663,-0.013902540548576758,-1.320649962004811
-0.007589153850775663,-0.013902540548576758,-1.3169426110237734
-0.007587363850775663,-0.013902540548576758,-1.320649962004811
-0.0075855738507756626,-0.010204315695994639,-1.3206499620048093
-0.007583783850775663,-0.013902540548576758,-1.3169426110237734
-0.007581993850775663,-0.013902540548576758,-1.320649962004811
-0.007580203850775663,-0.010204315695992958,-1.320649962004811
-0.007578413850775663,-0.013902540548576758,-1.3243573129858488
-0.007576623850775663,-0.013902540548576758,-1.320649962004811
-0.007574833850775663,-0.010204315695992958,-1.320649962004811
-0.007573043850775663,-0.017600765401160557,-1.320649962004811
-0.007571253850775663,-0.017600765401160557,-1.3169426110237734
-0.007569463850775663,-0.013902540548576758,-1.320649962004811
-0.007567673850775663,-0.013902540548576758,-1.320649962004811
-0.007565883850775663,-0.017600765401160557,-1.320649962004811
-0.007564093850775663,-0.021298990253744356,-1.320649962004811
-0.007562303850775663,-0.024997215106328158,-1.3169426110237734
-0.007560513850775663,-0.021298990253744356,-1.320649962004811
-0.007558723850775663,-0.013902540548576758,-1.320649962004811
-0.007556933850775663,-0.024997215106328158,-1.320649962004811
-0.007555143850775663,-0.021298990253744356,-1.320649962004811
-0.007553353850775663,-0.013902540548576758,-1.320649962004811
-0.007551563850775663,-0.024997215106328158,-1.3169426110237734
-0.007549773850775663,-0.017600765401160557,-1.3169426110237734
-0.007547983850775663,-0.017600765401160557,-1.320649962004811
-0.007546193850775663,-0.017600765401160557,-1.320649962004811
-0.007544403850775663,-0.021298990253744356,-1.320649962004811
-0.007542613850775663,-0.021298990253744356,-1.3243573129858488
-0.007540823850775663,-0.021298990253744356,-1.3243573129858488
-0.007539033850775663,-0.024997215106328158,-1.320649962004811
-0.007537243850775663,-0.021298990253744356,-1.320649962004811
-0.007535453850775663,-0.024997215106328158,-1.3169426110237734
-0.007533663850775663,-0.021298990253744356,-1.320649962004811
-0.007531873850775663,-0.024997215106328158,-1.320649962004811
-0.007530083850775663,-0.024997215106328158,-1.3132352600427357
-0.007528293850775663,-0.024997215106328158,-1.3169426110237734
-0.007526503850775663,-0.024997215106328158,-1.3169426110237734
-0.007524713850775663,-0.024997215106328158,-1.3169426110237734
-0.007522923850775663,-0.02129899025374604,-1.3169426110237734
-0.007521133850775663,-0.0065060908434091584,-1.3243573129858488
-0.007519343850775663,0.0008903588617584406,-1.320649962004811
-0.007517553850775663,-0.010204315695992958,-1.3169426110237734
-0.007515763850775663,-0.00650609084341084,-1.3169426110237734
-0.007513973850775663,-0.017600765401160557,-1.3169426110237734
-0.007512183850775663,-0.013902540548576758,-1.3169426110237734
-0.007510393850775663,-0.017600765401160557,-1.3169426110237734
-0.007508603850775663,-0.02129899025374604,-1.320649962004811
-0.007506813850775663,-0.024997215106328158,-1.320649962004811
-0.007505023850775663,-0.021298990253744356,-1.3169426110237734
-0.007503233850775663,-0.024997215106328158,-1.3169426110237734
-0.007501443850775663,-0.028695439958911956,-1.3169426110237734
-0.007499653850775663,-0.028695439958911956,-1.320649962004811
-0.007497863850775663,-0.032393664811495755,-1.3169426110237734
-0.007496073850775663,-0.032393664811495755,-1.320649962004811
-0.007494283850775663,-0.03609188966407956,-1.3169426110237734
-0.007492493850775663,-0.032393664811495755,-1.3169426110237734
-0.007490703850775663,-0.03609188966407956,-1.320649962004811
-0.007488913850775663,-0.032393664811495755,-1.3169426110237734
-0.007487123850775663,-0.03609188966407956,-1.320649962004811
-0.007485333850775663,-0.028695439958911956,-1.320649962004811
-0.007483543850775663,-0.03609188966407956,-1.320649962004811
-0.007481753850775663,-0.028695439958911956,-1.320649962004811
-0.007479963850775663,-0.032393664811495755,-1.320649962004811
-0.007478173850775663,-0.028695439958911956,-1.320649962004811
-0.007476383850775663,-0.028695439958911956,-1.3169426110237734
-0.007474593850775663,-0.03609188966407956,-1.3132352600427357
-0.007472803850775663,-0.03609188966407956,-1.320649962004811
-0.007471013850775663,-0.03609188966407956,-1.3169426110237734
-0.007469223850775663,-0.03609188966407956,-1.3169426110237734
-0.007467433850775663,-0.032393664811495755,-1.320649962004811
-0.007465643850775663,-0.03979011451666335,-1.320649962004811
-0.007463853850775663,-0.03979011451666335,-1.3169426110237734
-0.007462063850775663,-0.032393664811495755,-1.3169426110237734
-0.007460273850775663,-0.03609188966407956,-1.320649962004811
-0.007458483850775663,-0.03609188966407956,-1.3169426110237734
-0.007456693850775663,-0.032393664811495755,-1.320649962004811
-0.007454903850775663,-0.032393664811495755,-1.320649962004811
-0.007453113850775663,-0.043488339369247155,-1.3169426110237734
-0.007451323850775663,-0.03609188966407956,-1.3169426110237734
-0.007449533850775663,-0.03979011451666335,-1.3169426110237734
-0.007447743850775663,-0.043488339369247155,-1.320649962004811
-0.007445953850775663,-0.03979011451666503,-1.320649962004811
-0.007444163850775663,-0.043488339369247155,-1.3169426110237734
-0.007442373850775663,-0.03979011451666335,-1.320649962004811
-0.007440583850775663,-0.03609188966407956,-1.320649962004811
-0.0074387938507756626,-0.03979011451666167,-1.3169426110237716
-0.007437003850775663,-0.03609188966407956,-1.3132352600427357
-0.007435213850775663,-0.03979011451666335,-1.3132352600427357
-0.007433423850775663,-0.032393664811495755,-1.3169426110237734
-0.007431633850775663,-0.03609188966407956,-1.3169426110237734
-0.007429843850775663,-0.043488339369247155,-1.3169426110237734
-0.007428053850775663,-0.043488339369247155,-1.320649962004811
-0.007426263850775663,-0.03609188966407956,-1.320649962004811
-0.007424473850775663,-0.04718656422183096,-1.3169426110237734
-0.007422683850775663,-0.04718656422183096,-1.3169426110237734
-0.007420893850775663,-0.03979011451666335,-1.320649962004811
-0.007419103850775663,-0.043488339369247155,-1.3169426110237734
-0.007417313850775663,-0.03979011451666335,-1.320649962004811
-0.007415523850775663,-0.043488339369247155,-1.320649962004811
-0.007413733850775663,-0.043488339369247155,-1.320649962004811
-0.007411943850775663,-0.04718656422183096,-1.320649962004811
-0.007410153850775663,-0.03979011451666335,-1.3169426110237734
-0.007408363850775663,-0.04718656422183096,-1.3169426110237734
-0.007406573850775663,-0.04718656422183096,-1.3169426110237734
-0.007404783850775663,-0.043488339369247155,-1.3169426110237734
-0.007402993850775663,-0.05088478907441475,-1.3169426110237734
-0.007401203850775663,-0.043488339369247155,-1.3132352600427357
-0.007399413850775663,-0.03979011451666335,-1.320649962004811
-0.007397623850775663,-0.043488339369247155,-1.3169426110237734
-0.007395833850775663,-0.043488339369247155,-1.320649962004811
-0.007394043850775663,-0.05088478907441475,-1.320649962004811
-0.007392253850775663,-0.04718656422183096,-1.320649962004811
-0.007390463850775663,-0.043488339369247155,-1.3169426110237734
-0.007388673850775663,-0.05088478907441475,-1.320649962004811
-0.007386883850775663,-0.04718656422183096,-1.3243573129858488
-0.007385093850775663,-0.04718656422183096,-1.3169426110237734
-0.007383303850775663,-0.054583013926998554,-1.320649962004811
-0.007381513850775663,-0.05088478907441475,-1.3169426110237734
-0.007379723850775663,-0.05088478907441475,-1.3169426110237734
-0.007377933850775663,-0.05088478907441475,-1.320649962004811
-0.007376143850775663,-0.05088478907441475,-1.320649962004811
-0.007374353850775663,-0.05088478907441475,-1.3169426110237734
-0.007372563850775663,-0.043488339369247155,-1.320649962004811
-0.007370773850775663,-0.04718656422183096,-1.3132352600427357
-0.007368983850775663,-0.05088478907441307,-1.3169426110237716
-0.007367193850775663,-0.05088478907441475,-1.3169426110237734
-0.007365403850775663,-0.05088478907441475,-1.3169426110237734
-0.007363613850775663,-0.054583013926998554,-1.3132352600427357
-0.007361823850775663,-0.05088478907441643,-1.3132352600427375
-0.007360033850775663,-0.054583013926998554,-1.3169426110237734
-0.007358243850775663,-0.054583013926998554,-1.3169426110237734
-0.007356453850775663,-0.05088478907441475,-1.3169426110237734
-0.007354663850775663,-0.054583013926998554,-1.3132352600427357
-0.007352873850775663,-0.05088478907441475,-1.3169426110237734
-0.007351083850775663,-0.05088478907441475,-1.320649962004811
-0.007349293850775663,-0.05088478907441475,-1.3169426110237734
-0.007347503850775663,-0.054583013926998554,-1.320649962004811
-0.007345713850775663,-0.054583013926998554,-1.3132352600427357
-0.007343923850775663,-0.054583013926998554,-1.3169426110237734
-0.007342133850775663,-0.05088478907441475,-1.320649962004811
-0.007340343850775663,-0.04718656422183096,-1.3169426110237734
-0.007338553850775663,-0.043488339369247155,-1.3169426110237734
-0.007336763850775663,-0.04718656422183096,-1.3132352600427357
-0.007334973850775663,-0.04718656422183096,-1.320649962004811
-0.007333183850775663,-0.05088478907441475,-1.320649962004811
-0.007331393850775663,-0.04718656422183096,-1.3169426110237734
-0.007329603850775663,-0.05088478907441475,-1.320649962004811
-0.007327813850775663,-0.05088478907441475,-1.320649962004811
-0.007326023850775663,-0.05088478907441475,-1.3169426110237734
-0.007324233850775663,-0.05088478907441475,-1.320649962004811
-0.007322443850775663,-0.05088478907441475,-1.320649962004811
-0.007320653850775663,-0.054583013926998554,-1.320649962004811
-0.007318863850775663,-0.054583013926998554,-1.320649962004811
-0.007317073850775663,-0.05088478907441475,-1.320649962004811
-0.007315283850775663,-0.05088478907441475,-1.3169426110237734
-0.007313493850775663,-0.05088478907441475,-1.3132352600427357
-0.007311703850775663,-0.04718656422183096,-1.3243573129858488
-0.007309913850775663,-0.054583013926998554,-1.3243573129858488
-0.007308123850775663,-0.05828123877958235,-1.3169426110237734
-0.007306333850775663,-0.05088478907441475,-1.3169426110237734
-0.007304543850775663,-0.05088478907441475,-1.3132352600427357
-0.007302753850775663,-0.04718656422183096,-1.3169426110237734
-0.007300963850775663,-0.054583013926998554,-1.320649962004811
-0.007299173850775663,-0.05088478907441643,-1.320649962004811
-0.007297383850775663,-0.05088478907441475,-1.3132352600427357
-0.007295593850775663,-0.054583013926998554,-1.3169426110237734
-0.007293803850775663,-0.05828123877958235,-1.3132352600427357
-0.0072920138507756626,-0.05828123877958235,-1.3169426110237752
-0.007290223850775663,-0.05828123877958235,-1.320649962004811
-0.007288433850775663,-0.05828123877958235,-1.3169426110237734
-0.007286643850775663,-0.054583013926998554,-1.3169426110237734
-0.007284853850775663,-0.05828123877958235,-1.3169426110237734
-0.007283063850775663,-0.05828123877958235,-1.3169426110237734
-0.007281273850775663,-0.05828123877958235,-1.3169426110237734
-0.007279483850775663,-0.06197946363216615,-1.320649962004811
-0.007277693850775663,-0.06197946363216615,-1.320649962004811
-0.007275903850775663,-0.05828123877958235,-1.3169426110237734
-0.007274113850775663,-0.054583013926998554,-1.320649962004811
-0.007272323850775663,-0.054583013926998554,-1.320649962004811
-0.007270533850775663,-0.06197946363216615,-1.320649962004811
-0.007268743850775663,-0.05828123877958235,-1.3132352600427357
-0.007266953850775663,-0.06197946363216615,-1.3169426110237734
-0.007265163850775663,-0.06197946363216615,-1.3132352600427357
-0.007263373850775663,-0.05828123877958235,-1.320649962004811
-0.007261583850775663,-0.06567768848474995,-1.3169426110237734
-0.007259793850775663,-0.05828123877958235,-1.3132352600427357
-0.007258003850775663,-0.06197946363216615,-1.3169426110237734
-0.007256213850775663,-0.06197946363216615,-1.320649962004811
-0.007254423850775663,-0.06567768848474995,-1.3169426110237734
-0.007252633850775663,-0.054583013926998554,-1.3169426110237734
-0.007250843850775663,-0.05828123877958235,-1.320649962004811
-0.007249053850775663,-0.06197946363216615,-1.3169426110237734
-0.007247263850775663,-0.06197946363216615,-1.320649962004811
-0.007245473850775663,-0.06197946363216615,-1.3132352600427357
-0.007243683850775663,-0.06197946363216615,-1.3169426110237734
-0.007241893850775663,-0.06197946363216615,-1.3169426110237734
-0.007240103850775663,-0.06567768848474995,-1.320649962004811
-0.007238313850775663,-0.06197946363216615,-1.320649962004811
-0.007236523850775663,-0.06197946363216615,-1.3169426110237734
-0.007234733850775663,-0.05828123877958235,-1.3132352600427357
-0.007232943850775663,-0.05828123877958235,-1.3132352600427357
-0.007231153850775663,-0.06567768848474995,-1.3169426110237734
-0.007229363850775663,-0.06567768848474995,-1.320649962004811
-0.007227573850775663,-0.06197946363216615,-1.320649962004811
-0.007225783850775663,-0.06197946363216615,-1.3132352600427357
-0.007223993850775663,-0.06567768848474995,-1.3132352600427357
-0.007222203850775663,-0.06197946363216783,-1.3169426110237716
-0.007220413850775663,-0.06197946363216615,-1.3132352600427357
-0.007218623850775663,-0.05828123877958235,-1.3243573129858488
-0.007216833850775663,-0.06937591333733376,-1.3243573129858488
-0.007215043850775663,-0.06197946363216783,-1.324357312985847
-0.007213253850775663,-0.06567768848474995,-1.320649962004811
-0.007211463850775663,-0.06197946363216615,-1.320649962004811
-0.007209673850775663,-0.06197946363216615,-1.3280646639668865
-0.007207883850775663,-0.06197946363216615,-1.3169426110237734
-0.007206093850775663,-0.06197946363216615,-1.3169426110237734
-0.007204303850775663,-0.06197946363216615,-1.3169426110237734
-0.007202513850775663,-0.06567768848474995,-1.320649962004811
-0.007200723850775663,-0.06937591333733376,-1.320649962004811
-0.007198933850775663,-0.06567768848474995,-1.3169426110237734
-0.007197143850775663,-0.06937591333733376,-1.3169426110237734
-0.007195353850775663,-0.06197946363216615,-1.3169426110237734
-0.007193563850775663,-0.06567768848474995,-1.320649962004811
-0.007191773850775663,-0.06567768848474995,-1.3243573129858488
-0.007189983850775663,-0.06937591333733376,-1.3169426110237734
