100Hz/acq0038.csv

#Digilent WaveForms Oscilloscope Acquisition
#Device Name: Discovery2
#Serial Number: SN:210321AA28BE
#Date Time: 2023-05-24 14:48:31.328
#Sample rate: 558659Hz
#Samples: 8192
#Trigger: Source: Channel 1 Type: Edge Condition: Rising Level: 800 mV Hyst.: Auto HoldOff: 100 ns
#Channel 1: Range: 1 V/div Offset: 0 V Attenuation: 1 X Sample Mode: Average
#Channel 2: Range: 1 V/div Offset: 0 V Attenuation: 1 X Sample Mode: Average

Time (s),Channel 1 (V),Channel 2 (V)
-0.0077409830643146256,0.015683258272093638,-1.3169426110237734
-0.007739193064314626,0.011985033419511522,-1.3206499620048093
-0.007737403064314625,0.015683258272093638,-1.3169426110237734
-0.007735613064314625,0.015683258272093638,-1.320649962004811
-0.007733823064314626,0.01198503341950984,-1.3243573129858488
-0.007732033064314625,0.015683258272093638,-1.3206499620048129
-0.007730243064314625,0.015683258272093638,-1.3243573129858488
-0.007728453064314625,0.01198503341950984,-1.3243573129858488
-0.007726663064314626,0.01198503341950984,-1.3169426110237734
-0.007724873064314625,0.015683258272093638,-1.3169426110237734
-0.007723083064314625,0.015683258272093638,-1.320649962004811
-0.007721293064314625,0.01198503341950984,-1.3169426110237734
-0.007719503064314626,0.00458858371434224,-1.3169426110237734
-0.007717713064314625,0.00828680856692604,-1.3169426110237734
-0.007715923064314625,0.01198503341950984,-1.320649962004811
-0.007714133064314625,0.01198503341950984,-1.320649962004811
-0.007712343064314626,0.00828680856692604,-1.320649962004811
-0.007710553064314625,0.01198503341950984,-1.320649962004811
-0.007708763064314625,0.00828680856692604,-1.320649962004811
-0.0077069730643146254,0.00458858371434224,-1.320649962004811
-0.007705183064314626,0.01198503341950984,-1.3169426110237734
-0.007703393064314625,0.00828680856692604,-1.320649962004811
-0.007701603064314625,0.01198503341950984,-1.320649962004811
-0.0076998130643146255,0.01198503341950984,-1.320649962004811
-0.007698023064314626,0.01198503341950984,-1.3243573129858488
-0.007696233064314625,0.00458858371434224,-1.320649962004811
-0.007694443064314625,0.00828680856692604,-1.3169426110237734
-0.0076926530643146255,0.00828680856692604,-1.3169426110237734
-0.007690863064314626,0.00458858371434224,-1.320649962004811
-0.007689073064314625,0.00828680856692604,-1.3169426110237734
-0.007687283064314625,0.00458858371434224,-1.3243573129858488
-0.0076854930643146255,0.00458858371434224,-1.320649962004811
-0.007683703064314626,0.00458858371434224,-1.320649962004811
-0.007681913064314625,0.00458858371434224,-1.320649962004811
-0.007680123064314625,0.00458858371434224,-1.320649962004811
-0.0076783330643146255,0.0008903588617584406,-1.320649962004811
-0.007676543064314626,0.00458858371434224,-1.320649962004811
-0.007674753064314625,0.00458858371434224,-1.3169426110237734
-0.007672963064314625,0.00828680856692604,-1.320649962004811
-0.0076711730643146256,0.00828680856692604,-1.320649962004811
-0.007669383064314626,0.004588583714343922,-1.320649962004811
-0.007667593064314625,0.00458858371434224,-1.320649962004811
-0.007665803064314625,-0.002807865990825359,-1.320649962004811
-0.007664013064314626,-0.002807865990825359,-1.3243573129858488
-0.007662223064314625,-0.002807865990823677,-1.320649962004811
-0.007660433064314625,0.0008903588617584406,-1.320649962004811
-0.007658643064314625,0.00458858371434224,-1.320649962004811
-0.007656853064314626,-0.002807865990825359,-1.320649962004811
-0.007655063064314625,-0.002807865990823677,-1.3169426110237752
-0.007653273064314625,0.0008903588617584406,-1.320649962004811
-0.007651483064314625,0.0008903588617584406,-1.3169426110237734
-0.007649693064314626,-0.002807865990825359,-1.320649962004811
-0.007647903064314625,0.0008903588617584406,-1.320649962004811
-0.007646113064314625,-0.002807865990825359,-1.320649962004811
-0.007644323064314625,-0.0065060908434091584,-1.320649962004811
-0.007642533064314626,-0.002807865990825359,-1.3243573129858488
-0.007640743064314625,-0.002807865990825359,-1.320649962004811
-0.007638953064314625,-0.002807865990825359,-1.320649962004811
-0.0076371630643146254,-0.002807865990825359,-1.320649962004811
-0.007635373064314626,-0.0065060908434091584,-1.320649962004811
-0.007633583064314625,-0.0065060908434091584,-1.3169426110237734
-0.007631793064314625,-0.002807865990825359,-1.3243573129858488
-0.0076300030643146255,-0.002807865990825359,-1.320649962004811
-0.007628213064314626,-0.0065060908434091584,-1.320649962004811
-0.007626423064314625,-0.002807865990825359,-1.320649962004811
-0.007624633064314625,-0.0065060908434091584,-1.320649962004811
-0.0076228430643146255,-0.002807865990825359,-1.320649962004811
-0.007621053064314626,-0.0065060908434091584,-1.3169426110237734
-0.007619263064314625,-0.010204315695992958,-1.320649962004811
-0.007617473064314625,-0.0065060908434091584,-1.3169426110237734
-0.0076156830643146255,-0.010204315695992958,-1.320649962004811
-0.007613893064314626,-0.013902540548576758,-1.3243573129858488
-0.007612103064314625,-0.010204315695992958,-1.320649962004811
-0.007610313064314625,-0.013902540548576758,-1.320649962004811
-0.0076085230643146255,-0.0065060908434091584,-1.320649962004811
-0.007606733064314626,-0.0065060908434091584,-1.320649962004811
-0.007604943064314625,-0.0065060908434091584,-1.320649962004811
-0.007603153064314625,-0.0065060908434091584,-1.3169426110237734
-0.0076013630643146255,-0.0065060908434091584,-1.320649962004811
-0.007599573064314626,-0.0065060908434091584,-1.3243573129858488
-0.007597783064314625,-0.0065060908434091584,-1.320649962004811
-0.007595993064314625,-0.010204315695992958,-1.320649962004811
-0.0075942030643146256,-0.010204315695992958,-1.3243573129858488
-0.007592413064314626,-0.010204315695992958,-1.3206499620048129
-0.007590623064314625,-0.010204315695992958,-1.320649962004811
-0.007588833064314625,-0.010204315695992958,-1.3243573129858488
-0.007587043064314626,-0.010204315695992958,-1.320649962004811
-0.007585253064314625,-0.013902540548575077,-1.320649962004811
-0.007583463064314625,-0.010204315695992958,-1.320649962004811
-0.007581673064314625,-0.0065060908434091584,-1.320649962004811
-0.007579883064314626,-0.013902540548576758,-1.3169426110237734
-0.007578093064314625,-0.013902540548576758,-1.3169426110237734
-0.007576303064314625,-0.017600765401160557,-1.320649962004811
-0.007574513064314625,-0.013902540548576758,-1.3169426110237734
-0.007572723064314626,-0.017600765401160557,-1.3169426110237734
-0.007570933064314625,-0.013902540548576758,-1.3169426110237734
-0.007569143064314625,-0.017600765401160557,-1.320649962004811
-0.007567353064314625,-0.017600765401160557,-1.3243573129858488
-0.007565563064314626,-0.013902540548576758,-1.3243573129858488
-0.007563773064314625,-0.017600765401160557,-1.320649962004811
-0.007561983064314625,-0.017600765401160557,-1.3169426110237734
-0.0075601930643146254,-0.017600765401160557,-1.320649962004811
-0.007558403064314626,-0.013902540548576758,-1.320649962004811
-0.007556613064314625,-0.017600765401160557,-1.320649962004811
-0.007554823064314625,-0.013902540548576758,-1.3169426110237734
-0.0075530330643146255,-0.024997215106328158,-1.3169426110237734
-0.007551243064314626,-0.017600765401160557,-1.320649962004811
-0.007549453064314625,-0.013902540548576758,-1.320649962004811
-0.007547663064314625,-0.021298990253744356,-1.3169426110237734
-0.0075458730643146255,-0.017600765401160557,-1.3132352600427357
-0.007544083064314626,-0.017600765401160557,-1.3169426110237734
-0.007542293064314625,-0.017600765401160557,-1.320649962004811
-0.007540503064314625,-0.021298990253744356,-1.3169426110237734
-0.0075387130643146255,-0.021298990253744356,-1.320649962004811
-0.007536923064314626,-0.021298990253744356,-1.3243573129858488
-0.007535133064314625,-0.021298990253744356,-1.3169426110237734
-0.007533343064314625,-0.021298990253744356,-1.320649962004811
-0.0075315530643146255,-0.021298990253744356,-1.320649962004811
-0.007529763064314626,-0.013902540548576758,-1.320649962004811
-0.007527973064314625,-0.021298990253744356,-1.3243573129858488
-0.007526183064314625,-0.021298990253744356,-1.320649962004811
-0.0075243930643146256,-0.017600765401160557,-1.320649962004811
-0.007522603064314626,-0.024997215106324792,-1.320649962004811
-0.007520813064314625,-0.028695439958911956,-1.3169426110237734
-0.007519023064314625,-0.028695439958911956,-1.3169426110237734
-0.007517233064314626,-0.017600765401160557,-1.320649962004811
-0.007515443064314626,-0.024997215106324792,-1.320649962004811
-0.007513653064314625,-0.021298990253744356,-1.3169426110237734
-0.007511863064314625,-0.021298990253744356,-1.320649962004811
-0.007510073064314626,-0.021298990253744356,-1.320649962004811
-0.007508283064314625,-0.024997215106326475,-1.3206499620048078
-0.007506493064314625,-0.021298990253744356,-1.3132352600427357
-0.007504703064314625,-0.024997215106328158,-1.320649962004811
-0.007502913064314626,-0.028695439958911956,-1.320649962004811
-0.007501123064314625,-0.021298990253744356,-1.320649962004811
-0.007499333064314625,-0.024997215106328158,-1.320649962004811
-0.007497543064314625,-0.024997215106328158,-1.320649962004811
-0.007495753064314626,-0.028695439958911956,-1.320649962004811
-0.007493963064314625,-0.032393664811495755,-1.320649962004811
-0.007492173064314625,-0.028695439958911956,-1.320649962004811
-0.0074903830643146254,-0.021298990253744356,-1.320649962004811
-0.007488593064314626,-0.024997215106328158,-1.320649962004811
-0.007486803064314625,-0.024997215106328158,-1.320649962004811
-0.007485013064314625,-0.024997215106328158,-1.3169426110237734
-0.0074832230643146255,-0.024997215106328158,-1.3169426110237734
-0.007481433064314626,-0.032393664811495755,-1.3169426110237734
-0.007479643064314625,-0.028695439958911956,-1.320649962004811
-0.007477853064314625,-0.032393664811495755,-1.3169426110237734
-0.0074760630643146255,-0.032393664811495755,-1.320649962004811
-0.007474273064314626,-0.032393664811495755,-1.320649962004811
-0.007472483064314625,-0.028695439958911956,-1.320649962004811
-0.007470693064314625,-0.032393664811495755,-1.3169426110237734
-0.0074689030643146255,-0.028695439958911956,-1.3169426110237734
-0.007467113064314626,-0.028695439958911956,-1.320649962004811
-0.007465323064314625,-0.032393664811495755,-1.320649962004811
-0.007463533064314625,-0.024997215106328158,-1.3169426110237734
-0.0074617430643146255,-0.024997215106328158,-1.320649962004811
-0.007459953064314626,-0.024997215106328158,-1.320649962004811
-0.007458163064314625,-0.028695439958911956,-1.3243573129858488
-0.007456373064314625,-0.032393664811495755,-1.320649962004811
-0.0074545830643146255,-0.032393664811495755,-1.3169426110237734
-0.007452793064314626,-0.032393664811495755,-1.320649962004811
-0.007451003064314625,-0.032393664811495755,-1.3243573129858488
-0.007449213064314625,-0.032393664811495755,-1.3169426110237734
-0.0074474230643146256,-0.032393664811495755,-1.320649962004811
-0.007445633064314626,-0.024997215106331523,-1.320649962004811
-0.007443843064314625,-0.03609188966407956,-1.320649962004811
-0.007442053064314625,-0.03609188966407956,-1.320649962004811
-0.007440263064314626,-0.028695439958911956,-1.320649962004811
-0.007438473064314625,-0.032393664811497434,-1.3169426110237734
-0.007436683064314625,-0.03609188966407956,-1.3169426110237734
-0.007434893064314625,-0.03979011451666335,-1.320649962004811
-0.007433103064314626,-0.03609188966407956,-1.3169426110237734
-0.007431313064314625,-0.032393664811495755,-1.3169426110237734
-0.007429523064314625,-0.03979011451666335,-1.3132352600427357
-0.007427733064314625,-0.03609188966407956,-1.3169426110237734
-0.007425943064314626,-0.032393664811495755,-1.3169426110237734
-0.007424153064314625,-0.032393664811495755,-1.320649962004811
-0.007422363064314625,-0.032393664811495755,-1.320649962004811
-0.007420573064314625,-0.03609188966407956,-1.320649962004811
-0.007418783064314626,-0.032393664811495755,-1.3169426110237734
-0.007416993064314625,-0.03609188966407956,-1.3169426110237734
-0.007415203064314625,-0.032393664811495755,-1.3169426110237734
-0.0074134130643146254,-0.03979011451666335,-1.3169426110237734
-0.007411623064314626,-0.03979011451666335,-1.3169426110237734
-0.007409833064314625,-0.03979011451666335,-1.3132352600427357
-0.007408043064314625,-0.03979011451666335,-1.3132352600427357
-0.0074062530643146255,-0.043488339369247155,-1.3169426110237734
-0.007404463064314626,-0.03979011451666335,-1.3169426110237734
-0.007402673064314625,-0.043488339369247155,-1.320649962004811
-0.007400883064314625,-0.03609188966407956,-1.3169426110237734
-0.0073990930643146255,-0.03609188966407956,-1.3169426110237734
-0.007397303064314626,-0.03979011451666335,-1.320649962004811
-0.007395513064314625,-0.03609188966407956,-1.3169426110237734
-0.007393723064314625,-0.03609188966407956,-1.3169426110237734
-0.0073919330643146255,-0.043488339369247155,-1.3132352600427357
-0.007390143064314626,-0.043488339369247155,-1.3169426110237734
-0.007388353064314625,-0.043488339369247155,-1.3132352600427357
-0.007386563064314625,-0.043488339369247155,-1.3169426110237734
-0.0073847730643146255,-0.03979011451666335,-1.3169426110237734
-0.007382983064314626,-0.043488339369247155,-1.320649962004811
-0.007381193064314625,-0.043488339369247155,-1.320649962004811
-0.007379403064314625,-0.043488339369247155,-1.3169426110237734
-0.0073776130643146256,-0.043488339369247155,-1.3243573129858488
-0.007375823064314626,-0.03979011451666335,-1.3132352600427357
-0.007374033064314625,-0.043488339369247155,-1.3169426110237734
-0.007372243064314625,-0.043488339369247155,-1.3132352600427357
-0.007370453064314626,-0.04718656422183096,-1.3169426110237734
-0.007368663064314626,-0.043488339369248834,-1.3206499620048093
-0.007366873064314625,-0.03979011451666335,-1.320649962004811
-0.007365083064314625,-0.043488339369247155,-1.320649962004811
-0.007363293064314626,-0.043488339369247155,-1.3169426110237734
-0.007361503064314625,-0.05088478907441475,-1.320649962004811
-0.007359713064314625,-0.05088478907441475,-1.320649962004811
-0.007357923064314625,-0.04718656422183096,-1.320649962004811
-0.007356133064314626,-0.05088478907441475,-1.3169426110237734
-0.007354343064314625,-0.04718656422183096,-1.3169426110237734
-0.007352553064314625,-0.043488339369247155,-1.3169426110237734
-0.007350763064314625,-0.043488339369247155,-1.320649962004811
-0.007348973064314626,-0.043488339369247155,-1.3169426110237734
-0.007347183064314625,-0.04718656422183096,-1.3169426110237734
-0.007345393064314625,-0.05088478907441475,-1.3169426110237734
-0.0073436030643146254,-0.05088478907441475,-1.320649962004811
-0.007341813064314626,-0.04718656422183096,-1.3169426110237734
-0.007340023064314625,-0.04718656422183096,-1.320649962004811
-0.007338233064314625,-0.05088478907441475,-1.320649962004811
-0.0073364430643146255,-0.05088478907441475,-1.3169426110237734
-0.007334653064314626,-0.04718656422183096,-1.320649962004811
-0.007332863064314625,-0.05088478907441475,-1.3169426110237734
-0.007331073064314625,-0.05088478907441475,-1.3169426110237734
-0.0073292830643146255,-0.04718656422183096,-1.320649962004811
-0.007327493064314626,-0.04718656422183096,-1.320649962004811
-0.007325703064314625,-0.043488339369247155,-1.3132352600427357
-0.007323913064314625,-0.05088478907441475,-1.3169426110237734
-0.0073221230643146255,-0.04718656422183096,-1.320649962004811
-0.007320333064314626,-0.05088478907441475,-1.3169426110237734
-0.007318543064314625,-0.05088478907441475,-1.320649962004811
-0.007316753064314625,-0.05088478907441475,-1.320649962004811
-0.0073149630643146255,-0.05088478907441475,-1.320649962004811
-0.007313173064314626,-0.054583013926998554,-1.3132352600427357
-0.007311383064314625,-0.05088478907441475,-1.320649962004811
-0.007309593064314625,-0.05088478907441475,-1.3169426110237734
-0.0073078030643146255,-0.05828123877958235,-1.3132352600427357
-0.007306013064314626,-0.05088478907441475,-1.320649962004811
-0.007304223064314625,-0.05088478907441475,-1.320649962004811
-0.007302433064314625,-0.054583013926998554,-1.3169426110237734
-0.0073006430643146256,-0.05088478907441475,-1.3169426110237734
-0.007298853064314626,-0.058281238779578984,-1.3243573129858455
-0.007297063064314625,-0.054583013926998554,-1.320649962004811
-0.007295273064314625,-0.054583013926998554,-1.320649962004811
-0.007293483064314626,-0.05828123877958235,-1.3169426110237734
-0.007291693064314625,-0.05828123877958235,-1.3169426110237752
-0.007289903064314625,-0.05828123877958235,-1.320649962004811
-0.007288113064314625,-0.05828123877958235,-1.3169426110237734
-0.007286323064314626,-0.054583013926998554,-1.3132352600427357
-0.007284533064314625,-0.05828123877958067,-1.320649962004811
-0.007282743064314625,-0.054583013926998554,-1.320649962004811
-0.007280953064314625,-0.054583013926998554,-1.3132352600427357
-0.007279163064314626,-0.05828123877958235,-1.3169426110237734
-0.007277373064314625,-0.054583013926998554,-1.3243573129858488
-0.007275583064314625,-0.05828123877958235,-1.3169426110237734
-0.007273793064314625,-0.05828123877958235,-1.320649962004811
-0.007272003064314626,-0.05828123877958235,-1.3169426110237734
-0.007270213064314625,-0.05828123877958235,-1.3169426110237734
-0.007268423064314625,-0.054583013926998554,-1.3169426110237734
-0.0072666330643146254,-0.05828123877958235,-1.3169426110237734
-0.007264843064314626,-0.06197946363216615,-1.320649962004811
-0.007263053064314625,-0.05828123877958235,-1.320649962004811
-0.007261263064314625,-0.05828123877958235,-1.3169426110237734
-0.0072594730643146255,-0.05828123877958235,-1.320649962004811
-0.007257683064314626,-0.05828123877958235,-1.3169426110237734
-0.007255893064314625,-0.05828123877958235,-1.3132352600427357
-0.007254103064314625,-0.06567768848474995,-1.3169426110237734
-0.0072523130643146255,-0.06197946363216615,-1.3169426110237734
-0.007250523064314626,-0.05828123877958235,-1.320649962004811
-0.007248733064314625,-0.05828123877958235,-1.3169426110237734
-0.007246943064314625,-0.06197946363216615,-1.320649962004811
-0.0072451530643146255,-0.05828123877958235,-1.3169426110237734
-0.007243363064314626,-0.05828123877958235,-1.320649962004811
-0.007241573064314625,-0.05828123877958235,-1.3169426110237734
-0.007239783064314625,-0.05828123877958235,-1.3132352600427357
-0.0072379930643146255,-0.054583013926998554,-1.3243573129858488
-0.007236203064314626,-0.06197946363216615,-1.320649962004811
-0.007234413064314625,-0.06567768848474995,-1.3169426110237734
-0.007232623064314625,-0.06197946363216615,-1.320649962004811
-0.0072308330643146256,-0.05828123877958235,-1.320649962004811
-0.007229043064314626,-0.06197946363216615,-1.320649962004811
-0.007227253064314625,-0.06197946363216615,-1.3169426110237734
-0.007225463064314625,-0.06197946363216615,-1.3169426110237734
-0.007223673064314626,-0.06567768848474995,-1.3169426110237734
-0.007221883064314626,-0.06197946363216783,-1.3206499620048093
-0.007220093064314625,-0.06197946363216615,-1.3169426110237734
-0.007218303064314625,-0.06197946363216615,-1.3243573129858488
-0.007216513064314626,-0.06567768848474995,-1.3132352600427357
-0.007214723064314625,-0.06197946363216783,-1.3169426110237734
-0.007212933064314625,-0.06567768848474995,-1.3169426110237734
-0.007211143064314625,-0.06197946363216615,-1.3169426110237734
-0.007209353064314626,-0.06197946363216615,-1.3169426110237734
-0.007207563064314625,-0.06197946363216615,-1.3169426110237734
-0.007205773064314625,-0.06197946363216615,-1.320649962004811
-0.007203983064314625,-0.06197946363216615,-1.3169426110237734
-0.007202193064314626,-0.06937591333733376,-1.3132352600427357
-0.007200403064314625,-0.06937591333733376,-1.3169426110237734
-0.007198613064314625,-0.06567768848474995,-1.320649962004811
-0.0071968230643146254,-0.06197946363216615,-1.320649962004811
-0.007195033064314626,-0.06197946363216615,-1.3169426110237734
-0.007193243064314625,-0.06567768848474995,-1.320649962004811
-0.007191453064314625,-0.06567768848474995,-1.3169426110237734
-0.0071896630643146255,-0.06567768848474995,-1.3169426110237734
