100Hz/acq0083.csv

#Digilent WaveForms Oscilloscope Acquisition
#Device Name: Discovery2
#Serial Number: SN:210321AA28BE
#Date Time: 2023-05-24 14:48:32.642
#Sample rate: 558659Hz
#Samples: 8192
#Trigger: Source: Channel 1 Type: Edge Condition: Rising Level: 800 mV Hyst.: Auto HoldOff: 100 ns
#Channel 1: Range: 1 V/div Offset: 0 V Attenuation: 1 X Sample Mode: Average
#Channel 2: Range: 1 V/div Offset: 0 V Attenuation: 1 X Sample Mode: Average

Time (s),Channel 1 (V),Channel 2 (V)
-0.007741901155037715,0.06745840620826683,-1.320649962004811
-0.007740111155037715,0.06376018135568472,-1.320649962004811
-0.007738321155037715,0.06376018135568304,-1.320649962004811
-0.007736531155037715,0.07115663106085063,-1.320649962004811
-0.007734741155037715,0.07115663106085063,-1.3169426110237734
-0.0077329511550377145,0.06745840620826515,-1.3169426110237716
-0.007731161155037715,0.06376018135568304,-1.3132352600427357
-0.007729371155037715,0.06745840620826683,-1.3132352600427357
-0.007727581155037715,0.06376018135568304,-1.3169426110237734
-0.0077257911550377145,0.06376018135568304,-1.320649962004811
-0.007724001155037715,0.06745840620826683,-1.320649962004811
-0.007722211155037715,0.06745840620826683,-1.3169426110237734
-0.007720421155037715,0.06376018135568304,-1.320649962004811
-0.0077186311550377145,0.06376018135568304,-1.3169426110237734
-0.007716841155037715,0.06376018135568304,-1.3169426110237734
-0.007715051155037715,0.06745840620826683,-1.320649962004811
-0.007713261155037715,0.06006195650309923,-1.3169426110237734
-0.0077114711550377146,0.06006195650309923,-1.3132352600427357
-0.007709681155037715,0.06006195650309923,-1.320649962004811
-0.007707891155037715,0.06376018135568304,-1.320649962004811
-0.007706101155037715,0.06376018135568304,-1.320649962004811
-0.007704311155037715,0.06376018135568304,-1.320649962004811
-0.007702521155037715,0.06376018135568304,-1.320649962004811
-0.007700731155037715,0.06376018135568304,-1.3169426110237734
-0.007698941155037715,0.06006195650309923,-1.3243573129858488
-0.007697151155037715,0.06376018135568304,-1.3169426110237734
-0.007695361155037715,0.06376018135568304,-1.3169426110237734
-0.007693571155037715,0.06006195650309923,-1.320649962004811
-0.007691781155037715,0.05636373165051543,-1.3169426110237734
-0.007689991155037715,0.05266550679793163,-1.3169426110237734
-0.007688201155037715,0.05266550679793163,-1.320649962004811
-0.007686411155037715,0.06006195650309923,-1.3169426110237734
-0.007684621155037715,0.05266550679793163,-1.3169426110237734
-0.007682831155037715,0.05266550679793163,-1.320649962004811
-0.007681041155037715,0.05266550679793163,-1.320649962004811
-0.007679251155037715,0.05266550679793163,-1.3169426110237734
-0.007677461155037715,0.05636373165051543,-1.3169426110237734
-0.007675671155037715,0.05266550679793163,-1.3169426110237734
-0.007673881155037715,0.05266550679793163,-1.320649962004811
-0.007672091155037715,0.05266550679793163,-1.3169426110237734
-0.007670301155037715,0.05266550679793163,-1.3206499620048093
-0.007668511155037715,0.05266550679793163,-1.3169426110237734
-0.007666721155037715,0.05636373165051543,-1.3169426110237734
-0.007664931155037715,0.05266550679793163,-1.3169426110237734
-0.0076631411550377145,0.048967281945347836,-1.3169426110237752
-0.007661351155037715,0.048967281945347836,-1.320649962004811
-0.007659561155037715,0.05266550679793163,-1.320649962004811
-0.007657771155037715,0.048967281945347836,-1.3169426110237734
-0.0076559811550377145,0.05266550679793163,-1.313235260042739
-0.007654191155037715,0.05266550679793163,-1.320649962004811
-0.007652401155037715,0.05636373165051543,-1.3169426110237734
-0.007650611155037715,0.048967281945347836,-1.3132352600427357
-0.0076488211550377145,0.045269057092764034,-1.3169426110237734
-0.007647031155037715,0.05266550679793163,-1.3132352600427357
-0.007645241155037715,0.045269057092764034,-1.3132352600427357
-0.007643451155037715,0.04157083224018024,-1.3169426110237734
-0.0076416611550377146,0.048967281945347836,-1.320649962004811
-0.007639871155037715,0.045269057092764034,-1.320649962004811
-0.007638081155037715,0.04157083224018024,-1.3169426110237734
-0.007636291155037715,0.048967281945347836,-1.320649962004811
-0.007634501155037715,0.045269057092764034,-1.3169426110237734
-0.007632711155037715,0.048967281945347836,-1.320649962004811
-0.007630921155037715,0.05266550679793163,-1.3169426110237734
-0.007629131155037715,0.048967281945347836,-1.320649962004811
-0.007627341155037715,0.045269057092764034,-1.320649962004811
-0.007625551155037715,0.048967281945347836,-1.3169426110237734
-0.007623761155037715,0.045269057092764034,-1.320649962004811
-0.007621971155037715,0.04157083224018024,-1.320649962004811
-0.007620181155037715,0.045269057092764034,-1.3169426110237734
-0.007618391155037715,0.04157083224018024,-1.3169426110237734
-0.007616601155037715,0.04157083224018024,-1.3169426110237734
-0.007614811155037715,0.04157083224018024,-1.320649962004811
-0.007613021155037715,0.04157083224018024,-1.320649962004811
-0.007611231155037715,0.03787260738759644,-1.3169426110237734
-0.007609441155037715,0.03787260738759644,-1.320649962004811
-0.007607651155037715,0.04157083224018024,-1.3169426110237734
-0.007605861155037715,0.04157083224018024,-1.3243573129858488
-0.007604071155037715,0.03787260738759644,-1.320649962004811
-0.007602281155037715,0.04157083224018024,-1.3169426110237734
-0.007600491155037715,0.04157083224018024,-1.3169426110237734
-0.007598701155037715,0.03787260738759644,-1.320649962004811
-0.007596911155037715,0.03787260738759644,-1.3243573129858488
-0.007595121155037715,0.03787260738759644,-1.3169426110237734
-0.007593331155037715,0.03787260738759644,-1.3206499620048093
-0.007591541155037715,0.03787260738759644,-1.3169426110237734
-0.007589751155037715,0.03787260738759644,-1.3169426110237734
-0.007587961155037715,0.034174382535012635,-1.3169426110237734
-0.0075861711550377145,0.034174382535012635,-1.3169426110237752
-0.007584381155037715,0.034174382535012635,-1.320649962004811
-0.007582591155037715,0.034174382535012635,-1.320649962004811
-0.007580801155037715,0.03787260738759644,-1.3169426110237734
-0.0075790111550377145,0.03047615768242884,-1.3169426110237734
-0.007577221155037715,0.04157083224018024,-1.320649962004811
-0.007575431155037715,0.03047615768242884,-1.320649962004811
-0.007573641155037715,0.03047615768242884,-1.3243573129858488
-0.0075718511550377145,0.04157083224018024,-1.320649962004811
-0.007570061155037715,0.034174382535012635,-1.320649962004811
-0.007568271155037715,0.034174382535012635,-1.3169426110237734
-0.007566481155037715,0.034174382535012635,-1.320649962004811
-0.0075646911550377146,0.03047615768242884,-1.3169426110237734
-0.007562901155037715,0.034174382535012635,-1.320649962004811
-0.007561111155037715,0.04157083224018024,-1.320649962004811
-0.007559321155037715,0.034174382535012635,-1.3243573129858488
-0.007557531155037715,0.03047615768242884,-1.320649962004811
-0.007555741155037715,0.026777932829845037,-1.320649962004811
-0.007553951155037715,0.03047615768242884,-1.3169426110237734
-0.007552161155037715,0.03047615768242884,-1.3243573129858488
-0.007550371155037715,0.034174382535012635,-1.3169426110237734
-0.007548581155037715,0.026777932829845037,-1.3169426110237734
-0.007546791155037715,0.026777932829845037,-1.3169426110237734
-0.007545001155037715,0.026777932829845037,-1.3169426110237734
-0.007543211155037715,0.03047615768242884,-1.3169426110237734
-0.007541421155037715,0.034174382535012635,-1.3169426110237734
-0.007539631155037715,0.034174382535012635,-1.320649962004811
-0.007537841155037715,0.03047615768242884,-1.320649962004811
-0.007536051155037715,0.03047615768242884,-1.320649962004811
-0.007534261155037715,0.03047615768242884,-1.3169426110237734
-0.007532471155037715,0.026777932829845037,-1.320649962004811
-0.007530681155037715,0.026777932829845037,-1.3169426110237734
-0.007528891155037715,0.026777932829845037,-1.320649962004811
-0.007527101155037715,0.026777932829845037,-1.3243573129858488
-0.007525311155037715,0.026777932829845037,-1.320649962004811
-0.007523521155037715,0.02307970797726292,-1.320649962004811
-0.007521731155037715,0.026777932829845037,-1.320649962004811
-0.007519941155037715,0.03047615768242884,-1.3169426110237734
-0.007518151155037715,0.026777932829845037,-1.3132352600427357
-0.007516361155037715,0.026777932829845037,-1.3206499620048078
-0.007514571155037715,0.03047615768242884,-1.3169426110237734
-0.007512781155037715,0.03047615768242884,-1.3169426110237734
-0.007510991155037715,0.034174382535012635,-1.3169426110237734
-0.0075092011550377145,0.026777932829845037,-1.3169426110237767
-0.007507411155037715,0.026777932829845037,-1.3243573129858488
-0.007505621155037715,0.02307970797726124,-1.3169426110237734
-0.007503831155037715,0.026777932829845037,-1.3169426110237734
-0.0075020411550377145,0.02307970797726124,-1.320649962004811
-0.007500251155037715,0.026777932829845037,-1.3169426110237734
-0.007498461155037715,0.01938148312467744,-1.3169426110237734
-0.007496671155037715,0.02307970797726124,-1.3169426110237734
-0.0074948811550377145,0.01938148312467744,-1.320649962004811
-0.007493091155037715,0.026777932829845037,-1.3243573129858488
-0.007491301155037715,0.02307970797726124,-1.3243573129858488
-0.007489511155037715,0.01938148312467744,-1.3243573129858488
-0.007487721155037715,0.015683258272093638,-1.320649962004811
-0.007485931155037715,0.015683258272093638,-1.3169426110237734
-0.007484141155037715,0.02307970797726124,-1.3169426110237734
-0.007482351155037715,0.01938148312467744,-1.320649962004811
-0.007480561155037715,0.01938148312467744,-1.3169426110237734
-0.007478771155037715,0.015683258272093638,-1.3169426110237734
-0.007476981155037715,0.015683258272093638,-1.3132352600427357
-0.007475191155037715,0.015683258272093638,-1.320649962004811
-0.007473401155037715,0.02307970797726124,-1.320649962004811
-0.007471611155037715,0.01938148312467744,-1.3169426110237734
-0.007469821155037715,0.02307970797726124,-1.3243573129858488
-0.007468031155037715,0.02307970797726124,-1.320649962004811
-0.007466241155037715,0.02307970797726124,-1.320649962004811
-0.007464451155037715,0.01938148312467744,-1.320649962004811
-0.007462661155037715,0.015683258272093638,-1.320649962004811
-0.007460871155037715,0.01198503341950984,-1.3169426110237734
-0.007459081155037715,0.015683258272093638,-1.3169426110237734
-0.007457291155037715,0.015683258272093638,-1.3169426110237734
-0.007455501155037715,0.015683258272093638,-1.320649962004811
-0.007453711155037715,0.015683258272093638,-1.320649962004811
-0.007451921155037715,0.015683258272093638,-1.3169426110237734
-0.007450131155037715,0.015683258272093638,-1.320649962004811
-0.007448341155037715,0.01198503341950984,-1.3243573129858488
-0.007446551155037715,0.01198503341950984,-1.3243573129858488
-0.007444761155037715,0.01198503341950984,-1.320649962004811
-0.007442971155037715,0.01198503341950984,-1.320649962004811
-0.007441181155037715,0.01198503341950984,-1.320649962004811
-0.0074393911550377145,0.01568325827209532,-1.3169426110237752
-0.007437601155037715,0.01938148312467744,-1.320649962004811
-0.007435811155037715,0.01198503341950984,-1.3243573129858488
-0.007434021155037715,0.015683258272093638,-1.3243573129858488
-0.0074322311550377145,0.01198503341950984,-1.320649962004811
-0.007430441155037715,0.01198503341950984,-1.320649962004811
-0.007428651155037715,0.01198503341950984,-1.3169426110237734
-0.007426861155037715,0.00458858371434224,-1.3243573129858488
-0.0074250711550377145,0.00828680856692604,-1.3243573129858488
-0.007423281155037715,0.015683258272093638,-1.3169426110237734
-0.007421491155037715,0.01198503341950984,-1.3243573129858488
-0.007419701155037715,0.01198503341950984,-1.320649962004811
-0.0074179111550377146,0.01198503341950984,-1.3169426110237734
-0.007416121155037715,0.01198503341950984,-1.3243573129858488
-0.007414331155037715,0.00458858371434224,-1.320649962004811
-0.007412541155037715,0.015683258272093638,-1.320649962004811
-0.007410751155037715,0.01198503341950984,-1.3169426110237734
-0.007408961155037715,0.00828680856692604,-1.3169426110237734
-0.007407171155037715,0.01198503341950984,-1.320649962004811
-0.007405381155037715,0.00828680856692604,-1.3243573129858488
-0.007403591155037715,0.015683258272093638,-1.3169426110237734
-0.007401801155037715,0.00828680856692604,-1.320649962004811
-0.007400011155037715,0.01198503341950984,-1.3132352600427357
-0.007398221155037715,0.01198503341950984,-1.320649962004811
-0.007396431155037715,0.00458858371434224,-1.3169426110237734
-0.007394641155037715,0.01198503341950984,-1.320649962004811
-0.007392851155037715,0.01198503341950984,-1.3169426110237734
-0.007391061155037715,0.00828680856692604,-1.320649962004811
-0.007389271155037715,0.01198503341950984,-1.3169426110237734
-0.007387481155037715,0.01198503341950984,-1.3132352600427357
-0.007385691155037715,0.01198503341950984,-1.320649962004811
-0.007383901155037715,0.01198503341950984,-1.3169426110237734
-0.007382111155037715,0.015683258272093638,-1.3169426110237734
-0.007380321155037715,0.015683258272093638,-1.3169426110237734
-0.007378531155037715,0.01198503341950984,-1.3169426110237734
-0.007376741155037715,0.00828680856692604,-1.3169426110237734
-0.007374951155037715,0.00828680856692604,-1.3243573129858488
-0.007373161155037715,0.00458858371434224,-1.320649962004811
-0.007371371155037715,0.0008903588617584406,-1.3169426110237734
-0.007369581155037715,0.008286808566922677,-1.3206499620048093
-0.007367791155037715,0.00828680856692604,-1.3169426110237734
-0.007366001155037715,0.00828680856692604,-1.3169426110237734
-0.007364211155037715,0.00458858371434224,-1.3169426110237734
-0.0073624211550377145,0.0008903588617618041,-1.3206499620048129
-0.007360631155037715,0.00828680856692604,-1.3243573129858488
-0.007358841155037715,0.00828680856692604,-1.320649962004811
-0.007357051155037715,0.0008903588617584406,-1.320649962004811
-0.0073552611550377145,0.00828680856692604,-1.3243573129858488
-0.007353471155037715,0.00458858371434224,-1.320649962004811
-0.007351681155037715,0.00458858371434224,-1.3169426110237734
-0.007349891155037715,0.00458858371434224,-1.320649962004811
-0.0073481011550377145,0.00458858371434224,-1.320649962004811
-0.007346311155037715,0.0008903588617584406,-1.3169426110237734
-0.007344521155037715,0.0008903588617584406,-1.320649962004811
-0.007342731155037715,-0.002807865990825359,-1.3169426110237734
-0.007340941155037715,0.0008903588617584406,-1.320649962004811
-0.007339151155037715,0.00458858371434224,-1.3169426110237734
-0.007337361155037715,0.00458858371434224,-1.320649962004811
-0.007335571155037715,0.00458858371434224,-1.3243573129858488
-0.007333781155037715,0.00458858371434224,-1.320649962004811
-0.007331991155037715,-0.002807865990825359,-1.3169426110237734
-0.007330201155037715,0.00458858371434224,-1.320649962004811
-0.007328411155037715,0.0008903588617584406,-1.3169426110237734
-0.007326621155037715,0.00458858371434224,-1.3169426110237734
-0.007324831155037715,-0.002807865990825359,-1.320649962004811
-0.007323041155037715,0.0008903588617584406,-1.3169426110237734
-0.007321251155037715,0.00458858371434224,-1.3169426110237734
-0.007319461155037715,0.00458858371434224,-1.320649962004811
-0.007317671155037715,0.00458858371434224,-1.3169426110237734
-0.007315881155037715,-0.002807865990825359,-1.3169426110237734
-0.007314091155037715,0.0008903588617584406,-1.3169426110237734
-0.007312301155037715,0.00458858371434224,-1.3169426110237734
-0.007310511155037715,0.00458858371434224,-1.3169426110237734
-0.007308721155037715,0.00458858371434224,-1.3169426110237734
-0.007306931155037715,0.0008903588617584406,-1.3169426110237734
-0.007305141155037715,0.00458858371434224,-1.3169426110237734
-0.007303351155037715,0.0008903588617584406,-1.3243573129858488
-0.007301561155037715,0.00458858371434224,-1.3169426110237734
-0.007299771155037715,-0.0028078659908219953,-1.3169426110237734
-0.007297981155037715,-0.0065060908434091584,-1.320649962004811
-0.007296191155037715,-0.0065060908434091584,-1.3132352600427357
-0.007294401155037715,-0.0065060908434091584,-1.3169426110237734
-0.0072926111550377145,-0.0028078659908270407,-1.3169426110237734
-0.007290821155037715,-0.0065060908434091584,-1.3169426110237734
-0.007289031155037715,0.0008903588617584406,-1.3169426110237734
-0.007287241155037715,0.0008903588617584406,-1.3169426110237734
-0.0072854511550377145,-0.002807865990825359,-1.3243573129858455
-0.007283661155037715,-0.002807865990825359,-1.3169426110237734
-0.007281871155037715,-0.002807865990825359,-1.3169426110237734
-0.007280081155037715,-0.0065060908434091584,-1.3169426110237734
-0.0072782911550377145,0.0008903588617584406,-1.3169426110237734
-0.007276501155037715,-0.010204315695992958,-1.320649962004811
-0.007274711155037715,-0.0065060908434091584,-1.320649962004811
-0.007272921155037715,-0.013902540548576758,-1.320649962004811
-0.0072711311550377146,-0.010204315695992958,-1.320649962004811
-0.007269341155037715,-0.002807865990825359,-1.320649962004811
-0.007267551155037715,-0.002807865990825359,-1.320649962004811
-0.007265761155037715,-0.002807865990825359,-1.320649962004811
-0.007263971155037715,-0.0065060908434091584,-1.320649962004811
-0.007262181155037715,-0.0065060908434091584,-1.320649962004811
-0.007260391155037715,-0.0065060908434091584,-1.320649962004811
-0.007258601155037715,-0.0065060908434091584,-1.320649962004811
-0.007256811155037715,-0.0065060908434091584,-1.3169426110237734
-0.007255021155037715,-0.0065060908434091584,-1.3169426110237734
-0.007253231155037715,-0.010204315695992958,-1.3132352600427357
-0.007251441155037715,-0.010204315695992958,-1.3169426110237734
-0.007249651155037715,-0.010204315695992958,-1.320649962004811
-0.007247861155037715,-0.013902540548576758,-1.320649962004811
-0.007246071155037715,-0.013902540548576758,-1.3169426110237734
-0.007244281155037715,-0.010204315695992958,-1.3169426110237734
-0.007242491155037715,-0.010204315695992958,-1.3169426110237734
-0.007240701155037715,-0.013902540548576758,-1.3169426110237734
-0.007238911155037715,-0.002807865990825359,-1.3243573129858488
-0.007237121155037715,-0.010204315695992958,-1.320649962004811
-0.007235331155037715,-0.002807865990825359,-1.3243573129858488
-0.007233541155037715,-0.0065060908434091584,-1.3169426110237734
-0.007231751155037715,-0.010204315695992958,-1.3169426110237734
-0.007229961155037715,-0.0065060908434091584,-1.320649962004811
-0.007228171155037715,-0.013902540548576758,-1.3169426110237734
-0.007226381155037715,-0.013902540548576758,-1.3169426110237734
-0.007224591155037715,-0.013902540548576758,-1.3132352600427357
-0.007222801155037715,-0.006506090843412522,-1.3169426110237716
-0.007221011155037715,-0.010204315695992958,-1.3132352600427357
-0.007219221155037715,-0.017600765401160557,-1.320649962004811
-0.007217431155037715,-0.010204315695992958,-1.320649962004811
-0.0072156411550377145,-0.017600765401157195,-1.3169426110237734
-0.007213851155037715,-0.010204315695992958,-1.3169426110237734
-0.007212061155037715,-0.013902540548576758,-1.3169426110237734
-0.007210271155037715,-0.013902540548576758,-1.3169426110237734
-0.0072084811550377145,-0.017600765401160557,-1.3169426110237734
-0.007206691155037715,-0.010204315695992958,-1.320649962004811
-0.007204901155037715,-0.013902540548576758,-1.3243573129858488
-0.007203111155037715,-0.013902540548576758,-1.3243573129858488
-0.0072013211550377145,-0.017600765401160557,-1.320649962004811
-0.007199531155037715,-0.017600765401160557,-1.320649962004811
-0.007197741155037715,-0.017600765401160557,-1.3169426110237734
-0.007195951155037715,-0.013902540548576758,-1.3132352600427357
-0.007194161155037715,-0.013902540548576758,-1.3132352600427357
-0.007192371155037715,-0.013902540548576758,-1.3169426110237734
-0.007190581155037715,-0.013902540548576758,-1.3169426110237734
-0.007188791155037715,-0.017600765401160557,-1.3132352600427357
-0.007187001155037715,-0.017600765401160557,-1.3169426110237734
-0.007185211155037715,-0.017600765401160557,-1.320649962004811
