100Hz/acq0019.csv

#Digilent WaveForms Oscilloscope Acquisition
#Device Name: Discovery2
#Serial Number: SN:210321AA28BE
#Date Time: 2023-05-24 14:48:30.783
#Sample rate: 558659Hz
#Samples: 8192
#Trigger: Source: Channel 1 Type: Edge Condition: Rising Level: 800 mV Hyst.: Auto HoldOff: 100 ns
#Channel 1: Range: 1 V/div Offset: 0 V Attenuation: 1 X Sample Mode: Average
#Channel 2: Range: 1 V/div Offset: 0 V Attenuation: 1 X Sample Mode: Average

Time (s),Channel 1 (V),Channel 2 (V)
-0.007741872745023545,0.015683258272093638,-1.3206499620048144
-0.007740082745023545,0.015683258272093638,-1.3169426110237767
-0.007738292745023544,0.01198503341950984,-1.3169426110237734
-0.007736502745023544,0.00828680856692604,-1.3169426110237734
-0.007734712745023544,0.015683258272093638,-1.3169426110237734
-0.007732922745023544,0.004588583714347285,-1.3206499620048093
-0.0077311327450235445,0.008286808566924358,-1.320649962004811
-0.007729342745023545,0.011985033419508156,-1.320649962004811
-0.007727552745023545,0.008286808566927723,-1.320649962004811
-0.0077257627450235435,0.01198503341950984,-1.3169426110237734
-0.007723972745023544,0.01198503341950984,-1.320649962004811
-0.007722182745023544,0.0008903588617584406,-1.3243573129858488
-0.007720392745023544,0.00828680856692604,-1.320649962004811
-0.007718602745023544,0.004588583714343922,-1.3169426110237752
-0.007716812745023545,0.008286808566924358,-1.3206499620048093
-0.007715022745023545,0.011985033419508156,-1.3169426110237752
-0.007713232745023545,0.008286808566927723,-1.3169426110237734
-0.0077114427450235435,0.0008903588617584406,-1.3169426110237734
-0.007709652745023544,0.00458858371434224,-1.3169426110237734
-0.007707862745023544,0.00828680856692604,-1.3169426110237734
-0.007706072745023544,0.00828680856692604,-1.320649962004811
-0.007704282745023544,0.0008903588617618042,-1.3169426110237752
-0.007702492745023545,0.004588583714340558,-1.3206499620048093
-0.007700702745023545,0.008286808566924358,-1.320649962004811
-0.007698912745023545,0.0008903588617618042,-1.3169426110237752
-0.0076971227450235435,0.00458858371434224,-1.3169426110237734
-0.007695332745023544,0.00458858371434224,-1.320649962004811
-0.007693542745023544,0.00458858371434224,-1.320649962004811
-0.007691752745023544,0.0008903588617584406,-1.320649962004811
-0.007689962745023544,0.0008903588617584406,-1.3169426110237752
-0.007688172745023545,0.0008903588617584406,-1.3169426110237734
-0.007686382745023545,0.0008903588617584406,-1.3206499620048093
-0.007684592745023545,0.0008903588617584406,-1.320649962004811
-0.007682802745023544,0.0008903588617584406,-1.320649962004811
-0.007681012745023544,0.0008903588617584406,-1.320649962004811
-0.007679222745023544,0.0008903588617584406,-1.3169426110237734
-0.007677432745023544,-0.002807865990825359,-1.3169426110237734
-0.0076756427450235445,-0.002807865990825359,-1.3206499620048093
-0.007673852745023545,-0.006506090843407477,-1.3169426110237752
-0.007672062745023545,-0.0028078659908270407,-1.3206499620048093
-0.007670272745023545,-0.006506090843405795,-1.3132352600427424
-0.007668482745023544,-0.002807865990825359,-1.320649962004811
-0.007666692745023544,-0.002807865990825359,-1.320649962004811
-0.007664902745023544,-0.002807865990825359,-1.3169426110237734
-0.007663112745023544,-0.002807865990825359,-1.3169426110237734
-0.0076613227450235445,-0.002807865990825359,-1.3206499620048093
-0.007659532745023545,-0.002807865990825359,-1.3169426110237752
-0.007657742745023545,0.0008903588617567588,-1.3206499620048093
-0.0076559527450235434,-0.002807865990823677,-1.3206499620048093
-0.007654162745023544,0.0008903588617584406,-1.3169426110237734
-0.007652372745023544,0.0008903588617584406,-1.3169426110237734
-0.007650582745023544,0.0008903588617584406,-1.3169426110237734
-0.007648792745023544,-0.002807865990823677,-1.3206499620048093
-0.0076470027450235446,-0.006506090843407477,-1.320649962004811
-0.007645212745023545,-0.0028078659908270407,-1.320649962004811
-0.007643422745023545,-0.006506090843407477,-1.320649962004811
-0.0076416327450235435,-0.0065060908434091584,-1.320649962004811
-0.007639842745023544,-0.010204315695992958,-1.320649962004811
-0.007638052745023544,-0.013902540548576758,-1.3132352600427357
-0.007636262745023544,-0.0065060908434091584,-1.3132352600427357
-0.007634472745023544,-0.0065060908434091584,-1.3169426110237716
-0.007632682745023545,-0.0028078659908270407,-1.3132352600427375
-0.007630892745023545,-0.006506090843407477,-1.3132352600427357
-0.007629102745023545,-0.0065060908434091584,-1.3169426110237716
-0.0076273127450235435,-0.0065060908434091584,-1.3169426110237734
-0.007625522745023544,-0.0065060908434091584,-1.3169426110237734
-0.007623732745023544,-0.0065060908434091584,-1.320649962004811
-0.007621942745023544,-0.010204315695992958,-1.3169426110237734
-0.007620152745023544,-0.00650609084341084,-1.3169426110237734
-0.007618362745023545,-0.0065060908434091584,-1.3132352600427375
-0.007616572745023545,-0.010204315695991277,-1.3169426110237716
-0.007614782745023545,-0.006506090843412522,-1.3206499620048078
-0.007612992745023544,-0.010204315695992958,-1.3169426110237734
-0.007611202745023544,-0.010204315695992958,-1.3169426110237734
-0.007609412745023544,-0.0065060908434091584,-1.320649962004811
-0.007607622745023544,-0.010204315695992958,-1.3169426110237734
-0.0076058327450235445,-0.013902540548575076,-1.3206499620048093
-0.007604042745023545,-0.010204315695994639,-1.313235260042739
-0.007602252745023545,-0.010204315695992958,-1.3132352600427357
-0.007600462745023545,-0.006506090843412522,-1.3243573129858386
-0.007598672745023544,-0.0065060908434091584,-1.3169426110237734
-0.007596882745023544,-0.010204315695992958,-1.3169426110237734
-0.007595092745023544,-0.017600765401160557,-1.3169426110237734
-0.007593302745023544,-0.017600765401160557,-1.3206499620048093
-0.0075915127450235445,-0.017600765401160557,-1.3169426110237752
-0.007589722745023545,-0.010204315695996322,-1.3132352600427375
-0.007587932745023545,-0.013902540548575076,-1.3169426110237716
-0.0075861427450235434,-0.010204315695992958,-1.3206499620048093
-0.007584352745023544,-0.010204315695992958,-1.3169426110237734
-0.007582562745023544,-0.010204315695992958,-1.3169426110237734
-0.007580772745023544,-0.010204315695992958,-1.3169426110237734
-0.007578982745023544,-0.017600765401157195,-1.3243573129858455
-0.0075771927450235445,-0.010204315695996322,-1.3169426110237767
-0.007575402745023545,-0.02129899025373931,-1.3206499620048093
-0.007573612745023545,-0.01760076540116224,-1.320649962004811
-0.0075718227450235435,-0.017600765401160557,-1.3132352600427357
-0.007570032745023544,-0.017600765401160557,-1.3169426110237734
-0.007568242745023544,-0.017600765401160557,-1.320649962004811
-0.007566452745023544,-0.013902540548576758,-1.320649962004811
-0.007564662745023544,-0.013902540548576758,-1.3169426110237752
-0.007562872745023545,-0.017600765401158874,-1.3169426110237734
-0.007561082745023545,-0.017600765401160557,-1.3169426110237734
-0.007559292745023545,-0.017600765401160557,-1.3206499620048093
-0.0075575027450235435,-0.017600765401160557,-1.3243573129858488
-0.007555712745023544,-0.017600765401160557,-1.320649962004811
-0.007553922745023544,-0.024997215106328158,-1.320649962004811
-0.007552132745023544,-0.017600765401160557,-1.3169426110237734
-0.007550342745023544,-0.017600765401160557,-1.3169426110237734
-0.007548552745023545,-0.021298990253742673,-1.3169426110237734
-0.007546762745023545,-0.01760076540116224,-1.3169426110237734
-0.007544972745023545,-0.017600765401160557,-1.3206499620048093
-0.0075431827450235436,-0.021298990253744356,-1.3169426110237734
-0.007541392745023544,-0.017600765401160557,-1.320649962004811
-0.007539602745023544,-0.021298990253744356,-1.320649962004811
-0.007537812745023544,-0.021298990253744356,-1.3169426110237734
-0.0075360227450235445,-0.03239366481149071,-1.3206499620048093
-0.007534232745023545,-0.024997215106331523,-1.3169426110237752
-0.007532442745023545,-0.024997215106328158,-1.3169426110237734
-0.007530652745023545,-0.02129899025374772,-1.3169426110237734
-0.007528862745023544,-0.021298990253744356,-1.3132352600427357
-0.007527072745023544,-0.021298990253744356,-1.320649962004811
-0.007525282745023544,-0.021298990253744356,-1.3243573129858488
-0.007523492745023544,-0.024997215106326475,-1.3206499620048129
-0.0075217027450235445,-0.024997215106328158,-1.3169426110237752
-0.007519912745023545,-0.024997215106328158,-1.3243573129858455
-0.007518122745023545,-0.024997215106328158,-1.3243573129858488
-0.007516332745023545,-0.024997215106328158,-1.31694261102378
-0.007514542745023544,-0.028695439958911956,-1.320649962004811
-0.007512752745023544,-0.028695439958911956,-1.3132352600427357
-0.007510962745023544,-0.021298990253744356,-1.3169426110237734
-0.007509172745023544,-0.028695439958908595,-1.3169426110237734
-0.0075073827450235445,-0.028695439958911956,-1.3095279090617014
-0.007505592745023545,-0.028695439958911956,-1.31694261102377
-0.007503802745023545,-0.028695439958911956,-1.3169426110237734
-0.0075020127450235435,-0.032393664811495755,-1.320649962004811
-0.007500222745023544,-0.032393664811495755,-1.320649962004811
-0.007498432745023544,-0.028695439958911956,-1.3169426110237734
-0.007496642745023544,-0.028695439958911956,-1.3169426110237734
-0.007494852745023544,-0.028695439958911956,-1.3169426110237734
-0.007493062745023545,-0.028695439958911956,-1.3169426110237734
-0.007491272745023545,-0.032393664811494076,-1.3169426110237734
-0.007489482745023545,-0.024997215106331523,-1.3206499620048093
-0.0074876927450235435,-0.024997215106328158,-1.3169426110237734
-0.007485902745023544,-0.032393664811495755,-1.3169426110237734
-0.007484112745023544,-0.032393664811495755,-1.320649962004811
-0.007482322745023544,-0.028695439958911956,-1.3169426110237734
-0.007480532745023544,-0.028695439958911956,-1.3206499620048093
-0.007478742745023545,-0.032393664811494076,-1.3169426110237752
-0.007476952745023545,-0.03609188966407788,-1.3206499620048093
-0.007475162745023545,-0.02869543995891532,-1.320649962004811
-0.0074733727450235436,-0.032393664811495755,-1.3169426110237734
-0.007471582745023544,-0.028695439958911956,-1.3169426110237734
-0.007469792745023544,-0.032393664811495755,-1.320649962004811
-0.007468002745023544,-0.032393664811495755,-1.3169426110237734
-0.0074662127450235444,-0.032393664811495755,-1.3132352600427375
-0.007464422745023545,-0.03979011451665999,-1.3169426110237716
-0.007462632745023545,-0.036091889664081236,-1.3169426110237734
-0.007460842745023545,-0.03239366481149912,-1.3169426110237734
-0.007459052745023544,-0.03609188966407956,-1.3169426110237734
-0.007457262745023544,-0.028695439958911956,-1.3169426110237734
-0.007455472745023544,-0.03609188966407956,-1.320649962004811
-0.007453682745023544,-0.03609188966407956,-1.320649962004811
-0.0074518927450235445,-0.032393664811497434,-1.3169426110237752
-0.007450102745023545,-0.03609188966407788,-1.3169426110237734
-0.007448312745023545,-0.032393664811497434,-1.3206499620048093
-0.007446522745023545,-0.03609188966407619,-1.3169426110237767
-0.007444732745023544,-0.03609188966407956,-1.320649962004811
-0.007442942745023544,-0.03609188966407956,-1.320649962004811
-0.007441152745023544,-0.03979011451666335,-1.3169426110237734
-0.007439362745023544,-0.036091889664081236,-1.3206499620048093
-0.0074375727450235445,-0.03979011451666167,-1.320649962004811
-0.007435782745023545,-0.036091889664081236,-1.3169426110237752
-0.007433992745023545,-0.03979011451666167,-1.3206499620048093
-0.0074322027450235435,-0.03979011451666335,-1.3132352600427357
-0.007430412745023544,-0.03979011451666335,-1.3132352600427357
-0.007428622745023544,-0.03609188966407956,-1.320649962004811
-0.007426832745023544,-0.03979011451666335,-1.3169426110237734
-0.007425042745023544,-0.03979011451666335,-1.3206499620048093
-0.007423252745023545,-0.036091889664081236,-1.320649962004811
-0.007421462745023545,-0.03979011451666167,-1.320649962004811
-0.007419672745023545,-0.043488339369245475,-1.320649962004811
-0.0074178827450235435,-0.03609188966407956,-1.320649962004811
-0.007416092745023544,-0.03979011451666335,-1.320649962004811
-0.007414302745023544,-0.04718656422183096,-1.320649962004811
-0.007412512745023544,-0.03609188966407956,-1.3243573129858488
-0.007410722745023544,-0.04348833936924379,-1.3169426110237767
-0.007408932745023545,-0.043488339369247155,-1.3206499620048093
-0.007407142745023545,-0.03609188966408292,-1.320649962004811
-0.007405352745023545,-0.04348833936924379,-1.3169426110237752
-0.0074035627450235435,-0.043488339369247155,-1.320649962004811
-0.007401772745023544,-0.043488339369247155,-1.3169426110237734
-0.007399982745023544,-0.03979011451666335,-1.3169426110237734
-0.007398192745023544,-0.043488339369247155,-1.320649962004811
-0.007396402745023544,-0.03979011451666503,-1.3169426110237752
-0.007394612745023545,-0.04718656422182759,-1.3206499620048093
-0.007392822745023545,-0.043488339369248834,-1.320649962004811
-0.007391032745023545,-0.04718656422182759,-1.3169426110237767
-0.007389242745023544,-0.043488339369247155,-1.3169426110237734
-0.007387452745023544,-0.03979011451666335,-1.3169426110237734
-0.007385662745023544,-0.043488339369247155,-1.320649962004811
-0.007383872745023544,-0.043488339369247155,-1.320649962004811
-0.0073820827450235445,-0.03979011451666503,-1.320649962004811
-0.007380292745023545,-0.043488339369245475,-1.3169426110237752
-0.007378502745023545,-0.03979011451666503,-1.3206499620048093
-0.007376712745023545,-0.04348833936924379,-1.320649962004811
-0.007374922745023544,-0.043488339369247155,-1.3243573129858488
-0.007373132745023544,-0.04718656422183096,-1.3243573129858488
-0.007371342745023544,-0.043488339369247155,-1.320649962004811
-0.007369552745023544,-0.050884789074411386,-1.3169426110237752
-0.0073677627450235445,-0.05088478907441475,-1.3169426110237734
-0.007365972745023545,-0.047186564221832636,-1.3169426110237734
-0.007364182745023545,-0.05088478907441307,-1.3132352600427375
-0.0073623927450235434,-0.04718656422183096,-1.3169426110237734
-0.007360602745023544,-0.04718656422183096,-1.3169426110237734
-0.007358812745023544,-0.04718656422183096,-1.3169426110237734
-0.007357022745023544,-0.04718656422183096,-1.320649962004811
-0.007355232745023544,-0.04718656422183096,-1.3169426110237752
-0.0073534427450235446,-0.04718656422183096,-1.3206499620048093
-0.007351652745023545,-0.04718656422183096,-1.320649962004811
-0.007349862745023545,-0.04718656422183096,-1.320649962004811
-0.0073480727450235435,-0.05088478907441475,-1.3169426110237734
-0.007346282745023544,-0.05088478907441475,-1.3169426110237734
-0.007344492745023544,-0.05828123877958235,-1.320649962004811
-0.007342702745023544,-0.05088478907441475,-1.3169426110237734
-0.007340912745023544,-0.054583013926996875,-1.3132352600427375
-0.007339122745023545,-0.054583013926998554,-1.3169426110237716
-0.007337332745023545,-0.05088478907441643,-1.3206499620048093
-0.007335542745023545,-0.05088478907441475,-1.320649962004811
-0.0073337527450235435,-0.05088478907441475,-1.320649962004811
-0.007331962745023544,-0.054583013926998554,-1.320649962004811
-0.007330172745023544,-0.05088478907441475,-1.3132352600427357
-0.007328382745023544,-0.054583013926998554,-1.3132352600427357
-0.007326592745023544,-0.05088478907441643,-1.3169426110237716
-0.007324802745023545,-0.054583013926996875,-1.3206499620048093
-0.007323012745023545,-0.05828123877958067,-1.3169426110237752
-0.007321222745023545,-0.05458301392700023,-1.3169426110237734
-0.007319432745023544,-0.054583013926998554,-1.320649962004811
-0.007317642745023544,-0.054583013926998554,-1.3243573129858488
-0.007315852745023544,-0.054583013926998554,-1.3243573129858488
-0.007314062745023544,-0.05088478907441475,-1.3243573129858488
-0.0073122727450235445,-0.054583013926996875,-1.3206499620048129
-0.007310482745023545,-0.054583013926998554,-1.3169426110237752
-0.007308692745023545,-0.05088478907441643,-1.3206499620048093
-0.007306902745023545,-0.04718656422183432,-1.3132352600427424
-0.007305112745023544,-0.05828123877958235,-1.3132352600427357
-0.007303322745023544,-0.05828123877958235,-1.3169426110237734
-0.007301532745023544,-0.054583013926998554,-1.3169426110237734
-0.007299742745023544,-0.054583013926998554,-1.3206499620048093
-0.0072979527450235445,-0.054583013926998554,-1.3169426110237752
-0.007296162745023545,-0.054583013926998554,-1.3132352600427375
-0.007294372745023545,-0.054583013926998554,-1.3206499620048078
-0.0072925827450235434,-0.054583013926996875,-1.3169426110237716
-0.007290792745023544,-0.05088478907441475,-1.3132352600427357
-0.007289002745023544,-0.05088478907441475,-1.320649962004811
-0.007287212745023544,-0.05828123877958235,-1.3169426110237734
-0.007285422745023544,-0.05828123877958235,-1.3206499620048093
-0.0072836327450235445,-0.05458301392700023,-1.3169426110237752
-0.007281842745023545,-0.05828123877958067,-1.3169426110237734
-0.007280052745023545,-0.06197946363216447,-1.3169426110237734
-0.0072782627450235435,-0.054583013926998554,-1.320649962004811
-0.007276472745023544,-0.05828123877958235,-1.320649962004811
-0.007274682745023544,-0.05828123877958235,-1.320649962004811
-0.007272892745023544,-0.05828123877958235,-1.3243573129858488
-0.007271102745023544,-0.06197946363216447,-1.3280646639668847
-0.007269312745023545,-0.06197946363216615,-1.3206499620048144
-0.007267522745023545,-0.06197946363216615,-1.3169426110237752
-0.007265732745023545,-0.05828123877958403,-1.3169426110237734
-0.0072639427450235435,-0.054583013926998554,-1.320649962004811
-0.007262152745023544,-0.06197946363216615,-1.3132352600427357
-0.007260362745023544,-0.05828123877958235,-1.3169426110237734
-0.007258572745023544,-0.05828123877958235,-1.3169426110237734
-0.007256782745023544,-0.06197946363216447,-1.3206499620048093
-0.007254992745023545,-0.06197946363216615,-1.320649962004811
-0.007253202745023545,-0.06197946363216615,-1.320649962004811
-0.007251412745023545,-0.06567768848474827,-1.320649962004811
-0.0072496227450235436,-0.05828123877958235,-1.3169426110237734
-0.007247832745023544,-0.06197946363216615,-1.320649962004811
-0.007246042745023544,-0.054583013926998554,-1.3169426110237734
-0.007244252745023544,-0.06197946363216615,-1.3132352600427357
-0.0072424627450235445,-0.06567768848474827,-1.3169426110237716
-0.007240672745023545,-0.058281238779585715,-1.3169426110237734
-0.007238882745023545,-0.06567768848474659,-1.3206499620048093
-0.007237092745023545,-0.06567768848474995,-1.3169426110237767
-0.007235302745023544,-0.06567768848474995,-1.3169426110237734
-0.007233512745023544,-0.06197946363216615,-1.320649962004811
-0.007231722745023544,-0.06197946363216615,-1.320649962004811
-0.007229932745023544,-0.06937591333733376,-1.3169426110237734
-0.0072281427450235445,-0.06937591333733376,-1.3169426110237734
-0.007226352745023545,-0.06567768848475163,-1.3169426110237734
-0.007224562745023545,-0.06567768848474995,-1.3169426110237734
-0.007222772745023545,-0.06567768848474995,-1.3169426110237734
-0.007220982745023544,-0.06567768848474995,-1.3169426110237734
-0.007219192745023544,-0.06197946363216615,-1.320649962004811
-0.007217402745023544,-0.06197946363216615,-1.320649962004811
-0.007215612745023544,-0.06197946363216615,-1.3169426110237752
-0.0072138227450235445,-0.0693759133373304,-1.3206499620048093
-0.007212032745023545,-0.06197946363216952,-1.320649962004811
-0.007210242745023545,-0.06567768848474827,-1.3169426110237752
-0.0072084527450235435,-0.06937591333733376,-1.3169426110237734
-0.007206662745023544,-0.06937591333733376,-1.320649962004811
-0.007204872745023544,-0.06937591333733376,-1.320649962004811
-0.007203082745023544,-0.07307413818991755,-1.3169426110237734
-0.007201292745023544,-0.06937591333733543,-1.3169426110237734
-0.007199502745023545,-0.06197946363216952,-1.3169426110237734
-0.007197712745023545,-0.07307413818991251,-1.3169426110237734
-0.007195922745023545,-0.06937591333733543,-1.3169426110237734
-0.0071941327450235435,-0.06937591333733376,-1.3169426110237734
-0.007192342745023544,-0.06567768848474995,-1.320649962004811
