100Hz/acq0058.csv

#Digilent WaveForms Oscilloscope Acquisition
#Device Name: Discovery2
#Serial Number: SN:210321AA28BE
#Date Time: 2023-05-24 14:48:31.913
#Sample rate: 558659Hz
#Samples: 8192
#Trigger: Source: Channel 1 Type: Edge Condition: Rising Level: 800 mV Hyst.: Auto HoldOff: 100 ns
#Channel 1: Range: 1 V/div Offset: 0 V Attenuation: 1 X Sample Mode: Average
#Channel 2: Range: 1 V/div Offset: 0 V Attenuation: 1 X Sample Mode: Average

Time (s),Channel 1 (V),Channel 2 (V)
-0.007741460457020105,0.04157083224018024,-1.3169426110237734
-0.0077396704570201055,0.04157083224018024,-1.3206499620048093
-0.007737880457020105,0.04157083224018024,-1.320649962004811
-0.007736090457020105,0.045269057092764034,-1.320649962004811
-0.007734300457020105,0.048967281945347836,-1.320649962004811
-0.007732510457020105,0.05266550679792995,-1.3169426110237752
-0.007730720457020105,0.048967281945347836,-1.320649962004811
-0.007728930457020105,0.048967281945347836,-1.3169426110237734
-0.007727140457020105,0.04157083224018024,-1.3169426110237734
-0.007725350457020105,0.045269057092764034,-1.320649962004811
-0.007723560457020105,0.04157083224018024,-1.320649962004811
-0.007721770457020105,0.04157083224018024,-1.3243573129858488
-0.007719980457020105,0.04157083224018024,-1.3243573129858488
-0.007718190457020105,0.03787260738759644,-1.3243573129858488
-0.007716400457020105,0.04157083224018024,-1.320649962004811
-0.007714610457020105,0.04157083224018024,-1.3169426110237734
-0.007712820457020105,0.034174382535012635,-1.320649962004811
-0.007711030457020105,0.034174382535012635,-1.320649962004811
-0.007709240457020105,0.04157083224018024,-1.3169426110237734
-0.007707450457020105,0.03787260738759644,-1.3243573129858488
-0.007705660457020105,0.034174382535012635,-1.320649962004811
-0.007703870457020105,0.034174382535012635,-1.320649962004811
-0.007702080457020105,0.03787260738759644,-1.320649962004811
-0.007700290457020105,0.034174382535012635,-1.3169426110237734
-0.007698500457020105,0.04157083224018024,-1.320649962004811
-0.007696710457020105,0.034174382535012635,-1.320649962004811
-0.007694920457020105,0.026777932829845037,-1.320649962004811
-0.007693130457020105,0.03047615768242884,-1.3169426110237734
-0.007691340457020105,0.026777932829845037,-1.3169426110237734
-0.007689550457020105,0.026777932829845037,-1.3243573129858488
-0.007687760457020105,0.034174382535012635,-1.320649962004811
-0.007685970457020105,0.03047615768242884,-1.3169426110237734
-0.0076841804570201054,0.034174382535012635,-1.3243573129858488
-0.007682390457020105,0.03047615768242884,-1.320649962004811
-0.007680600457020105,0.03047615768242884,-1.320649962004811
-0.007678810457020105,0.03047615768242884,-1.3243573129858488
-0.0076770204570201055,0.03047615768242884,-1.3169426110237734
-0.007675230457020105,0.02307970797726124,-1.320649962004811
-0.007673440457020105,0.026777932829845037,-1.320649962004811
-0.007671650457020105,0.03047615768242884,-1.320649962004811
-0.0076698604570201055,0.03047615768242884,-1.320649962004811
-0.007668070457020105,0.03047615768242884,-1.3243573129858488
-0.007666280457020105,0.034174382535012635,-1.320649962004811
-0.007664490457020105,0.034174382535012635,-1.3169426110237734
-0.007662700457020105,0.03047615768242884,-1.320649962004811
-0.007660910457020105,0.03047615768242884,-1.320649962004811
-0.007659120457020105,0.02307970797726124,-1.3169426110237734
-0.007657330457020105,0.026777932829845037,-1.3132352600427357
-0.007655540457020105,0.02307970797726124,-1.320649962004811
-0.007653750457020105,0.02307970797726124,-1.320649962004811
-0.007651960457020105,0.015683258272093638,-1.3169426110237734
-0.007650170457020105,0.01938148312467744,-1.3243573129858488
-0.007648380457020105,0.026777932829845037,-1.3169426110237734
-0.007646590457020105,0.01938148312467744,-1.3243573129858488
-0.007644800457020105,0.02307970797726124,-1.320649962004811
-0.007643010457020105,0.01938148312467744,-1.3169426110237734
-0.007641220457020105,0.01938148312467744,-1.3169426110237734
-0.007639430457020105,0.01938148312467744,-1.3169426110237734
-0.007637640457020105,0.02307970797726124,-1.3169426110237734
-0.007635850457020105,0.015683258272093638,-1.3169426110237734
-0.007634060457020105,0.02307970797726124,-1.320649962004811
-0.007632270457020105,0.02307970797726124,-1.320649962004811
-0.007630480457020105,0.02307970797726124,-1.320649962004811
-0.007628690457020105,0.02307970797726124,-1.320649962004811
-0.007626900457020105,0.015683258272093638,-1.320649962004811
-0.007625110457020105,0.01938148312467744,-1.3169426110237734
-0.007623320457020105,0.01938148312467744,-1.320649962004811
-0.007621530457020105,0.01938148312467744,-1.3243573129858488
-0.007619740457020105,0.015683258272093638,-1.3243573129858488
-0.007617950457020105,0.015683258272093638,-1.3243573129858488
-0.007616160457020105,0.01198503341950984,-1.320649962004811
-0.007614370457020105,0.02307970797726124,-1.3169426110237734
-0.007612580457020105,0.026777932829845037,-1.320649962004811
-0.007610790457020105,0.015683258272093638,-1.3169426110237734
-0.007609000457020105,0.015683258272093638,-1.320649962004811
-0.0076072104570201055,0.01198503341950984,-1.320649962004811
-0.007605420457020105,0.01198503341950984,-1.3243573129858488
-0.007603630457020105,0.01938148312467744,-1.3169426110237734
-0.007601840457020105,0.015683258272093638,-1.3169426110237734
-0.0076000504570201055,0.015683258272093638,-1.3169426110237734
-0.007598260457020105,0.01198503341950984,-1.320649962004811
-0.007596470457020105,0.01198503341950984,-1.3243573129858488
-0.007594680457020105,0.015683258272093638,-1.3280646639668865
-0.0075928904570201055,0.011985033419511522,-1.3206499620048144
-0.007591100457020105,0.00828680856692604,-1.3169426110237734
-0.007589310457020105,0.01198503341950984,-1.3169426110237734
-0.007587520457020105,0.01198503341950984,-1.3169426110237734
-0.007585730457020105,0.015683258272088593,-1.320649962004811
-0.007583940457020105,0.00458858371434224,-1.320649962004811
-0.007582150457020105,0.015683258272093638,-1.320649962004811
-0.007580360457020105,0.01198503341950984,-1.3169426110237734
-0.007578570457020105,0.01198503341950984,-1.3169426110237734
-0.007576780457020105,0.00458858371434224,-1.320649962004811
-0.007574990457020105,0.00828680856692604,-1.320649962004811
-0.007573200457020105,0.00458858371434224,-1.3169426110237734
-0.007571410457020105,0.00458858371434224,-1.320649962004811
-0.007569620457020105,0.00828680856692604,-1.320649962004811
-0.007567830457020105,0.00458858371434224,-1.320649962004811
-0.007566040457020105,0.01198503341950984,-1.320649962004811
-0.007564250457020105,0.01198503341950984,-1.320649962004811
-0.007562460457020105,0.00828680856692604,-1.3243573129858488
-0.007560670457020105,0.00458858371434224,-1.320649962004811
-0.007558880457020105,0.00828680856692604,-1.3169426110237734
-0.007557090457020105,0.00458858371434224,-1.3243573129858488
-0.007555300457020105,0.0008903588617584406,-1.320649962004811
-0.007553510457020105,0.0008903588617584406,-1.320649962004811
-0.007551720457020105,0.00458858371434224,-1.320649962004811
-0.007549930457020105,0.00458858371434224,-1.3243573129858488
-0.007548140457020105,0.00828680856692604,-1.3280646639668865
-0.007546350457020105,0.00828680856692604,-1.320649962004811
-0.007544560457020105,0.00458858371434224,-1.3169426110237734
-0.007542770457020105,0.0008903588617584406,-1.3169426110237734
-0.007540980457020105,0.00458858371434224,-1.320649962004811
-0.007539190457020105,0.00458858371434224,-1.320649962004811
-0.0075374004570201054,0.00828680856692604,-1.320649962004811
-0.007535610457020105,0.00828680856692604,-1.3169426110237734
-0.007533820457020105,0.00458858371434224,-1.320649962004811
-0.007532030457020105,0.00828680856692604,-1.320649962004811
-0.0075302404570201055,0.00458858371434224,-1.320649962004811
-0.007528450457020105,0.00458858371434224,-1.320649962004811
-0.007526660457020105,0.0008903588617584406,-1.320649962004811
-0.007524870457020105,0.0008903588617584406,-1.320649962004811
-0.0075230804570201055,0.004588583714340558,-1.320649962004811
-0.007521290457020105,0.00458858371434224,-1.3243573129858488
-0.007519500457020105,0.00458858371434224,-1.320649962004811
-0.007517710457020105,0.0008903588617584406,-1.3132352600427357
-0.0075159204570201055,-0.002807865990823677,-1.3169426110237716
-0.007514130457020105,-0.010204315695992958,-1.320649962004811
-0.007512340457020105,-0.0065060908434091584,-1.320649962004811
-0.007510550457020105,-0.0065060908434091584,-1.320649962004811
-0.007508760457020105,-0.006506090843407477,-1.320649962004811
-0.007506970457020105,-0.002807865990825359,-1.320649962004811
-0.007505180457020105,0.0008903588617584406,-1.320649962004811
-0.007503390457020105,-0.0065060908434091584,-1.3243573129858488
-0.007501600457020105,-0.002807865990825359,-1.320649962004811
-0.007499810457020105,-0.002807865990825359,-1.3169426110237734
-0.007498020457020105,-0.002807865990825359,-1.3169426110237734
-0.007496230457020105,-0.0065060908434091584,-1.3169426110237734
-0.007494440457020105,-0.002807865990825359,-1.3169426110237734
-0.007492650457020105,-0.010204315695992958,-1.3132352600427357
-0.007490860457020105,-0.0065060908434091584,-1.320649962004811
-0.007489070457020105,-0.013902540548576758,-1.3169426110237734
-0.007487280457020105,-0.0065060908434091584,-1.3169426110237734
-0.007485490457020105,-0.0065060908434091584,-1.320649962004811
-0.007483700457020105,-0.0065060908434091584,-1.3243573129858488
-0.007481910457020105,-0.002807865990825359,-1.3243573129858488
-0.007480120457020105,0.0008903588617584406,-1.3243573129858488
-0.007478330457020105,-0.002807865990825359,-1.320649962004811
-0.007476540457020105,-0.010204315695992958,-1.320649962004811
-0.007474750457020105,-0.0065060908434091584,-1.320649962004811
-0.007472960457020105,-0.0065060908434091584,-1.320649962004811
-0.007471170457020105,-0.010204315695992958,-1.320649962004811
-0.007469380457020105,-0.0065060908434091584,-1.3169426110237734
-0.007467590457020105,-0.010204315695992958,-1.3169426110237734
-0.007465800457020105,-0.010204315695992958,-1.320649962004811
-0.007464010457020105,-0.010204315695992958,-1.320649962004811
-0.007462220457020105,-0.013902540548576758,-1.3169426110237734
-0.0074604304570201055,-0.013902540548576758,-1.3243573129858488
-0.007458640457020105,-0.010204315695992958,-1.320649962004811
-0.007456850457020105,-0.0065060908434091584,-1.320649962004811
-0.007455060457020105,-0.0065060908434091584,-1.3169426110237734
-0.0074532704570201055,-0.010204315695992958,-1.3169426110237734
-0.007451480457020105,-0.002807865990825359,-1.320649962004811
-0.007449690457020105,-0.010204315695992958,-1.320649962004811
-0.007447900457020105,-0.0065060908434091584,-1.3169426110237734
-0.0074461104570201055,-0.0065060908434091584,-1.3206499620048093
-0.007444320457020105,-0.013902540548576758,-1.320649962004811
-0.007442530457020105,-0.013902540548576758,-1.320649962004811
-0.007440740457020105,-0.013902540548576758,-1.3169426110237734
-0.007438950457020105,-0.013902540548576758,-1.3169426110237767
-0.007437160457020105,-0.013902540548576758,-1.3243573129858488
-0.007435370457020105,-0.0065060908434091584,-1.3169426110237734
-0.007433580457020105,-0.010204315695992958,-1.3243573129858488
-0.007431790457020105,-0.010204315695992958,-1.3243573129858488
-0.007430000457020105,-0.010204315695992958,-1.320649962004811
-0.007428210457020105,-0.013902540548576758,-1.3169426110237734
-0.007426420457020105,-0.021298990253744356,-1.320649962004811
-0.007424630457020105,-0.017600765401160557,-1.3243573129858488
-0.007422840457020105,-0.013902540548576758,-1.320649962004811
-0.007421050457020105,-0.010204315695992958,-1.320649962004811
-0.007419260457020105,-0.013902540548576758,-1.320649962004811
-0.007417470457020105,-0.013902540548576758,-1.3243573129858488
-0.007415680457020105,-0.010204315695992958,-1.3243573129858488
-0.007413890457020105,-0.017600765401160557,-1.320649962004811
-0.007412100457020105,-0.017600765401160557,-1.320649962004811
-0.007410310457020105,-0.013902540548576758,-1.3243573129858488
-0.007408520457020105,-0.021298990253744356,-1.320649962004811
-0.007406730457020105,-0.010204315695992958,-1.3169426110237734
-0.007404940457020105,-0.013902540548576758,-1.3169426110237734
-0.007403150457020105,-0.017600765401160557,-1.320649962004811
-0.007401360457020105,-0.021298990253744356,-1.3169426110237734
-0.007399570457020105,-0.024997215106328158,-1.3169426110237734
-0.007397780457020105,-0.021298990253744356,-1.320649962004811
-0.007395990457020105,-0.021298990253744356,-1.320649962004811
-0.007394200457020105,-0.021298990253744356,-1.320649962004811
-0.007392410457020105,-0.017600765401160557,-1.3243573129858488
-0.0073906204570201054,-0.017600765401160557,-1.3243573129858488
-0.007388830457020105,-0.021298990253744356,-1.3169426110237734
-0.007387040457020105,-0.017600765401160557,-1.320649962004811
-0.007385250457020105,-0.013902540548576758,-1.320649962004811
-0.0073834604570201055,-0.017600765401160557,-1.3169426110237734
-0.007381670457020105,-0.021298990253744356,-1.320649962004811
-0.007379880457020105,-0.024997215106328158,-1.320649962004811
-0.007378090457020105,-0.021298990253744356,-1.3169426110237734
-0.0073763004570201055,-0.021298990253744356,-1.3169426110237734
-0.007374510457020105,-0.024997215106328158,-1.3169426110237734
-0.007372720457020105,-0.024997215106328158,-1.3169426110237734
-0.007370930457020105,-0.021298990253744356,-1.320649962004811
-0.0073691404570201055,-0.024997215106326475,-1.324357312985847
-0.007367350457020105,-0.024997215106328158,-1.320649962004811
-0.007365560457020105,-0.024997215106328158,-1.3243573129858488
-0.007363770457020105,-0.021298990253744356,-1.3169426110237734
-0.007361980457020105,-0.02129899025374604,-1.3206499620048093
-0.007360190457020105,-0.024997215106328158,-1.3169426110237734
-0.007358400457020105,-0.021298990253744356,-1.3169426110237734
-0.007356610457020105,-0.024997215106328158,-1.3169426110237734
-0.007354820457020105,-0.021298990253744356,-1.3169426110237734
-0.007353030457020105,-0.024997215106328158,-1.3132352600427357
-0.007351240457020105,-0.021298990253744356,-1.320649962004811
-0.007349450457020105,-0.028695439958911956,-1.320649962004811
-0.007347660457020105,-0.021298990253744356,-1.3169426110237734
-0.007345870457020105,-0.021298990253744356,-1.320649962004811
-0.007344080457020105,-0.017600765401160557,-1.3169426110237734
-0.007342290457020105,-0.021298990253744356,-1.3169426110237734
-0.007340500457020105,-0.024997215106328158,-1.3243573129858488
-0.007338710457020105,-0.021298990253744356,-1.320649962004811
-0.007336920457020105,-0.021298990253744356,-1.3243573129858488
-0.007335130457020105,-0.021298990253744356,-1.3169426110237734
-0.007333340457020105,-0.024997215106328158,-1.3169426110237734
-0.007331550457020105,-0.028695439958911956,-1.3132352600427357
-0.007329760457020105,-0.021298990253744356,-1.3169426110237734
-0.007327970457020105,-0.024997215106328158,-1.320649962004811
-0.007326180457020105,-0.021298990253744356,-1.3132352600427357
-0.007324390457020105,-0.021298990253744356,-1.3169426110237734
-0.007322600457020105,-0.024997215106328158,-1.3169426110237734
-0.007320810457020105,-0.028695439958911956,-1.320649962004811
-0.007319020457020105,-0.024997215106328158,-1.3169426110237734
-0.007317230457020105,-0.024997215106328158,-1.3243573129858488
-0.007315440457020105,-0.028695439958911956,-1.3169426110237734
-0.0073136504570201055,-0.028695439958911956,-1.3169426110237734
-0.007311860457020105,-0.032393664811495755,-1.3169426110237734
-0.007310070457020105,-0.028695439958911956,-1.320649962004811
-0.007308280457020105,-0.032393664811495755,-1.3132352600427357
-0.0073064904570201055,-0.032393664811495755,-1.3132352600427357
-0.007304700457020105,-0.028695439958911956,-1.320649962004811
-0.007302910457020105,-0.032393664811495755,-1.3169426110237734
-0.007301120457020105,-0.028695439958911956,-1.320649962004811
-0.0072993304570201055,-0.032393664811494076,-1.3169426110237752
-0.007297540457020105,-0.03609188966407956,-1.3169426110237734
-0.007295750457020105,-0.028695439958911956,-1.3132352600427357
-0.007293960457020105,-0.032393664811495755,-1.3169426110237734
-0.007292170457020105,-0.032393664811494076,-1.3169426110237716
-0.007290380457020105,-0.028695439958911956,-1.3132352600427357
-0.007288590457020105,-0.032393664811495755,-1.3132352600427357
-0.007286800457020105,-0.024997215106328158,-1.320649962004811
-0.007285010457020105,-0.02869543995891364,-1.320649962004811
-0.007283220457020105,-0.032393664811495755,-1.320649962004811
-0.007281430457020105,-0.032393664811495755,-1.320649962004811
-0.007279640457020105,-0.032393664811495755,-1.3243573129858488
-0.007277850457020105,-0.028695439958911956,-1.3169426110237734
-0.007276060457020105,-0.032393664811495755,-1.3243573129858488
-0.007274270457020105,-0.03609188966407956,-1.3169426110237734
-0.007272480457020105,-0.032393664811495755,-1.3132352600427357
-0.007270690457020105,-0.028695439958911956,-1.3169426110237734
-0.007268900457020105,-0.032393664811495755,-1.3169426110237734
-0.007267110457020105,-0.03979011451666335,-1.3132352600427357
-0.007265320457020105,-0.03609188966407956,-1.3169426110237734
-0.007263530457020105,-0.03979011451666335,-1.320649962004811
-0.007261740457020105,-0.03609188966407956,-1.3169426110237734
-0.007259950457020105,-0.032393664811495755,-1.3243573129858488
-0.007258160457020105,-0.032393664811495755,-1.320649962004811
-0.007256370457020105,-0.032393664811495755,-1.320649962004811
-0.007254580457020105,-0.03979011451666335,-1.3169426110237734
-0.007252790457020105,-0.03979011451666335,-1.3169426110237734
-0.007251000457020105,-0.03609188966407956,-1.3169426110237734
-0.007249210457020105,-0.032393664811495755,-1.320649962004811
-0.007247420457020105,-0.03609188966407956,-1.320649962004811
-0.007245630457020105,-0.03979011451666335,-1.3169426110237734
-0.0072438404570201054,-0.03979011451666335,-1.3169426110237734
-0.007242050457020105,-0.032393664811495755,-1.3169426110237734
-0.007240260457020105,-0.032393664811495755,-1.3169426110237734
-0.007238470457020105,-0.043488339369247155,-1.320649962004811
-0.0072366804570201055,-0.03979011451666335,-1.3243573129858488
-0.007234890457020105,-0.03979011451666335,-1.3169426110237734
-0.007233100457020105,-0.03979011451666335,-1.3169426110237734
-0.007231310457020105,-0.03979011451666335,-1.3169426110237734
-0.0072295204570201055,-0.043488339369247155,-1.3169426110237734
-0.007227730457020105,-0.03979011451666335,-1.3132352600427357
-0.007225940457020105,-0.043488339369247155,-1.3169426110237734
-0.007224150457020105,-0.03609188966407956,-1.320649962004811
-0.0072223604570201055,-0.04348833936924379,-1.3169426110237752
-0.007220570457020105,-0.03609188966407956,-1.320649962004811
-0.007218780457020105,-0.03609188966407956,-1.320649962004811
-0.007216990457020105,-0.03979011451666335,-1.320649962004811
-0.007215200457020105,-0.03609188966407956,-1.324357312985847
-0.007213410457020105,-0.03609188966407956,-1.320649962004811
-0.007211620457020105,-0.043488339369247155,-1.3169426110237734
-0.007209830457020105,-0.043488339369247155,-1.3169426110237734
-0.007208040457020105,-0.04718656422183096,-1.3169426110237734
-0.007206250457020105,-0.03979011451666335,-1.3169426110237734
-0.007204460457020105,-0.03979011451666335,-1.320649962004811
-0.007202670457020105,-0.043488339369247155,-1.3169426110237734
-0.007200880457020105,-0.03979011451666335,-1.3169426110237734
-0.007199090457020105,-0.043488339369247155,-1.320649962004811
-0.007197300457020105,-0.043488339369247155,-1.3169426110237734
-0.007195510457020105,-0.04718656422183096,-1.3243573129858488
-0.007193720457020105,-0.04718656422183096,-1.320649962004811
-0.007191930457020105,-0.043488339369247155,-1.320649962004811
-0.007190140457020105,-0.043488339369247155,-1.3169426110237734
-0.007188350457020105,-0.04718656422183096,-1.320649962004811
