100Hz/acq0046.csv

#Digilent WaveForms Oscilloscope Acquisition
#Device Name: Discovery2
#Serial Number: SN:210321AA28BE
#Date Time: 2023-05-24 14:48:31.561
#Sample rate: 558659Hz
#Samples: 8192
#Trigger: Source: Channel 1 Type: Edge Condition: Rising Level: 800 mV Hyst.: Auto HoldOff: 100 ns
#Channel 1: Range: 1 V/div Offset: 0 V Attenuation: 1 X Sample Mode: Average
#Channel 2: Range: 1 V/div Offset: 0 V Attenuation: 1 X Sample Mode: Average

Time (s),Channel 1 (V),Channel 2 (V)
-0.007741972056817146,0.04157083224018024,-1.3169426110237734
-0.0077401820568171464,0.04157083224018024,-1.3169426110237734
-0.007738392056817146,0.048967281945347836,-1.3169426110237734
-0.007736602056817146,0.04157083224018024,-1.3169426110237734
-0.007734812056817146,0.03787260738759644,-1.3169426110237734
-0.007733022056817146,0.034174382535016,-1.320649962004811
-0.007731232056817146,0.04157083224018024,-1.320649962004811
-0.007729442056817146,0.034174382535012635,-1.3169426110237734
-0.007727652056817146,0.034174382535012635,-1.3169426110237734
-0.007725862056817146,0.03787260738759644,-1.3169426110237734
-0.007724072056817146,0.034174382535012635,-1.3132352600427357
-0.007722282056817146,0.03787260738759644,-1.3132352600427357
-0.007720492056817146,0.03787260738759644,-1.3169426110237734
-0.007718702056817146,0.03047615768242884,-1.3169426110237734
-0.007716912056817146,0.034174382535012635,-1.3132352600427357
-0.007715122056817146,0.03787260738759644,-1.320649962004811
-0.007713332056817146,0.03787260738759644,-1.3169426110237734
-0.007711542056817146,0.034174382535012635,-1.320649962004811
-0.007709752056817146,0.03787260738759644,-1.320649962004811
-0.007707962056817146,0.04157083224018024,-1.3243573129858488
-0.007706172056817146,0.034174382535012635,-1.320649962004811
-0.007704382056817146,0.034174382535012635,-1.3132352600427357
-0.007702592056817146,0.034174382535012635,-1.3169426110237734
-0.007700802056817146,0.034174382535012635,-1.3169426110237734
-0.007699012056817146,0.034174382535012635,-1.320649962004811
-0.007697222056817146,0.03787260738759644,-1.320649962004811
-0.007695432056817146,0.03787260738759644,-1.3169426110237734
-0.007693642056817146,0.03047615768242884,-1.3169426110237734
-0.007691852056817146,0.034174382535012635,-1.3169426110237734
-0.007690062056817146,0.034174382535012635,-1.320649962004811
-0.007688272056817146,0.034174382535012635,-1.3169426110237734
-0.007686482056817146,0.034174382535012635,-1.320649962004811
-0.007684692056817146,0.03047615768242884,-1.320649962004811
-0.007682902056817146,0.03047615768242884,-1.3169426110237734
-0.007681112056817146,0.03787260738759644,-1.3169426110237734
-0.007679322056817146,0.02307970797726124,-1.320649962004811
-0.007677532056817146,0.03047615768242884,-1.3169426110237734
-0.007675742056817146,0.034174382535012635,-1.3169426110237734
-0.007673952056817146,0.026777932829845037,-1.3169426110237734
-0.007672162056817146,0.026777932829845037,-1.3169426110237734
-0.007670372056817146,0.03417438253500927,-1.3206499620048093
-0.007668582056817146,0.02307970797726124,-1.320649962004811
-0.007666792056817146,0.026777932829845037,-1.3169426110237734
-0.007665002056817146,0.03047615768242884,-1.3169426110237734
-0.007663212056817146,0.02307970797726124,-1.3132352600427375
-0.007661422056817146,0.02307970797726124,-1.3169426110237734
-0.007659632056817146,0.02307970797726124,-1.320649962004811
-0.007657842056817146,0.026777932829845037,-1.3169426110237734
-0.007656052056817146,0.026777932829845037,-1.3169426110237734
-0.007654262056817146,0.026777932829845037,-1.3169426110237734
-0.007652472056817146,0.026777932829845037,-1.3132352600427357
-0.007650682056817146,0.01938148312467744,-1.3169426110237734
-0.007648892056817146,0.01938148312467744,-1.320649962004811
-0.007647102056817146,0.026777932829845037,-1.320649962004811
-0.007645312056817146,0.01938148312467744,-1.320649962004811
-0.007643522056817146,0.01938148312467744,-1.320649962004811
-0.007641732056817146,0.01938148312467744,-1.3169426110237734
-0.007639942056817146,0.026777932829845037,-1.320649962004811
-0.007638152056817146,0.01938148312467744,-1.320649962004811
-0.007636362056817146,0.01938148312467744,-1.320649962004811
-0.007634572056817146,0.026777932829845037,-1.320649962004811
-0.007632782056817146,0.02307970797726124,-1.320649962004811
-0.007630992056817146,0.02307970797726124,-1.3169426110237734
-0.007629202056817146,0.01938148312467744,-1.3169426110237734
-0.007627412056817146,0.01938148312467744,-1.3169426110237734
-0.007625622056817146,0.015683258272093638,-1.320649962004811
-0.007623832056817146,0.015683258272093638,-1.320649962004811
-0.007622042056817146,0.015683258272093638,-1.3169426110237734
-0.007620252056817146,0.01938148312467744,-1.3169426110237734
-0.007618462056817146,0.01938148312467744,-1.3169426110237734
-0.007616672056817146,0.015683258272093638,-1.320649962004811
-0.007614882056817146,0.02307970797726124,-1.320649962004811
-0.007613092056817146,0.015683258272093638,-1.320649962004811
-0.007611302056817146,0.015683258272093638,-1.320649962004811
-0.007609512056817146,0.015683258272093638,-1.320649962004811
-0.007607722056817146,0.01198503341950984,-1.320649962004811
-0.007605932056817146,0.01938148312467744,-1.3243573129858488
-0.007604142056817146,0.01938148312467744,-1.320649962004811
-0.007602352056817146,0.01938148312467744,-1.320649962004811
-0.007600562056817146,0.01938148312467744,-1.320649962004811
-0.007598772056817146,0.015683258272093638,-1.3132352600427357
-0.007596982056817146,0.01198503341950984,-1.320649962004811
-0.007595192056817146,0.01198503341950984,-1.3169426110237734
-0.0075934020568171464,0.01198503341950984,-1.3169426110237734
-0.007591612056817146,0.015683258272093638,-1.3243573129858488
-0.007589822056817146,0.01198503341950984,-1.3243573129858488
-0.007588032056817146,0.015683258272093638,-1.320649962004811
-0.007586242056817146,0.01198503341951152,-1.320649962004811
-0.007584452056817146,0.015683258272093638,-1.320649962004811
-0.007582662056817146,0.01198503341950984,-1.3243573129858488
-0.007580872056817146,0.00828680856692604,-1.3169426110237734
-0.007579082056817146,0.00828680856692604,-1.320649962004811
-0.007577292056817146,0.01198503341950984,-1.320649962004811
-0.007575502056817146,0.00828680856692604,-1.3169426110237734
-0.007573712056817146,0.015683258272093638,-1.3169426110237734
-0.007571922056817146,0.01198503341950984,-1.3169426110237734
-0.007570132056817146,0.01198503341950984,-1.320649962004811
-0.007568342056817146,0.00828680856692604,-1.3169426110237734
-0.007566552056817146,0.00828680856692604,-1.3169426110237734
-0.007564762056817146,0.00828680856692604,-1.3169426110237734
-0.007562972056817146,0.00458858371434224,-1.320649962004811
-0.007561182056817146,0.00458858371434224,-1.320649962004811
-0.007559392056817146,0.00828680856692604,-1.320649962004811
-0.007557602056817146,0.0008903588617584406,-1.320649962004811
-0.007555812056817146,0.00458858371434224,-1.320649962004811
-0.007554022056817146,0.0008903588617584406,-1.3169426110237734
-0.007552232056817146,0.00828680856692604,-1.3169426110237734
-0.007550442056817146,0.01198503341950984,-1.309527909061698
-0.007548652056817146,0.01198503341950984,-1.3132352600427357
-0.007546862056817146,0.00458858371434224,-1.3169426110237734
-0.007545072056817146,0.0008903588617584406,-1.320649962004811
-0.007543282056817146,0.0008903588617584406,-1.3169426110237734
-0.007541492056817146,0.0008903588617584406,-1.320649962004811
-0.007539702056817146,0.00458858371434224,-1.3243573129858488
-0.007537912056817146,0.00458858371434224,-1.3169426110237734
-0.007536122056817146,0.0008903588617584406,-1.320649962004811
-0.007534332056817146,0.00458858371434224,-1.3169426110237734
-0.007532542056817146,0.00458858371434224,-1.320649962004811
-0.007530752056817146,0.0008903588617584406,-1.320649962004811
-0.007528962056817146,0.0008903588617584406,-1.320649962004811
-0.007527172056817146,-0.002807865990825359,-1.3169426110237734
-0.007525382056817146,0.0008903588617584406,-1.3169426110237734
-0.007523592056817146,0.0008903588617584406,-1.3169426110237734
-0.007521802056817146,-0.002807865990825359,-1.3169426110237734
-0.007520012056817146,0.0008903588617584406,-1.320649962004811
-0.007518222056817146,-0.002807865990825359,-1.320649962004811
-0.0075164320568171464,0.0008903588617567588,-1.313235260042739
-0.007514642056817146,0.0008903588617584406,-1.3132352600427357
-0.007512852056817146,-0.002807865990825359,-1.320649962004811
-0.007511062056817146,-0.0065060908434091584,-1.3169426110237734
-0.007509272056817146,0.0008903588617584406,-1.3132352600427375
-0.007507482056817146,0.0008903588617584406,-1.3169426110237734
-0.007505692056817146,0.0008903588617584406,-1.3169426110237734
-0.007503902056817146,0.0008903588617584406,-1.3169426110237734
-0.007502112056817146,-0.010204315695992958,-1.320649962004811
-0.007500322056817146,-0.0065060908434091584,-1.320649962004811
-0.007498532056817146,-0.0065060908434091584,-1.320649962004811
-0.007496742056817146,-0.0065060908434091584,-1.320649962004811
-0.007494952056817146,-0.002807865990825359,-1.320649962004811
-0.007493162056817146,-0.002807865990825359,-1.320649962004811
-0.007491372056817146,-0.0065060908434091584,-1.3169426110237734
-0.007489582056817146,-0.002807865990825359,-1.3169426110237734
-0.007487792056817146,-0.0065060908434091584,-1.3169426110237734
-0.007486002056817146,-0.0065060908434091584,-1.320649962004811
-0.007484212056817146,-0.002807865990825359,-1.320649962004811
-0.007482422056817146,-0.0065060908434091584,-1.320649962004811
-0.007480632056817146,-0.0065060908434091584,-1.3169426110237734
-0.007478842056817146,-0.010204315695992958,-1.3169426110237734
-0.007477052056817146,-0.010204315695992958,-1.3169426110237734
-0.007475262056817146,-0.0065060908434091584,-1.3169426110237734
-0.007473472056817146,-0.0065060908434091584,-1.320649962004811
-0.007471682056817146,-0.0065060908434091584,-1.320649962004811
-0.007469892056817146,-0.002807865990825359,-1.3169426110237734
-0.007468102056817146,-0.0065060908434091584,-1.3169426110237734
-0.007466312056817146,-0.0065060908434091584,-1.320649962004811
-0.007464522056817146,-0.010204315695992958,-1.3169426110237734
-0.007462732056817146,-0.010204315695992958,-1.3132352600427357
-0.007460942056817146,-0.010204315695992958,-1.3169426110237734
-0.007459152056817146,-0.010204315695992958,-1.3169426110237734
-0.007457362056817146,-0.010204315695992958,-1.3169426110237734
-0.007455572056817146,-0.010204315695992958,-1.320649962004811
-0.007453782056817146,-0.010204315695992958,-1.320649962004811
-0.007451992056817146,-0.013902540548576758,-1.320649962004811
-0.007450202056817146,-0.013902540548576758,-1.320649962004811
-0.007448412056817146,-0.013902540548576758,-1.3243573129858488
-0.0074466220568171464,-0.013902540548576758,-1.3243573129858488
-0.007444832056817146,-0.010204315695992958,-1.320649962004811
-0.007443042056817146,-0.002807865990825359,-1.320649962004811
-0.007441252056817146,-0.010204315695992958,-1.320649962004811
-0.007439462056817146,-0.010204315695996322,-1.3169426110237752
-0.007437672056817146,-0.017600765401160557,-1.320649962004811
-0.007435882056817146,-0.013902540548576758,-1.3169426110237734
-0.007434092056817146,-0.010204315695992958,-1.3132352600427357
-0.007432302056817146,-0.010204315695992958,-1.3169426110237734
-0.007430512056817146,-0.010204315695992958,-1.3169426110237734
-0.007428722056817146,-0.013902540548576758,-1.3169426110237734
-0.007426932056817146,-0.013902540548576758,-1.3169426110237734
-0.007425142056817146,-0.017600765401160557,-1.3169426110237734
-0.007423352056817146,-0.010204315695992958,-1.3169426110237734
-0.007421562056817146,-0.017600765401160557,-1.3169426110237734
-0.007419772056817146,-0.013902540548576758,-1.3243573129858488
-0.007417982056817146,-0.010204315695992958,-1.320649962004811
-0.007416192056817146,-0.010204315695992958,-1.3169426110237734
-0.007414402056817146,-0.017600765401160557,-1.3132352600427357
-0.007412612056817146,-0.013902540548576758,-1.3169426110237734
-0.007410822056817146,-0.017600765401160557,-1.3169426110237734
-0.007409032056817146,-0.024997215106328158,-1.3169426110237734
-0.007407242056817146,-0.017600765401160557,-1.320649962004811
-0.007405452056817146,-0.017600765401160557,-1.320649962004811
-0.007403662056817146,-0.017600765401160557,-1.320649962004811
-0.007401872056817146,-0.017600765401160557,-1.3169426110237734
-0.007400082056817146,-0.013902540548576758,-1.320649962004811
-0.007398292056817146,-0.013902540548576758,-1.3169426110237734
-0.007396502056817146,-0.017600765401160557,-1.3169426110237734
-0.007394712056817146,-0.021298990253744356,-1.3169426110237734
-0.007392922056817146,-0.017600765401160557,-1.3132352600427357
-0.007391132056817146,-0.017600765401160557,-1.3132352600427357
-0.007389342056817146,-0.017600765401160557,-1.320649962004811
-0.007387552056817146,-0.017600765401160557,-1.3169426110237734
-0.007385762056817146,-0.021298990253744356,-1.3169426110237734
-0.007383972056817146,-0.013902540548576758,-1.3169426110237734
-0.007382182056817146,-0.013902540548576758,-1.320649962004811
-0.007380392056817146,-0.021298990253744356,-1.320649962004811
-0.007378602056817146,-0.021298990253744356,-1.3169426110237734
-0.007376812056817146,-0.017600765401160557,-1.320649962004811
-0.007375022056817146,-0.017600765401160557,-1.3169426110237734
-0.007373232056817146,-0.017600765401160557,-1.320649962004811
-0.007371442056817146,-0.021298990253744356,-1.3243573129858488
-0.0073696520568171464,-0.013902540548580122,-1.3206499620048129
-0.007367862056817146,-0.021298990253744356,-1.3169426110237734
-0.007366072056817146,-0.021298990253744356,-1.320649962004811
-0.007364282056817146,-0.021298990253744356,-1.3169426110237734
-0.007362492056817146,-0.028695439958908595,-1.3169426110237752
-0.007360702056817146,-0.021298990253744356,-1.320649962004811
-0.007358912056817146,-0.024997215106328158,-1.320649962004811
-0.007357122056817146,-0.028695439958911956,-1.3169426110237734
-0.007355332056817146,-0.028695439958911956,-1.3169426110237734
-0.007353542056817146,-0.021298990253744356,-1.320649962004811
-0.007351752056817146,-0.024997215106328158,-1.3169426110237734
-0.007349962056817146,-0.021298990253744356,-1.320649962004811
-0.007348172056817146,-0.024997215106328158,-1.320649962004811
-0.007346382056817146,-0.024997215106328158,-1.3243573129858488
-0.007344592056817146,-0.021298990253744356,-1.320649962004811
-0.007342802056817146,-0.021298990253744356,-1.3243573129858488
-0.007341012056817146,-0.028695439958911956,-1.320649962004811
-0.007339222056817146,-0.024997215106328158,-1.3169426110237734
-0.007337432056817146,-0.024997215106328158,-1.3169426110237734
-0.007335642056817146,-0.028695439958911956,-1.3169426110237734
-0.007333852056817146,-0.032393664811495755,-1.3169426110237734
-0.007332062056817146,-0.028695439958911956,-1.320649962004811
-0.007330272056817146,-0.032393664811495755,-1.320649962004811
-0.007328482056817146,-0.028695439958911956,-1.3169426110237734
-0.007326692056817146,-0.024997215106328158,-1.3169426110237734
-0.007324902056817146,-0.024997215106328158,-1.3243573129858488
-0.007323112056817146,-0.028695439958911956,-1.320649962004811
-0.007321322056817146,-0.028695439958911956,-1.320649962004811
-0.007319532056817146,-0.028695439958911956,-1.320649962004811
-0.007317742056817146,-0.028695439958911956,-1.3169426110237734
-0.007315952056817146,-0.03609188966407956,-1.320649962004811
-0.007314162056817146,-0.032393664811495755,-1.3243573129858488
-0.007312372056817146,-0.028695439958911956,-1.320649962004811
-0.007310582056817146,-0.032393664811495755,-1.320649962004811
-0.007308792056817146,-0.021298990253744356,-1.320649962004811
-0.007307002056817146,-0.032393664811495755,-1.3169426110237734
-0.007305212056817146,-0.032393664811495755,-1.320649962004811
-0.007303422056817146,-0.028695439958911956,-1.3132352600427357
-0.007301632056817146,-0.028695439958911956,-1.3169426110237734
-0.0072998420568171464,-0.032393664811494076,-1.3132352600427375
-0.007298052056817146,-0.03609188966407956,-1.3169426110237734
-0.007296262056817146,-0.028695439958911956,-1.320649962004811
-0.007294472056817146,-0.032393664811495755,-1.3132352600427357
-0.007292682056817146,-0.032393664811494076,-1.3169426110237734
-0.007290892056817146,-0.028695439958911956,-1.3169426110237734
-0.007289102056817146,-0.032393664811495755,-1.3169426110237734
-0.007287312056817146,-0.032393664811495755,-1.320649962004811
-0.007285522056817146,-0.032393664811495755,-1.3169426110237734
-0.007283732056817146,-0.032393664811495755,-1.3169426110237734
-0.007281942056817146,-0.03609188966407956,-1.3169426110237734
-0.007280152056817146,-0.03609188966407956,-1.3169426110237734
-0.007278362056817146,-0.03609188966407956,-1.320649962004811
-0.007276572056817146,-0.032393664811495755,-1.3169426110237734
-0.007274782056817146,-0.032393664811495755,-1.320649962004811
-0.007272992056817146,-0.032393664811495755,-1.3169426110237734
-0.007271202056817146,-0.032393664811495755,-1.3169426110237734
-0.007269412056817146,-0.032393664811495755,-1.3243573129858488
-0.007267622056817146,-0.03609188966407956,-1.3243573129858488
-0.007265832056817146,-0.03979011451666335,-1.3169426110237734
-0.007264042056817146,-0.03609188966407956,-1.3169426110237734
-0.007262252056817146,-0.03609188966407956,-1.320649962004811
-0.007260462056817146,-0.032393664811495755,-1.320649962004811
-0.007258672056817146,-0.043488339369247155,-1.320649962004811
-0.007256882056817146,-0.03609188966407956,-1.3169426110237734
-0.007255092056817146,-0.032393664811495755,-1.320649962004811
-0.007253302056817146,-0.03609188966407956,-1.3169426110237734
-0.007251512056817146,-0.03979011451666335,-1.320649962004811
-0.007249722056817146,-0.03979011451666335,-1.3169426110237734
-0.007247932056817146,-0.03609188966407956,-1.3169426110237734
-0.007246142056817146,-0.03609188966407956,-1.320649962004811
-0.007244352056817146,-0.03979011451666335,-1.320649962004811
-0.007242562056817146,-0.03609188966407956,-1.320649962004811
-0.007240772056817146,-0.032393664811495755,-1.3169426110237734
-0.007238982056817146,-0.032393664811495755,-1.320649962004811
-0.007237192056817146,-0.03609188966407956,-1.320649962004811
-0.007235402056817146,-0.03609188966407956,-1.320649962004811
-0.007233612056817146,-0.03609188966407956,-1.320649962004811
-0.007231822056817146,-0.032393664811495755,-1.3169426110237734
-0.007230032056817146,-0.03979011451666335,-1.3169426110237734
-0.007228242056817146,-0.03979011451666335,-1.320649962004811
-0.007226452056817146,-0.03979011451666335,-1.320649962004811
-0.007224662056817146,-0.03979011451666335,-1.3169426110237734
-0.0072228720568171464,-0.036091889664081236,-1.3206499620048093
-0.007221082056817146,-0.04718656422183096,-1.320649962004811
-0.007219292056817146,-0.043488339369247155,-1.320649962004811
-0.007217502056817146,-0.03979011451666335,-1.320649962004811
-0.007215712056817146,-0.043488339369245475,-1.3206499620048129
-0.007213922056817146,-0.03979011451666335,-1.3243573129858488
-0.007212132056817146,-0.03979011451666335,-1.320649962004811
-0.007210342056817146,-0.04718656422183096,-1.320649962004811
-0.007208552056817146,-0.03979011451666335,-1.320649962004811
-0.007206762056817146,-0.043488339369247155,-1.3243573129858488
-0.007204972056817146,-0.043488339369247155,-1.320649962004811
-0.007203182056817146,-0.03979011451666335,-1.320649962004811
-0.007201392056817146,-0.043488339369247155,-1.3132352600427357
-0.007199602056817146,-0.043488339369247155,-1.3169426110237734
-0.007197812056817146,-0.03979011451666335,-1.3243573129858488
-0.007196022056817146,-0.05088478907441475,-1.320649962004811
-0.007194232056817146,-0.04718656422183096,-1.320649962004811
-0.007192442056817146,-0.043488339369247155,-1.3169426110237734
-0.007190652056817146,-0.04718656422183096,-1.320649962004811
-0.007188862056817146,-0.03979011451666335,-1.3169426110237734
