100Hz/acq0039.csv

#Digilent WaveForms Oscilloscope Acquisition
#Device Name: Discovery2
#Serial Number: SN:210321AA28BE
#Date Time: 2023-05-24 14:48:31.359
#Sample rate: 558659Hz
#Samples: 8192
#Trigger: Source: Channel 1 Type: Edge Condition: Rising Level: 800 mV Hyst.: Auto HoldOff: 100 ns
#Channel 1: Range: 1 V/div Offset: 0 V Attenuation: 1 X Sample Mode: Average
#Channel 2: Range: 1 V/div Offset: 0 V Attenuation: 1 X Sample Mode: Average

Time (s),Channel 1 (V),Channel 2 (V)
-0.007741477603046269,0.026777932829845037,-1.320649962004811
-0.0077396876030462695,0.02307970797726292,-1.3169426110237752
-0.007737897603046269,0.01938148312467744,-1.320649962004811
-0.007736107603046269,0.01938148312467744,-1.3169426110237734
-0.007734317603046269,0.01198503341950984,-1.320649962004811
-0.007732527603046269,0.01568325827209532,-1.320649962004811
-0.007730737603046269,0.01938148312467744,-1.320649962004811
-0.007728947603046269,0.01938148312467744,-1.3169426110237734
-0.007727157603046269,0.015683258272093638,-1.3132352600427357
-0.007725367603046269,0.015683258272093638,-1.3132352600427357
-0.007723577603046269,0.01938148312467744,-1.320649962004811
-0.007721787603046269,0.01938148312467744,-1.320649962004811
-0.007719997603046269,0.015683258272093638,-1.320649962004811
-0.007718207603046269,0.00828680856692604,-1.320649962004811
-0.007716417603046269,0.015683258272093638,-1.320649962004811
-0.007714627603046269,0.015683258272093638,-1.320649962004811
-0.007712837603046269,0.01198503341950984,-1.320649962004811
-0.007711047603046269,0.01198503341950984,-1.3169426110237734
-0.007709257603046269,0.00828680856692604,-1.320649962004811
-0.007707467603046269,0.00828680856692604,-1.3243573129858488
-0.007705677603046269,0.01198503341950984,-1.3169426110237734
-0.007703887603046269,0.01198503341950984,-1.3169426110237734
-0.007702097603046269,0.01198503341950984,-1.3169426110237734
-0.007700307603046269,0.01198503341950984,-1.320649962004811
-0.007698517603046269,0.01198503341950984,-1.3243573129858488
-0.007696727603046269,0.01198503341950984,-1.3243573129858488
-0.007694937603046269,0.01198503341950984,-1.320649962004811
-0.007693147603046269,0.00828680856692604,-1.3169426110237734
-0.007691357603046269,0.00828680856692604,-1.3169426110237734
-0.007689567603046269,0.01198503341950984,-1.320649962004811
-0.007687777603046269,0.00828680856692604,-1.3169426110237734
-0.007685987603046269,0.01198503341950984,-1.320649962004811
-0.007684197603046269,0.00458858371434224,-1.320649962004811
-0.007682407603046269,0.00828680856692604,-1.320649962004811
-0.007680617603046269,0.00458858371434224,-1.320649962004811
-0.007678827603046269,0.00458858371434224,-1.320649962004811
-0.0076770376030462694,0.00458858371434224,-1.3169426110237734
-0.007675247603046269,0.00828680856692604,-1.320649962004811
-0.007673457603046269,0.00828680856692604,-1.3169426110237734
-0.007671667603046269,0.00458858371434224,-1.320649962004811
-0.0076698776030462695,-0.0028078659908219953,-1.320649962004811
-0.007668087603046269,0.0008903588617584406,-1.320649962004811
-0.007666297603046269,0.00458858371434224,-1.320649962004811
-0.007664507603046269,0.00458858371434224,-1.320649962004811
-0.007662717603046269,0.00458858371434224,-1.3243573129858455
-0.007660927603046269,0.00458858371434224,-1.3169426110237734
-0.007659137603046269,0.00458858371434224,-1.320649962004811
-0.007657347603046269,0.00828680856692604,-1.3243573129858488
-0.007655557603046269,0.004588583714340558,-1.324357312985847
-0.007653767603046269,0.0008903588617584406,-1.320649962004811
-0.007651977603046269,0.0008903588617584406,-1.320649962004811
-0.007650187603046269,0.00458858371434224,-1.3169426110237734
-0.007648397603046269,0.00458858371434224,-1.3243573129858488
-0.007646607603046269,-0.002807865990825359,-1.320649962004811
-0.007644817603046269,-0.002807865990825359,-1.3243573129858488
-0.007643027603046269,-0.002807865990825359,-1.320649962004811
-0.007641237603046269,-0.002807865990825359,-1.320649962004811
-0.007639447603046269,-0.0065060908434091584,-1.320649962004811
-0.007637657603046269,0.0008903588617584406,-1.320649962004811
-0.007635867603046269,-0.002807865990825359,-1.320649962004811
-0.007634077603046269,-0.002807865990825359,-1.320649962004811
-0.007632287603046269,0.00458858371434224,-1.320649962004811
-0.007630497603046269,-0.0065060908434091584,-1.320649962004811
-0.007628707603046269,0.0008903588617584406,-1.320649962004811
-0.007626917603046269,0.0008903588617584406,-1.320649962004811
-0.007625127603046269,0.0008903588617584406,-1.3169426110237734
-0.007623337603046269,-0.002807865990825359,-1.3132352600427357
-0.007621547603046269,-0.002807865990825359,-1.320649962004811
-0.007619757603046269,0.0008903588617584406,-1.320649962004811
-0.007617967603046269,-0.002807865990825359,-1.320649962004811
-0.007616177603046269,-0.0065060908434091584,-1.3169426110237734
-0.007614387603046269,-0.0065060908434091584,-1.320649962004811
-0.007612597603046269,-0.002807865990825359,-1.320649962004811
-0.007610807603046269,-0.002807865990825359,-1.320649962004811
-0.007609017603046269,-0.010204315695992958,-1.320649962004811
-0.007607227603046269,-0.0065060908434091584,-1.320649962004811
-0.007605437603046269,-0.0065060908434091584,-1.320649962004811
-0.007603647603046269,0.0008903588617584406,-1.320649962004811
-0.007601857603046269,-0.002807865990825359,-1.320649962004811
-0.0076000676030462695,-0.002807865990825359,-1.320649962004811
-0.007598277603046269,0.0008903588617584406,-1.3243573129858488
-0.007596487603046269,-0.002807865990825359,-1.3169426110237734
-0.007594697603046269,-0.002807865990825359,-1.320649962004811
-0.0075929076030462695,-0.006506090843407477,-1.324357312985847
-0.007591117603046269,-0.0065060908434091584,-1.3243573129858488
-0.007589327603046269,-0.010204315695992958,-1.320649962004811
-0.007587537603046269,-0.0065060908434091584,-1.320649962004811
-0.007585747603046269,-0.006506090843407477,-1.3169426110237752
-0.007583957603046269,-0.002807865990825359,-1.320649962004811
-0.007582167603046269,-0.0065060908434091584,-1.320649962004811
-0.007580377603046269,-0.002807865990825359,-1.320649962004811
-0.007578587603046269,-0.0065060908434091584,-1.3169426110237734
-0.007576797603046269,-0.0065060908434091584,-1.320649962004811
-0.007575007603046269,-0.0065060908434091584,-1.320649962004811
-0.007573217603046269,-0.010204315695992958,-1.320649962004811
-0.007571427603046269,-0.010204315695992958,-1.3243573129858488
-0.007569637603046269,-0.013902540548576758,-1.320649962004811
-0.007567847603046269,-0.010204315695992958,-1.3169426110237734
-0.007566057603046269,-0.010204315695992958,-1.320649962004811
-0.007564267603046269,-0.010204315695992958,-1.320649962004811
-0.007562477603046269,-0.010204315695992958,-1.320649962004811
-0.007560687603046269,-0.010204315695992958,-1.3243573129858488
-0.007558897603046269,-0.010204315695992958,-1.320649962004811
-0.007557107603046269,-0.010204315695992958,-1.320649962004811
-0.007555317603046269,-0.010204315695992958,-1.3169426110237734
-0.007553527603046269,-0.010204315695992958,-1.3169426110237734
-0.007551737603046269,-0.013902540548576758,-1.3169426110237734
-0.007549947603046269,-0.010204315695992958,-1.320649962004811
-0.007548157603046269,-0.013902540548576758,-1.320649962004811
-0.007546367603046269,-0.013902540548576758,-1.3169426110237734
-0.007544577603046269,-0.013902540548576758,-1.3132352600427357
-0.007542787603046269,-0.013902540548576758,-1.320649962004811
-0.007540997603046269,-0.010204315695992958,-1.320649962004811
-0.007539207603046269,-0.013902540548576758,-1.320649962004811
-0.007537417603046269,-0.010204315695992958,-1.3169426110237734
-0.007535627603046269,-0.013902540548576758,-1.3169426110237734
-0.007533837603046269,-0.013902540548576758,-1.3243573129858488
-0.007532047603046269,-0.010204315695992958,-1.320649962004811
-0.0075302576030462694,-0.017600765401160557,-1.320649962004811
-0.007528467603046269,-0.013902540548576758,-1.320649962004811
-0.007526677603046269,-0.013902540548576758,-1.3169426110237734
-0.007524887603046269,-0.013902540548576758,-1.3169426110237734
-0.0075230976030462695,-0.017600765401158874,-1.3206499620048093
-0.007521307603046269,-0.013902540548576758,-1.320649962004811
-0.007519517603046269,-0.017600765401160557,-1.3169426110237734
-0.007517727603046269,-0.017600765401160557,-1.320649962004811
-0.0075159376030462695,-0.013902540548578441,-1.320649962004811
-0.007514147603046269,-0.017600765401160557,-1.3169426110237734
-0.007512357603046269,-0.021298990253744356,-1.3243573129858488
-0.007510567603046269,-0.021298990253744356,-1.3243573129858488
-0.007508777603046269,-0.017600765401160557,-1.320649962004811
-0.007506987603046269,-0.017600765401160557,-1.320649962004811
-0.007505197603046269,-0.021298990253744356,-1.320649962004811
-0.007503407603046269,-0.021298990253744356,-1.320649962004811
-0.007501617603046269,-0.021298990253744356,-1.320649962004811
-0.007499827603046269,-0.021298990253744356,-1.3243573129858488
-0.007498037603046269,-0.017600765401160557,-1.3243573129858488
-0.007496247603046269,-0.024997215106328158,-1.320649962004811
-0.007494457603046269,-0.021298990253744356,-1.320649962004811
-0.007492667603046269,-0.021298990253744356,-1.3243573129858488
-0.007490877603046269,-0.017600765401160557,-1.320649962004811
-0.007489087603046269,-0.021298990253744356,-1.320649962004811
-0.007487297603046269,-0.024997215106328158,-1.320649962004811
-0.007485507603046269,-0.021298990253744356,-1.3169426110237734
-0.007483717603046269,-0.028695439958911956,-1.3132352600427357
-0.007481927603046269,-0.024997215106328158,-1.3169426110237734
-0.007480137603046269,-0.024997215106328158,-1.3169426110237734
-0.007478347603046269,-0.024997215106328158,-1.320649962004811
-0.007476557603046269,-0.028695439958911956,-1.320649962004811
-0.007474767603046269,-0.024997215106328158,-1.3243573129858488
-0.007472977603046269,-0.024997215106328158,-1.320649962004811
-0.007471187603046269,-0.024997215106328158,-1.320649962004811
-0.007469397603046269,-0.021298990253744356,-1.3243573129858488
-0.007467607603046269,-0.021298990253744356,-1.320649962004811
-0.007465817603046269,-0.024997215106328158,-1.320649962004811
-0.007464027603046269,-0.024997215106328158,-1.320649962004811
-0.007462237603046269,-0.024997215106328158,-1.320649962004811
-0.007460447603046269,-0.021298990253744356,-1.3243573129858488
-0.007458657603046269,-0.024997215106328158,-1.320649962004811
-0.007456867603046269,-0.024997215106328158,-1.3169426110237734
-0.007455077603046269,-0.024997215106328158,-1.3132352600427357
-0.0074532876030462695,-0.024997215106328158,-1.320649962004811
-0.007451497603046269,-0.032393664811495755,-1.320649962004811
-0.007449707603046269,-0.024997215106328158,-1.320649962004811
-0.007447917603046269,-0.024997215106328158,-1.320649962004811
-0.0074461276030462695,-0.024997215106328158,-1.3169426110237752
-0.007444337603046269,-0.024997215106328158,-1.3169426110237734
-0.007442547603046269,-0.028695439958911956,-1.3169426110237734
-0.007440757603046269,-0.032393664811495755,-1.3169426110237734
-0.007438967603046269,-0.028695439958911956,-1.3206499620048093
-0.007437177603046269,-0.028695439958911956,-1.3169426110237734
-0.007435387603046269,-0.028695439958911956,-1.320649962004811
-0.007433597603046269,-0.032393664811495755,-1.320649962004811
-0.007431807603046269,-0.028695439958911956,-1.320649962004811
-0.007430017603046269,-0.028695439958911956,-1.320649962004811
-0.007428227603046269,-0.032393664811495755,-1.320649962004811
-0.007426437603046269,-0.024997215106328158,-1.320649962004811
-0.007424647603046269,-0.028695439958911956,-1.320649962004811
-0.007422857603046269,-0.024997215106328158,-1.320649962004811
-0.007421067603046269,-0.028695439958911956,-1.3169426110237734
-0.007419277603046269,-0.032393664811495755,-1.3132352600427357
-0.007417487603046269,-0.028695439958911956,-1.3132352600427357
-0.007415697603046269,-0.028695439958911956,-1.320649962004811
-0.007413907603046269,-0.03609188966407956,-1.320649962004811
-0.007412117603046269,-0.03979011451666335,-1.320649962004811
-0.007410327603046269,-0.032393664811495755,-1.3169426110237734
-0.007408537603046269,-0.03609188966407956,-1.3169426110237734
-0.007406747603046269,-0.032393664811495755,-1.3132352600427357
-0.007404957603046269,-0.028695439958911956,-1.320649962004811
-0.007403167603046269,-0.032393664811495755,-1.320649962004811
-0.007401377603046269,-0.028695439958911956,-1.3169426110237734
-0.007399587603046269,-0.032393664811495755,-1.3169426110237734
-0.007397797603046269,-0.032393664811495755,-1.320649962004811
-0.007396007603046269,-0.028695439958911956,-1.3169426110237734
-0.007394217603046269,-0.03609188966407956,-1.320649962004811
-0.007392427603046269,-0.032393664811495755,-1.320649962004811
-0.007390637603046269,-0.032393664811495755,-1.320649962004811
-0.007388847603046269,-0.03609188966407956,-1.320649962004811
-0.007387057603046269,-0.028695439958911956,-1.3169426110237734
-0.007385267603046269,-0.032393664811495755,-1.320649962004811
-0.0073834776030462694,-0.03609188966407956,-1.3169426110237734
-0.007381687603046269,-0.032393664811495755,-1.3169426110237734
-0.007379897603046269,-0.032393664811495755,-1.3169426110237734
-0.007378107603046269,-0.03609188966407956,-1.3169426110237734
-0.0073763176030462695,-0.03609188966407956,-1.3169426110237734
-0.007374527603046269,-0.032393664811495755,-1.3169426110237734
-0.007372737603046269,-0.032393664811495755,-1.3132352600427357
-0.007370947603046269,-0.03609188966407956,-1.320649962004811
-0.0073691576030462695,-0.03609188966407956,-1.320649962004811
-0.007367367603046269,-0.03979011451666335,-1.3243573129858488
-0.007365577603046269,-0.03979011451666335,-1.320649962004811
-0.007363787603046269,-0.03979011451666335,-1.3169426110237734
-0.007361997603046269,-0.036091889664081236,-1.3132352600427375
-0.007360207603046269,-0.03979011451666335,-1.3169426110237734
-0.007358417603046269,-0.03609188966407956,-1.3132352600427357
-0.007356627603046269,-0.03609188966407956,-1.3169426110237734
-0.007354837603046269,-0.032393664811495755,-1.3169426110237734
-0.007353047603046269,-0.032393664811495755,-1.320649962004811
-0.007351257603046269,-0.03979011451666335,-1.320649962004811
-0.007349467603046269,-0.03609188966407956,-1.3169426110237734
-0.007347677603046269,-0.03979011451666335,-1.3169426110237734
-0.007345887603046269,-0.043488339369247155,-1.3132352600427357
-0.007344097603046269,-0.03979011451666335,-1.3169426110237734
-0.007342307603046269,-0.03609188966407956,-1.3169426110237734
-0.007340517603046269,-0.03979011451666335,-1.3169426110237734
-0.007338727603046269,-0.03979011451666335,-1.3132352600427357
-0.007336937603046269,-0.03979011451666335,-1.320649962004811
-0.007335147603046269,-0.043488339369247155,-1.3169426110237734
-0.007333357603046269,-0.03979011451666335,-1.320649962004811
-0.007331567603046269,-0.03609188966407956,-1.3169426110237734
-0.007329777603046269,-0.03609188966407956,-1.3243573129858488
-0.007327987603046269,-0.03609188966407956,-1.3243573129858488
-0.007326197603046269,-0.032393664811495755,-1.320649962004811
-0.007324407603046269,-0.03979011451666335,-1.3243573129858488
-0.007322617603046269,-0.03979011451666335,-1.320649962004811
-0.007320827603046269,-0.03979011451666335,-1.3169426110237734
-0.007319037603046269,-0.04718656422183096,-1.320649962004811
-0.007317247603046269,-0.043488339369247155,-1.320649962004811
-0.007315457603046269,-0.043488339369247155,-1.320649962004811
-0.007313667603046269,-0.043488339369247155,-1.320649962004811
-0.007311877603046269,-0.043488339369247155,-1.3169426110237734
-0.007310087603046269,-0.03979011451666335,-1.320649962004811
-0.007308297603046269,-0.03979011451666335,-1.3169426110237734
-0.0073065076030462695,-0.03979011451666335,-1.320649962004811
-0.007304717603046269,-0.03979011451666335,-1.320649962004811
-0.007302927603046269,-0.03979011451666335,-1.320649962004811
-0.007301137603046269,-0.043488339369247155,-1.320649962004811
-0.0072993476030462695,-0.043488339369247155,-1.3169426110237752
-0.007297557603046269,-0.04718656422183096,-1.3169426110237734
-0.007295767603046269,-0.04718656422183096,-1.3169426110237734
-0.007293977603046269,-0.03979011451666335,-1.320649962004811
-0.007292187603046269,-0.03979011451666335,-1.320649962004811
-0.007290397603046269,-0.03979011451666335,-1.320649962004811
-0.007288607603046269,-0.04718656422183096,-1.3169426110237734
-0.007286817603046269,-0.043488339369247155,-1.3169426110237734
-0.007285027603046269,-0.043488339369245475,-1.3169426110237734
-0.007283237603046269,-0.03979011451666335,-1.3169426110237734
-0.007281447603046269,-0.043488339369247155,-1.3132352600427357
-0.007279657603046269,-0.04718656422183096,-1.320649962004811
-0.007277867603046269,-0.03979011451666335,-1.3169426110237734
-0.007276077603046269,-0.04718656422183096,-1.3169426110237734
-0.007274287603046269,-0.03979011451666335,-1.3169426110237734
-0.007272497603046269,-0.04718656422183096,-1.3169426110237734
-0.007270707603046269,-0.043488339369247155,-1.320649962004811
-0.007268917603046269,-0.043488339369247155,-1.320649962004811
-0.007267127603046269,-0.043488339369247155,-1.320649962004811
-0.007265337603046269,-0.043488339369247155,-1.320649962004811
-0.007263547603046269,-0.03609188966407956,-1.3169426110237734
-0.007261757603046269,-0.043488339369247155,-1.3169426110237734
-0.007259967603046269,-0.043488339369247155,-1.320649962004811
-0.007258177603046269,-0.03979011451666335,-1.320649962004811
-0.007256387603046269,-0.043488339369247155,-1.320649962004811
-0.007254597603046269,-0.043488339369247155,-1.3169426110237734
-0.007252807603046269,-0.043488339369247155,-1.3169426110237734
-0.007251017603046269,-0.04718656422183096,-1.3169426110237734
-0.007249227603046269,-0.04718656422183096,-1.3169426110237734
-0.007247437603046269,-0.04718656422183096,-1.3243573129858488
-0.007245647603046269,-0.043488339369247155,-1.320649962004811
-0.007243857603046269,-0.05088478907441475,-1.320649962004811
-0.007242067603046269,-0.05088478907441475,-1.3243573129858488
-0.007240277603046269,-0.05088478907441475,-1.3243573129858488
-0.007238487603046269,-0.05088478907441475,-1.320649962004811
-0.0072366976030462694,-0.05088478907441475,-1.3169426110237734
-0.007234907603046269,-0.04718656422183096,-1.3132352600427357
-0.007233117603046269,-0.04718656422183096,-1.3243573129858488
-0.007231327603046269,-0.05088478907441475,-1.320649962004811
-0.0072295376030462695,-0.043488339369247155,-1.320649962004811
-0.007227747603046269,-0.043488339369247155,-1.3169426110237734
-0.007225957603046269,-0.04718656422183096,-1.3169426110237734
-0.007224167603046269,-0.05088478907441475,-1.3243573129858488
-0.0072223776030462695,-0.05088478907441475,-1.3280646639668847
-0.007220587603046269,-0.05088478907441475,-1.320649962004811
-0.007218797603046269,-0.054583013926998554,-1.320649962004811
-0.007217007603046269,-0.05088478907441475,-1.3132352600427357
-0.007215217603046269,-0.050884789074411386,-1.3169426110237734
-0.007213427603046269,-0.043488339369247155,-1.3169426110237734
-0.007211637603046269,-0.05088478907441475,-1.3132352600427357
-0.007209847603046269,-0.04718656422183096,-1.3132352600427357
-0.007208057603046269,-0.05088478907441475,-1.3169426110237734
-0.007206267603046269,-0.05088478907441475,-1.3169426110237734
-0.007204477603046269,-0.05088478907441475,-1.3169426110237734
-0.007202687603046269,-0.054583013926998554,-1.320649962004811
-0.007200897603046269,-0.05088478907441475,-1.320649962004811
-0.007199107603046269,-0.043488339369247155,-1.320649962004811
-0.007197317603046269,-0.05088478907441475,-1.3169426110237734
-0.007195527603046269,-0.04718656422183096,-1.320649962004811
-0.007193737603046269,-0.054583013926998554,-1.320649962004811
-0.007191947603046269,-0.05088478907441475,-1.320649962004811
-0.007190157603046269,-0.04718656422183096,-1.3169426110237734
