100Hz/acq0048.csv

#Digilent WaveForms Oscilloscope Acquisition
#Device Name: Discovery2
#Serial Number: SN:210321AA28BE
#Date Time: 2023-05-24 14:48:31.615
#Sample rate: 558659Hz
#Samples: 8192
#Trigger: Source: Channel 1 Type: Edge Condition: Rising Level: 800 mV Hyst.: Auto HoldOff: 100 ns
#Channel 1: Range: 1 V/div Offset: 0 V Attenuation: 1 X Sample Mode: Average
#Channel 2: Range: 1 V/div Offset: 0 V Attenuation: 1 X Sample Mode: Average

Time (s),Channel 1 (V),Channel 2 (V)
-0.0077413496037164135,0.05636373165051543,-1.320649962004811
-0.007739559603716414,0.05636373165051543,-1.320649962004811
-0.007737769603716413,0.05266550679793163,-1.320649962004811
-0.007735979603716413,0.05636373165051543,-1.320649962004811
-0.0077341896037164135,0.05636373165051543,-1.3169426110237734
-0.007732399603716413,0.05636373165051207,-1.3206499620048093
-0.007730609603716413,0.048967281945347836,-1.3169426110237734
-0.007728819603716413,0.05266550679793163,-1.3132352600427357
-0.0077270296037164135,0.05266550679793163,-1.320649962004811
-0.007725239603716413,0.05266550679793163,-1.3169426110237734
-0.007723449603716413,0.05636373165051543,-1.3169426110237734
-0.007721659603716413,0.05266550679793163,-1.320649962004811
-0.0077198696037164135,0.05266550679793163,-1.3132352600427357
-0.007718079603716413,0.05266550679793163,-1.3169426110237734
-0.007716289603716413,0.045269057092764034,-1.3169426110237734
-0.007714499603716413,0.048967281945347836,-1.3169426110237734
-0.0077127096037164136,0.048967281945347836,-1.320649962004811
-0.007710919603716413,0.05266550679793163,-1.3169426110237734
-0.007709129603716413,0.045269057092764034,-1.320649962004811
-0.007707339603716413,0.05266550679793163,-1.3243573129858488
-0.007705549603716414,0.045269057092764034,-1.320649962004811
-0.007703759603716413,0.045269057092764034,-1.320649962004811
-0.007701969603716413,0.05266550679793163,-1.320649962004811
-0.007700179603716413,0.048967281945347836,-1.3243573129858488
-0.007698389603716414,0.04157083224018024,-1.320649962004811
-0.007696599603716413,0.045269057092764034,-1.3169426110237734
-0.007694809603716413,0.045269057092764034,-1.320649962004811
-0.007693019603716413,0.045269057092764034,-1.3243573129858488
-0.007691229603716414,0.048967281945347836,-1.3243573129858488
-0.007689439603716413,0.045269057092764034,-1.3169426110237734
-0.007687649603716413,0.045269057092764034,-1.3132352600427357
-0.007685859603716413,0.04157083224018024,-1.320649962004811
-0.007684069603716414,0.045269057092764034,-1.320649962004811
-0.007682279603716413,0.045269057092764034,-1.320649962004811
-0.007680489603716413,0.048967281945347836,-1.320649962004811
-0.0076786996037164134,0.048967281945347836,-1.320649962004811
-0.007676909603716414,0.045269057092764034,-1.3243573129858488
-0.007675119603716413,0.045269057092764034,-1.3243573129858488
-0.007673329603716413,0.048967281945347836,-1.320649962004811
-0.0076715396037164135,0.045269057092764034,-1.320649962004811
-0.007669749603716414,0.045269057092764034,-1.320649962004811
-0.007667959603716413,0.04157083224018024,-1.320649962004811
-0.007666169603716413,0.04157083224018024,-1.320649962004811
-0.0076643796037164135,0.045269057092764034,-1.320649962004811
-0.007662589603716413,0.045269057092762355,-1.324357312985847
-0.007660799603716413,0.04157083224018024,-1.320649962004811
-0.007659009603716413,0.045269057092764034,-1.320649962004811
-0.0076572196037164135,0.045269057092764034,-1.320649962004811
-0.007655429603716413,0.04157083224017856,-1.3169426110237752
-0.007653639603716413,0.03787260738759644,-1.320649962004811
-0.007651849603716413,0.03787260738759644,-1.3169426110237734
-0.0076500596037164135,0.04157083224018024,-1.3169426110237734
-0.007648269603716413,0.03787260738759644,-1.3243573129858488
-0.007646479603716413,0.03787260738759644,-1.3243573129858488
-0.007644689603716413,0.03787260738759644,-1.320649962004811
-0.0076428996037164135,0.04157083224018024,-1.3243573129858488
-0.007641109603716413,0.04157083224018024,-1.320649962004811
-0.007639319603716413,0.045269057092764034,-1.320649962004811
-0.007637529603716413,0.03787260738759644,-1.3169426110237734
-0.0076357396037164136,0.04157083224018024,-1.3132352600427357
-0.007633949603716413,0.03787260738759644,-1.320649962004811
-0.007632159603716413,0.034174382535012635,-1.3169426110237734
-0.007630369603716413,0.03787260738759644,-1.3169426110237734
-0.007628579603716414,0.03047615768242884,-1.3169426110237734
-0.007626789603716413,0.03047615768242884,-1.320649962004811
-0.007624999603716413,0.034174382535012635,-1.320649962004811
-0.007623209603716413,0.026777932829845037,-1.3169426110237734
-0.007621419603716414,0.034174382535012635,-1.3169426110237734
-0.007619629603716413,0.034174382535012635,-1.320649962004811
-0.007617839603716413,0.03047615768242884,-1.320649962004811
-0.007616049603716413,0.034174382535012635,-1.320649962004811
-0.007614259603716414,0.03047615768242884,-1.320649962004811
-0.007612469603716413,0.034174382535012635,-1.3169426110237734
-0.007610679603716413,0.03787260738759644,-1.320649962004811
-0.007608889603716413,0.03047615768242884,-1.3169426110237734
-0.007607099603716414,0.03047615768242884,-1.320649962004811
-0.007605309603716413,0.034174382535012635,-1.3169426110237734
-0.007603519603716413,0.03787260738759644,-1.320649962004811
-0.0076017296037164134,0.03047615768242884,-1.320649962004811
-0.007599939603716414,0.03787260738759644,-1.320649962004811
-0.007598149603716413,0.03047615768242884,-1.320649962004811
-0.007596359603716413,0.034174382535012635,-1.3169426110237734
-0.0075945696037164135,0.03047615768242884,-1.3169426110237734
-0.007592779603716414,0.03047615768242884,-1.3206499620048093
-0.007590989603716413,0.034174382535012635,-1.3169426110237734
-0.007589199603716413,0.03047615768242884,-1.3169426110237734
-0.0075874096037164135,0.03047615768242884,-1.320649962004811
-0.007585619603716413,0.034174382535010955,-1.320649962004811
-0.007583829603716413,0.03047615768242884,-1.320649962004811
-0.007582039603716413,0.026777932829845037,-1.320649962004811
-0.0075802496037164135,0.02307970797726124,-1.3243573129858488
-0.007578459603716413,0.026777932829845037,-1.320649962004811
-0.007576669603716413,0.026777932829845037,-1.3169426110237734
-0.007574879603716413,0.026777932829845037,-1.3169426110237734
-0.0075730896037164135,0.03047615768242884,-1.320649962004811
-0.007571299603716413,0.03047615768242884,-1.3243573129858488
-0.007569509603716413,0.03047615768242884,-1.3243573129858488
-0.007567719603716413,0.02307970797726124,-1.320649962004811
-0.0075659296037164135,0.02307970797726124,-1.3169426110237734
-0.007564139603716413,0.01938148312467744,-1.320649962004811
-0.007562349603716413,0.01938148312467744,-1.3243573129858488
-0.007560559603716413,0.01938148312467744,-1.3243573129858488
-0.007558769603716414,0.015683258272093638,-1.3169426110237734
-0.007556979603716413,0.01938148312467744,-1.320649962004811
-0.007555189603716413,0.02307970797726124,-1.3243573129858488
-0.007553399603716413,0.015683258272093638,-1.320649962004811
-0.007551609603716414,0.01938148312467744,-1.320649962004811
-0.007549819603716413,0.015683258272093638,-1.320649962004811
-0.007548029603716413,0.02307970797726124,-1.320649962004811
-0.007546239603716413,0.02307970797726124,-1.320649962004811
-0.007544449603716414,0.015683258272093638,-1.3169426110237734
-0.007542659603716413,0.015683258272093638,-1.3169426110237734
-0.007540869603716413,0.01938148312467744,-1.320649962004811
-0.007539079603716413,0.01938148312467744,-1.320649962004811
-0.007537289603716414,0.02307970797726124,-1.320649962004811
-0.007535499603716413,0.02307970797726124,-1.320649962004811
-0.007533709603716413,0.026777932829845037,-1.3169426110237734
-0.007531919603716413,0.015683258272093638,-1.320649962004811
-0.007530129603716414,0.02307970797726124,-1.320649962004811
-0.007528339603716413,0.015683258272093638,-1.320649962004811
-0.007526549603716413,0.02307970797726124,-1.3169426110237734
-0.0075247596037164135,0.01938148312467744,-1.320649962004811
-0.007522969603716414,0.01938148312467744,-1.320649962004811
-0.007521179603716413,0.015683258272093638,-1.320649962004811
-0.007519389603716413,0.01198503341950984,-1.320649962004811
-0.0075175996037164135,0.015683258272093638,-1.3243573129858488
-0.007515809603716414,0.015683258272093638,-1.3243573129858488
-0.007514019603716413,0.01938148312467744,-1.3169426110237734
-0.007512229603716413,0.015683258272093638,-1.320649962004811
-0.0075104396037164135,0.015683258272093638,-1.320649962004811
-0.007508649603716413,0.019381483124675757,-1.3169426110237767
-0.007506859603716413,0.015683258272093638,-1.3243573129858488
-0.007505069603716413,0.015683258272093638,-1.3169426110237734
-0.0075032796037164135,0.01938148312467744,-1.320649962004811
-0.007501489603716413,0.015683258272093638,-1.3243573129858488
-0.007499699603716413,0.01938148312467744,-1.320649962004811
-0.007497909603716413,0.01938148312467744,-1.320649962004811
-0.0074961196037164135,0.015683258272093638,-1.320649962004811
-0.007494329603716413,0.015683258272093638,-1.3169426110237734
-0.007492539603716413,0.015683258272093638,-1.3169426110237734
-0.007490749603716413,0.01198503341950984,-1.3169426110237734
-0.0074889596037164136,0.015683258272093638,-1.320649962004811
-0.007487169603716413,0.00458858371434224,-1.3169426110237734
-0.007485379603716413,0.00828680856692604,-1.320649962004811
-0.007483589603716413,0.01198503341950984,-1.3169426110237734
-0.007481799603716414,0.015683258272093638,-1.320649962004811
-0.007480009603716413,0.00828680856692604,-1.3169426110237734
-0.007478219603716413,0.01198503341950984,-1.320649962004811
-0.007476429603716413,0.015683258272093638,-1.320649962004811
-0.007474639603716414,0.01198503341950984,-1.320649962004811
-0.007472849603716413,0.01198503341950984,-1.3243573129858488
-0.007471059603716413,0.015683258272093638,-1.3169426110237734
-0.007469269603716413,0.01198503341950984,-1.3169426110237734
-0.007467479603716414,0.01198503341950984,-1.320649962004811
-0.007465689603716413,0.01938148312467744,-1.320649962004811
-0.007463899603716413,0.015683258272093638,-1.3169426110237734
-0.007462109603716413,0.00828680856692604,-1.3169426110237734
-0.007460319603716414,0.00828680856692604,-1.320649962004811
-0.007458529603716413,0.00458858371434224,-1.3169426110237734
-0.007456739603716413,0.01198503341950984,-1.3169426110237734
-0.0074549496037164134,0.00828680856692604,-1.320649962004811
-0.007453159603716414,0.00828680856692604,-1.320649962004811
-0.007451369603716413,0.00828680856692604,-1.320649962004811
-0.007449579603716413,0.00828680856692604,-1.3169426110237734
-0.0074477896037164135,0.01198503341950984,-1.3132352600427357
-0.007445999603716414,0.008286808566927723,-1.3206499620048078
-0.007444209603716413,0.015683258272093638,-1.3169426110237734
-0.007442419603716413,0.00828680856692604,-1.3169426110237734
-0.0074406296037164135,0.00458858371434224,-1.320649962004811
-0.007438839603716413,0.004588583714343922,-1.320649962004811
-0.007437049603716413,0.00828680856692604,-1.320649962004811
-0.007435259603716413,0.00458858371434224,-1.320649962004811
-0.0074334696037164135,0.00458858371434224,-1.3243573129858488
-0.007431679603716413,0.0008903588617584406,-1.3243573129858488
-0.007429889603716413,0.00828680856692604,-1.320649962004811
-0.007428099603716413,0.00458858371434224,-1.3169426110237734
-0.0074263096037164135,0.0008903588617584406,-1.320649962004811
-0.007424519603716413,0.0008903588617584406,-1.3169426110237734
-0.007422729603716413,0.0008903588617584406,-1.3169426110237734
-0.007420939603716413,0.00458858371434224,-1.3169426110237734
-0.0074191496037164135,0.00458858371434224,-1.3169426110237734
-0.007417359603716413,0.00458858371434224,-1.3169426110237734
-0.007415569603716413,0.0008903588617584406,-1.320649962004811
-0.007413779603716413,0.0008903588617584406,-1.320649962004811
-0.007411989603716414,0.00458858371434224,-1.320649962004811
-0.007410199603716413,0.00458858371434224,-1.320649962004811
-0.007408409603716413,0.00828680856692604,-1.320649962004811
-0.007406619603716413,0.00458858371434224,-1.3169426110237734
-0.007404829603716414,0.0008903588617584406,-1.320649962004811
-0.007403039603716413,0.00458858371434224,-1.320649962004811
-0.007401249603716413,0.0008903588617584406,-1.320649962004811
-0.007399459603716413,-0.002807865990825359,-1.3243573129858488
-0.007397669603716414,0.0008903588617584406,-1.320649962004811
-0.007395879603716413,0.00458858371434224,-1.320649962004811
-0.007394089603716413,-0.002807865990825359,-1.3243573129858488
-0.007392299603716413,0.0008903588617584406,-1.3243573129858488
-0.007390509603716414,-0.002807865990825359,-1.320649962004811
-0.007388719603716413,-0.0065060908434091584,-1.320649962004811
-0.007386929603716413,-0.002807865990825359,-1.320649962004811
-0.007385139603716413,-0.002807865990825359,-1.320649962004811
-0.007383349603716414,-0.002807865990825359,-1.320649962004811
-0.007381559603716413,-0.002807865990825359,-1.320649962004811
-0.007379769603716413,0.0008903588617584406,-1.320649962004811
-0.0073779796037164135,-0.002807865990825359,-1.3169426110237734
-0.007376189603716414,-0.002807865990825359,-1.320649962004811
-0.007374399603716413,-0.002807865990825359,-1.3169426110237734
-0.007372609603716413,-0.002807865990825359,-1.3169426110237734
-0.0073708196037164135,0.0008903588617584406,-1.320649962004811
-0.007369029603716414,-0.002807865990823677,-1.320649962004811
-0.007367239603716413,0.0008903588617584406,-1.3169426110237734
-0.007365449603716413,-0.0065060908434091584,-1.320649962004811
-0.0073636596037164135,-0.002807865990825359,-1.320649962004811
-0.007361869603716413,-0.0028078659908270407,-1.3169426110237734
-0.007360079603716413,-0.0065060908434091584,-1.3169426110237734
-0.007358289603716413,-0.010204315695992958,-1.3169426110237734
-0.0073564996037164135,-0.002807865990825359,-1.3169426110237734
-0.007354709603716413,-0.002807865990825359,-1.320649962004811
-0.007352919603716413,-0.0065060908434091584,-1.3169426110237734
-0.007351129603716413,-0.0065060908434091584,-1.320649962004811
-0.0073493396037164135,-0.0065060908434091584,-1.3169426110237734
-0.007347549603716413,-0.002807865990825359,-1.3243573129858488
-0.007345759603716413,-0.002807865990825359,-1.320649962004811
-0.007343969603716413,-0.002807865990825359,-1.320649962004811
-0.0073421796037164136,0.00458858371434224,-1.3169426110237734
-0.007340389603716413,-0.002807865990825359,-1.320649962004811
-0.007338599603716413,-0.0065060908434091584,-1.3169426110237734
-0.007336809603716413,0.0008903588617584406,-1.3243573129858488
-0.007335019603716414,-0.002807865990825359,-1.3243573129858488
-0.007333229603716413,-0.0065060908434091584,-1.3243573129858488
-0.007331439603716413,-0.0065060908434091584,-1.320649962004811
-0.007329649603716413,-0.002807865990825359,-1.320649962004811
-0.007327859603716414,-0.0065060908434091584,-1.320649962004811
-0.007326069603716413,-0.002807865990825359,-1.320649962004811
-0.007324279603716413,-0.010204315695992958,-1.3243573129858488
-0.007322489603716413,-0.010204315695992958,-1.320649962004811
-0.007320699603716414,-0.0065060908434091584,-1.3169426110237734
-0.007318909603716413,-0.010204315695992958,-1.3169426110237734
-0.007317119603716413,-0.0065060908434091584,-1.3169426110237734
-0.007315329603716413,-0.002807865990825359,-1.3169426110237734
-0.007313539603716414,-0.002807865990825359,-1.320649962004811
-0.007311749603716413,-0.002807865990825359,-1.320649962004811
-0.007309959603716413,-0.010204315695992958,-1.3243573129858488
-0.0073081696037164134,-0.0065060908434091584,-1.320649962004811
-0.007306379603716414,-0.010204315695992958,-1.3169426110237734
-0.007304589603716413,-0.0065060908434091584,-1.320649962004811
-0.007302799603716413,-0.010204315695992958,-1.3169426110237734
-0.0073010096037164135,-0.0065060908434091584,-1.320649962004811
-0.007299219603716414,-0.010204315695991277,-1.3169426110237752
-0.007297429603716413,-0.013902540548576758,-1.320649962004811
-0.007295639603716413,-0.013902540548576758,-1.3243573129858488
-0.0072938496037164135,-0.013902540548576758,-1.3169426110237734
-0.007292059603716413,-0.010204315695994639,-1.320649962004811
-0.007290269603716413,-0.013902540548576758,-1.320649962004811
-0.007288479603716413,-0.013902540548576758,-1.320649962004811
-0.0072866896037164135,-0.010204315695992958,-1.320649962004811
-0.007284899603716413,-0.006506090843412522,-1.320649962004811
-0.007283109603716413,-0.013902540548576758,-1.320649962004811
-0.007281319603716413,-0.013902540548576758,-1.3169426110237734
-0.0072795296037164135,-0.0065060908434091584,-1.3132352600427357
-0.007277739603716413,-0.010204315695992958,-1.3169426110237734
-0.007275949603716413,-0.010204315695992958,-1.320649962004811
-0.007274159603716413,-0.010204315695992958,-1.320649962004811
-0.0072723696037164135,-0.013902540548576758,-1.320649962004811
-0.007270579603716413,-0.013902540548576758,-1.320649962004811
-0.007268789603716413,-0.010204315695992958,-1.3243573129858488
-0.007266999603716413,-0.010204315695992958,-1.3169426110237734
-0.007265209603716414,-0.013902540548576758,-1.3169426110237734
-0.007263419603716413,-0.013902540548576758,-1.320649962004811
-0.007261629603716413,-0.013902540548576758,-1.320649962004811
-0.007259839603716413,-0.017600765401160557,-1.320649962004811
-0.007258049603716414,-0.013902540548576758,-1.3169426110237734
-0.007256259603716413,-0.013902540548576758,-1.3169426110237734
-0.007254469603716413,-0.013902540548576758,-1.320649962004811
-0.007252679603716413,-0.017600765401160557,-1.3169426110237734
-0.007250889603716414,-0.017600765401160557,-1.320649962004811
-0.007249099603716413,-0.013902540548576758,-1.3243573129858488
-0.007247309603716413,-0.017600765401160557,-1.320649962004811
-0.007245519603716413,-0.010204315695992958,-1.320649962004811
-0.007243729603716414,-0.010204315695992958,-1.3243573129858488
-0.007241939603716413,-0.013902540548576758,-1.3169426110237734
-0.007240149603716413,-0.013902540548576758,-1.3169426110237734
-0.007238359603716413,-0.013902540548576758,-1.3169426110237734
-0.007236569603716414,-0.017600765401160557,-1.320649962004811
-0.007234779603716413,-0.010204315695992958,-1.320649962004811
-0.007232989603716413,-0.013902540548576758,-1.3169426110237734
-0.0072311996037164135,-0.017600765401160557,-1.320649962004811
-0.007229409603716414,-0.021298990253744356,-1.3243573129858488
-0.007227619603716413,-0.024997215106328158,-1.320649962004811
-0.007225829603716413,-0.017600765401160557,-1.3243573129858488
-0.0072240396037164135,-0.024997215106328158,-1.320649962004811
-0.007222249603716414,-0.01760076540116392,-1.320649962004811
-0.007220459603716413,-0.017600765401160557,-1.3169426110237734
-0.007218669603716413,-0.021298990253744356,-1.320649962004811
-0.0072168796037164135,-0.017600765401160557,-1.320649962004811
-0.007215089603716413,-0.021298990253740994,-1.3169426110237734
-0.007213299603716413,-0.013902540548576758,-1.3169426110237734
-0.007211509603716413,-0.017600765401160557,-1.320649962004811
-0.0072097196037164135,-0.017600765401160557,-1.320649962004811
-0.007207929603716413,-0.017600765401160557,-1.320649962004811
-0.007206139603716413,-0.017600765401160557,-1.320649962004811
-0.007204349603716413,-0.017600765401160557,-1.320649962004811
-0.0072025596037164135,-0.021298990253744356,-1.320649962004811
-0.007200769603716413,-0.017600765401160557,-1.3169426110237734
-0.007198979603716413,-0.021298990253744356,-1.320649962004811
-0.007197189603716413,-0.021298990253744356,-1.3132352600427357
-0.0071953996037164136,-0.021298990253744356,-1.3169426110237734
-0.007193609603716413,-0.017600765401160557,-1.3169426110237734
-0.007191819603716413,-0.028695439958911956,-1.3169426110237734
-0.007190029603716413,-0.024997215106328158,-1.3169426110237734
-0.007188239603716414,-0.021298990253744356,-1.320649962004811
-0.007186449603716413,-0.024997215106328158,-1.320649962004811
