100Hz/acq0002.csv

#Digilent WaveForms Oscilloscope Acquisition
#Device Name: Discovery2
#Serial Number: SN:210321AA28BE
#Date Time: 2023-05-24 14:48:30.281
#Sample rate: 558659Hz
#Samples: 8192
#Trigger: Source: Channel 1 Type: Edge Condition: Rising Level: 800 mV Hyst.: Auto HoldOff: 100 ns
#Channel 1: Range: 1 V/div Offset: 0 V Attenuation: 1 X Sample Mode: Average
#Channel 2: Range: 1 V/div Offset: 0 V Attenuation: 1 X Sample Mode: Average

Time (s),Channel 1 (V),Channel 2 (V)
-0.007741356594743898,0.015683258272093638,-1.3132352600427357
-0.007739566594743898,0.008286808566929404,-1.3206499620048078
-0.007737776594743897,0.015683258272093638,-1.3169426110237734
-0.007735986594743898,0.01198503341950984,-1.3169426110237734
-0.007734196594743898,0.01198503341950984,-1.320649962004811
-0.007732406594743897,0.008286808566929404,-1.3169426110237734
-0.007730616594743897,0.015683258272093638,-1.3169426110237734
-0.007728826594743898,0.01198503341950984,-1.3169426110237734
-0.007727036594743898,0.01198503341950984,-1.3169426110237734
-0.007725246594743897,0.00828680856692604,-1.3132352600427357
-0.007723456594743897,0.01198503341950984,-1.3169426110237734
-0.007721666594743898,0.01198503341950984,-1.3169426110237734
-0.007719876594743898,0.00828680856692604,-1.3169426110237734
-0.007718086594743897,0.00458858371434224,-1.320649962004811
-0.0077162965947438975,0.01198503341950984,-1.3169426110237734
-0.007714506594743898,0.00828680856692604,-1.3169426110237734
-0.007712716594743898,0.00828680856692604,-1.3169426110237734
-0.007710926594743897,0.00828680856692604,-1.3169426110237734
-0.0077091365947438975,0.00828680856692604,-1.320649962004811
-0.007707346594743898,0.00458858371434224,-1.320649962004811
-0.007705556594743898,0.00458858371434224,-1.3169426110237734
-0.007703766594743897,0.00458858371434224,-1.3132352600427357
-0.0077019765947438975,0.00458858371434224,-1.3132352600427357
-0.007700186594743898,0.00828680856692604,-1.3169426110237734
-0.007698396594743898,0.01198503341950984,-1.3169426110237734
-0.007696606594743897,0.01198503341950984,-1.3169426110237734
-0.0076948165947438975,0.01198503341950984,-1.320649962004811
-0.007693026594743898,0.01198503341950984,-1.3169426110237734
-0.007691236594743898,0.01198503341950984,-1.320649962004811
-0.007689446594743897,0.00828680856692604,-1.320649962004811
-0.0076876565947438975,0.00458858371434224,-1.3169426110237734
-0.007685866594743898,0.00828680856692604,-1.3169426110237734
-0.007684076594743898,0.00828680856692604,-1.3169426110237734
-0.007682286594743897,0.00828680856692604,-1.320649962004811
-0.0076804965947438976,0.00828680856692604,-1.3169426110237734
-0.007678706594743898,-0.002807865990825359,-1.320649962004811
-0.007676916594743898,0.0008903588617584406,-1.320649962004811
-0.007675126594743897,0.00458858371434224,-1.320649962004811
-0.007673336594743898,-0.002807865990825359,-1.320649962004811
-0.007671546594743898,0.00458858371434224,-1.3243573129858488
-0.007669756594743898,-0.0028078659908219953,-1.3169426110237767
-0.007667966594743897,0.0008903588617584406,-1.3132352600427357
-0.007666176594743898,0.0008903588617584406,-1.320649962004811
-0.007664386594743898,-0.0065060908434091584,-1.3169426110237734
-0.007662596594743897,-0.002807865990825359,-1.3132352600427375
-0.007660806594743897,-0.002807865990825359,-1.3169426110237734
-0.007659016594743898,-0.002807865990825359,-1.3169426110237734
-0.007657226594743898,-0.0065060908434091584,-1.3132352600427357
-0.007655436594743897,-0.0028078659908270407,-1.3169426110237734
-0.007653646594743897,-0.0065060908434091584,-1.3169426110237734
-0.007651856594743898,-0.0065060908434091584,-1.320649962004811
-0.007650066594743898,-0.0065060908434091584,-1.3169426110237734
-0.007648276594743897,-0.0065060908434091584,-1.3169426110237734
-0.0076464865947438974,-0.002807865990825359,-1.3132352600427357
-0.007644696594743898,-0.0065060908434091584,-1.3169426110237734
-0.007642906594743898,-0.002807865990825359,-1.3132352600427357
-0.007641116594743897,-0.0065060908434091584,-1.3132352600427357
-0.0076393265947438975,-0.0065060908434091584,-1.3169426110237734
-0.007637536594743898,-0.0065060908434091584,-1.309527909061698
-0.007635746594743898,-0.0065060908434091584,-1.3169426110237734
-0.007633956594743897,-0.010204315695992958,-1.3169426110237734
-0.0076321665947438975,-0.002807865990825359,-1.320649962004811
-0.007630376594743898,-0.010204315695992958,-1.320649962004811
-0.007628586594743898,-0.010204315695992958,-1.3169426110237734
-0.007626796594743897,-0.0065060908434091584,-1.3169426110237734
-0.0076250065947438975,-0.0065060908434091584,-1.320649962004811
-0.007623216594743898,-0.0065060908434091584,-1.3169426110237734
-0.007621426594743898,-0.0065060908434091584,-1.3169426110237734
-0.007619636594743897,-0.010204315695992958,-1.3169426110237734
-0.0076178465947438975,-0.013902540548576758,-1.3132352600427357
-0.007616056594743898,-0.010204315695992958,-1.3169426110237734
-0.007614266594743898,-0.010204315695992958,-1.320649962004811
-0.007612476594743897,-0.010204315695992958,-1.320649962004811
-0.0076106865947438975,-0.013902540548576758,-1.320649962004811
-0.007608896594743898,-0.013902540548576758,-1.320649962004811
-0.007607106594743898,-0.010204315695992958,-1.3169426110237734
-0.007605316594743897,-0.013902540548576758,-1.320649962004811
-0.007603526594743898,-0.010204315695992958,-1.3132352600427357
-0.007601736594743898,-0.017600765401160557,-1.3132352600427357
-0.007599946594743898,-0.021298990253744356,-1.3132352600427357
-0.007598156594743897,-0.013902540548576758,-1.309527909061698
-0.007596366594743898,-0.013902540548576758,-1.3132352600427357
-0.007594576594743898,-0.013902540548576758,-1.3169426110237734
-0.007592786594743898,-0.010204315695994639,-1.3206499620048093
-0.007590996594743897,-0.021298990253744356,-1.3169426110237734
-0.007589206594743898,-0.017600765401160557,-1.3169426110237734
-0.007587416594743898,-0.021298990253744356,-1.320649962004811
-0.007585626594743897,-0.017600765401160557,-1.3169426110237752
-0.007583836594743897,-0.017600765401160557,-1.320649962004811
-0.007582046594743898,-0.013902540548576758,-1.3132352600427357
-0.007580256594743898,-0.021298990253744356,-1.3169426110237734
-0.007578466594743897,-0.017600765401160557,-1.320649962004811
-0.007576676594743897,-0.017600765401160557,-1.320649962004811
-0.007574886594743898,-0.017600765401160557,-1.320649962004811
-0.007573096594743898,-0.013902540548576758,-1.3169426110237734
-0.007571306594743897,-0.017600765401160557,-1.320649962004811
-0.0075695165947438975,-0.024997215106328158,-1.3169426110237734
-0.007567726594743898,-0.017600765401160557,-1.3132352600427357
-0.007565936594743898,-0.013902540548576758,-1.3169426110237734
-0.007564146594743897,-0.017600765401160557,-1.3132352600427357
-0.0075623565947438975,-0.021298990253744356,-1.3169426110237734
-0.007560566594743898,-0.021298990253744356,-1.309527909061698
-0.007558776594743898,-0.013902540548576758,-1.309527909061698
-0.007556986594743897,-0.013902540548576758,-1.3169426110237734
-0.0075551965947438975,-0.021298990253744356,-1.3169426110237734
-0.007553406594743898,-0.013902540548576758,-1.3169426110237734
-0.007551616594743898,-0.021298990253744356,-1.3132352600427357
-0.007549826594743897,-0.021298990253744356,-1.3132352600427357
-0.0075480365947438975,-0.013902540548576758,-1.3169426110237734
-0.007546246594743898,-0.024997215106328158,-1.3169426110237734
-0.007544456594743898,-0.021298990253744356,-1.320649962004811
-0.007542666594743897,-0.021298990253744356,-1.320649962004811
-0.0075408765947438975,-0.024997215106328158,-1.3169426110237734
-0.007539086594743898,-0.021298990253744356,-1.3169426110237734
-0.007537296594743898,-0.021298990253744356,-1.3169426110237734
-0.007535506594743897,-0.024997215106328158,-1.3169426110237734
-0.0075337165947438976,-0.017600765401160557,-1.3169426110237734
-0.007531926594743898,-0.024997215106328158,-1.3169426110237734
-0.007530136594743898,-0.028695439958911956,-1.3169426110237734
-0.007528346594743897,-0.021298990253744356,-1.3169426110237734
-0.007526556594743898,-0.021298990253744356,-1.3169426110237734
-0.007524766594743898,-0.028695439958911956,-1.3132352600427357
-0.007522976594743898,-0.02129899025374772,-1.3132352600427357
-0.007521186594743897,-0.028695439958911956,-1.3132352600427357
-0.007519396594743898,-0.024997215106328158,-1.3132352600427357
-0.007517606594743898,-0.024997215106328158,-1.3169426110237734
-0.007515816594743898,-0.028695439958910274,-1.3169426110237734
-0.007514026594743897,-0.024997215106328158,-1.3169426110237734
-0.007512236594743898,-0.028695439958911956,-1.3169426110237734
-0.007510446594743898,-0.024997215106328158,-1.3169426110237734
-0.007508656594743897,-0.028695439958911956,-1.3169426110237734
-0.007506866594743897,-0.028695439958911956,-1.3169426110237734
-0.007505076594743898,-0.032393664811495755,-1.3169426110237734
-0.007503286594743898,-0.024997215106328158,-1.3169426110237734
-0.007501496594743897,-0.021298990253744356,-1.3169426110237734
-0.0074997065947438974,-0.021298990253744356,-1.3132352600427357
-0.007497916594743898,-0.024997215106328158,-1.3132352600427357
-0.007496126594743898,-0.021298990253744356,-1.320649962004811
-0.007494336594743897,-0.021298990253744356,-1.3132352600427357
-0.0074925465947438975,-0.021298990253744356,-1.3132352600427357
-0.007490756594743898,-0.021298990253744356,-1.3169426110237734
-0.007488966594743898,-0.021298990253744356,-1.3132352600427357
-0.007487176594743897,-0.024997215106328158,-1.3169426110237734
-0.0074853865947438975,-0.021298990253744356,-1.3132352600427357
-0.007483596594743898,-0.021298990253744356,-1.3132352600427357
-0.007481806594743898,-0.024997215106328158,-1.3169426110237734
-0.007480016594743897,-0.028695439958911956,-1.320649962004811
-0.0074782265947438975,-0.028695439958911956,-1.3169426110237734
-0.007476436594743898,-0.032393664811495755,-1.3132352600427357
-0.007474646594743898,-0.024997215106328158,-1.3169426110237734
-0.007472856594743897,-0.028695439958911956,-1.3169426110237734
-0.0074710665947438975,-0.028695439958911956,-1.320649962004811
-0.007469276594743898,-0.028695439958911956,-1.320649962004811
-0.007467486594743898,-0.024997215106328158,-1.3132352600427357
-0.007465696594743897,-0.024997215106328158,-1.3132352600427357
-0.0074639065947438975,-0.028695439958911956,-1.3169426110237734
-0.007462116594743898,-0.032393664811495755,-1.3169426110237734
-0.007460326594743898,-0.032393664811495755,-1.320649962004811
-0.007458536594743897,-0.024997215106328158,-1.3169426110237734
-0.007456746594743898,-0.03609188966407956,-1.320649962004811
-0.007454956594743898,-0.032393664811495755,-1.3169426110237734
-0.007453166594743898,-0.03609188966407956,-1.320649962004811
-0.007451376594743897,-0.03979011451666335,-1.3132352600427357
-0.007449586594743898,-0.032393664811495755,-1.3132352600427357
-0.007447796594743898,-0.03979011451666335,-1.3169426110237734
-0.007446006594743898,-0.03979011451666335,-1.3206499620048093
-0.007444216594743897,-0.028695439958911956,-1.320649962004811
-0.007442426594743898,-0.03609188966407956,-1.3169426110237734
-0.007440636594743898,-0.03609188966407956,-1.320649962004811
-0.007438846594743897,-0.028695439958917,-1.3169426110237734
-0.007437056594743897,-0.03979011451666335,-1.3169426110237734
-0.007435266594743898,-0.03609188966407956,-1.3169426110237734
-0.007433476594743898,-0.032393664811495755,-1.320649962004811
-0.007431686594743897,-0.03609188966407956,-1.320649962004811
-0.007429896594743897,-0.032393664811495755,-1.3169426110237734
-0.007428106594743898,-0.03609188966407956,-1.320649962004811
-0.007426316594743898,-0.03609188966407956,-1.3132352600427357
-0.007424526594743897,-0.032393664811495755,-1.3169426110237734
-0.0074227365947438975,-0.03979011451666335,-1.320649962004811
-0.007420946594743898,-0.03979011451666335,-1.3169426110237734
-0.007419156594743898,-0.03979011451666335,-1.3132352600427357
-0.007417366594743897,-0.03979011451666335,-1.3132352600427357
-0.0074155765947438975,-0.03609188966407956,-1.3169426110237734
-0.007413786594743898,-0.032393664811495755,-1.320649962004811
-0.007411996594743898,-0.043488339369247155,-1.3243573129858488
-0.007410206594743897,-0.03609188966407956,-1.3169426110237734
-0.0074084165947438975,-0.03979011451666335,-1.320649962004811
-0.007406626594743898,-0.03979011451666335,-1.3243573129858488
-0.007404836594743898,-0.03609188966407956,-1.320649962004811
-0.007403046594743897,-0.043488339369247155,-1.3169426110237734
-0.0074012565947438975,-0.043488339369247155,-1.3132352600427357
-0.007399466594743898,-0.03979011451666335,-1.3132352600427357
-0.007397676594743898,-0.04718656422183096,-1.3132352600427357
-0.007395886594743897,-0.043488339369247155,-1.3132352600427357
-0.0073940965947438975,-0.03609188966407956,-1.3132352600427357
-0.007392306594743898,-0.043488339369247155,-1.3132352600427357
-0.007390516594743898,-0.043488339369247155,-1.3169426110237734
-0.007388726594743897,-0.043488339369247155,-1.320649962004811
-0.0073869365947438976,-0.04718656422183096,-1.3169426110237734
-0.007385146594743898,-0.043488339369247155,-1.3169426110237734
-0.007383356594743898,-0.04718656422183096,-1.320649962004811
-0.007381566594743897,-0.04718656422183096,-1.3169426110237734
-0.007379776594743898,-0.03979011451666335,-1.320649962004811
-0.007377986594743898,-0.05088478907441475,-1.3169426110237734
-0.007376196594743898,-0.04718656422183096,-1.3169426110237734
-0.007374406594743897,-0.043488339369247155,-1.320649962004811
-0.007372616594743898,-0.043488339369247155,-1.320649962004811
-0.007370826594743898,-0.03979011451666335,-1.3169426110237734
-0.007369036594743898,-0.043488339369245475,-1.3169426110237734
-0.007367246594743897,-0.04718656422183096,-1.320649962004811
-0.007365456594743898,-0.043488339369247155,-1.320649962004811
-0.007363666594743898,-0.04718656422183096,-1.3169426110237734
-0.007361876594743897,-0.04718656422182928,-1.3206499620048093
-0.007360086594743897,-0.043488339369247155,-1.3169426110237734
-0.007358296594743898,-0.05088478907441475,-1.3169426110237734
-0.007356506594743898,-0.043488339369247155,-1.320649962004811
-0.007354716594743897,-0.043488339369247155,-1.3169426110237734
-0.0073529265947438974,-0.05088478907441475,-1.3132352600427357
-0.007351136594743898,-0.04718656422183096,-1.3169426110237734
-0.007349346594743898,-0.04718656422183096,-1.3169426110237734
-0.007347556594743897,-0.05088478907441475,-1.3169426110237734
-0.0073457665947438975,-0.043488339369247155,-1.320649962004811
-0.007343976594743898,-0.04718656422183096,-1.3243573129858488
-0.007342186594743898,-0.04718656422183096,-1.3243573129858488
-0.007340396594743897,-0.043488339369247155,-1.320649962004811
-0.0073386065947438975,-0.04718656422183096,-1.3169426110237734
-0.007336816594743898,-0.04718656422183096,-1.3132352600427357
-0.007335026594743898,-0.043488339369247155,-1.3169426110237734
-0.007333236594743897,-0.05088478907441475,-1.3132352600427357
-0.0073314465947438975,-0.05088478907441475,-1.3169426110237734
-0.007329656594743898,-0.05088478907441475,-1.3132352600427357
-0.007327866594743898,-0.05088478907441475,-1.3169426110237734
-0.007326076594743897,-0.043488339369247155,-1.320649962004811
-0.0073242865947438975,-0.054583013926998554,-1.320649962004811
-0.007322496594743898,-0.05088478907441475,-1.3243573129858488
-0.007320706594743898,-0.04718656422183096,-1.320649962004811
-0.007318916594743897,-0.054583013926998554,-1.3169426110237734
-0.0073171265947438975,-0.05088478907441475,-1.3169426110237734
-0.007315336594743898,-0.04718656422183096,-1.3169426110237734
-0.007313546594743898,-0.05088478907441475,-1.3132352600427357
-0.007311756594743897,-0.04718656422183096,-1.3132352600427357
-0.007309966594743898,-0.054583013926998554,-1.3132352600427357
-0.007308176594743898,-0.05828123877958235,-1.3132352600427357
-0.007306386594743898,-0.04718656422183096,-1.3169426110237734
-0.007304596594743897,-0.043488339369247155,-1.3169426110237734
-0.007302806594743898,-0.04718656422183096,-1.3169426110237734
-0.007301016594743898,-0.043488339369247155,-1.3132352600427357
-0.007299226594743898,-0.04718656422182928,-1.3206499620048078
-0.007297436594743897,-0.05088478907441475,-1.3169426110237734
-0.007295646594743898,-0.04718656422183096,-1.320649962004811
-0.007293856594743898,-0.05088478907441475,-1.3169426110237734
-0.007292066594743897,-0.047186564221832636,-1.3132352600427375
-0.007290276594743897,-0.05088478907441475,-1.3169426110237734
-0.007288486594743898,-0.04718656422183096,-1.3169426110237734
-0.007286696594743898,-0.04718656422183096,-1.3169426110237734
-0.007284906594743897,-0.061979463632162786,-1.320649962004811
-0.007283116594743897,-0.054583013926998554,-1.320649962004811
-0.007281326594743898,-0.05828123877958235,-1.320649962004811
-0.007279536594743898,-0.05828123877958235,-1.3169426110237734
-0.007277746594743897,-0.054583013926998554,-1.3169426110237734
-0.0072759565947438975,-0.054583013926998554,-1.3169426110237734
-0.007274166594743898,-0.05828123877958235,-1.3169426110237734
-0.007272376594743898,-0.05828123877958235,-1.320649962004811
-0.007270586594743897,-0.054583013926998554,-1.3169426110237734
-0.0072687965947438975,-0.06197946363216615,-1.3169426110237734
-0.007267006594743898,-0.05828123877958235,-1.3132352600427357
-0.007265216594743898,-0.05828123877958235,-1.3169426110237734
-0.007263426594743897,-0.05828123877958235,-1.3169426110237734
-0.0072616365947438975,-0.054583013926998554,-1.3169426110237734
-0.007259846594743898,-0.06197946363216615,-1.320649962004811
-0.007258056594743898,-0.06197946363216615,-1.3169426110237734
-0.007256266594743897,-0.05828123877958235,-1.320649962004811
-0.0072544765947438975,-0.05828123877958235,-1.3169426110237734
-0.007252686594743898,-0.06197946363216615,-1.3169426110237734
-0.007250896594743898,-0.05828123877958235,-1.320649962004811
-0.007249106594743897,-0.06197946363216615,-1.3132352600427357
-0.0072473165947438975,-0.05828123877958235,-1.3169426110237734
-0.007245526594743898,-0.05828123877958235,-1.3132352600427357
-0.007243736594743898,-0.05828123877958235,-1.3169426110237734
-0.007241946594743897,-0.05828123877958235,-1.3169426110237734
-0.0072401565947438976,-0.05828123877958235,-1.3169426110237734
-0.007238366594743898,-0.05828123877958235,-1.320649962004811
-0.007236576594743898,-0.06197946363216615,-1.320649962004811
-0.007234786594743897,-0.06567768848474995,-1.3169426110237734
-0.007232996594743898,-0.05828123877958235,-1.3169426110237734
-0.007231206594743898,-0.05828123877958235,-1.3169426110237734
-0.007229416594743898,-0.06197946363216615,-1.3169426110237734
-0.007227626594743897,-0.06197946363216615,-1.3169426110237734
-0.007225836594743898,-0.06567768848474995,-1.3169426110237734
-0.007224046594743898,-0.06937591333733376,-1.3169426110237734
-0.007222256594743898,-0.06567768848475163,-1.3169426110237734
-0.007220466594743897,-0.06567768848474995,-1.3169426110237734
-0.007218676594743898,-0.06197946363216615,-1.3169426110237734
-0.007216886594743898,-0.05828123877958235,-1.3169426110237734
-0.007215096594743897,-0.05828123877958235,-1.3206499620048093
-0.007213306594743897,-0.05828123877958235,-1.3169426110237734
-0.007211516594743898,-0.05828123877958235,-1.3132352600427357
-0.007209726594743898,-0.06197946363216615,-1.3169426110237734
-0.007207936594743897,-0.05828123877958235,-1.3169426110237734
-0.0072061465947438974,-0.06197946363216615,-1.3132352600427357
-0.007204356594743898,-0.06567768848474995,-1.3169426110237734
-0.007202566594743898,-0.06197946363216615,-1.3169426110237734
-0.007200776594743897,-0.06197946363216615,-1.320649962004811
-0.0071989865947438975,-0.06937591333733376,-1.320649962004811
-0.007197196594743898,-0.06197946363216615,-1.320649962004811
-0.007195406594743898,-0.06937591333733376,-1.3169426110237734
-0.007193616594743897,-0.06937591333733376,-1.3243573129858488
-0.0071918265947438975,-0.06567768848474995,-1.3169426110237734
