100Hz/acq0088.csv

#Digilent WaveForms Oscilloscope Acquisition
#Device Name: Discovery2
#Serial Number: SN:210321AA28BE
#Date Time: 2023-05-24 14:48:32.782
#Sample rate: 558659Hz
#Samples: 8192
#Trigger: Source: Channel 1 Type: Edge Condition: Rising Level: 800 mV Hyst.: Auto HoldOff: 100 ns
#Channel 1: Range: 1 V/div Offset: 0 V Attenuation: 1 X Sample Mode: Average
#Channel 2: Range: 1 V/div Offset: 0 V Attenuation: 1 X Sample Mode: Average

Time (s),Channel 1 (V),Channel 2 (V)
-0.0077410111441847725,0.00828680856692604,-1.320649962004811
-0.007739221144184773,0.00828680856692604,-1.320649962004811
-0.007737431144184772,0.01198503341950984,-1.320649962004811
-0.007735641144184772,0.01198503341950984,-1.320649962004811
-0.0077338511441847725,0.015683258272093638,-1.3169426110237734
-0.007732061144184772,0.00828680856692604,-1.3206499620048093
-0.007730271144184772,0.00828680856692604,-1.3169426110237734
-0.007728481144184772,0.00828680856692604,-1.3132352600427357
-0.007726691144184773,0.01198503341950984,-1.3169426110237734
-0.007724901144184772,0.00828680856692604,-1.3169426110237734
-0.007723111144184772,0.01198503341950984,-1.3169426110237734
-0.007721321144184772,0.00458858371434224,-1.3169426110237734
-0.007719531144184773,0.00828680856692604,-1.3169426110237734
-0.007717741144184772,0.00828680856692604,-1.320649962004811
-0.007715951144184772,0.00458858371434224,-1.320649962004811
-0.007714161144184772,0.00458858371434224,-1.320649962004811
-0.007712371144184773,0.00458858371434224,-1.320649962004811
-0.007710581144184772,0.0008903588617584406,-1.3169426110237734
-0.007708791144184772,0.00458858371434224,-1.320649962004811
-0.007707001144184772,0.00458858371434224,-1.3169426110237734
-0.007705211144184773,0.00458858371434224,-1.3243573129858488
-0.007703421144184772,0.00458858371434224,-1.320649962004811
-0.007701631144184772,0.00458858371434224,-1.3132352600427357
-0.007699841144184772,0.01198503341950984,-1.3132352600427357
-0.007698051144184773,0.00828680856692604,-1.3169426110237734
-0.007696261144184772,0.00458858371434224,-1.3169426110237734
-0.007694471144184772,0.00458858371434224,-1.3169426110237734
-0.0076926811441847725,0.0008903588617584406,-1.320649962004811
-0.007690891144184773,0.0008903588617584406,-1.3243573129858488
-0.007689101144184772,0.0008903588617584406,-1.3243573129858488
-0.007687311144184772,0.0008903588617584406,-1.3169426110237734
-0.0076855211441847725,0.0008903588617584406,-1.320649962004811
-0.007683731144184773,-0.002807865990825359,-1.320649962004811
-0.007681941144184772,-0.002807865990825359,-1.320649962004811
-0.007680151144184772,-0.002807865990825359,-1.320649962004811
-0.0076783611441847725,0.0008903588617584406,-1.3169426110237734
-0.007676571144184773,0.00458858371434224,-1.3169426110237734
-0.007674781144184772,0.00458858371434224,-1.3132352600427357
-0.007672991144184772,-0.002807865990825359,-1.3169426110237734
-0.0076712011441847725,0.0008903588617584406,-1.320649962004811
-0.007669411144184773,0.0008903588617584406,-1.320649962004811
-0.007667621144184772,-0.002807865990825359,-1.3243573129858488
-0.007665831144184772,0.0008903588617584406,-1.320649962004811
-0.0076640411441847725,-0.002807865990825359,-1.320649962004811
-0.007662251144184772,-0.0028078659908270407,-1.3169426110237734
-0.007660461144184772,-0.0065060908434091584,-1.3169426110237734
-0.007658671144184772,-0.010204315695992958,-1.320649962004811
-0.0076568811441847726,-0.002807865990825359,-1.3169426110237734
-0.007655091144184772,-0.002807865990825359,-1.3169426110237752
-0.007653301144184772,-0.002807865990825359,-1.320649962004811
-0.007651511144184772,-0.0065060908434091584,-1.3169426110237734
-0.007649721144184773,-0.002807865990825359,-1.320649962004811
-0.007647931144184772,-0.0065060908434091584,-1.3169426110237734
-0.007646141144184772,-0.0065060908434091584,-1.320649962004811
-0.007644351144184772,-0.002807865990825359,-1.320649962004811
-0.007642561144184773,-0.0065060908434091584,-1.3169426110237734
-0.007640771144184772,-0.0065060908434091584,-1.320649962004811
-0.007638981144184772,-0.013902540548576758,-1.3169426110237734
-0.007637191144184772,-0.013902540548576758,-1.3169426110237734
-0.007635401144184773,-0.010204315695992958,-1.320649962004811
-0.007633611144184772,-0.013902540548576758,-1.3169426110237734
-0.007631821144184772,-0.010204315695992958,-1.3169426110237734
-0.007630031144184772,-0.010204315695992958,-1.3169426110237734
-0.007628241144184773,-0.010204315695992958,-1.320649962004811
-0.007626451144184772,-0.0065060908434091584,-1.3243573129858488
-0.007624661144184772,-0.013902540548576758,-1.320649962004811
-0.0076228711441847724,-0.013902540548576758,-1.320649962004811
-0.007621081144184773,-0.0065060908434091584,-1.3169426110237734
-0.007619291144184772,-0.010204315695992958,-1.320649962004811
-0.007617501144184772,-0.010204315695992958,-1.3132352600427357
-0.0076157111441847725,-0.0065060908434091584,-1.3169426110237734
-0.007613921144184773,-0.013902540548576758,-1.3169426110237734
-0.007612131144184772,-0.0065060908434091584,-1.3132352600427357
-0.007610341144184772,-0.0065060908434091584,-1.3132352600427357
-0.0076085511441847725,-0.010204315695992958,-1.320649962004811
-0.007606761144184773,-0.010204315695992958,-1.3243573129858488
-0.007604971144184772,-0.010204315695992958,-1.3169426110237734
-0.007603181144184772,-0.010204315695992958,-1.320649962004811
-0.0076013911441847725,-0.013902540548576758,-1.320649962004811
-0.007599601144184773,-0.010204315695992958,-1.320649962004811
-0.007597811144184772,-0.017600765401160557,-1.3169426110237734
-0.007596021144184772,-0.010204315695992958,-1.3169426110237734
-0.0075942311441847725,-0.010204315695992958,-1.3169426110237734
-0.007592441144184773,-0.010204315695992958,-1.3169426110237734
-0.007590651144184772,-0.010204315695992958,-1.3132352600427357
-0.007588861144184772,-0.010204315695992958,-1.320649962004811
-0.0075870711441847725,-0.013902540548576758,-1.3169426110237734
-0.007585281144184772,-0.013902540548575077,-1.3206499620048093
-0.007583491144184772,-0.010204315695992958,-1.3169426110237734
-0.007581701144184772,-0.013902540548576758,-1.3132352600427357
-0.007579911144184773,-0.013902540548576758,-1.3169426110237734
-0.007578121144184772,-0.017600765401160557,-1.3132352600427357
-0.007576331144184772,-0.017600765401160557,-1.3169426110237734
-0.007574541144184772,-0.013902540548576758,-1.320649962004811
-0.007572751144184773,-0.013902540548576758,-1.3169426110237734
-0.007570961144184772,-0.024997215106328158,-1.3169426110237734
-0.007569171144184772,-0.017600765401160557,-1.320649962004811
-0.007567381144184772,-0.017600765401160557,-1.320649962004811
-0.007565591144184773,-0.021298990253744356,-1.320649962004811
-0.007563801144184772,-0.017600765401160557,-1.3169426110237734
-0.007562011144184772,-0.017600765401160557,-1.320649962004811
-0.007560221144184772,-0.024997215106328158,-1.320649962004811
-0.007558431144184773,-0.024997215106328158,-1.320649962004811
-0.007556641144184772,-0.024997215106328158,-1.3169426110237734
-0.007554851144184772,-0.021298990253744356,-1.3132352600427357
-0.007553061144184772,-0.021298990253744356,-1.3169426110237734
-0.007551271144184773,-0.021298990253744356,-1.3169426110237734
-0.007549481144184772,-0.024997215106328158,-1.3169426110237734
-0.007547691144184772,-0.021298990253744356,-1.320649962004811
-0.0075459011441847725,-0.024997215106328158,-1.320649962004811
-0.007544111144184773,-0.021298990253744356,-1.320649962004811
-0.007542321144184772,-0.021298990253744356,-1.320649962004811
-0.007540531144184772,-0.024997215106328158,-1.320649962004811
-0.0075387411441847725,-0.024997215106328158,-1.320649962004811
-0.007536951144184773,-0.024997215106328158,-1.3169426110237734
-0.007535161144184772,-0.024997215106328158,-1.320649962004811
-0.007533371144184772,-0.032393664811495755,-1.3169426110237734
-0.0075315811441847725,-0.028695439958911956,-1.320649962004811
-0.007529791144184773,-0.024997215106328158,-1.3169426110237734
-0.007528001144184772,-0.028695439958911956,-1.320649962004811
-0.007526211144184772,-0.024997215106328158,-1.320649962004811
-0.0075244211441847725,-0.028695439958911956,-1.3169426110237734
-0.007522631144184773,-0.02499721510632984,-1.3169426110237734
-0.007520841144184772,-0.024997215106328158,-1.320649962004811
-0.007519051144184772,-0.028695439958911956,-1.3169426110237734
-0.0075172611441847725,-0.028695439958911956,-1.3169426110237734
-0.007515471144184773,-0.02499721510632984,-1.3132352600427375
-0.007513681144184772,-0.032393664811495755,-1.3169426110237734
-0.007511891144184772,-0.032393664811495755,-1.3169426110237734
-0.0075101011441847726,-0.024997215106328158,-1.3169426110237734
-0.007508311144184772,-0.028695439958910274,-1.3132352600427375
-0.007506521144184772,-0.024997215106328158,-1.3169426110237734
-0.007504731144184772,-0.028695439958911956,-1.3169426110237734
-0.007502941144184773,-0.024997215106328158,-1.320649962004811
-0.007501151144184772,-0.021298990253744356,-1.3243573129858488
-0.007499361144184772,-0.032393664811495755,-1.3243573129858488
-0.007497571144184772,-0.028695439958911956,-1.320649962004811
-0.007495781144184773,-0.032393664811495755,-1.320649962004811
-0.007493991144184772,-0.032393664811495755,-1.3169426110237734
-0.007492201144184772,-0.024997215106328158,-1.3132352600427357
-0.007490411144184772,-0.028695439958911956,-1.3169426110237734
-0.007488621144184773,-0.032393664811495755,-1.3132352600427357
-0.007486831144184772,-0.032393664811495755,-1.320649962004811
-0.007485041144184772,-0.024997215106328158,-1.3169426110237734
-0.007483251144184772,-0.032393664811495755,-1.3169426110237734
-0.007481461144184773,-0.032393664811495755,-1.320649962004811
-0.007479671144184772,-0.032393664811495755,-1.320649962004811
-0.007477881144184772,-0.032393664811495755,-1.3169426110237734
-0.0074760911441847724,-0.032393664811495755,-1.320649962004811
-0.007474301144184773,-0.032393664811495755,-1.320649962004811
-0.007472511144184772,-0.028695439958911956,-1.320649962004811
-0.007470721144184772,-0.032393664811495755,-1.320649962004811
-0.0074689311441847725,-0.032393664811495755,-1.3169426110237734
-0.007467141144184773,-0.03609188966407956,-1.320649962004811
-0.007465351144184772,-0.03609188966407956,-1.320649962004811
-0.007463561144184772,-0.03609188966407956,-1.3169426110237734
-0.0074617711441847725,-0.03609188966407956,-1.320649962004811
-0.007459981144184773,-0.032393664811495755,-1.320649962004811
-0.007458191144184772,-0.032393664811495755,-1.3243573129858488
-0.007456401144184772,-0.03609188966407956,-1.320649962004811
-0.0074546111441847725,-0.03609188966407956,-1.3132352600427357
-0.007452821144184773,-0.032393664811495755,-1.3169426110237734
-0.007451031144184772,-0.03609188966407956,-1.320649962004811
-0.007449241144184772,-0.03979011451666335,-1.3169426110237734
-0.0074474511441847725,-0.043488339369247155,-1.3132352600427357
-0.007445661144184773,-0.043488339369247155,-1.3169426110237716
-0.007443871144184772,-0.043488339369247155,-1.3169426110237734
-0.007442081144184772,-0.043488339369247155,-1.3132352600427357
-0.0074402911441847725,-0.043488339369247155,-1.320649962004811
-0.007438501144184772,-0.03979011451666335,-1.320649962004811
-0.007436711144184772,-0.03979011451666335,-1.320649962004811
-0.007434921144184772,-0.03979011451666335,-1.320649962004811
-0.007433131144184773,-0.043488339369247155,-1.3169426110237734
-0.007431341144184772,-0.03979011451666335,-1.3169426110237734
-0.007429551144184772,-0.03609188966407956,-1.320649962004811
-0.007427761144184772,-0.03979011451666335,-1.3169426110237734
-0.007425971144184773,-0.03609188966407956,-1.3243573129858488
-0.007424181144184772,-0.03979011451666335,-1.3169426110237734
-0.007422391144184772,-0.043488339369247155,-1.320649962004811
-0.007420601144184772,-0.05088478907441475,-1.3243573129858488
-0.007418811144184773,-0.03609188966407956,-1.320649962004811
-0.007417021144184772,-0.043488339369247155,-1.320649962004811
-0.007415231144184772,-0.043488339369247155,-1.3243573129858488
-0.007413441144184772,-0.03979011451666335,-1.3169426110237734
-0.007411651144184773,-0.03979011451666335,-1.320649962004811
-0.007409861144184772,-0.03979011451666335,-1.3243573129858488
-0.007408071144184772,-0.03979011451666335,-1.320649962004811
-0.007406281144184772,-0.043488339369247155,-1.320649962004811
-0.007404491144184773,-0.04718656422183096,-1.3169426110237734
-0.007402701144184772,-0.043488339369247155,-1.3169426110237734
-0.007400911144184772,-0.05088478907441475,-1.3169426110237734
-0.0073991211441847725,-0.043488339369247155,-1.3132352600427357
-0.007397331144184773,-0.043488339369247155,-1.3169426110237734
-0.007395541144184772,-0.04718656422183096,-1.3169426110237734
-0.007393751144184772,-0.03979011451666335,-1.3169426110237734
-0.0073919611441847725,-0.04718656422183096,-1.320649962004811
-0.007390171144184773,-0.043488339369247155,-1.320649962004811
-0.007388381144184772,-0.043488339369247155,-1.320649962004811
-0.007386591144184772,-0.043488339369247155,-1.3169426110237734
-0.0073848011441847725,-0.04718656422183096,-1.3169426110237734
-0.007383011144184773,-0.04718656422183096,-1.320649962004811
-0.007381221144184772,-0.05088478907441475,-1.3169426110237734
-0.007379431144184772,-0.05088478907441475,-1.3169426110237734
-0.0073776411441847725,-0.04718656422183096,-1.320649962004811
-0.007375851144184773,-0.04718656422183096,-1.320649962004811
-0.007374061144184772,-0.04718656422183096,-1.3169426110237734
-0.007372271144184772,-0.05088478907441475,-1.3169426110237734
-0.0073704811441847725,-0.04718656422183096,-1.320649962004811
-0.007368691144184773,-0.043488339369248834,-1.324357312985847
-0.007366901144184772,-0.04718656422183096,-1.3169426110237734
-0.007365111144184772,-0.04718656422183096,-1.3169426110237734
-0.0073633211441847726,-0.05088478907441475,-1.320649962004811
-0.007361531144184772,-0.05088478907441307,-1.3169426110237734
-0.007359741144184772,-0.04718656422183096,-1.3169426110237734
-0.007357951144184772,-0.04718656422183096,-1.3243573129858488
-0.007356161144184773,-0.04718656422183096,-1.3169426110237734
-0.007354371144184772,-0.05088478907441475,-1.320649962004811
-0.007352581144184772,-0.05088478907441475,-1.3169426110237734
-0.007350791144184772,-0.05088478907441475,-1.3169426110237734
-0.007349001144184773,-0.04718656422183096,-1.3169426110237734
-0.007347211144184772,-0.054583013926998554,-1.3132352600427357
-0.007345421144184772,-0.05088478907441475,-1.3132352600427357
-0.007343631144184772,-0.05088478907441475,-1.3132352600427357
-0.007341841144184773,-0.04718656422183096,-1.3169426110237734
-0.007340051144184772,-0.05088478907441475,-1.320649962004811
-0.007338261144184772,-0.05088478907441475,-1.320649962004811
-0.007336471144184772,-0.04718656422183096,-1.3169426110237734
-0.007334681144184773,-0.054583013926998554,-1.3169426110237734
-0.007332891144184772,-0.054583013926998554,-1.320649962004811
-0.007331101144184772,-0.05088478907441475,-1.3169426110237734
-0.0073293111441847724,-0.054583013926998554,-1.3169426110237734
-0.007327521144184773,-0.054583013926998554,-1.3169426110237734
-0.007325731144184772,-0.05088478907441475,-1.3132352600427357
-0.007323941144184772,-0.054583013926998554,-1.3132352600427357
-0.0073221511441847725,-0.05828123877958235,-1.3169426110237734
-0.007320361144184773,-0.054583013926998554,-1.320649962004811
-0.007318571144184772,-0.054583013926998554,-1.3169426110237734
-0.007316781144184772,-0.054583013926998554,-1.3132352600427357
-0.0073149911441847725,-0.05828123877958235,-1.3132352600427357
-0.007313201144184773,-0.05828123877958235,-1.320649962004811
-0.007311411144184772,-0.054583013926998554,-1.3169426110237734
-0.007309621144184772,-0.054583013926998554,-1.320649962004811
-0.0073078311441847725,-0.054583013926998554,-1.320649962004811
-0.007306041144184773,-0.06197946363216615,-1.3169426110237734
-0.007304251144184772,-0.054583013926998554,-1.3169426110237734
-0.007302461144184772,-0.05088478907441475,-1.3169426110237734
-0.0073006711441847725,-0.054583013926998554,-1.320649962004811
-0.007298881144184773,-0.05828123877958067,-1.3169426110237752
-0.007297091144184772,-0.05828123877958235,-1.3169426110237734
-0.007295301144184772,-0.054583013926998554,-1.320649962004811
-0.0072935111441847725,-0.06197946363216615,-1.320649962004811
-0.007291721144184772,-0.05458301392700192,-1.3169426110237734
-0.007289931144184772,-0.06197946363216615,-1.3169426110237734
-0.007288141144184772,-0.06197946363216615,-1.3132352600427357
-0.007286351144184773,-0.05828123877958235,-1.3132352600427357
-0.007284561144184772,-0.05828123877958403,-1.3169426110237734
-0.007282771144184772,-0.06197946363216615,-1.3169426110237734
-0.007280981144184772,-0.05828123877958235,-1.320649962004811
-0.007279191144184773,-0.05828123877958235,-1.320649962004811
-0.007277401144184772,-0.05828123877958235,-1.320649962004811
-0.007275611144184772,-0.054583013926998554,-1.320649962004811
-0.007273821144184772,-0.06197946363216615,-1.3169426110237734
-0.007272031144184773,-0.06197946363216615,-1.3169426110237734
-0.007270241144184772,-0.06197946363216615,-1.3169426110237734
-0.007268451144184772,-0.06197946363216615,-1.3169426110237734
-0.007266661144184772,-0.06197946363216615,-1.3169426110237734
-0.007264871144184773,-0.06197946363216615,-1.3169426110237734
-0.007263081144184772,-0.06567768848474995,-1.309527909061698
-0.007261291144184772,-0.06197946363216615,-1.320649962004811
-0.007259501144184772,-0.06567768848474995,-1.3169426110237734
-0.007257711144184773,-0.06937591333733376,-1.3169426110237734
-0.007255921144184772,-0.06197946363216615,-1.3169426110237734
-0.007254131144184772,-0.06197946363216615,-1.320649962004811
-0.0072523411441847725,-0.06197946363216615,-1.320649962004811
-0.007250551144184773,-0.05828123877958235,-1.320649962004811
-0.007248761144184772,-0.06197946363216615,-1.3169426110237734
-0.007246971144184772,-0.06567768848474995,-1.3132352600427357
-0.0072451811441847725,-0.06197946363216615,-1.3132352600427357
-0.007243391144184773,-0.06197946363216615,-1.3169426110237734
-0.007241601144184772,-0.06197946363216615,-1.3169426110237734
-0.007239811144184772,-0.06197946363216615,-1.3169426110237734
-0.0072380211441847725,-0.06197946363216615,-1.3132352600427357
-0.007236231144184773,-0.05828123877958235,-1.320649962004811
-0.007234441144184772,-0.06197946363216615,-1.3243573129858488
-0.007232651144184772,-0.05828123877958235,-1.3169426110237734
-0.0072308611441847725,-0.06567768848474995,-1.3132352600427357
-0.007229071144184773,-0.06567768848474995,-1.3169426110237734
-0.007227281144184772,-0.06197946363216615,-1.3132352600427357
-0.007225491144184772,-0.06197946363216615,-1.3169426110237734
-0.0072237011441847725,-0.06567768848474995,-1.3169426110237734
-0.007221911144184773,-0.06567768848474995,-1.3169426110237734
-0.007220121144184772,-0.06197946363216615,-1.3169426110237734
-0.007218331144184772,-0.06567768848474995,-1.3169426110237734
-0.0072165411441847726,-0.06937591333733376,-1.3169426110237734
-0.007214751144184772,-0.06197946363216783,-1.3169426110237767
-0.007212961144184772,-0.06567768848474995,-1.3243573129858488
-0.007211171144184772,-0.06197946363216615,-1.320649962004811
-0.007209381144184773,-0.06197946363216615,-1.3132352600427357
-0.007207591144184772,-0.06197946363216615,-1.3169426110237734
-0.007205801144184772,-0.06567768848474995,-1.3169426110237734
-0.007204011144184772,-0.06567768848474995,-1.320649962004811
-0.007202221144184773,-0.06567768848474995,-1.3132352600427357
-0.007200431144184772,-0.06567768848474995,-1.3132352600427357
-0.007198641144184772,-0.06567768848474995,-1.320649962004811
-0.007196851144184772,-0.06567768848474995,-1.320649962004811
-0.007195061144184773,-0.06567768848474995,-1.3169426110237734
-0.007193271144184772,-0.06567768848474995,-1.3169426110237734
-0.007191481144184772,-0.06567768848474995,-1.320649962004811
