100Hz/acq0081.csv

#Digilent WaveForms Oscilloscope Acquisition
#Device Name: Discovery2
#Serial Number: SN:210321AA28BE
#Date Time: 2023-05-24 14:48:32.585
#Sample rate: 558659Hz
#Samples: 8192
#Trigger: Source: Channel 1 Type: Edge Condition: Rising Level: 800 mV Hyst.: Auto HoldOff: 100 ns
#Channel 1: Range: 1 V/div Offset: 0 V Attenuation: 1 X Sample Mode: Average
#Channel 2: Range: 1 V/div Offset: 0 V Attenuation: 1 X Sample Mode: Average

Time (s),Channel 1 (V),Channel 2 (V)
-0.007741432849148525,0.015683258272093638,-1.3169426110237734
-0.0077396428491485255,0.011985033419511522,-1.3206499620048093
-0.007737852849148525,0.01198503341950984,-1.3243573129858488
-0.007736062849148525,0.00828680856692604,-1.320649962004811
-0.007734272849148525,0.00828680856692604,-1.3169426110237734
-0.007732482849148525,0.00828680856692604,-1.3169426110237752
-0.007730692849148525,0.00828680856692604,-1.320649962004811
-0.007728902849148525,0.01198503341950984,-1.320649962004811
-0.007727112849148525,0.00828680856692604,-1.3243573129858488
-0.007725322849148525,0.01198503341950984,-1.3243573129858488
-0.007723532849148525,0.015683258272093638,-1.320649962004811
-0.007721742849148525,0.00828680856692604,-1.3169426110237734
-0.007719952849148525,0.00828680856692604,-1.320649962004811
-0.007718162849148525,0.00828680856692604,-1.320649962004811
-0.007716372849148525,0.00458858371434224,-1.3132352600427357
-0.007714582849148525,0.00458858371434224,-1.3169426110237734
-0.007712792849148525,0.00828680856692604,-1.320649962004811
-0.007711002849148525,0.00828680856692604,-1.320649962004811
-0.007709212849148525,0.0008903588617584406,-1.320649962004811
-0.007707422849148525,0.00828680856692604,-1.3169426110237734
-0.007705632849148525,0.00458858371434224,-1.320649962004811
-0.007703842849148525,0.00458858371434224,-1.3243573129858488
-0.007702052849148525,0.00458858371434224,-1.320649962004811
-0.007700262849148525,0.00458858371434224,-1.320649962004811
-0.007698472849148525,0.00458858371434224,-1.3169426110237734
-0.007696682849148525,0.00458858371434224,-1.3169426110237734
-0.007694892849148525,0.00458858371434224,-1.320649962004811
-0.007693102849148525,0.00458858371434224,-1.320649962004811
-0.007691312849148525,0.00458858371434224,-1.3132352600427357
-0.007689522849148525,0.00458858371434224,-1.320649962004811
-0.007687732849148525,0.00828680856692604,-1.320649962004811
-0.007685942849148525,0.0008903588617584406,-1.320649962004811
-0.0076841528491485254,0.00458858371434224,-1.3169426110237734
-0.007682362849148525,0.0008903588617584406,-1.3132352600427357
-0.007680572849148525,0.0008903588617584406,-1.320649962004811
-0.007678782849148525,0.00458858371434224,-1.3169426110237734
-0.0076769928491485255,-0.002807865990825359,-1.3169426110237734
-0.007675202849148525,0.00458858371434224,-1.320649962004811
-0.007673412849148525,0.0008903588617584406,-1.3169426110237734
-0.007671622849148525,-0.002807865990825359,-1.320649962004811
-0.0076698328491485255,-0.002807865990825359,-1.320649962004811
-0.007668042849148525,0.0008903588617584406,-1.320649962004811
-0.007666252849148525,0.0008903588617584406,-1.3169426110237734
-0.007664462849148525,-0.002807865990825359,-1.3169426110237734
-0.007662672849148525,0.0045885837143388765,-1.3169426110237734
-0.007660882849148525,-0.002807865990825359,-1.3169426110237734
-0.007659092849148525,-0.002807865990825359,-1.320649962004811
-0.007657302849148525,-0.002807865990825359,-1.320649962004811
-0.007655512849148525,-0.006506090843407477,-1.3132352600427375
-0.007653722849148525,-0.002807865990825359,-1.3169426110237734
-0.007651932849148525,-0.002807865990825359,-1.3169426110237734
-0.007650142849148525,-0.0065060908434091584,-1.320649962004811
-0.007648352849148525,-0.002807865990825359,-1.3243573129858488
-0.007646562849148525,-0.0065060908434091584,-1.320649962004811
-0.007644772849148525,-0.010204315695992958,-1.3169426110237734
-0.007642982849148525,-0.002807865990825359,-1.3169426110237734
-0.007641192849148525,-0.002807865990825359,-1.320649962004811
-0.007639402849148525,-0.002807865990825359,-1.320649962004811
-0.007637612849148525,-0.002807865990825359,-1.3243573129858488
-0.007635822849148525,-0.002807865990825359,-1.320649962004811
-0.007634032849148525,-0.0065060908434091584,-1.320649962004811
-0.007632242849148525,0.0008903588617584406,-1.320649962004811
-0.007630452849148525,0.0008903588617584406,-1.3169426110237734
-0.007628662849148525,-0.002807865990825359,-1.320649962004811
-0.007626872849148525,-0.002807865990825359,-1.320649962004811
-0.007625082849148525,-0.0065060908434091584,-1.3169426110237734
-0.007623292849148525,-0.002807865990825359,-1.3169426110237734
-0.007621502849148525,-0.002807865990825359,-1.3169426110237734
-0.007619712849148525,-0.0065060908434091584,-1.320649962004811
-0.007617922849148525,-0.010204315695992958,-1.320649962004811
-0.007616132849148525,-0.017600765401160557,-1.320649962004811
-0.0076143428491485254,-0.010204315695992958,-1.320649962004811
-0.007612552849148525,-0.010204315695992958,-1.3243573129858488
-0.007610762849148525,-0.0065060908434091584,-1.320649962004811
-0.007608972849148525,-0.010204315695992958,-1.320649962004811
-0.0076071828491485255,-0.0065060908434091584,-1.320649962004811
-0.007605392849148525,-0.010204315695992958,-1.320649962004811
-0.007603602849148525,-0.017600765401160557,-1.320649962004811
-0.007601812849148525,-0.0065060908434091584,-1.3243573129858488
-0.0076000228491485255,-0.010204315695992958,-1.320649962004811
-0.007598232849148525,-0.013902540548576758,-1.320649962004811
-0.007596442849148525,-0.013902540548576758,-1.320649962004811
-0.007594652849148525,-0.013902540548576758,-1.320649962004811
-0.0075928628491485255,-0.010204315695994639,-1.3169426110237752
-0.007591072849148525,-0.017600765401160557,-1.3169426110237734
-0.007589282849148525,-0.013902540548576758,-1.3169426110237734
-0.007587492849148525,-0.017600765401160557,-1.3169426110237734
-0.007585702849148525,-0.017600765401160557,-1.3206499620048078
-0.007583912849148525,-0.017600765401160557,-1.3132352600427357
-0.007582122849148525,-0.017600765401160557,-1.320649962004811
-0.007580332849148525,-0.021298990253744356,-1.3243573129858488
-0.007578542849148525,-0.013902540548576758,-1.320649962004811
-0.007576752849148525,-0.013902540548576758,-1.3169426110237734
-0.007574962849148525,-0.021298990253744356,-1.320649962004811
-0.007573172849148525,-0.017600765401160557,-1.320649962004811
-0.007571382849148525,-0.021298990253744356,-1.3132352600427357
-0.007569592849148525,-0.024997215106328158,-1.320649962004811
-0.007567802849148525,-0.017600765401160557,-1.3169426110237734
-0.007566012849148525,-0.013902540548576758,-1.320649962004811
-0.007564222849148525,-0.017600765401160557,-1.3169426110237734
-0.007562432849148525,-0.017600765401160557,-1.320649962004811
-0.007560642849148525,-0.013902540548576758,-1.320649962004811
-0.007558852849148525,-0.021298990253744356,-1.3169426110237734
-0.007557062849148525,-0.017600765401160557,-1.320649962004811
-0.007555272849148525,-0.017600765401160557,-1.3169426110237734
-0.007553482849148525,-0.017600765401160557,-1.3169426110237734
-0.007551692849148525,-0.021298990253744356,-1.3169426110237734
-0.007549902849148525,-0.013902540548576758,-1.3132352600427357
-0.007548112849148525,-0.021298990253744356,-1.3132352600427357
-0.007546322849148525,-0.024997215106328158,-1.3169426110237734
-0.007544532849148525,-0.021298990253744356,-1.3169426110237734
-0.007542742849148525,-0.021298990253744356,-1.320649962004811
-0.007540952849148525,-0.021298990253744356,-1.3169426110237734
-0.007539162849148525,-0.021298990253744356,-1.320649962004811
-0.0075373728491485254,-0.028695439958911956,-1.320649962004811
-0.007535582849148525,-0.021298990253744356,-1.320649962004811
-0.007533792849148525,-0.021298990253744356,-1.320649962004811
-0.007532002849148525,-0.024997215106328158,-1.320649962004811
-0.0075302128491485255,-0.024997215106328158,-1.3169426110237734
-0.007528422849148525,-0.024997215106328158,-1.320649962004811
-0.007526632849148525,-0.021298990253744356,-1.320649962004811
-0.007524842849148525,-0.017600765401160557,-1.320649962004811
-0.0075230528491485255,-0.017600765401160557,-1.320649962004811
-0.007521262849148525,-0.028695439958911956,-1.3169426110237734
-0.007519472849148525,-0.024997215106328158,-1.320649962004811
-0.007517682849148525,-0.024997215106328158,-1.3169426110237734
-0.0075158928491485255,-0.028695439958910274,-1.3206499620048093
-0.007514102849148525,-0.024997215106328158,-1.3169426110237734
-0.007512312849148525,-0.028695439958911956,-1.3169426110237734
-0.007510522849148525,-0.024997215106328158,-1.320649962004811
-0.007508732849148525,-0.032393664811494076,-1.3169426110237716
-0.007506942849148525,-0.028695439958911956,-1.3132352600427357
-0.007505152849148525,-0.028695439958911956,-1.320649962004811
-0.007503362849148525,-0.032393664811495755,-1.320649962004811
-0.007501572849148525,-0.028695439958911956,-1.3132352600427357
-0.007499782849148525,-0.028695439958911956,-1.320649962004811
-0.007497992849148525,-0.032393664811495755,-1.320649962004811
-0.007496202849148525,-0.024997215106328158,-1.3169426110237734
-0.007494412849148525,-0.028695439958911956,-1.3243573129858488
-0.007492622849148525,-0.028695439958911956,-1.3243573129858488
-0.007490832849148525,-0.028695439958911956,-1.3169426110237734
-0.007489042849148525,-0.03609188966407956,-1.3169426110237734
-0.007487252849148525,-0.032393664811495755,-1.3132352600427357
-0.007485462849148525,-0.032393664811495755,-1.3169426110237734
-0.007483672849148525,-0.028695439958911956,-1.3169426110237734
-0.007481882849148525,-0.028695439958911956,-1.3169426110237734
-0.007480092849148525,-0.028695439958911956,-1.3243573129858488
-0.007478302849148525,-0.028695439958911956,-1.320649962004811
-0.007476512849148525,-0.032393664811495755,-1.320649962004811
-0.007474722849148525,-0.032393664811495755,-1.320649962004811
-0.007472932849148525,-0.032393664811495755,-1.3169426110237734
-0.007471142849148525,-0.03609188966407956,-1.3243573129858488
-0.007469352849148525,-0.032393664811495755,-1.320649962004811
-0.0074675628491485254,-0.03609188966407956,-1.320649962004811
-0.007465772849148525,-0.03609188966407956,-1.3169426110237734
-0.007463982849148525,-0.032393664811495755,-1.320649962004811
-0.007462192849148525,-0.032393664811495755,-1.3169426110237734
-0.0074604028491485255,-0.028695439958911956,-1.3169426110237734
-0.007458612849148525,-0.03979011451666335,-1.3243573129858488
-0.007456822849148525,-0.03609188966407956,-1.320649962004811
-0.007455032849148525,-0.03979011451666335,-1.3243573129858488
-0.0074532428491485255,-0.03609188966407956,-1.320649962004811
-0.007451452849148525,-0.032393664811495755,-1.320649962004811
-0.007449662849148525,-0.03609188966407956,-1.3169426110237734
-0.007447872849148525,-0.03609188966407956,-1.320649962004811
-0.0074460828491485255,-0.03979011451666167,-1.320649962004811
-0.007444292849148525,-0.03609188966407956,-1.320649962004811
-0.007442502849148525,-0.043488339369247155,-1.3132352600427357
-0.007440712849148525,-0.032393664811495755,-1.3169426110237734
-0.007438922849148525,-0.03609188966407956,-1.3169426110237752
-0.007437132849148525,-0.03609188966407956,-1.320649962004811
-0.007435342849148525,-0.032393664811495755,-1.3169426110237734
-0.007433552849148525,-0.03979011451666335,-1.320649962004811
-0.007431762849148525,-0.03609188966407956,-1.320649962004811
-0.007429972849148525,-0.032393664811495755,-1.3169426110237734
-0.007428182849148525,-0.03979011451666335,-1.3169426110237734
-0.007426392849148525,-0.032393664811495755,-1.3243573129858488
-0.007424602849148525,-0.03609188966407956,-1.3243573129858488
-0.007422812849148525,-0.03609188966407956,-1.3169426110237734
-0.007421022849148525,-0.03979011451666335,-1.320649962004811
-0.007419232849148525,-0.043488339369247155,-1.3243573129858488
-0.007417442849148525,-0.043488339369247155,-1.320649962004811
-0.007415652849148525,-0.043488339369247155,-1.320649962004811
-0.007413862849148525,-0.043488339369247155,-1.320649962004811
-0.007412072849148525,-0.04718656422183096,-1.320649962004811
-0.007410282849148525,-0.05088478907441475,-1.320649962004811
-0.007408492849148525,-0.04718656422183096,-1.3169426110237734
-0.007406702849148525,-0.043488339369247155,-1.320649962004811
-0.007404912849148525,-0.043488339369247155,-1.320649962004811
-0.007403122849148525,-0.04718656422183096,-1.3243573129858488
-0.007401332849148525,-0.05088478907441475,-1.320649962004811
-0.007399542849148525,-0.043488339369247155,-1.320649962004811
-0.007397752849148525,-0.043488339369247155,-1.320649962004811
-0.007395962849148525,-0.043488339369247155,-1.3243573129858488
-0.007394172849148525,-0.04718656422183096,-1.320649962004811
-0.007392382849148525,-0.043488339369247155,-1.3169426110237734
-0.0073905928491485254,-0.05088478907441475,-1.320649962004811
-0.007388802849148525,-0.05088478907441475,-1.3169426110237734
-0.007387012849148525,-0.04718656422183096,-1.3169426110237734
-0.007385222849148525,-0.043488339369247155,-1.320649962004811
-0.0073834328491485255,-0.043488339369247155,-1.3169426110237734
-0.007381642849148525,-0.04718656422183096,-1.3169426110237734
-0.007379852849148525,-0.043488339369247155,-1.3169426110237734
-0.007378062849148525,-0.043488339369247155,-1.320649962004811
-0.0073762728491485255,-0.043488339369247155,-1.320649962004811
-0.007374482849148525,-0.05088478907441475,-1.320649962004811
-0.007372692849148525,-0.054583013926998554,-1.320649962004811
-0.007370902849148525,-0.05088478907441475,-1.320649962004811
-0.0073691128491485255,-0.05088478907441475,-1.320649962004811
-0.007367322849148525,-0.05088478907441475,-1.3169426110237734
-0.007365532849148525,-0.05088478907441475,-1.3169426110237734
-0.007363742849148525,-0.043488339369247155,-1.320649962004811
-0.007361952849148525,-0.04718656422183096,-1.3169426110237752
-0.007360162849148525,-0.04718656422183096,-1.320649962004811
-0.007358372849148525,-0.04718656422183096,-1.320649962004811
-0.007356582849148525,-0.05088478907441475,-1.320649962004811
-0.007354792849148525,-0.04718656422183096,-1.320649962004811
-0.007353002849148525,-0.04718656422183096,-1.3280646639668865
-0.007351212849148525,-0.05088478907441475,-1.320649962004811
-0.007349422849148525,-0.054583013926998554,-1.3169426110237734
-0.007347632849148525,-0.05088478907441475,-1.3169426110237734
-0.007345842849148525,-0.05088478907441475,-1.3169426110237734
-0.007344052849148525,-0.054583013926998554,-1.3169426110237734
-0.007342262849148525,-0.06197946363216615,-1.3169426110237734
-0.007340472849148525,-0.05828123877958235,-1.320649962004811
-0.007338682849148525,-0.05828123877958235,-1.3243573129858488
-0.007336892849148525,-0.054583013926998554,-1.3132352600427357
-0.007335102849148525,-0.05088478907441475,-1.3169426110237734
-0.007333312849148525,-0.054583013926998554,-1.320649962004811
-0.007331522849148525,-0.05088478907441475,-1.3243573129858488
-0.007329732849148525,-0.054583013926998554,-1.3243573129858488
-0.007327942849148525,-0.05088478907441475,-1.320649962004811
-0.007326152849148525,-0.054583013926998554,-1.320649962004811
-0.007324362849148525,-0.054583013926998554,-1.3243573129858488
-0.007322572849148525,-0.054583013926998554,-1.320649962004811
-0.0073207828491485254,-0.05828123877958235,-1.3169426110237734
-0.007318992849148525,-0.06197946363216615,-1.3243573129858488
-0.007317202849148525,-0.05828123877958235,-1.320649962004811
-0.007315412849148525,-0.054583013926998554,-1.320649962004811
-0.0073136228491485255,-0.054583013926998554,-1.320649962004811
-0.007311832849148525,-0.05828123877958235,-1.320649962004811
-0.007310042849148525,-0.05828123877958235,-1.3169426110237734
-0.007308252849148525,-0.054583013926998554,-1.3169426110237734
-0.0073064628491485255,-0.05828123877958235,-1.3169426110237734
-0.007304672849148525,-0.06197946363216615,-1.320649962004811
-0.007302882849148525,-0.05828123877958235,-1.320649962004811
-0.007301092849148525,-0.054583013926998554,-1.320649962004811
-0.0072993028491485255,-0.061979463632162786,-1.320649962004811
-0.007297512849148525,-0.054583013926998554,-1.3169426110237734
-0.007295722849148525,-0.054583013926998554,-1.3169426110237734
-0.007293932849148525,-0.05828123877958235,-1.3243573129858488
-0.007292142849148525,-0.05458301392700023,-1.3206499620048093
-0.007290352849148525,-0.05828123877958235,-1.3169426110237734
-0.007288562849148525,-0.054583013926998554,-1.320649962004811
-0.007286772849148525,-0.05828123877958235,-1.320649962004811
-0.007284982849148525,-0.06197946363216447,-1.3169426110237734
-0.007283192849148525,-0.05828123877958235,-1.3169426110237734
-0.007281402849148525,-0.06197946363216615,-1.3169426110237734
-0.007279612849148525,-0.06197946363216615,-1.3132352600427357
-0.007277822849148525,-0.05828123877958235,-1.320649962004811
-0.007276032849148525,-0.06937591333733376,-1.320649962004811
-0.007274242849148525,-0.06567768848474995,-1.3169426110237734
-0.007272452849148525,-0.06197946363216615,-1.320649962004811
-0.007270662849148525,-0.05828123877958235,-1.3169426110237734
-0.007268872849148525,-0.05828123877958235,-1.320649962004811
-0.007267082849148525,-0.06197946363216615,-1.320649962004811
-0.007265292849148525,-0.05828123877958235,-1.320649962004811
-0.007263502849148525,-0.05828123877958235,-1.320649962004811
-0.007261712849148525,-0.054583013926998554,-1.320649962004811
-0.007259922849148525,-0.05828123877958235,-1.3169426110237734
-0.007258132849148525,-0.05828123877958235,-1.3169426110237734
-0.007256342849148525,-0.06197946363216615,-1.3169426110237734
-0.007254552849148525,-0.06567768848474995,-1.3169426110237734
-0.007252762849148525,-0.06197946363216615,-1.3243573129858488
-0.007250972849148525,-0.05828123877958235,-1.3243573129858488
-0.007249182849148525,-0.05828123877958235,-1.320649962004811
-0.007247392849148525,-0.06567768848474995,-1.3169426110237734
-0.007245602849148525,-0.06197946363216615,-1.320649962004811
-0.0072438128491485254,-0.06567768848474995,-1.3169426110237734
-0.007242022849148525,-0.05828123877958235,-1.3169426110237734
-0.007240232849148525,-0.05828123877958235,-1.320649962004811
-0.007238442849148525,-0.06197946363216615,-1.3169426110237734
-0.0072366528491485255,-0.05828123877958235,-1.3169426110237734
-0.007234862849148525,-0.06197946363216615,-1.3169426110237734
-0.007233072849148525,-0.06197946363216615,-1.3169426110237734
-0.007231282849148525,-0.06197946363216615,-1.320649962004811
-0.0072294928491485255,-0.06197946363216615,-1.320649962004811
-0.007227702849148525,-0.05828123877958235,-1.320649962004811
-0.007225912849148525,-0.06567768848474995,-1.320649962004811
-0.007224122849148525,-0.06197946363216615,-1.3243573129858488
-0.0072223328491485255,-0.06197946363216615,-1.3206499620048129
-0.007220542849148525,-0.06567768848474995,-1.320649962004811
-0.007218752849148525,-0.06567768848474995,-1.3169426110237734
-0.007216962849148525,-0.06197946363216615,-1.3169426110237734
-0.007215172849148525,-0.06567768848474995,-1.3206499620048093
-0.007213382849148525,-0.06567768848474995,-1.3169426110237734
-0.007211592849148525,-0.06567768848474995,-1.3169426110237734
-0.007209802849148525,-0.06567768848474995,-1.320649962004811
-0.007208012849148525,-0.06197946363216615,-1.320649962004811
-0.007206222849148525,-0.06567768848474995,-1.3243573129858488
-0.007204432849148525,-0.06937591333733376,-1.320649962004811
-0.007202642849148525,-0.06567768848474995,-1.320649962004811
-0.007200852849148525,-0.06567768848474995,-1.320649962004811
-0.007199062849148525,-0.06567768848474995,-1.3169426110237734
-0.007197272849148525,-0.06567768848474995,-1.3169426110237734
-0.007195482849148525,-0.06937591333733376,-1.3169426110237734
-0.007193692849148525,-0.06567768848474995,-1.320649962004811
-0.007191902849148525,-0.06937591333733376,-1.3169426110237734
-0.007190112849148525,-0.06567768848474995,-1.3169426110237734
