100Hz/acq0030.csv

#Digilent WaveForms Oscilloscope Acquisition
#Device Name: Discovery2
#Serial Number: SN:210321AA28BE
#Date Time: 2023-05-24 14:48:31.094
#Sample rate: 558659Hz
#Samples: 8192
#Trigger: Source: Channel 1 Type: Edge Condition: Rising Level: 800 mV Hyst.: Auto HoldOff: 100 ns
#Channel 1: Range: 1 V/div Offset: 0 V Attenuation: 1 X Sample Mode: Average
#Channel 2: Range: 1 V/div Offset: 0 V Attenuation: 1 X Sample Mode: Average

Time (s),Channel 1 (V),Channel 2 (V)
-0.007741506868726326,0.06745840620826683,-1.3169426110237734
-0.007739716868726326,0.06376018135568472,-1.3132352600427375
-0.007737926868726325,0.06745840620826683,-1.3132352600427357
-0.0077361368687263255,0.06745840620826683,-1.320649962004811
-0.007734346868726326,0.06376018135568304,-1.3169426110237734
-0.007732556868726325,0.06376018135568472,-1.320649962004811
-0.007730766868726325,0.06745840620826683,-1.320649962004811
-0.0077289768687263255,0.06376018135568304,-1.3169426110237734
-0.007727186868726326,0.06376018135568304,-1.320649962004811
-0.007725396868726325,0.06376018135568304,-1.320649962004811
-0.007723606868726325,0.06376018135568304,-1.3169426110237734
-0.0077218168687263255,0.06376018135568304,-1.3169426110237734
-0.007720026868726326,0.06376018135568304,-1.320649962004811
-0.007718236868726325,0.06376018135568304,-1.320649962004811
-0.007716446868726325,0.06745840620826683,-1.320649962004811
-0.0077146568687263255,0.06376018135568304,-1.309527909061698
-0.007712866868726326,0.06006195650309923,-1.3169426110237734
-0.007711076868726325,0.06006195650309923,-1.320649962004811
-0.007709286868726325,0.06006195650309923,-1.320649962004811
-0.0077074968687263256,0.06006195650309923,-1.320649962004811
-0.007705706868726326,0.06006195650309923,-1.320649962004811
-0.007703916868726325,0.06006195650309923,-1.320649962004811
-0.007702126868726325,0.05636373165051543,-1.3169426110237734
-0.007700336868726326,0.05636373165051543,-1.320649962004811
-0.007698546868726326,0.05636373165051543,-1.3169426110237734
-0.007696756868726325,0.05636373165051543,-1.320649962004811
-0.007694966868726325,0.05636373165051543,-1.320649962004811
-0.007693176868726326,0.06006195650309923,-1.3169426110237734
-0.007691386868726326,0.05636373165051543,-1.320649962004811
-0.007689596868726325,0.05636373165051543,-1.3169426110237734
-0.007687806868726325,0.05636373165051543,-1.320649962004811
-0.007686016868726326,0.05636373165051543,-1.320649962004811
-0.007684226868726326,0.05636373165051543,-1.320649962004811
-0.007682436868726325,0.05636373165051543,-1.320649962004811
-0.007680646868726325,0.05636373165051543,-1.320649962004811
-0.007678856868726326,0.05636373165051543,-1.3169426110237734
-0.007677066868726326,0.05266550679793163,-1.3169426110237734
-0.007675276868726325,0.048967281945347836,-1.3169426110237734
-0.0076734868687263254,0.05636373165051543,-1.3169426110237734
-0.007671696868726326,0.05266550679793163,-1.3169426110237734
-0.007669906868726326,0.05266550679793163,-1.3206499620048093
-0.007668116868726325,0.05266550679793163,-1.3243573129858488
-0.0076663268687263255,0.048967281945347836,-1.3169426110237734
-0.007664536868726326,0.05266550679793163,-1.320649962004811
-0.007662746868726325,0.05266550679792995,-1.320649962004811
-0.007660956868726325,0.048967281945347836,-1.320649962004811
-0.0076591668687263255,0.05266550679793163,-1.3243573129858488
-0.007657376868726326,0.05266550679793163,-1.320649962004811
-0.007655586868726325,0.048967281945349515,-1.3169426110237767
-0.007653796868726325,0.05266550679793163,-1.3243573129858488
-0.0076520068687263255,0.05636373165051543,-1.3169426110237734
-0.007650216868726326,0.048967281945347836,-1.320649962004811
-0.007648426868726325,0.048967281945347836,-1.320649962004811
-0.007646636868726325,0.048967281945347836,-1.3243573129858488
-0.0076448468687263255,0.048967281945347836,-1.3243573129858488
-0.007643056868726326,0.048967281945347836,-1.3243573129858488
-0.007641266868726325,0.048967281945347836,-1.320649962004811
-0.007639476868726325,0.05266550679793163,-1.3132352600427357
-0.0076376868687263256,0.048967281945347836,-1.3169426110237734
-0.007635896868726326,0.048967281945347836,-1.3169426110237734
-0.007634106868726325,0.05266550679793163,-1.3169426110237734
-0.007632316868726325,0.045269057092764034,-1.3169426110237734
-0.007630526868726326,0.04157083224018024,-1.3169426110237734
-0.007628736868726326,0.045269057092764034,-1.3243573129858488
-0.007626946868726325,0.045269057092764034,-1.320649962004811
-0.007625156868726325,0.04157083224018024,-1.3169426110237734
-0.007623366868726326,0.045269057092764034,-1.320649962004811
-0.007621576868726326,0.03787260738759644,-1.320649962004811
-0.007619786868726325,0.045269057092764034,-1.320649962004811
-0.007617996868726325,0.04157083224018024,-1.3169426110237734
-0.007616206868726326,0.04157083224018024,-1.320649962004811
-0.007614416868726326,0.045269057092764034,-1.320649962004811
-0.007612626868726325,0.03787260738759644,-1.3169426110237734
-0.007610836868726325,0.045269057092764034,-1.3169426110237734
-0.007609046868726326,0.034174382535012635,-1.3169426110237734
-0.007607256868726326,0.03787260738759644,-1.320649962004811
-0.007605466868726325,0.03787260738759644,-1.3169426110237734
-0.0076036768687263254,0.034174382535012635,-1.3169426110237734
-0.007601886868726326,0.03787260738759644,-1.3132352600427357
-0.007600096868726326,0.03787260738759644,-1.3169426110237734
-0.007598306868726325,0.04157083224018024,-1.3169426110237734
-0.0075965168687263255,0.045269057092764034,-1.3132352600427357
-0.007594726868726326,0.04157083224018024,-1.3169426110237734
-0.007592936868726326,0.04157083224018024,-1.3169426110237734
-0.007591146868726325,0.04157083224018024,-1.320649962004811
-0.0075893568687263255,0.04157083224018024,-1.320649962004811
-0.007587566868726326,0.03787260738759644,-1.3169426110237734
-0.007585776868726325,0.04157083224018024,-1.3132352600427375
-0.007583986868726325,0.04157083224018024,-1.3169426110237734
-0.0075821968687263255,0.03787260738759644,-1.320649962004811
-0.007580406868726326,0.034174382535012635,-1.3169426110237734
-0.007578616868726325,0.03787260738759644,-1.3243573129858488
-0.007576826868726325,0.03787260738759644,-1.320649962004811
-0.0075750368687263255,0.03787260738759644,-1.320649962004811
-0.007573246868726326,0.034174382535012635,-1.320649962004811
-0.007571456868726325,0.03047615768242884,-1.3132352600427357
-0.007569666868726325,0.034174382535012635,-1.3169426110237734
-0.0075678768687263255,0.03047615768242884,-1.3243573129858488
-0.007566086868726326,0.034174382535012635,-1.320649962004811
-0.007564296868726325,0.034174382535012635,-1.320649962004811
-0.007562506868726325,0.04157083224018024,-1.320649962004811
-0.0075607168687263256,0.034174382535012635,-1.320649962004811
-0.007558926868726326,0.03787260738759644,-1.320649962004811
-0.007557136868726325,0.034174382535012635,-1.3169426110237734
-0.007555346868726325,0.034174382535012635,-1.3169426110237734
-0.007553556868726326,0.03047615768242884,-1.3169426110237734
-0.007551766868726326,0.034174382535012635,-1.3169426110237734
-0.007549976868726325,0.03047615768242884,-1.3243573129858488
-0.007548186868726325,0.026777932829845037,-1.3169426110237734
-0.007546396868726326,0.03787260738759644,-1.3169426110237734
-0.007544606868726326,0.03047615768242884,-1.3169426110237734
-0.007542816868726325,0.034174382535012635,-1.3243573129858488
-0.007541026868726325,0.034174382535012635,-1.3169426110237734
-0.007539236868726326,0.034174382535012635,-1.3169426110237734
-0.007537446868726326,0.03047615768242884,-1.3169426110237734
-0.007535656868726325,0.034174382535012635,-1.320649962004811
-0.007533866868726325,0.026777932829845037,-1.3132352600427357
-0.007532076868726326,0.034174382535012635,-1.3169426110237734
-0.007530286868726326,0.03047615768242884,-1.3132352600427357
-0.007528496868726325,0.026777932829845037,-1.3169426110237734
-0.0075267068687263254,0.03047615768242884,-1.3169426110237734
-0.007524916868726326,0.02307970797726124,-1.320649962004811
-0.007523126868726326,0.026777932829843355,-1.320649962004811
-0.007521336868726325,0.02307970797726124,-1.320649962004811
-0.0075195468687263255,0.03047615768242884,-1.320649962004811
-0.007517756868726326,0.03047615768242884,-1.3132352600427357
-0.007515966868726326,0.02677793282984672,-1.3206499620048078
-0.007514176868726325,0.026777932829845037,-1.3169426110237734
-0.0075123868687263255,0.026777932829845037,-1.320649962004811
-0.007510596868726326,0.03047615768242884,-1.320649962004811
-0.007508806868726325,0.03047615768242884,-1.3169426110237734
-0.007507016868726325,0.03047615768242884,-1.3169426110237734
-0.0075052268687263255,0.02307970797726124,-1.320649962004811
-0.007503436868726326,0.02307970797726124,-1.320649962004811
-0.007501646868726325,0.02307970797726124,-1.3132352600427357
-0.007499856868726325,0.026777932829845037,-1.3132352600427357
-0.0074980668687263255,0.02307970797726124,-1.320649962004811
-0.007496276868726326,0.02307970797726124,-1.3169426110237734
-0.007494486868726325,0.02307970797726124,-1.320649962004811
-0.007492696868726325,0.02307970797726124,-1.3243573129858488
-0.0074909068687263256,0.026777932829845037,-1.320649962004811
-0.007489116868726326,0.01938148312467744,-1.3169426110237734
-0.007487326868726325,0.02307970797726124,-1.3132352600427357
-0.007485536868726325,0.02307970797726124,-1.3169426110237734
-0.007483746868726326,0.015683258272093638,-1.3169426110237734
-0.007481956868726326,0.015683258272093638,-1.320649962004811
-0.007480166868726325,0.01938148312467744,-1.3132352600427357
-0.007478376868726325,0.01938148312467744,-1.3169426110237734
-0.007476586868726326,0.015683258272093638,-1.320649962004811
-0.007474796868726326,0.01938148312467744,-1.3169426110237734
-0.007473006868726325,0.015683258272093638,-1.320649962004811
-0.007471216868726325,0.015683258272093638,-1.320649962004811
-0.007469426868726326,0.02307970797726124,-1.3132352600427357
-0.007467636868726326,0.01938148312467744,-1.3169426110237734
-0.007465846868726325,0.015683258272093638,-1.320649962004811
-0.007464056868726325,0.01938148312467744,-1.320649962004811
-0.007462266868726326,0.01938148312467744,-1.3169426110237734
-0.007460476868726326,0.02307970797726124,-1.3169426110237734
-0.007458686868726325,0.02307970797726124,-1.320649962004811
-0.0074568968687263254,0.01938148312467744,-1.3169426110237734
-0.007455106868726326,0.01938148312467744,-1.320649962004811
-0.007453316868726326,0.015683258272093638,-1.3169426110237734
-0.007451526868726325,0.015683258272093638,-1.3169426110237734
-0.0074497368687263255,0.015683258272093638,-1.3169426110237734
-0.007447946868726326,0.01198503341950984,-1.320649962004811
-0.007446156868726326,0.01198503341950984,-1.313235260042739
-0.007444366868726325,0.01198503341950984,-1.3169426110237734
-0.0074425768687263255,0.01198503341950984,-1.3243573129858488
-0.007440786868726326,0.015683258272093638,-1.320649962004811
-0.007438996868726325,0.015683258272091955,-1.3169426110237734
-0.007437206868726325,0.01198503341950984,-1.3169426110237734
-0.0074354168687263255,0.01198503341950984,-1.3169426110237734
-0.007433626868726326,0.01198503341950984,-1.3243573129858488
-0.007431836868726325,0.01198503341950984,-1.3243573129858488
-0.007430046868726325,0.015683258272093638,-1.3169426110237734
-0.0074282568687263255,0.015683258272093638,-1.3169426110237734
-0.007426466868726326,0.015683258272093638,-1.3169426110237734
-0.007424676868726325,0.00828680856692604,-1.3169426110237734
-0.007422886868726325,0.015683258272093638,-1.320649962004811
-0.0074210968687263255,0.01198503341950984,-1.3169426110237734
-0.007419306868726326,0.00828680856692604,-1.320649962004811
-0.007417516868726325,0.00458858371434224,-1.3169426110237734
-0.007415726868726325,0.00828680856692604,-1.3169426110237734
-0.0074139368687263256,0.00828680856692604,-1.3169426110237734
-0.007412146868726326,0.01198503341950984,-1.320649962004811
-0.007410356868726325,0.015683258272093638,-1.3132352600427357
-0.007408566868726325,0.00828680856692604,-1.3169426110237734
-0.007406776868726326,0.01198503341950984,-1.320649962004811
-0.007404986868726326,0.00828680856692604,-1.320649962004811
-0.007403196868726325,0.00828680856692604,-1.3243573129858488
-0.007401406868726325,0.01198503341950984,-1.3169426110237734
-0.007399616868726326,0.00458858371434224,-1.3169426110237734
-0.007397826868726326,0.00458858371434224,-1.3169426110237734
-0.007396036868726325,0.01198503341950984,-1.3169426110237734
-0.007394246868726325,0.01198503341950984,-1.3169426110237734
-0.007392456868726326,0.01198503341950984,-1.3169426110237734
-0.007390666868726326,0.01198503341950984,-1.320649962004811
-0.007388876868726325,0.00458858371434224,-1.3169426110237734
-0.007387086868726325,0.00828680856692604,-1.3169426110237734
-0.007385296868726326,0.00828680856692604,-1.3169426110237734
-0.007383506868726326,0.00828680856692604,-1.320649962004811
-0.007381716868726325,0.00828680856692604,-1.3169426110237734
-0.0073799268687263254,0.00828680856692604,-1.3169426110237734
-0.007378136868726326,0.00458858371434224,-1.3169426110237734
-0.007376346868726326,0.00828680856692604,-1.320649962004811
-0.007374556868726325,0.00458858371434224,-1.3243573129858488
-0.0073727668687263255,0.00828680856692604,-1.320649962004811
-0.007370976868726326,0.00458858371434224,-1.3169426110237734
-0.007369186868726326,-0.0028078659908219953,-1.3169426110237734
-0.007367396868726325,0.00458858371434224,-1.320649962004811
-0.0073656068687263255,0.0008903588617584406,-1.320649962004811
-0.007363816868726326,0.00458858371434224,-1.320649962004811
-0.007362026868726325,0.00828680856692604,-1.324357312985847
-0.007360236868726325,0.00828680856692604,-1.320649962004811
-0.0073584468687263255,0.00458858371434224,-1.320649962004811
-0.007356656868726326,0.00828680856692604,-1.320649962004811
-0.007354866868726325,0.00828680856692604,-1.320649962004811
-0.007353076868726325,0.00458858371434224,-1.320649962004811
-0.0073512868687263255,0.00458858371434224,-1.320649962004811
-0.007349496868726326,0.00458858371434224,-1.3169426110237734
-0.007347706868726325,0.0008903588617584406,-1.3169426110237734
-0.007345916868726325,0.0008903588617584406,-1.3132352600427357
-0.0073441268687263256,0.00458858371434224,-1.3132352600427357
-0.007342336868726326,0.0008903588617584406,-1.3169426110237734
-0.007340546868726325,0.00458858371434224,-1.320649962004811
-0.007338756868726325,0.0008903588617584406,-1.3169426110237734
-0.007336966868726326,-0.002807865990825359,-1.320649962004811
-0.007335176868726326,-0.002807865990825359,-1.320649962004811
-0.007333386868726325,0.00458858371434224,-1.3243573129858488
-0.007331596868726325,0.00458858371434224,-1.3243573129858488
-0.007329806868726326,0.0008903588617584406,-1.320649962004811
-0.007328016868726326,0.0008903588617584406,-1.320649962004811
-0.007326226868726325,0.0008903588617584406,-1.3169426110237734
-0.007324436868726325,0.0008903588617584406,-1.3169426110237734
-0.007322646868726326,-0.002807865990825359,-1.320649962004811
-0.007320856868726326,-0.002807865990825359,-1.320649962004811
-0.007319066868726325,-0.002807865990825359,-1.3243573129858488
-0.007317276868726325,0.0008903588617584406,-1.320649962004811
-0.007315486868726326,-0.002807865990825359,-1.320649962004811
-0.007313696868726326,0.00458858371434224,-1.320649962004811
-0.007311906868726325,-0.002807865990825359,-1.320649962004811
-0.0073101168687263254,-0.002807865990825359,-1.320649962004811
-0.007308326868726326,0.00458858371434224,-1.320649962004811
-0.007306536868726326,0.0008903588617584406,-1.320649962004811
-0.007304746868726325,-0.0065060908434091584,-1.3169426110237734
-0.0073029568687263255,-0.010204315695992958,-1.3169426110237734
-0.007301166868726326,-0.0065060908434091584,-1.3169426110237734
-0.007299376868726326,-0.0028078659908270407,-1.3206499620048093
-0.007297586868726325,-0.0065060908434091584,-1.320649962004811
-0.0072957968687263255,-0.002807865990825359,-1.320649962004811
-0.007294006868726326,-0.002807865990825359,-1.320649962004811
-0.007292216868726325,-0.006506090843407477,-1.320649962004811
-0.007290426868726325,-0.002807865990825359,-1.320649962004811
-0.0072886368687263255,-0.010204315695992958,-1.3243573129858488
-0.007286846868726326,-0.0065060908434091584,-1.3169426110237734
-0.007285056868726325,-0.010204315695991277,-1.320649962004811
-0.007283266868726325,-0.0065060908434091584,-1.320649962004811
-0.0072814768687263255,-0.010204315695992958,-1.3243573129858488
-0.007279686868726326,-0.0065060908434091584,-1.320649962004811
-0.007277896868726325,-0.010204315695992958,-1.320649962004811
-0.007276106868726325,-0.010204315695992958,-1.320649962004811
-0.0072743168687263255,-0.002807865990825359,-1.3169426110237734
-0.007272526868726326,-0.010204315695992958,-1.320649962004811
-0.007270736868726325,-0.002807865990825359,-1.320649962004811
-0.007268946868726325,-0.0065060908434091584,-1.3169426110237734
-0.0072671568687263256,-0.0065060908434091584,-1.320649962004811
-0.007265366868726326,-0.0065060908434091584,-1.3169426110237734
-0.007263576868726325,-0.010204315695992958,-1.3169426110237734
-0.007261786868726325,-0.002807865990825359,-1.320649962004811
-0.007259996868726326,-0.0065060908434091584,-1.320649962004811
-0.007258206868726326,-0.0065060908434091584,-1.320649962004811
-0.007256416868726325,-0.010204315695992958,-1.320649962004811
-0.007254626868726325,-0.002807865990825359,-1.3243573129858488
-0.007252836868726326,-0.010204315695992958,-1.320649962004811
-0.007251046868726326,-0.013902540548576758,-1.3243573129858488
-0.007249256868726325,-0.010204315695992958,-1.320649962004811
-0.007247466868726325,-0.013902540548576758,-1.3169426110237734
-0.007245676868726326,-0.0065060908434091584,-1.3169426110237734
-0.007243886868726326,-0.0065060908434091584,-1.3132352600427357
-0.007242096868726325,-0.010204315695992958,-1.3169426110237734
-0.007240306868726325,-0.0065060908434091584,-1.3132352600427357
-0.007238516868726326,-0.010204315695992958,-1.3169426110237734
-0.007236726868726326,-0.010204315695992958,-1.3243573129858488
-0.007234936868726325,-0.017600765401160557,-1.3243573129858488
-0.0072331468687263254,-0.013902540548576758,-1.3243573129858488
-0.007231356868726326,-0.010204315695992958,-1.320649962004811
-0.007229566868726326,-0.002807865990825359,-1.320649962004811
-0.007227776868726325,-0.010204315695992958,-1.3169426110237734
-0.0072259868687263255,-0.013902540548576758,-1.3169426110237734
-0.007224196868726326,-0.013902540548576758,-1.320649962004811
-0.007222406868726326,-0.017600765401158874,-1.320649962004811
-0.007220616868726325,-0.017600765401160557,-1.3169426110237734
-0.0072188268687263255,-0.021298990253744356,-1.3169426110237734
-0.007217036868726326,-0.013902540548576758,-1.320649962004811
-0.007215246868726325,-0.01390254054857844,-1.324357312985847
-0.007213456868726325,-0.017600765401160557,-1.320649962004811
-0.0072116668687263255,-0.010204315695992958,-1.320649962004811
-0.007209876868726326,-0.013902540548576758,-1.320649962004811
-0.007208086868726325,-0.013902540548576758,-1.320649962004811
-0.007206296868726325,-0.013902540548576758,-1.320649962004811
-0.0072045068687263255,-0.017600765401160557,-1.3169426110237734
-0.007202716868726326,-0.021298990253744356,-1.3169426110237734
-0.007200926868726325,-0.013902540548576758,-1.320649962004811
-0.007199136868726325,-0.013902540548576758,-1.3169426110237734
-0.0071973468687263255,-0.017600765401160557,-1.3169426110237734
-0.007195556868726326,-0.010204315695992958,-1.3243573129858488
-0.007193766868726325,-0.013902540548576758,-1.3243573129858488
-0.007191976868726325,-0.017600765401160557,-1.3243573129858488
-0.007190186868726326,-0.017600765401160557,-1.320649962004811
-0.007188396868726326,-0.017600765401160557,-1.320649962004811
-0.007186606868726325,-0.013902540548576758,-1.3169426110237734
-0.007184816868726325,-0.013902540548576758,-1.3169426110237734
