100Hz/acq0070.csv

#Digilent WaveForms Oscilloscope Acquisition
#Device Name: Discovery2
#Serial Number: SN:210321AA28BE
#Date Time: 2023-05-24 14:48:32.272
#Sample rate: 558659Hz
#Samples: 8192
#Trigger: Source: Channel 1 Type: Edge Condition: Rising Level: 800 mV Hyst.: Auto HoldOff: 100 ns
#Channel 1: Range: 1 V/div Offset: 0 V Attenuation: 1 X Sample Mode: Average
#Channel 2: Range: 1 V/div Offset: 0 V Attenuation: 1 X Sample Mode: Average

Time (s),Channel 1 (V),Channel 2 (V)
-0.007741785054873512,0.05266550679793163,-1.3132352600427357
-0.007739995054873512,0.06006195650309586,-1.3169426110237716
-0.007738205054873512,0.05266550679793163,-1.3169426110237734
-0.007736415054873512,0.05266550679793163,-1.3132352600427357
-0.007734625054873512,0.05266550679793163,-1.320649962004811
-0.0077328350548735115,0.048967281945347836,-1.3169426110237752
-0.007731045054873512,0.048967281945347836,-1.320649962004811
-0.007729255054873512,0.045269057092764034,-1.320649962004811
-0.007727465054873512,0.048967281945347836,-1.320649962004811
-0.0077256750548735115,0.05266550679793163,-1.320649962004811
-0.007723885054873512,0.05266550679793163,-1.320649962004811
-0.007722095054873512,0.05266550679793163,-1.320649962004811
-0.007720305054873512,0.045269057092764034,-1.320649962004811
-0.0077185150548735116,0.05266550679793163,-1.3169426110237734
-0.007716725054873512,0.045269057092764034,-1.320649962004811
-0.007714935054873512,0.048967281945347836,-1.320649962004811
-0.007713145054873512,0.04157083224018024,-1.3132352600427357
-0.007711355054873512,0.04157083224018024,-1.3169426110237734
-0.007709565054873512,0.045269057092764034,-1.3169426110237734
-0.007707775054873512,0.045269057092764034,-1.320649962004811
-0.007705985054873512,0.045269057092764034,-1.320649962004811
-0.007704195054873512,0.045269057092764034,-1.320649962004811
-0.007702405054873512,0.04157083224018024,-1.320649962004811
-0.007700615054873512,0.04157083224018024,-1.3132352600427357
-0.007698825054873512,0.048967281945347836,-1.3169426110237734
-0.007697035054873512,0.045269057092764034,-1.3169426110237734
-0.007695245054873512,0.04157083224018024,-1.3169426110237734
-0.007693455054873512,0.048967281945347836,-1.320649962004811
-0.007691665054873512,0.045269057092764034,-1.3243573129858488
-0.007689875054873512,0.04157083224018024,-1.320649962004811
-0.007688085054873512,0.045269057092764034,-1.320649962004811
-0.007686295054873512,0.04157083224018024,-1.320649962004811
-0.007684505054873512,0.045269057092764034,-1.320649962004811
-0.007682715054873512,0.03787260738759644,-1.320649962004811
-0.007680925054873512,0.04157083224018024,-1.320649962004811
-0.007679135054873512,0.03787260738759644,-1.320649962004811
-0.007677345054873512,0.045269057092764034,-1.3169426110237734
-0.007675555054873512,0.045269057092764034,-1.320649962004811
-0.007673765054873512,0.04157083224018024,-1.3243573129858488
-0.007671975054873512,0.04157083224018024,-1.3132352600427357
-0.007670185054873512,0.04157083224018024,-1.3169426110237716
-0.007668395054873512,0.04157083224018024,-1.320649962004811
-0.007666605054873512,0.04157083224018024,-1.320649962004811
-0.007664815054873512,0.045269057092764034,-1.320649962004811
-0.0076630250548735115,0.04526905709276067,-1.3169426110237734
-0.007661235054873512,0.03787260738759644,-1.3169426110237734
-0.007659445054873512,0.03787260738759644,-1.320649962004811
-0.007657655054873512,0.03787260738759644,-1.320649962004811
-0.0076558650548735115,0.04157083224017856,-1.3206499620048093
-0.007654075054873512,0.03787260738759644,-1.3169426110237734
-0.007652285054873512,0.03787260738759644,-1.3169426110237734
-0.007650495054873512,0.03787260738759644,-1.320649962004811
-0.0076487050548735116,0.03787260738759644,-1.320649962004811
-0.007646915054873512,0.03047615768242884,-1.3169426110237734
-0.007645125054873512,0.04157083224018024,-1.320649962004811
-0.007643335054873512,0.034174382535012635,-1.3169426110237734
-0.007641545054873512,0.034174382535012635,-1.3243573129858488
-0.007639755054873512,0.03787260738759644,-1.320649962004811
-0.007637965054873512,0.034174382535012635,-1.3132352600427357
-0.007636175054873512,0.034174382535012635,-1.3169426110237734
-0.007634385054873512,0.03047615768242884,-1.3132352600427357
-0.007632595054873512,0.034174382535012635,-1.3132352600427357
-0.007630805054873512,0.03047615768242884,-1.320649962004811
-0.007629015054873512,0.034174382535012635,-1.320649962004811
-0.007627225054873512,0.034174382535012635,-1.3169426110237734
-0.007625435054873512,0.03787260738759644,-1.3243573129858488
-0.007623645054873512,0.034174382535012635,-1.3243573129858488
-0.007621855054873512,0.03047615768242884,-1.320649962004811
-0.007620065054873512,0.03047615768242884,-1.320649962004811
-0.007618275054873512,0.03047615768242884,-1.320649962004811
-0.007616485054873512,0.03047615768242884,-1.320649962004811
-0.007614695054873512,0.03047615768242884,-1.320649962004811
-0.007612905054873512,0.03047615768242884,-1.320649962004811
-0.007611115054873512,0.03047615768242884,-1.320649962004811
-0.007609325054873512,0.026777932829845037,-1.3169426110237734
-0.007607535054873512,0.03047615768242884,-1.320649962004811
-0.007605745054873512,0.026777932829845037,-1.3169426110237734
-0.007603955054873512,0.03047615768242884,-1.3169426110237734
-0.007602165054873512,0.026777932829845037,-1.3169426110237734
-0.007600375054873512,0.026777932829845037,-1.3169426110237734
-0.007598585054873512,0.026777932829845037,-1.320649962004811
-0.007596795054873512,0.026777932829845037,-1.3169426110237734
-0.007595005054873512,0.03047615768242884,-1.3243573129858488
-0.007593215054873512,0.02677793282984672,-1.3243573129858488
-0.007591425054873512,0.01938148312467744,-1.3169426110237734
-0.007589635054873512,0.03047615768242884,-1.320649962004811
-0.007587845054873512,0.026777932829845037,-1.320649962004811
-0.0075860550548735115,0.030476157682427157,-1.3206499620048093
-0.007584265054873512,0.026777932829845037,-1.3169426110237734
-0.007582475054873512,0.02307970797726124,-1.320649962004811
-0.007580685054873512,0.026777932829845037,-1.320649962004811
-0.0075788950548735115,0.02307970797726124,-1.320649962004811
-0.007577105054873512,0.01938148312467744,-1.3169426110237734
-0.007575315054873512,0.026777932829845037,-1.3169426110237734
-0.007573525054873512,0.02307970797726124,-1.3169426110237734
-0.0075717350548735116,0.02307970797726124,-1.3169426110237734
-0.007569945054873512,0.026777932829845037,-1.3169426110237734
-0.007568155054873512,0.015683258272093638,-1.3132352600427357
-0.007566365054873512,0.01938148312467744,-1.3132352600427357
-0.007564575054873512,0.02307970797726124,-1.3169426110237734
-0.007562785054873512,0.02307970797726124,-1.320649962004811
-0.007560995054873512,0.02307970797726124,-1.3169426110237734
-0.007559205054873512,0.01938148312467744,-1.320649962004811
-0.007557415054873512,0.02307970797726124,-1.3169426110237734
-0.007555625054873512,0.02307970797726124,-1.320649962004811
-0.007553835054873512,0.015683258272093638,-1.320649962004811
-0.007552045054873512,0.01938148312467744,-1.3169426110237734
-0.007550255054873512,0.02307970797726124,-1.320649962004811
-0.007548465054873512,0.02307970797726124,-1.320649962004811
-0.007546675054873512,0.026777932829845037,-1.320649962004811
-0.007544885054873512,0.01938148312467744,-1.320649962004811
-0.007543095054873512,0.02307970797726124,-1.3169426110237734
-0.007541305054873512,0.026777932829845037,-1.3243573129858488
-0.007539515054873512,0.01938148312467744,-1.3169426110237734
-0.007537725054873512,0.01938148312467744,-1.320649962004811
-0.007535935054873512,0.01938148312467744,-1.3169426110237734
-0.007534145054873512,0.015683258272093638,-1.3169426110237734
-0.007532355054873512,0.015683258272093638,-1.3169426110237734
-0.007530565054873512,0.015683258272093638,-1.3169426110237734
-0.007528775054873512,0.01198503341950984,-1.3169426110237734
-0.007526985054873512,0.01198503341950984,-1.3169426110237734
-0.007525195054873512,0.015683258272093638,-1.320649962004811
-0.007523405054873512,0.015683258272093638,-1.324357312985847
-0.007521615054873512,0.015683258272093638,-1.320649962004811
-0.007519825054873512,0.00828680856692604,-1.320649962004811
-0.007518035054873512,0.015683258272093638,-1.3243573129858488
-0.007516245054873512,0.019381483124675757,-1.3206499620048129
-0.007514455054873512,0.015683258272093638,-1.3169426110237734
-0.007512665054873512,0.015683258272093638,-1.3132352600427357
-0.007510875054873512,0.015683258272093638,-1.3169426110237734
-0.0075090850548735115,0.008286808566929404,-1.320649962004811
-0.007507295054873512,0.015683258272093638,-1.320649962004811
-0.007505505054873512,0.01198503341950984,-1.3243573129858488
-0.007503715054873512,0.015683258272093638,-1.3169426110237734
-0.0075019250548735116,0.01198503341950984,-1.320649962004811
-0.007500135054873512,0.015683258272093638,-1.3169426110237734
-0.007498345054873512,0.01198503341950984,-1.3169426110237734
-0.007496555054873512,0.00828680856692604,-1.320649962004811
-0.007494765054873512,0.01198503341950984,-1.320649962004811
-0.007492975054873512,0.01198503341950984,-1.3243573129858488
-0.007491185054873512,0.015683258272093638,-1.320649962004811
-0.007489395054873512,0.01198503341950984,-1.3169426110237734
-0.007487605054873512,0.01198503341950984,-1.3132352600427357
-0.007485815054873512,0.01198503341950984,-1.320649962004811
-0.007484025054873512,0.015683258272093638,-1.3169426110237734
-0.007482235054873512,0.01198503341950984,-1.3169426110237734
-0.007480445054873512,0.00458858371434224,-1.3169426110237734
-0.007478655054873512,0.00458858371434224,-1.320649962004811
-0.007476865054873512,0.01198503341950984,-1.3169426110237734
-0.007475075054873512,0.00828680856692604,-1.320649962004811
-0.007473285054873512,0.01198503341950984,-1.3169426110237734
-0.007471495054873512,0.00828680856692604,-1.3132352600427357
-0.007469705054873512,0.00458858371434224,-1.3169426110237734
-0.007467915054873512,0.01198503341950984,-1.3132352600427357
-0.007466125054873512,0.00458858371434224,-1.3169426110237734
-0.007464335054873512,0.00828680856692604,-1.3169426110237734
-0.007462545054873512,0.01198503341950984,-1.320649962004811
-0.007460755054873512,0.01198503341950984,-1.320649962004811
-0.007458965054873512,0.00828680856692604,-1.320649962004811
-0.007457175054873512,0.01198503341950984,-1.3169426110237734
-0.007455385054873512,0.01198503341950984,-1.320649962004811
-0.007453595054873512,0.00458858371434224,-1.3243573129858488
-0.007451805054873512,0.00828680856692604,-1.320649962004811
-0.007450015054873512,0.00458858371434224,-1.3169426110237734
-0.007448225054873512,0.00458858371434224,-1.3169426110237734
-0.007446435054873512,0.008286808566924358,-1.3206499620048093
-0.007444645054873512,0.00828680856692604,-1.3169426110237734
-0.007442855054873512,0.00458858371434224,-1.3243573129858488
-0.007441065054873512,0.00828680856692604,-1.320649962004811
-0.0074392750548735115,0.008286808566927721,-1.3169426110237734
-0.007437485054873512,0.01198503341950984,-1.3169426110237734
-0.007435695054873512,0.01198503341950984,-1.3169426110237734
-0.007433905054873512,0.00458858371434224,-1.3169426110237734
-0.0074321150548735115,0.00828680856692604,-1.320649962004811
-0.007430325054873512,0.00458858371434224,-1.320649962004811
-0.007428535054873512,0.00828680856692604,-1.320649962004811
-0.007426745054873512,0.00458858371434224,-1.3169426110237734
-0.0074249550548735116,0.0008903588617584406,-1.320649962004811
-0.007423165054873512,0.0008903588617584406,-1.320649962004811
-0.007421375054873512,0.0008903588617584406,-1.320649962004811
-0.007419585054873512,0.0008903588617584406,-1.3243573129858488
-0.007417795054873512,0.00828680856692604,-1.320649962004811
-0.007416005054873512,0.00458858371434224,-1.320649962004811
-0.007414215054873512,0.00458858371434224,-1.320649962004811
-0.007412425054873512,0.00458858371434224,-1.320649962004811
-0.007410635054873512,0.00458858371434224,-1.3132352600427357
-0.007408845054873512,0.0008903588617584406,-1.3132352600427357
-0.007407055054873512,0.0008903588617584406,-1.320649962004811
-0.007405265054873512,0.0008903588617584406,-1.320649962004811
-0.007403475054873512,0.00458858371434224,-1.3169426110237734
-0.007401685054873512,0.00458858371434224,-1.3132352600427357
-0.007399895054873512,0.0008903588617584406,-1.320649962004811
-0.007398105054873512,0.00458858371434224,-1.320649962004811
-0.007396315054873512,0.00458858371434224,-1.3169426110237734
-0.007394525054873512,0.0008903588617584406,-1.320649962004811
-0.007392735054873512,0.0008903588617584406,-1.320649962004811
-0.007390945054873512,0.00458858371434224,-1.3169426110237734
-0.007389155054873512,0.00458858371434224,-1.320649962004811
-0.007387365054873512,0.0008903588617584406,-1.3169426110237734
-0.007385575054873512,-0.002807865990825359,-1.320649962004811
-0.007383785054873512,-0.002807865990825359,-1.3169426110237734
-0.007381995054873512,0.0008903588617584406,-1.3243573129858488
-0.007380205054873512,0.0008903588617584406,-1.3169426110237734
-0.007378415054873512,-0.002807865990825359,-1.3169426110237734
-0.007376625054873512,-0.002807865990825359,-1.320649962004811
-0.007374835054873512,0.0008903588617584406,-1.3169426110237734
-0.007373045054873512,-0.0065060908434091584,-1.3169426110237734
-0.007371255054873512,-0.002807865990825359,-1.320649962004811
-0.007369465054873512,-0.002807865990825359,-1.3169426110237752
-0.007367675054873512,0.0008903588617584406,-1.3169426110237734
-0.007365885054873512,-0.0065060908434091584,-1.3132352600427357
-0.007364095054873512,-0.0065060908434091584,-1.320649962004811
-0.0073623050548735115,-0.0028078659908270407,-1.324357312985847
-0.007360515054873512,-0.0065060908434091584,-1.320649962004811
-0.007358725054873512,0.0008903588617584406,-1.320649962004811
-0.007356935054873512,0.0008903588617584406,-1.320649962004811
-0.0073551450548735115,-0.0065060908434091584,-1.3132352600427357
-0.007353355054873512,-0.0065060908434091584,-1.320649962004811
-0.007351565054873512,0.0008903588617584406,-1.320649962004811
-0.007349775054873512,0.0008903588617584406,-1.3169426110237734
-0.007347985054873512,-0.002807865990825359,-1.3169426110237734
-0.007346195054873512,-0.002807865990825359,-1.3169426110237734
-0.007344405054873512,-0.002807865990825359,-1.3169426110237734
-0.007342615054873512,-0.002807865990825359,-1.320649962004811
-0.007340825054873512,0.0008903588617584406,-1.320649962004811
-0.007339035054873512,-0.002807865990825359,-1.3132352600427357
-0.007337245054873512,-0.002807865990825359,-1.320649962004811
-0.007335455054873512,-0.002807865990825359,-1.3243573129858488
-0.007333665054873512,-0.002807865990825359,-1.3243573129858488
-0.007331875054873512,-0.0065060908434091584,-1.3169426110237734
-0.007330085054873512,-0.002807865990825359,-1.3169426110237734
-0.007328295054873512,-0.0065060908434091584,-1.3169426110237734
-0.007326505054873512,-0.0065060908434091584,-1.320649962004811
-0.007324715054873512,-0.0065060908434091584,-1.320649962004811
-0.007322925054873512,-0.0065060908434091584,-1.3169426110237734
-0.007321135054873512,-0.010204315695992958,-1.320649962004811
-0.007319345054873512,-0.0065060908434091584,-1.320649962004811
-0.007317555054873512,-0.002807865990825359,-1.320649962004811
-0.007315765054873512,-0.010204315695992958,-1.3169426110237734
-0.007313975054873512,-0.0065060908434091584,-1.320649962004811
-0.007312185054873512,-0.010204315695992958,-1.320649962004811
-0.007310395054873512,-0.010204315695992958,-1.3243573129858488
-0.007308605054873512,-0.0065060908434091584,-1.320649962004811
-0.007306815054873512,-0.010204315695992958,-1.320649962004811
-0.007305025054873512,-0.010204315695992958,-1.3169426110237734
-0.007303235054873512,-0.010204315695992958,-1.3169426110237734
-0.007301445054873512,-0.013902540548576758,-1.3132352600427357
-0.007299655054873512,-0.006506090843412522,-1.3169426110237716
-0.007297865054873512,-0.010204315695992958,-1.320649962004811
-0.007296075054873512,-0.010204315695992958,-1.3169426110237734
-0.007294285054873512,-0.013902540548576758,-1.3169426110237734
-0.0072924950548735115,-0.013902540548575077,-1.3206499620048129
-0.007290705054873512,-0.010204315695992958,-1.3243573129858488
-0.007288915054873512,-0.0065060908434091584,-1.3169426110237734
-0.007287125054873512,-0.010204315695992958,-1.3169426110237734
-0.0072853350548735115,-0.013902540548571714,-1.3169426110237734
-0.007283545054873512,-0.002807865990825359,-1.3169426110237734
-0.007281755054873512,-0.013902540548576758,-1.3169426110237734
-0.007279965054873512,-0.013902540548576758,-1.3243573129858488
-0.0072781750548735116,-0.013902540548576758,-1.320649962004811
-0.007276385054873512,-0.013902540548576758,-1.3169426110237734
-0.007274595054873512,-0.010204315695992958,-1.320649962004811
-0.007272805054873512,-0.0065060908434091584,-1.3132352600427357
-0.007271015054873512,-0.010204315695992958,-1.320649962004811
-0.007269225054873512,-0.013902540548576758,-1.320649962004811
-0.007267435054873512,-0.013902540548576758,-1.3132352600427357
-0.007265645054873512,-0.013902540548576758,-1.3169426110237734
-0.007263855054873512,-0.002807865990825359,-1.3132352600427357
-0.007262065054873512,-0.010204315695992958,-1.3132352600427357
-0.007260275054873512,-0.010204315695992958,-1.3169426110237734
-0.007258485054873512,-0.010204315695992958,-1.320649962004811
-0.007256695054873512,-0.010204315695992958,-1.320649962004811
-0.007254905054873512,-0.010204315695992958,-1.3169426110237734
-0.007253115054873512,-0.017600765401160557,-1.3169426110237734
-0.007251325054873512,-0.017600765401160557,-1.320649962004811
-0.007249535054873512,-0.013902540548576758,-1.320649962004811
-0.007247745054873512,-0.013902540548576758,-1.320649962004811
-0.007245955054873512,-0.013902540548576758,-1.3169426110237734
-0.007244165054873512,-0.013902540548576758,-1.3169426110237734
-0.007242375054873512,-0.013902540548576758,-1.3169426110237734
-0.007240585054873512,-0.013902540548576758,-1.3169426110237734
-0.007238795054873512,-0.010204315695992958,-1.3132352600427357
-0.007237005054873512,-0.021298990253744356,-1.3169426110237734
-0.007235215054873512,-0.013902540548576758,-1.320649962004811
-0.007233425054873512,-0.021298990253744356,-1.3169426110237734
-0.007231635054873512,-0.013902540548576758,-1.320649962004811
-0.007229845054873512,-0.013902540548576758,-1.3169426110237734
-0.007228055054873512,-0.013902540548576758,-1.3169426110237734
-0.007226265054873512,-0.017600765401160557,-1.3169426110237734
-0.007224475054873512,-0.013902540548576758,-1.3169426110237734
-0.007222685054873512,-0.017600765401158874,-1.3169426110237734
-0.007220895054873512,-0.017600765401160557,-1.320649962004811
-0.007219105054873512,-0.017600765401160557,-1.3169426110237734
-0.007217315054873512,-0.021298990253744356,-1.3169426110237734
-0.0072155250548735115,-0.017600765401160557,-1.320649962004811
-0.007213735054873512,-0.017600765401160557,-1.320649962004811
-0.007211945054873512,-0.017600765401160557,-1.320649962004811
-0.007210155054873512,-0.021298990253744356,-1.3169426110237734
-0.0072083650548735115,-0.021298990253744356,-1.320649962004811
-0.007206575054873512,-0.021298990253744356,-1.3132352600427357
-0.007204785054873512,-0.013902540548576758,-1.320649962004811
-0.007202995054873512,-0.017600765401160557,-1.320649962004811
-0.007201205054873512,-0.021298990253744356,-1.320649962004811
-0.007199415054873512,-0.017600765401160557,-1.3169426110237734
-0.007197625054873512,-0.017600765401160557,-1.3169426110237734
-0.007195835054873512,-0.021298990253744356,-1.320649962004811
-0.007194045054873512,-0.017600765401160557,-1.320649962004811
-0.007192255054873512,-0.021298990253744356,-1.320649962004811
-0.007190465054873512,-0.021298990253744356,-1.320649962004811
-0.007188675054873512,-0.017600765401160557,-1.3169426110237734
-0.007186885054873512,-0.021298990253744356,-1.320649962004811
