100Hz/acq0078.csv

#Digilent WaveForms Oscilloscope Acquisition
#Device Name: Discovery2
#Serial Number: SN:210321AA28BE
#Date Time: 2023-05-24 14:48:32.502
#Sample rate: 558659Hz
#Samples: 8192
#Trigger: Source: Channel 1 Type: Edge Condition: Rising Level: 800 mV Hyst.: Auto HoldOff: 100 ns
#Channel 1: Range: 1 V/div Offset: 0 V Attenuation: 1 X Sample Mode: Average
#Channel 2: Range: 1 V/div Offset: 0 V Attenuation: 1 X Sample Mode: Average

Time (s),Channel 1 (V),Channel 2 (V)
-0.007741539903020743,0.026777932829845037,-1.3132352600427357
-0.007739749903020743,0.019381483124680805,-1.3169426110237716
-0.007737959903020742,0.02307970797726124,-1.320649962004811
-0.007736169903020743,0.01938148312467744,-1.3169426110237734
-0.007734379903020743,0.01198503341950984,-1.320649962004811
-0.007732589903020742,0.023079707977257877,-1.3169426110237752
-0.007730799903020742,0.015683258272093638,-1.320649962004811
-0.007729009903020743,0.01938148312467744,-1.320649962004811
-0.007727219903020743,0.01938148312467744,-1.320649962004811
-0.007725429903020742,0.01938148312467744,-1.3169426110237734
-0.007723639903020742,0.01938148312467744,-1.320649962004811
-0.007721849903020743,0.01198503341950984,-1.320649962004811
-0.007720059903020743,0.01198503341950984,-1.320649962004811
-0.007718269903020742,0.01198503341950984,-1.3169426110237734
-0.007716479903020742,0.01198503341950984,-1.3169426110237734
-0.007714689903020743,0.01198503341950984,-1.320649962004811
-0.007712899903020743,0.015683258272093638,-1.3169426110237734
-0.007711109903020742,0.01198503341950984,-1.3169426110237734
-0.0077093199030207425,0.01198503341950984,-1.3169426110237734
-0.007707529903020743,0.015683258272093638,-1.3169426110237734
-0.007705739903020743,0.01198503341950984,-1.3169426110237734
-0.007703949903020742,0.01198503341950984,-1.320649962004811
-0.0077021599030207425,0.00828680856692604,-1.320649962004811
-0.007700369903020743,0.00828680856692604,-1.320649962004811
-0.007698579903020743,0.00828680856692604,-1.3243573129858488
-0.007696789903020742,0.015683258272093638,-1.3169426110237734
-0.0076949999030207425,0.015683258272093638,-1.3169426110237734
-0.007693209903020743,0.015683258272093638,-1.3169426110237734
-0.007691419903020743,0.00828680856692604,-1.3169426110237734
-0.007689629903020742,0.00458858371434224,-1.320649962004811
-0.0076878399030207425,0.00458858371434224,-1.320649962004811
-0.007686049903020743,0.00458858371434224,-1.320649962004811
-0.007684259903020743,0.01198503341950984,-1.320649962004811
-0.007682469903020742,0.00828680856692604,-1.3169426110237734
-0.0076806799030207425,0.0008903588617584406,-1.3169426110237734
-0.007678889903020743,0.00828680856692604,-1.3132352600427357
-0.007677099903020743,0.01198503341950984,-1.320649962004811
-0.007675309903020742,0.00828680856692604,-1.320649962004811
-0.0076735199030207426,0.00458858371434224,-1.3132352600427357
-0.007671729903020743,0.01198503341950984,-1.320649962004811
-0.007669939903020743,0.008286808566927723,-1.320649962004811
-0.007668149903020742,0.00458858371434224,-1.3169426110237734
-0.007666359903020743,0.0008903588617584406,-1.3169426110237734
-0.007664569903020743,0.00458858371434224,-1.320649962004811
-0.007662779903020742,0.004588583714340558,-1.3169426110237734
-0.007660989903020742,0.0008903588617584406,-1.3169426110237734
-0.007659199903020743,0.00458858371434224,-1.320649962004811
-0.007657409903020743,0.00458858371434224,-1.320649962004811
-0.007655619903020742,0.0008903588617567589,-1.3169426110237734
-0.007653829903020742,-0.002807865990825359,-1.3169426110237734
-0.007652039903020743,0.0008903588617584406,-1.320649962004811
-0.007650249903020743,0.0008903588617584406,-1.320649962004811
-0.007648459903020742,-0.002807865990825359,-1.320649962004811
-0.007646669903020742,0.00458858371434224,-1.320649962004811
-0.007644879903020743,-0.002807865990825359,-1.320649962004811
-0.007643089903020743,-0.002807865990825359,-1.320649962004811
-0.007641299903020742,0.0008903588617584406,-1.320649962004811
-0.0076395099030207424,-0.002807865990825359,-1.3169426110237734
-0.007637719903020743,-0.002807865990825359,-1.3169426110237734
-0.007635929903020743,-0.0065060908434091584,-1.320649962004811
-0.007634139903020742,0.0008903588617584406,-1.320649962004811
-0.0076323499030207425,0.0008903588617584406,-1.320649962004811
-0.007630559903020743,0.0008903588617584406,-1.320649962004811
-0.007628769903020743,0.0008903588617584406,-1.320649962004811
-0.007626979903020742,-0.0065060908434091584,-1.320649962004811
-0.0076251899030207425,-0.002807865990825359,-1.3243573129858488
-0.007623399903020743,0.0008903588617584406,-1.3169426110237734
-0.007621609903020743,-0.0065060908434091584,-1.320649962004811
-0.007619819903020742,-0.002807865990825359,-1.320649962004811
-0.0076180299030207425,0.00458858371434224,-1.3243573129858488
-0.007616239903020743,-0.002807865990825359,-1.3243573129858488
-0.007614449903020743,-0.002807865990825359,-1.320649962004811
-0.007612659903020742,-0.0065060908434091584,-1.320649962004811
-0.0076108699030207425,-0.0065060908434091584,-1.320649962004811
-0.007609079903020743,-0.0065060908434091584,-1.3243573129858488
-0.007607289903020743,-0.002807865990825359,-1.320649962004811
-0.007605499903020742,-0.010204315695992958,-1.3169426110237734
-0.0076037099030207425,-0.0065060908434091584,-1.320649962004811
-0.007601919903020743,-0.0065060908434091584,-1.320649962004811
-0.007600129903020743,0.0008903588617584406,-1.320649962004811
-0.007598339903020742,-0.002807865990825359,-1.320649962004811
-0.007596549903020743,-0.002807865990825359,-1.320649962004811
-0.007594759903020743,-0.002807865990825359,-1.3169426110237734
-0.007592969903020743,-0.002807865990825359,-1.3169426110237734
-0.007591179903020742,-0.0065060908434091584,-1.3169426110237734
-0.007589389903020743,0.0008903588617584406,-1.3169426110237734
-0.007587599903020743,-0.002807865990825359,-1.320649962004811
-0.007585809903020742,-0.013902540548570031,-1.3206499620048129
-0.007584019903020742,0.0008903588617584406,-1.3243573129858488
-0.007582229903020743,-0.0065060908434091584,-1.3243573129858488
-0.007580439903020743,-0.010204315695992958,-1.3243573129858488
-0.007578649903020742,-0.0065060908434091584,-1.3169426110237734
-0.007576859903020742,-0.010204315695992958,-1.3169426110237734
-0.007575069903020743,-0.0065060908434091584,-1.3169426110237734
-0.007573279903020743,-0.013902540548576758,-1.3169426110237734
-0.007571489903020742,-0.010204315695992958,-1.320649962004811
-0.007569699903020742,-0.010204315695992958,-1.3169426110237734
-0.007567909903020743,-0.010204315695992958,-1.320649962004811
-0.007566119903020743,-0.013902540548576758,-1.3169426110237734
-0.007564329903020742,-0.013902540548576758,-1.320649962004811
-0.0075625399030207425,-0.013902540548576758,-1.3169426110237734
-0.007560749903020743,-0.010204315695992958,-1.3169426110237734
-0.007558959903020743,-0.002807865990825359,-1.320649962004811
-0.007557169903020742,-0.010204315695992958,-1.320649962004811
-0.0075553799030207425,-0.013902540548576758,-1.320649962004811
-0.007553589903020743,-0.013902540548576758,-1.320649962004811
-0.007551799903020743,-0.013902540548576758,-1.3169426110237734
-0.007550009903020742,-0.013902540548576758,-1.3169426110237734
-0.0075482199030207425,-0.013902540548576758,-1.320649962004811
-0.007546429903020743,-0.013902540548576758,-1.3243573129858488
-0.007544639903020743,-0.010204315695992958,-1.3169426110237734
-0.007542849903020742,-0.013902540548576758,-1.3169426110237734
-0.0075410599030207425,-0.013902540548576758,-1.3169426110237734
-0.007539269903020743,-0.013902540548576758,-1.3169426110237734
-0.007537479903020743,-0.017600765401160557,-1.3243573129858488
-0.007535689903020742,-0.017600765401160557,-1.3169426110237734
-0.0075338999030207425,-0.013902540548576758,-1.3169426110237734
-0.007532109903020743,-0.013902540548576758,-1.320649962004811
-0.007530319903020743,-0.013902540548576758,-1.320649962004811
-0.007528529903020742,-0.017600765401160557,-1.320649962004811
-0.0075267399030207426,-0.021298990253744356,-1.320649962004811
-0.007524949903020743,-0.021298990253744356,-1.320649962004811
-0.007523159903020743,-0.013902540548580122,-1.3169426110237752
-0.007521369903020742,-0.013902540548576758,-1.3243573129858488
-0.007519579903020743,-0.013902540548576758,-1.320649962004811
-0.007517789903020743,-0.013902540548576758,-1.3169426110237734
-0.007515999903020743,-0.013902540548576758,-1.3169426110237734
-0.007514209903020742,-0.021298990253744356,-1.320649962004811
-0.007512419903020743,-0.021298990253744356,-1.3169426110237734
-0.007510629903020743,-0.017600765401160557,-1.3169426110237734
-0.007508839903020742,-0.024997215106326475,-1.3169426110237752
-0.007507049903020742,-0.021298990253744356,-1.320649962004811
-0.007505259903020743,-0.021298990253744356,-1.320649962004811
-0.007503469903020743,-0.021298990253744356,-1.320649962004811
-0.007501679903020742,-0.017600765401160557,-1.320649962004811
-0.007499889903020742,-0.017600765401160557,-1.320649962004811
-0.007498099903020743,-0.021298990253744356,-1.3169426110237734
-0.007496309903020743,-0.017600765401160557,-1.3169426110237734
-0.007494519903020742,-0.017600765401160557,-1.3169426110237734
-0.0074927299030207424,-0.017600765401160557,-1.3169426110237734
-0.007490939903020743,-0.021298990253744356,-1.3132352600427357
-0.007489149903020743,-0.021298990253744356,-1.320649962004811
-0.007487359903020742,-0.021298990253744356,-1.320649962004811
-0.0074855699030207425,-0.021298990253744356,-1.320649962004811
-0.007483779903020743,-0.024997215106328158,-1.320649962004811
-0.007481989903020743,-0.024997215106328158,-1.3169426110237734
-0.007480199903020742,-0.024997215106328158,-1.3243573129858488
-0.0074784099030207425,-0.028695439958911956,-1.320649962004811
-0.007476619903020743,-0.021298990253744356,-1.3169426110237734
-0.007474829903020743,-0.024997215106328158,-1.3132352600427357
-0.007473039903020742,-0.021298990253744356,-1.3169426110237734
-0.0074712499030207425,-0.024997215106328158,-1.3169426110237734
-0.007469459903020743,-0.021298990253744356,-1.320649962004811
-0.007467669903020743,-0.021298990253744356,-1.320649962004811
-0.007465879903020742,-0.021298990253744356,-1.320649962004811
-0.0074640899030207425,-0.021298990253744356,-1.3243573129858488
-0.007462299903020743,-0.024997215106328158,-1.320649962004811
-0.007460509903020743,-0.024997215106328158,-1.3169426110237734
-0.007458719903020742,-0.024997215106328158,-1.3169426110237734
-0.0074569299030207425,-0.021298990253744356,-1.3169426110237734
-0.007455139903020743,-0.028695439958911956,-1.3132352600427357
-0.007453349903020743,-0.028695439958911956,-1.3169426110237734
-0.007451559903020742,-0.024997215106328158,-1.320649962004811
-0.0074497699030207426,-0.024997215106328158,-1.3169426110237734
-0.007447979903020743,-0.024997215106328158,-1.320649962004811
-0.007446189903020743,-0.024997215106328158,-1.320649962004811
-0.007444399903020742,-0.024997215106328158,-1.3169426110237734
-0.007442609903020743,-0.024997215106328158,-1.320649962004811
-0.007440819903020743,-0.024997215106328158,-1.320649962004811
-0.007439029903020742,-0.02499721510633152,-1.3206499620048078
-0.007437239903020742,-0.032393664811495755,-1.3132352600427357
-0.007435449903020743,-0.028695439958911956,-1.3169426110237734
-0.007433659903020743,-0.024997215106328158,-1.3132352600427357
-0.007431869903020742,-0.024997215106328158,-1.3132352600427357
-0.007430079903020742,-0.028695439958911956,-1.3132352600427357
-0.007428289903020743,-0.024997215106328158,-1.3132352600427357
-0.007426499903020743,-0.028695439958911956,-1.3169426110237734
-0.007424709903020742,-0.028695439958911956,-1.320649962004811
-0.007422919903020742,-0.028695439958911956,-1.3169426110237734
-0.007421129903020743,-0.032393664811495755,-1.320649962004811
-0.007419339903020743,-0.028695439958911956,-1.320649962004811
-0.007417549903020742,-0.032393664811495755,-1.320649962004811
-0.0074157599030207424,-0.03609188966407956,-1.320649962004811
-0.007413969903020743,-0.032393664811495755,-1.3169426110237734
-0.007412179903020743,-0.032393664811495755,-1.3132352600427357
-0.007410389903020742,-0.03609188966407956,-1.320649962004811
-0.0074085999030207425,-0.032393664811495755,-1.3169426110237734
-0.007406809903020743,-0.028695439958911956,-1.320649962004811
-0.007405019903020743,-0.028695439958911956,-1.3169426110237734
-0.007403229903020742,-0.032393664811495755,-1.3169426110237734
-0.0074014399030207425,-0.028695439958911956,-1.320649962004811
-0.007399649903020743,-0.028695439958911956,-1.3169426110237734
-0.007397859903020743,-0.028695439958911956,-1.3169426110237734
-0.007396069903020742,-0.024997215106328158,-1.320649962004811
-0.0073942799030207425,-0.032393664811495755,-1.320649962004811
-0.007392489903020743,-0.028695439958911956,-1.3169426110237734
-0.007390699903020743,-0.028695439958911956,-1.320649962004811
-0.007388909903020742,-0.028695439958911956,-1.320649962004811
-0.0073871199030207425,-0.032393664811495755,-1.3169426110237734
-0.007385329903020743,-0.032393664811495755,-1.320649962004811
-0.007383539903020743,-0.03979011451666335,-1.3169426110237734
-0.007381749903020742,-0.03609188966407956,-1.3169426110237734
-0.0073799599030207426,-0.03979011451666335,-1.3169426110237734
-0.007378169903020743,-0.03979011451666335,-1.3169426110237734
-0.007376379903020743,-0.03609188966407956,-1.3169426110237734
-0.007374589903020742,-0.032393664811495755,-1.320649962004811
-0.007372799903020743,-0.03979011451666335,-1.3169426110237734
-0.007371009903020743,-0.043488339369247155,-1.3169426110237734
-0.007369219903020743,-0.043488339369247155,-1.3206499620048093
-0.007367429903020742,-0.03979011451666335,-1.3169426110237734
-0.007365639903020743,-0.03979011451666335,-1.3243573129858488
-0.007363849903020743,-0.032393664811495755,-1.3169426110237734
-0.007362059903020742,-0.03609188966407619,-1.324357312985847
-0.007360269903020742,-0.028695439958911956,-1.320649962004811
-0.007358479903020743,-0.032393664811495755,-1.320649962004811
-0.007356689903020743,-0.03609188966407956,-1.3169426110237734
-0.007354899903020742,-0.03979011451666335,-1.320649962004811
-0.007353109903020742,-0.03609188966407956,-1.3169426110237734
-0.007351319903020743,-0.03979011451666335,-1.3169426110237734
-0.007349529903020743,-0.03979011451666335,-1.320649962004811
-0.007347739903020742,-0.03979011451666335,-1.320649962004811
-0.0073459499030207424,-0.03979011451666335,-1.320649962004811
-0.007344159903020743,-0.03609188966407956,-1.3169426110237734
-0.007342369903020743,-0.03979011451666335,-1.3243573129858488
-0.007340579903020742,-0.03609188966407956,-1.3169426110237734
-0.0073387899030207425,-0.03979011451666335,-1.320649962004811
-0.007336999903020743,-0.03979011451666335,-1.320649962004811
-0.007335209903020743,-0.03979011451666335,-1.320649962004811
-0.007333419903020742,-0.043488339369247155,-1.320649962004811
-0.0073316299030207425,-0.03609188966407956,-1.3169426110237734
-0.007329839903020743,-0.03979011451666335,-1.3169426110237734
-0.007328049903020743,-0.03609188966407956,-1.320649962004811
-0.007326259903020742,-0.03979011451666335,-1.3132352600427357
-0.0073244699030207425,-0.043488339369247155,-1.320649962004811
-0.007322679903020743,-0.043488339369247155,-1.3169426110237734
-0.007320889903020743,-0.043488339369247155,-1.320649962004811
-0.007319099903020742,-0.043488339369247155,-1.3243573129858488
-0.0073173099030207425,-0.043488339369247155,-1.320649962004811
-0.007315519903020743,-0.043488339369247155,-1.3169426110237734
-0.007313729903020743,-0.043488339369247155,-1.3169426110237734
-0.007311939903020742,-0.043488339369247155,-1.3169426110237734
-0.0073101499030207425,-0.04718656422183096,-1.320649962004811
-0.007308359903020743,-0.03979011451666335,-1.3169426110237734
-0.007306569903020743,-0.03979011451666335,-1.3169426110237734
-0.007304779903020742,-0.043488339369247155,-1.3132352600427357
-0.0073029899030207426,-0.04718656422183096,-1.3169426110237734
-0.007301199903020743,-0.043488339369247155,-1.320649962004811
-0.007299409903020743,-0.04718656422182928,-1.3169426110237752
-0.007297619903020742,-0.043488339369247155,-1.320649962004811
-0.007295829903020743,-0.043488339369247155,-1.320649962004811
-0.007294039903020743,-0.043488339369247155,-1.320649962004811
-0.007292249903020742,-0.03609188966408292,-1.3243573129858455
-0.007290459903020742,-0.043488339369247155,-1.3169426110237734
-0.007288669903020743,-0.03609188966407956,-1.3169426110237734
-0.007286879903020743,-0.043488339369247155,-1.320649962004811
-0.007285089903020742,-0.043488339369247155,-1.320649962004811
-0.007283299903020742,-0.043488339369247155,-1.320649962004811
-0.007281509903020743,-0.04718656422183096,-1.3243573129858488
-0.007279719903020743,-0.043488339369247155,-1.3169426110237734
-0.007277929903020742,-0.04718656422183096,-1.320649962004811
-0.007276139903020742,-0.04718656422183096,-1.320649962004811
-0.007274349903020743,-0.05088478907441475,-1.3169426110237734
-0.007272559903020743,-0.05088478907441475,-1.320649962004811
-0.007270769903020742,-0.04718656422183096,-1.320649962004811
-0.0072689799030207424,-0.043488339369247155,-1.320649962004811
-0.007267189903020743,-0.04718656422183096,-1.320649962004811
-0.007265399903020743,-0.04718656422183096,-1.3243573129858488
-0.007263609903020742,-0.03979011451666335,-1.320649962004811
-0.0072618199030207425,-0.04718656422183096,-1.3169426110237734
-0.007260029903020743,-0.04718656422183096,-1.3169426110237734
-0.007258239903020743,-0.043488339369247155,-1.3132352600427357
-0.007256449903020742,-0.04718656422183096,-1.3169426110237734
-0.0072546599030207425,-0.04718656422183096,-1.3132352600427357
-0.007252869903020743,-0.05088478907441475,-1.3169426110237734
-0.007251079903020743,-0.04718656422183096,-1.3169426110237734
-0.007249289903020742,-0.05088478907441475,-1.320649962004811
-0.0072474999030207425,-0.03979011451666335,-1.3169426110237734
-0.007245709903020743,-0.04718656422183096,-1.320649962004811
-0.007243919903020743,-0.04718656422183096,-1.3132352600427357
-0.007242129903020742,-0.04718656422183096,-1.3132352600427357
-0.0072403399030207425,-0.043488339369247155,-1.320649962004811
-0.007238549903020743,-0.043488339369247155,-1.320649962004811
-0.007236759903020743,-0.043488339369247155,-1.320649962004811
-0.007234969903020742,-0.054583013926998554,-1.320649962004811
-0.0072331799030207426,-0.05088478907441475,-1.320649962004811
-0.007231389903020743,-0.054583013926998554,-1.320649962004811
-0.007229599903020743,-0.054583013926998554,-1.320649962004811
-0.007227809903020742,-0.05088478907441475,-1.3132352600427357
-0.007226019903020743,-0.05088478907441475,-1.3132352600427357
-0.007224229903020743,-0.05088478907441475,-1.3132352600427357
-0.007222439903020743,-0.05088478907441475,-1.3206499620048078
-0.007220649903020742,-0.054583013926998554,-1.3169426110237734
-0.007218859903020743,-0.05088478907441475,-1.320649962004811
-0.007217069903020743,-0.05088478907441475,-1.320649962004811
-0.007215279903020742,-0.054583013926996875,-1.3206499620048129
-0.007213489903020742,-0.05088478907441475,-1.3243573129858488
-0.007211699903020743,-0.05088478907441475,-1.320649962004811
-0.007209909903020743,-0.05088478907441475,-1.3169426110237734
-0.007208119903020742,-0.05088478907441475,-1.3169426110237734
-0.007206329903020742,-0.05088478907441475,-1.3169426110237734
-0.007204539903020743,-0.05088478907441475,-1.3169426110237734
-0.007202749903020743,-0.05088478907441475,-1.3169426110237734
-0.007200959903020742,-0.05088478907441475,-1.320649962004811
-0.0071991699030207424,-0.05088478907441475,-1.3243573129858488
-0.007197379903020743,-0.04718656422183096,-1.320649962004811
-0.007195589903020743,-0.04718656422183096,-1.320649962004811
-0.007193799903020742,-0.043488339369247155,-1.320649962004811
-0.0071920099030207425,-0.04718656422183096,-1.3169426110237734
-0.007190219903020743,-0.04718656422183096,-1.3132352600427357
