100Hz/acq0035.csv

#Digilent WaveForms Oscilloscope Acquisition
#Device Name: Discovery2
#Serial Number: SN:210321AA28BE
#Date Time: 2023-05-24 14:48:31.237
#Sample rate: 558659Hz
#Samples: 8192
#Trigger: Source: Channel 1 Type: Edge Condition: Rising Level: 800 mV Hyst.: Auto HoldOff: 100 ns
#Channel 1: Range: 1 V/div Offset: 0 V Attenuation: 1 X Sample Mode: Average
#Channel 2: Range: 1 V/div Offset: 0 V Attenuation: 1 X Sample Mode: Average

Time (s),Channel 1 (V),Channel 2 (V)
-0.007741699248524306,0.015683258272093638,-1.320649962004811
-0.007739909248524306,0.019381483124675757,-1.320649962004811
-0.007738119248524305,0.015683258272093638,-1.3132352600427357
-0.007736329248524305,0.01198503341950984,-1.320649962004811
-0.007734539248524306,0.01198503341950984,-1.3169426110237734
-0.007732749248524305,0.015683258272093638,-1.320649962004811
-0.007730959248524305,0.015683258272093638,-1.320649962004811
-0.0077291692485243054,0.01198503341950984,-1.320649962004811
-0.007727379248524306,0.01198503341950984,-1.3169426110237734
-0.007725589248524305,0.01198503341950984,-1.320649962004811
-0.007723799248524305,0.01198503341950984,-1.320649962004811
-0.0077220092485243055,0.01198503341950984,-1.3243573129858488
-0.007720219248524306,0.01198503341950984,-1.320649962004811
-0.007718429248524305,0.01198503341950984,-1.320649962004811
-0.007716639248524305,0.00828680856692604,-1.3169426110237734
-0.0077148492485243055,0.01198503341950984,-1.320649962004811
-0.007713059248524306,0.00828680856692604,-1.320649962004811
-0.007711269248524305,0.00458858371434224,-1.3169426110237734
-0.007709479248524305,0.00828680856692604,-1.320649962004811
-0.0077076892485243055,0.00828680856692604,-1.320649962004811
-0.007705899248524306,0.00458858371434224,-1.320649962004811
-0.007704109248524305,0.0008903588617584406,-1.3169426110237734
-0.007702319248524305,0.01198503341950984,-1.3132352600427357
-0.0077005292485243055,0.00458858371434224,-1.3169426110237734
-0.007698739248524306,0.00828680856692604,-1.320649962004811
-0.007696949248524305,0.00458858371434224,-1.320649962004811
-0.007695159248524305,0.00458858371434224,-1.320649962004811
-0.0076933692485243056,0.00458858371434224,-1.320649962004811
-0.007691579248524306,0.00458858371434224,-1.3243573129858488
-0.007689789248524305,0.01198503341950984,-1.3243573129858488
-0.007687999248524305,0.00828680856692604,-1.3169426110237734
-0.007686209248524306,0.00458858371434224,-1.3132352600427357
-0.007684419248524306,0.0008903588617584406,-1.320649962004811
-0.007682629248524305,0.00458858371434224,-1.320649962004811
-0.007680839248524305,0.00828680856692604,-1.3132352600427357
-0.007679049248524306,0.0008903588617584406,-1.320649962004811
-0.007677259248524306,0.00828680856692604,-1.320649962004811
-0.007675469248524305,0.00458858371434224,-1.320649962004811
-0.007673679248524305,0.0008903588617584406,-1.3169426110237734
-0.007671889248524306,0.0008903588617584406,-1.3169426110237734
-0.007670099248524306,0.0008903588617584406,-1.3243573129858455
-0.007668309248524305,-0.002807865990825359,-1.320649962004811
-0.007666519248524305,0.0008903588617584406,-1.320649962004811
-0.007664729248524306,0.0008903588617584406,-1.3169426110237734
-0.007662939248524305,-0.0028078659908270407,-1.3169426110237734
-0.007661149248524305,-0.0065060908434091584,-1.3169426110237734
-0.0076593592485243054,-0.002807865990825359,-1.3169426110237734
-0.007657569248524306,0.00458858371434224,-1.320649962004811
-0.007655779248524305,0.0008903588617550771,-1.320649962004811
-0.007653989248524305,-0.0065060908434091584,-1.320649962004811
-0.0076521992485243055,0.0008903588617584406,-1.320649962004811
-0.007650409248524306,0.0008903588617584406,-1.3243573129858488
-0.007648619248524305,-0.0065060908434091584,-1.320649962004811
-0.007646829248524305,-0.0065060908434091584,-1.3169426110237734
-0.0076450392485243055,-0.002807865990825359,-1.3169426110237734
-0.007643249248524306,-0.0065060908434091584,-1.3169426110237734
-0.007641459248524305,-0.0065060908434091584,-1.3132352600427357
-0.007639669248524305,-0.002807865990825359,-1.3132352600427357
-0.0076378792485243055,-0.0065060908434091584,-1.3243573129858488
-0.007636089248524306,-0.0065060908434091584,-1.320649962004811
-0.007634299248524305,-0.0065060908434091584,-1.320649962004811
-0.007632509248524305,-0.0065060908434091584,-1.3169426110237734
-0.0076307192485243055,-0.0065060908434091584,-1.320649962004811
-0.007628929248524306,-0.002807865990825359,-1.3169426110237734
-0.007627139248524305,-0.002807865990825359,-1.3169426110237734
-0.007625349248524305,-0.0065060908434091584,-1.320649962004811
-0.0076235592485243055,-0.010204315695992958,-1.3169426110237734
-0.007621769248524306,-0.0065060908434091584,-1.320649962004811
-0.007619979248524305,-0.010204315695992958,-1.3169426110237734
-0.007618189248524305,-0.0065060908434091584,-1.3169426110237734
-0.0076163992485243056,-0.013902540548576758,-1.3169426110237734
-0.007614609248524306,-0.013902540548576758,-1.320649962004811
-0.007612819248524305,-0.010204315695992958,-1.320649962004811
-0.007611029248524305,-0.0065060908434091584,-1.3169426110237734
-0.007609239248524306,-0.010204315695992958,-1.3132352600427357
-0.007607449248524306,-0.010204315695992958,-1.320649962004811
-0.007605659248524305,-0.013902540548576758,-1.320649962004811
-0.007603869248524305,-0.010204315695992958,-1.320649962004811
-0.007602079248524306,-0.013902540548576758,-1.3169426110237734
-0.007600289248524306,-0.013902540548576758,-1.3169426110237734
-0.007598499248524305,-0.013902540548576758,-1.320649962004811
-0.007596709248524305,-0.013902540548576758,-1.3169426110237734
-0.007594919248524306,-0.013902540548576758,-1.320649962004811
-0.007593129248524306,-0.010204315695994639,-1.320649962004811
-0.007591339248524305,-0.013902540548576758,-1.3169426110237734
-0.007589549248524305,-0.013902540548576758,-1.320649962004811
-0.007587759248524306,-0.013902540548576758,-1.3169426110237734
-0.007585969248524305,-0.017600765401158874,-1.3169426110237734
-0.007584179248524305,-0.013902540548576758,-1.3169426110237734
-0.0075823892485243054,-0.013902540548576758,-1.320649962004811
-0.007580599248524306,-0.017600765401160557,-1.320649962004811
-0.007578809248524305,-0.013902540548576758,-1.320649962004811
-0.007577019248524305,-0.017600765401160557,-1.3169426110237734
-0.0075752292485243055,-0.021298990253744356,-1.3169426110237734
-0.007573439248524306,-0.017600765401160557,-1.3243573129858488
-0.007571649248524305,-0.021298990253744356,-1.320649962004811
-0.007569859248524305,-0.021298990253744356,-1.3169426110237734
-0.0075680692485243055,-0.017600765401160557,-1.3169426110237734
-0.007566279248524306,-0.017600765401160557,-1.3169426110237734
-0.007564489248524305,-0.017600765401160557,-1.3169426110237734
-0.007562699248524305,-0.017600765401160557,-1.3169426110237734
-0.0075609092485243055,-0.017600765401160557,-1.320649962004811
-0.007559119248524306,-0.021298990253744356,-1.320649962004811
-0.007557329248524305,-0.021298990253744356,-1.320649962004811
-0.007555539248524305,-0.024997215106328158,-1.3169426110237734
-0.0075537492485243055,-0.024997215106328158,-1.3169426110237734
-0.007551959248524306,-0.021298990253744356,-1.320649962004811
-0.007550169248524305,-0.024997215106328158,-1.3243573129858488
-0.007548379248524305,-0.024997215106328158,-1.320649962004811
-0.0075465892485243056,-0.021298990253744356,-1.3243573129858488
-0.007544799248524306,-0.024997215106328158,-1.320649962004811
-0.007543009248524305,-0.021298990253744356,-1.3169426110237734
-0.007541219248524305,-0.024997215106328158,-1.320649962004811
-0.007539429248524306,-0.024997215106328158,-1.320649962004811
-0.007537639248524306,-0.024997215106328158,-1.320649962004811
-0.007535849248524305,-0.024997215106328158,-1.320649962004811
-0.007534059248524305,-0.021298990253744356,-1.320649962004811
-0.007532269248524306,-0.024997215106328158,-1.3243573129858488
-0.007530479248524306,-0.024997215106328158,-1.320649962004811
-0.007528689248524305,-0.028695439958911956,-1.3169426110237734
-0.007526899248524305,-0.024997215106328158,-1.3243573129858488
-0.007525109248524306,-0.024997215106328158,-1.3243573129858488
-0.007523319248524306,-0.024997215106328158,-1.3206499620048129
-0.007521529248524305,-0.028695439958911956,-1.3169426110237734
-0.007519739248524305,-0.028695439958911956,-1.320649962004811
-0.007517949248524306,-0.021298990253744356,-1.320649962004811
-0.007516159248524306,-0.028695439958908595,-1.3169426110237752
-0.007514369248524305,-0.021298990253744356,-1.320649962004811
-0.007512579248524305,-0.028695439958911956,-1.3169426110237734
-0.007510789248524306,-0.028695439958911956,-1.320649962004811
-0.007508999248524305,-0.02129899025374604,-1.3243573129858455
-0.007507209248524305,-0.024997215106328158,-1.3169426110237734
-0.0075054192485243055,-0.024997215106328158,-1.320649962004811
-0.007503629248524306,-0.028695439958911956,-1.3280646639668865
-0.007501839248524305,-0.028695439958911956,-1.320649962004811
-0.007500049248524305,-0.024997215106328158,-1.320649962004811
-0.0074982592485243055,-0.024997215106328158,-1.3243573129858488
-0.007496469248524306,-0.024997215106328158,-1.320649962004811
-0.007494679248524305,-0.024997215106328158,-1.320649962004811
-0.007492889248524305,-0.032393664811495755,-1.320649962004811
-0.0074910992485243055,-0.028695439958911956,-1.320649962004811
-0.007489309248524306,-0.032393664811495755,-1.320649962004811
-0.007487519248524305,-0.028695439958911956,-1.320649962004811
-0.007485729248524305,-0.028695439958911956,-1.3169426110237734
-0.0074839392485243055,-0.024997215106328158,-1.320649962004811
-0.007482149248524306,-0.032393664811495755,-1.320649962004811
-0.007480359248524305,-0.032393664811495755,-1.320649962004811
-0.007478569248524305,-0.032393664811495755,-1.320649962004811
-0.0074767792485243055,-0.032393664811495755,-1.3169426110237734
-0.007474989248524306,-0.032393664811495755,-1.320649962004811
-0.007473199248524305,-0.032393664811495755,-1.320649962004811
-0.007471409248524305,-0.032393664811495755,-1.3243573129858488
-0.0074696192485243056,-0.032393664811495755,-1.320649962004811
-0.007467829248524306,-0.024997215106328158,-1.320649962004811
-0.007466039248524305,-0.03609188966407956,-1.3243573129858488
-0.007464249248524305,-0.032393664811495755,-1.3243573129858488
-0.007462459248524306,-0.032393664811495755,-1.320649962004811
-0.007460669248524306,-0.03609188966407956,-1.320649962004811
-0.007458879248524305,-0.032393664811495755,-1.3243573129858488
-0.007457089248524305,-0.032393664811495755,-1.320649962004811
-0.007455299248524306,-0.032393664811495755,-1.3169426110237734
-0.007453509248524306,-0.03609188966407956,-1.320649962004811
-0.007451719248524305,-0.032393664811495755,-1.320649962004811
-0.007449929248524305,-0.03609188966407956,-1.3169426110237734
-0.007448139248524306,-0.032393664811495755,-1.320649962004811
-0.007446349248524306,-0.032393664811495755,-1.324357312985847
-0.007444559248524305,-0.03609188966407956,-1.320649962004811
-0.007442769248524305,-0.03609188966407956,-1.320649962004811
-0.007440979248524306,-0.03609188966407956,-1.3169426110237734
-0.007439189248524305,-0.03609188966407956,-1.3206499620048093
-0.007437399248524305,-0.03609188966407956,-1.3169426110237734
-0.0074356092485243054,-0.03979011451666335,-1.320649962004811
-0.007433819248524306,-0.03979011451666335,-1.3169426110237734
-0.007432029248524305,-0.043488339369247155,-1.320649962004811
-0.007430239248524305,-0.03609188966407956,-1.3243573129858488
-0.0074284492485243055,-0.03979011451666335,-1.3243573129858488
-0.007426659248524306,-0.03979011451666335,-1.320649962004811
-0.007424869248524305,-0.03979011451666335,-1.3169426110237734
-0.007423079248524305,-0.03609188966407956,-1.3169426110237734
-0.0074212892485243055,-0.03609188966407956,-1.3169426110237734
-0.007419499248524306,-0.03979011451666335,-1.320649962004811
-0.007417709248524305,-0.03979011451666335,-1.320649962004811
-0.007415919248524305,-0.04718656422183096,-1.3169426110237734
-0.0074141292485243055,-0.03979011451666335,-1.320649962004811
-0.007412339248524306,-0.03979011451666335,-1.3169426110237734
-0.007410549248524305,-0.043488339369247155,-1.3169426110237734
-0.007408759248524305,-0.043488339369247155,-1.3169426110237734
-0.0074069692485243055,-0.03979011451666335,-1.3169426110237734
-0.007405179248524306,-0.03979011451666335,-1.3169426110237734
-0.007403389248524305,-0.03609188966407956,-1.3169426110237734
-0.007401599248524305,-0.03979011451666335,-1.320649962004811
-0.0073998092485243055,-0.03609188966407956,-1.320649962004811
-0.007398019248524306,-0.043488339369247155,-1.320649962004811
-0.007396229248524305,-0.04718656422183096,-1.3243573129858488
-0.007394439248524305,-0.043488339369247155,-1.3169426110237734
-0.007392649248524306,-0.043488339369247155,-1.320649962004811
-0.007390859248524306,-0.043488339369247155,-1.320649962004811
-0.007389069248524305,-0.04718656422183096,-1.320649962004811
-0.007387279248524305,-0.04718656422183096,-1.320649962004811
-0.007385489248524306,-0.04718656422183096,-1.3243573129858488
-0.007383699248524306,-0.04718656422183096,-1.3243573129858488
-0.007381909248524305,-0.03979011451666335,-1.320649962004811
-0.007380119248524305,-0.04718656422183096,-1.3243573129858488
-0.007378329248524306,-0.043488339369247155,-1.3169426110237734
-0.007376539248524306,-0.043488339369247155,-1.3169426110237734
-0.007374749248524305,-0.043488339369247155,-1.3132352600427357
-0.007372959248524305,-0.04718656422183096,-1.3169426110237734
-0.007371169248524306,-0.043488339369247155,-1.3243573129858488
-0.007369379248524306,-0.043488339369247155,-1.3206499620048129
-0.007367589248524305,-0.043488339369247155,-1.3169426110237734
-0.007365799248524305,-0.043488339369247155,-1.320649962004811
-0.007364009248524306,-0.043488339369247155,-1.3169426110237734
-0.007362219248524305,-0.047186564221832636,-1.3169426110237752
-0.007360429248524305,-0.05088478907441475,-1.320649962004811
-0.0073586392485243055,-0.05088478907441475,-1.320649962004811
-0.007356849248524306,-0.05088478907441475,-1.3169426110237734
-0.007355059248524305,-0.05088478907441475,-1.3169426110237734
-0.007353269248524305,-0.04718656422183096,-1.320649962004811
-0.0073514792485243055,-0.04718656422183096,-1.3169426110237734
-0.007349689248524306,-0.04718656422183096,-1.320649962004811
-0.007347899248524305,-0.054583013926998554,-1.320649962004811
-0.007346109248524305,-0.054583013926998554,-1.320649962004811
-0.0073443192485243055,-0.054583013926998554,-1.3243573129858488
-0.007342529248524306,-0.04718656422183096,-1.3169426110237734
-0.007340739248524305,-0.05828123877958235,-1.320649962004811
-0.007338949248524305,-0.054583013926998554,-1.320649962004811
-0.0073371592485243055,-0.05088478907441475,-1.320649962004811
-0.007335369248524306,-0.05088478907441475,-1.320649962004811
-0.007333579248524305,-0.054583013926998554,-1.320649962004811
-0.007331789248524305,-0.05088478907441475,-1.3169426110237734
-0.0073299992485243055,-0.05088478907441475,-1.3169426110237734
-0.007328209248524306,-0.04718656422183096,-1.320649962004811
-0.007326419248524305,-0.05088478907441475,-1.320649962004811
-0.007324629248524305,-0.054583013926998554,-1.320649962004811
-0.0073228392485243056,-0.05088478907441475,-1.3169426110237734
-0.007321049248524306,-0.05828123877958235,-1.320649962004811
-0.007319259248524305,-0.05088478907441475,-1.320649962004811
-0.007317469248524305,-0.05828123877958235,-1.3169426110237734
-0.007315679248524306,-0.054583013926998554,-1.3132352600427357
-0.007313889248524306,-0.05088478907441475,-1.320649962004811
-0.007312099248524305,-0.05088478907441475,-1.3169426110237734
-0.007310309248524305,-0.054583013926998554,-1.3169426110237734
-0.007308519248524306,-0.05828123877958235,-1.320649962004811
-0.007306729248524306,-0.05088478907441475,-1.3243573129858488
-0.007304939248524305,-0.054583013926998554,-1.3243573129858488
-0.007303149248524305,-0.05828123877958235,-1.3243573129858488
-0.007301359248524306,-0.05828123877958235,-1.320649962004811
-0.007299569248524306,-0.05458301392700023,-1.320649962004811
-0.007297779248524305,-0.05828123877958235,-1.3169426110237734
-0.007295989248524305,-0.054583013926998554,-1.320649962004811
-0.007294199248524306,-0.054583013926998554,-1.3169426110237734
-0.007292409248524305,-0.05828123877958067,-1.3206499620048078
-0.007290619248524305,-0.054583013926998554,-1.3132352600427357
-0.0072888292485243054,-0.05828123877958235,-1.3169426110237734
-0.007287039248524306,-0.05828123877958235,-1.3169426110237734
-0.007285249248524305,-0.06197946363216447,-1.3169426110237734
-0.007283459248524305,-0.05828123877958235,-1.3169426110237734
-0.0072816692485243055,-0.05828123877958235,-1.320649962004811
-0.007279879248524306,-0.05828123877958235,-1.320649962004811
-0.007278089248524305,-0.06197946363216615,-1.3169426110237734
-0.007276299248524305,-0.06567768848474995,-1.320649962004811
-0.0072745092485243055,-0.06197946363216615,-1.3169426110237734
-0.007272719248524306,-0.06197946363216615,-1.3169426110237734
-0.007270929248524305,-0.06197946363216615,-1.3169426110237734
-0.007269139248524305,-0.06197946363216615,-1.320649962004811
-0.0072673492485243055,-0.06197946363216615,-1.320649962004811
-0.007265559248524306,-0.054583013926998554,-1.3169426110237734
-0.007263769248524305,-0.05828123877958235,-1.3243573129858488
-0.007261979248524305,-0.06197946363216615,-1.3243573129858488
-0.0072601892485243055,-0.06197946363216615,-1.3243573129858488
-0.007258399248524306,-0.05828123877958235,-1.320649962004811
-0.007256609248524305,-0.06197946363216615,-1.3243573129858488
-0.007254819248524305,-0.06197946363216615,-1.3132352600427357
-0.0072530292485243055,-0.054583013926998554,-1.3169426110237734
-0.007251239248524306,-0.06197946363216615,-1.3169426110237734
-0.007249449248524305,-0.06197946363216615,-1.320649962004811
-0.007247659248524305,-0.06197946363216615,-1.320649962004811
-0.007245869248524306,-0.06567768848474995,-1.320649962004811
-0.007244079248524306,-0.06197946363216615,-1.320649962004811
-0.007242289248524305,-0.05828123877958235,-1.3169426110237734
-0.007240499248524305,-0.05828123877958235,-1.320649962004811
-0.007238709248524306,-0.06197946363216615,-1.320649962004811
-0.007236919248524306,-0.06197946363216615,-1.3169426110237734
-0.007235129248524305,-0.05828123877958235,-1.3169426110237734
-0.007233339248524305,-0.05828123877958235,-1.3169426110237734
-0.007231549248524306,-0.05828123877958235,-1.3169426110237734
-0.007229759248524306,-0.06567768848474995,-1.3169426110237734
-0.007227969248524305,-0.06197946363216615,-1.3169426110237734
-0.007226179248524305,-0.06567768848474995,-1.320649962004811
-0.007224389248524306,-0.06567768848474995,-1.3169426110237734
-0.007222599248524306,-0.06937591333733208,-1.3169426110237734
-0.007220809248524305,-0.06567768848474995,-1.320649962004811
-0.007219019248524305,-0.05828123877958235,-1.3169426110237734
-0.007217229248524306,-0.06197946363216615,-1.320649962004811
-0.007215439248524305,-0.06197946363216783,-1.3243573129858455
-0.007213649248524305,-0.06567768848474995,-1.3169426110237734
-0.0072118592485243055,-0.06567768848474995,-1.320649962004811
-0.007210069248524306,-0.06197946363216615,-1.3169426110237734
-0.007208279248524305,-0.06567768848474995,-1.320649962004811
-0.007206489248524305,-0.06197946363216615,-1.320649962004811
-0.0072046992485243055,-0.06197946363216615,-1.3169426110237734
-0.007202909248524306,-0.06567768848474995,-1.320649962004811
-0.007201119248524305,-0.06937591333733376,-1.3169426110237734
-0.007199329248524305,-0.06937591333733376,-1.320649962004811
-0.0071975392485243055,-0.06937591333733376,-1.320649962004811
-0.007195749248524306,-0.06937591333733376,-1.320649962004811
-0.007193959248524305,-0.06937591333733376,-1.3169426110237734
-0.007192169248524305,-0.06567768848474995,-1.3169426110237734
-0.0071903792485243055,-0.06567768848474995,-1.3132352600427357
