100Hz/acq0071.csv

#Digilent WaveForms Oscilloscope Acquisition
#Device Name: Discovery2
#Serial Number: SN:210321AA28BE
#Date Time: 2023-05-24 14:48:32.300
#Sample rate: 558659Hz
#Samples: 8192
#Trigger: Source: Channel 1 Type: Edge Condition: Rising Level: 800 mV Hyst.: Auto HoldOff: 100 ns
#Channel 1: Range: 1 V/div Offset: 0 V Attenuation: 1 X Sample Mode: Average
#Channel 2: Range: 1 V/div Offset: 0 V Attenuation: 1 X Sample Mode: Average

Time (s),Channel 1 (V),Channel 2 (V)
-0.00774228557296875,0.02307970797726124,-1.320649962004811
-0.007740495572968751,0.02307970797726124,-1.3169426110237752
-0.00773870557296875,0.01938148312467744,-1.320649962004811
-0.00773691557296875,0.01938148312467744,-1.3243573129858488
-0.00773512557296875,0.015683258272093638,-1.320649962004811
-0.00773333557296875,0.01568325827209532,-1.3169426110237752
-0.00773154557296875,0.01938148312467744,-1.320649962004811
-0.00772975557296875,0.02307970797726124,-1.3169426110237734
-0.00772796557296875,0.01938148312467744,-1.3169426110237734
-0.00772617557296875,0.015683258272093638,-1.3169426110237734
-0.00772438557296875,0.01198503341950984,-1.3169426110237734
-0.00772259557296875,0.015683258272093638,-1.3169426110237734
-0.00772080557296875,0.015683258272093638,-1.320649962004811
-0.00771901557296875,0.02307970797726124,-1.320649962004811
-0.00771722557296875,0.015683258272093638,-1.3243573129858488
-0.00771543557296875,0.01938148312467744,-1.3169426110237734
-0.0077136455729687504,0.01198503341950984,-1.3169426110237734
-0.00771185557296875,0.015683258272093638,-1.3169426110237734
-0.00771006557296875,0.015683258272093638,-1.3169426110237734
-0.00770827557296875,0.01198503341950984,-1.320649962004811
-0.0077064855729687505,0.01198503341950984,-1.320649962004811
-0.00770469557296875,0.015683258272093638,-1.3169426110237734
-0.00770290557296875,0.01938148312467744,-1.320649962004811
-0.00770111557296875,0.01198503341950984,-1.3132352600427357
-0.0076993255729687505,0.00828680856692604,-1.3169426110237734
-0.00769753557296875,0.015683258272093638,-1.3169426110237734
-0.00769574557296875,0.015683258272093638,-1.320649962004811
-0.00769395557296875,0.00828680856692604,-1.320649962004811
-0.0076921655729687505,0.01198503341950984,-1.3243573129858488
-0.00769037557296875,0.00828680856692604,-1.3243573129858488
-0.00768858557296875,0.00828680856692604,-1.3169426110237734
-0.00768679557296875,0.00828680856692604,-1.320649962004811
-0.0076850055729687505,0.015683258272093638,-1.320649962004811
-0.00768321557296875,0.015683258272093638,-1.3169426110237734
-0.00768142557296875,0.01198503341950984,-1.320649962004811
-0.00767963557296875,0.01198503341950984,-1.3243573129858488
-0.0076778455729687506,0.00828680856692604,-1.320649962004811
-0.00767605557296875,0.00828680856692604,-1.320649962004811
-0.00767426557296875,0.00458858371434224,-1.3169426110237734
-0.00767247557296875,0.00828680856692604,-1.320649962004811
-0.007670685572968751,0.00828680856692604,-1.324357312985847
-0.00766889557296875,0.0008903588617584406,-1.3169426110237734
-0.00766710557296875,0.0008903588617584406,-1.3169426110237734
-0.00766531557296875,0.00458858371434224,-1.3169426110237734
-0.00766352557296875,0.00458858371434224,-1.320649962004811
-0.00766173557296875,0.00458858371434224,-1.320649962004811
-0.00765994557296875,0.00458858371434224,-1.3243573129858488
-0.00765815557296875,0.00458858371434224,-1.320649962004811
-0.00765636557296875,0.004588583714343922,-1.3169426110237752
-0.00765457557296875,0.00828680856692604,-1.320649962004811
-0.00765278557296875,0.00458858371434224,-1.3169426110237734
-0.00765099557296875,0.00458858371434224,-1.320649962004811
-0.00764920557296875,0.0008903588617584406,-1.3243573129858488
-0.00764741557296875,0.00458858371434224,-1.3169426110237734
-0.00764562557296875,0.00458858371434224,-1.3169426110237734
-0.0076438355729687504,-0.002807865990825359,-1.3169426110237734
-0.00764204557296875,-0.002807865990825359,-1.320649962004811
-0.00764025557296875,-0.002807865990825359,-1.320649962004811
-0.00763846557296875,0.00458858371434224,-1.320649962004811
-0.0076366755729687505,-0.002807865990825359,-1.3169426110237734
-0.00763488557296875,0.0008903588617584406,-1.3169426110237734
-0.00763309557296875,0.00458858371434224,-1.320649962004811
-0.00763130557296875,0.00458858371434224,-1.3132352600427357
-0.0076295155729687505,0.0008903588617584406,-1.320649962004811
-0.00762772557296875,0.0008903588617584406,-1.3169426110237734
-0.00762593557296875,-0.002807865990825359,-1.3169426110237734
-0.00762414557296875,-0.002807865990825359,-1.320649962004811
-0.0076223555729687505,0.00458858371434224,-1.320649962004811
-0.00762056557296875,0.0008903588617584406,-1.3243573129858488
-0.00761877557296875,0.00458858371434224,-1.320649962004811
-0.00761698557296875,-0.002807865990825359,-1.320649962004811
-0.0076151955729687505,0.0008903588617584406,-1.3243573129858488
-0.00761340557296875,-0.002807865990825359,-1.320649962004811
-0.00761161557296875,-0.010204315695992958,-1.320649962004811
-0.00760982557296875,-0.010204315695992958,-1.320649962004811
-0.0076080355729687505,-0.0065060908434091584,-1.320649962004811
-0.00760624557296875,-0.0065060908434091584,-1.320649962004811
-0.00760445557296875,-0.002807865990825359,-1.3169426110237734
-0.00760266557296875,-0.0065060908434091584,-1.320649962004811
-0.0076008755729687506,-0.0065060908434091584,-1.3243573129858488
-0.00759908557296875,-0.002807865990825359,-1.320649962004811
-0.00759729557296875,-0.0065060908434091584,-1.320649962004811
-0.00759550557296875,-0.0065060908434091584,-1.320649962004811
-0.007593715572968751,-0.0028078659908270407,-1.324357312985847
-0.00759192557296875,-0.0065060908434091584,-1.3169426110237734
-0.00759013557296875,-0.002807865990825359,-1.320649962004811
-0.00758834557296875,-0.0065060908434091584,-1.3169426110237734
-0.00758655557296875,-0.010204315695989594,-1.3206499620048093
-0.00758476557296875,-0.002807865990825359,-1.3169426110237734
-0.00758297557296875,-0.0065060908434091584,-1.3169426110237734
-0.00758118557296875,-0.002807865990825359,-1.3169426110237734
-0.00757939557296875,-0.010204315695992958,-1.320649962004811
-0.00757760557296875,-0.0065060908434091584,-1.320649962004811
-0.00757581557296875,-0.0065060908434091584,-1.3243573129858488
-0.00757402557296875,-0.0065060908434091584,-1.320649962004811
-0.00757223557296875,-0.0065060908434091584,-1.3169426110237734
-0.00757044557296875,-0.0065060908434091584,-1.320649962004811
-0.00756865557296875,-0.010204315695992958,-1.3169426110237734
-0.0075668655729687504,-0.013902540548576758,-1.3169426110237734
-0.00756507557296875,-0.0065060908434091584,-1.3169426110237734
-0.00756328557296875,-0.013902540548576758,-1.3169426110237734
-0.00756149557296875,-0.010204315695992958,-1.3169426110237734
-0.0075597055729687505,-0.010204315695992958,-1.320649962004811
-0.00755791557296875,-0.010204315695992958,-1.320649962004811
-0.00755612557296875,-0.010204315695992958,-1.3169426110237734
-0.00755433557296875,-0.017600765401160557,-1.320649962004811
-0.0075525455729687505,-0.013902540548576758,-1.320649962004811
-0.00755075557296875,-0.010204315695992958,-1.3243573129858488
-0.00754896557296875,-0.013902540548576758,-1.3243573129858488
-0.00754717557296875,-0.017600765401160557,-1.3169426110237734
-0.0075453855729687505,-0.021298990253744356,-1.3132352600427357
-0.00754359557296875,-0.013902540548576758,-1.3169426110237734
-0.00754180557296875,-0.017600765401160557,-1.320649962004811
-0.00754001557296875,-0.017600765401160557,-1.320649962004811
-0.0075382255729687505,-0.017600765401160557,-1.320649962004811
-0.00753643557296875,-0.010204315695992958,-1.3169426110237734
-0.00753464557296875,-0.013902540548576758,-1.320649962004811
-0.00753285557296875,-0.021298990253744356,-1.3169426110237734
-0.0075310655729687506,-0.013902540548576758,-1.3169426110237734
-0.00752927557296875,-0.013902540548576758,-1.320649962004811
-0.00752748557296875,-0.013902540548576758,-1.320649962004811
-0.00752569557296875,-0.017600765401160557,-1.3169426110237734
-0.007523905572968751,-0.017600765401160557,-1.3206499620048093
-0.00752211557296875,-0.017600765401160557,-1.3243573129858488
-0.00752032557296875,-0.013902540548576758,-1.3243573129858488
-0.00751853557296875,-0.010204315695992958,-1.320649962004811
-0.007516745572968751,-0.010204315695992958,-1.313235260042739
-0.00751495557296875,-0.021298990253744356,-1.320649962004811
-0.00751316557296875,-0.017600765401160557,-1.320649962004811
-0.00751137557296875,-0.013902540548576758,-1.320649962004811
-0.00750958557296875,-0.021298990253744356,-1.320649962004811
-0.00750779557296875,-0.021298990253744356,-1.320649962004811
-0.00750600557296875,-0.021298990253744356,-1.320649962004811
-0.00750421557296875,-0.013902540548576758,-1.3169426110237734
-0.00750242557296875,-0.017600765401160557,-1.3169426110237734
-0.00750063557296875,-0.017600765401160557,-1.3169426110237734
-0.00749884557296875,-0.021298990253744356,-1.3132352600427357
-0.0074970555729687504,-0.021298990253744356,-1.320649962004811
-0.00749526557296875,-0.013902540548576758,-1.320649962004811
-0.00749347557296875,-0.017600765401160557,-1.320649962004811
-0.00749168557296875,-0.017600765401160557,-1.3169426110237734
-0.0074898955729687505,-0.021298990253744356,-1.3169426110237734
-0.00748810557296875,-0.021298990253744356,-1.3243573129858488
-0.00748631557296875,-0.021298990253744356,-1.320649962004811
-0.00748452557296875,-0.024997215106328158,-1.3169426110237734
-0.0074827355729687505,-0.021298990253744356,-1.3132352600427357
-0.00748094557296875,-0.021298990253744356,-1.320649962004811
-0.00747915557296875,-0.024997215106328158,-1.3169426110237734
-0.00747736557296875,-0.017600765401160557,-1.3169426110237734
-0.0074755755729687505,-0.021298990253744356,-1.3169426110237734
-0.00747378557296875,-0.024997215106328158,-1.320649962004811
-0.00747199557296875,-0.021298990253744356,-1.320649962004811
-0.00747020557296875,-0.024997215106328158,-1.320649962004811
-0.0074684155729687505,-0.021298990253744356,-1.3132352600427357
-0.00746662557296875,-0.024997215106328158,-1.3169426110237734
-0.00746483557296875,-0.024997215106328158,-1.3169426110237734
-0.00746304557296875,-0.024997215106328158,-1.320649962004811
-0.0074612555729687505,-0.024997215106328158,-1.3169426110237734
-0.00745946557296875,-0.028695439958911956,-1.3243573129858488
-0.00745767557296875,-0.028695439958911956,-1.3169426110237734
-0.00745588557296875,-0.024997215106328158,-1.3169426110237734
-0.0074540955729687506,-0.024997215106328158,-1.320649962004811
-0.00745230557296875,-0.024997215106328158,-1.3169426110237734
-0.00745051557296875,-0.028695439958911956,-1.320649962004811
-0.00744872557296875,-0.032393664811495755,-1.3169426110237734
-0.007446935572968751,-0.024997215106331523,-1.3169426110237734
-0.00744514557296875,-0.028695439958911956,-1.3169426110237734
-0.00744335557296875,-0.028695439958911956,-1.3169426110237734
-0.00744156557296875,-0.028695439958911956,-1.320649962004811
-0.00743977557296875,-0.02499721510632984,-1.3169426110237734
-0.00743798557296875,-0.028695439958911956,-1.3169426110237734
-0.00743619557296875,-0.028695439958911956,-1.3169426110237734
-0.00743440557296875,-0.028695439958911956,-1.320649962004811
-0.00743261557296875,-0.024997215106328158,-1.320649962004811
-0.00743082557296875,-0.028695439958911956,-1.320649962004811
-0.00742903557296875,-0.028695439958911956,-1.3169426110237734
-0.00742724557296875,-0.028695439958911956,-1.3169426110237734
-0.00742545557296875,-0.024997215106328158,-1.320649962004811
-0.00742366557296875,-0.024997215106328158,-1.320649962004811
-0.00742187557296875,-0.021298990253744356,-1.320649962004811
-0.0074200855729687504,-0.017600765401160557,-1.3169426110237734
-0.00741829557296875,-0.021298990253744356,-1.3169426110237734
-0.00741650557296875,-0.028695439958911956,-1.3169426110237734
-0.00741471557296875,-0.032393664811495755,-1.3169426110237734
-0.0074129255729687505,-0.03609188966407956,-1.3169426110237734
-0.00741113557296875,-0.024997215106328158,-1.3169426110237734
-0.00740934557296875,-0.024997215106328158,-1.320649962004811
-0.00740755557296875,-0.032393664811495755,-1.320649962004811
-0.0074057655729687505,-0.024997215106328158,-1.320649962004811
-0.00740397557296875,-0.028695439958911956,-1.320649962004811
-0.00740218557296875,-0.032393664811495755,-1.3169426110237734
-0.00740039557296875,-0.032393664811495755,-1.3169426110237734
-0.0073986055729687505,-0.032393664811495755,-1.3169426110237734
-0.00739681557296875,-0.032393664811495755,-1.3169426110237734
-0.00739502557296875,-0.032393664811495755,-1.3169426110237734
-0.00739323557296875,-0.03609188966407956,-1.320649962004811
-0.0073914455729687505,-0.028695439958911956,-1.3169426110237734
-0.00738965557296875,-0.024997215106328158,-1.320649962004811
-0.00738786557296875,-0.028695439958911956,-1.320649962004811
-0.00738607557296875,-0.032393664811495755,-1.3169426110237734
-0.0073842855729687506,-0.03609188966407956,-1.3169426110237734
-0.00738249557296875,-0.032393664811495755,-1.320649962004811
-0.00738070557296875,-0.032393664811495755,-1.3169426110237734
-0.00737891557296875,-0.028695439958911956,-1.320649962004811
-0.007377125572968751,-0.032393664811495755,-1.3243573129858488
-0.00737533557296875,-0.03609188966407956,-1.320649962004811
-0.00737354557296875,-0.03609188966407956,-1.320649962004811
-0.00737175557296875,-0.03609188966407956,-1.320649962004811
-0.007369965572968751,-0.03609188966407956,-1.320649962004811
-0.00736817557296875,-0.032393664811495755,-1.320649962004811
-0.00736638557296875,-0.03609188966407956,-1.320649962004811
-0.00736459557296875,-0.03609188966407956,-1.320649962004811
-0.00736280557296875,-0.032393664811495755,-1.320649962004811
-0.00736101557296875,-0.032393664811495755,-1.320649962004811
-0.00735922557296875,-0.043488339369247155,-1.3169426110237734
-0.00735743557296875,-0.043488339369247155,-1.320649962004811
-0.00735564557296875,-0.03609188966407956,-1.320649962004811
-0.00735385557296875,-0.032393664811495755,-1.3169426110237734
-0.00735206557296875,-0.028695439958911956,-1.320649962004811
-0.0073502755729687504,-0.03979011451666335,-1.3243573129858488
-0.00734848557296875,-0.03979011451666335,-1.320649962004811
-0.00734669557296875,-0.043488339369247155,-1.320649962004811
-0.00734490557296875,-0.03979011451666335,-1.3169426110237734
-0.0073431155729687505,-0.03609188966407956,-1.320649962004811
-0.00734132557296875,-0.03979011451666335,-1.3169426110237734
-0.00733953557296875,-0.032393664811495755,-1.320649962004811
-0.00733774557296875,-0.032393664811495755,-1.320649962004811
-0.0073359555729687505,-0.03609188966407956,-1.320649962004811
-0.00733416557296875,-0.03609188966407956,-1.320649962004811
-0.00733237557296875,-0.03609188966407956,-1.3169426110237734
-0.00733058557296875,-0.043488339369247155,-1.320649962004811
-0.0073287955729687505,-0.03609188966407956,-1.320649962004811
-0.00732700557296875,-0.03609188966407956,-1.3169426110237734
-0.00732521557296875,-0.03609188966407956,-1.320649962004811
-0.00732342557296875,-0.03609188966407956,-1.3169426110237734
-0.0073216355729687505,-0.043488339369247155,-1.3169426110237734
-0.00731984557296875,-0.03979011451666335,-1.3169426110237734
-0.00731805557296875,-0.03609188966407956,-1.3169426110237734
-0.00731626557296875,-0.03979011451666335,-1.3169426110237734
-0.0073144755729687505,-0.03979011451666335,-1.3169426110237734
-0.00731268557296875,-0.03979011451666335,-1.3169426110237734
-0.00731089557296875,-0.03979011451666335,-1.320649962004811
-0.00730910557296875,-0.03979011451666335,-1.320649962004811
-0.0073073155729687506,-0.03979011451666335,-1.320649962004811
-0.00730552557296875,-0.043488339369247155,-1.3169426110237734
-0.00730373557296875,-0.03979011451666335,-1.3132352600427357
-0.00730194557296875,-0.043488339369247155,-1.3169426110237734
-0.007300155572968751,-0.03979011451666503,-1.3132352600427375
-0.00729836557296875,-0.03979011451666335,-1.320649962004811
-0.00729657557296875,-0.03979011451666335,-1.320649962004811
-0.00729478557296875,-0.05088478907441475,-1.320649962004811
-0.00729299557296875,-0.043488339369245475,-1.3169426110237752
-0.00729120557296875,-0.03979011451666335,-1.320649962004811
-0.00728941557296875,-0.043488339369247155,-1.320649962004811
-0.00728762557296875,-0.043488339369247155,-1.320649962004811
-0.00728583557296875,-0.043488339369245475,-1.3206499620048093
-0.00728404557296875,-0.03979011451666335,-1.3169426110237734
-0.00728225557296875,-0.03979011451666335,-1.320649962004811
-0.00728046557296875,-0.05088478907441475,-1.3243573129858488
-0.00727867557296875,-0.03979011451666335,-1.3243573129858488
-0.00727688557296875,-0.043488339369247155,-1.3169426110237734
-0.00727509557296875,-0.043488339369247155,-1.3243573129858488
-0.0072733055729687504,-0.03979011451666335,-1.3169426110237734
-0.00727151557296875,-0.043488339369247155,-1.3169426110237734
-0.00726972557296875,-0.043488339369247155,-1.3169426110237734
-0.00726793557296875,-0.043488339369247155,-1.3169426110237734
-0.0072661455729687505,-0.04718656422183096,-1.3169426110237734
-0.00726435557296875,-0.04718656422183096,-1.320649962004811
-0.00726256557296875,-0.03979011451666335,-1.3169426110237734
-0.00726077557296875,-0.043488339369247155,-1.320649962004811
-0.0072589855729687505,-0.04718656422183096,-1.320649962004811
-0.00725719557296875,-0.04718656422183096,-1.3243573129858488
-0.00725540557296875,-0.043488339369247155,-1.320649962004811
-0.00725361557296875,-0.043488339369247155,-1.320649962004811
-0.0072518255729687505,-0.05088478907441475,-1.320649962004811
-0.00725003557296875,-0.043488339369247155,-1.3169426110237734
-0.00724824557296875,-0.043488339369247155,-1.3243573129858488
-0.00724645557296875,-0.05088478907441475,-1.320649962004811
-0.0072446655729687505,-0.043488339369247155,-1.3243573129858488
-0.00724287557296875,-0.043488339369247155,-1.320649962004811
-0.00724108557296875,-0.04718656422183096,-1.3169426110237734
-0.00723929557296875,-0.04718656422183096,-1.3169426110237734
-0.0072375055729687506,-0.04718656422183096,-1.320649962004811
-0.00723571557296875,-0.04718656422183096,-1.320649962004811
-0.00723392557296875,-0.04718656422183096,-1.3169426110237734
-0.00723213557296875,-0.05088478907441475,-1.3243573129858488
-0.007230345572968751,-0.04718656422183096,-1.320649962004811
-0.00722855557296875,-0.04718656422183096,-1.3132352600427357
-0.00722676557296875,-0.04718656422183096,-1.3169426110237734
-0.00722497557296875,-0.04718656422183096,-1.320649962004811
-0.007223185572968751,-0.043488339369248834,-1.320649962004811
-0.00722139557296875,-0.043488339369247155,-1.320649962004811
-0.00721960557296875,-0.03979011451666335,-1.3243573129858488
-0.00721781557296875,-0.05088478907441475,-1.320649962004811
-0.00721602557296875,-0.04718656422182928,-1.3243573129858488
-0.00721423557296875,-0.043488339369247155,-1.3243573129858488
-0.00721244557296875,-0.05088478907441475,-1.320649962004811
-0.00721065557296875,-0.043488339369247155,-1.3169426110237734
-0.00720886557296875,-0.043488339369247155,-1.3243573129858488
-0.00720707557296875,-0.04718656422183096,-1.320649962004811
-0.00720528557296875,-0.05088478907441475,-1.320649962004811
-0.00720349557296875,-0.054583013926998554,-1.320649962004811
-0.00720170557296875,-0.05088478907441475,-1.3169426110237734
-0.00719991557296875,-0.05088478907441475,-1.320649962004811
-0.00719812557296875,-0.05088478907441475,-1.320649962004811
-0.0071963355729687505,-0.04718656422183096,-1.3132352600427357
-0.00719454557296875,-0.043488339369247155,-1.320649962004811
-0.00719275557296875,-0.04718656422183096,-1.3169426110237734
-0.00719096557296875,-0.05088478907441475,-1.3132352600427357
-0.0071891755729687505,-0.04718656422183096,-1.320649962004811
-0.00718738557296875,-0.043488339369247155,-1.3169426110237734
-0.00718559557296875,-0.043488339369247155,-1.320649962004811
-0.00718380557296875,-0.05088478907441475,-1.320649962004811
