100Hz/acq0064.csv

#Digilent WaveForms Oscilloscope Acquisition
#Device Name: Discovery2
#Serial Number: SN:210321AA28BE
#Date Time: 2023-05-24 14:48:32.091
#Sample rate: 558659Hz
#Samples: 8192
#Trigger: Source: Channel 1 Type: Edge Condition: Rising Level: 800 mV Hyst.: Auto HoldOff: 100 ns
#Channel 1: Range: 1 V/div Offset: 0 V Attenuation: 1 X Sample Mode: Average
#Channel 2: Range: 1 V/div Offset: 0 V Attenuation: 1 X Sample Mode: Average

Time (s),Channel 1 (V),Channel 2 (V)
-0.007741983899779896,0.015683258272093638,-1.3169426110237734
-0.007740193899779896,0.019381483124675757,-1.3169426110237734
-0.007738403899779895,0.015683258272093638,-1.3169426110237734
-0.007736613899779895,0.01198503341950984,-1.3169426110237734
-0.007734823899779896,0.00828680856692604,-1.320649962004811
-0.007733033899779895,0.015683258272093638,-1.320649962004811
-0.007731243899779895,0.015683258272093638,-1.320649962004811
-0.007729453899779895,0.02307970797726124,-1.3169426110237734
-0.007727663899779896,0.01938148312467744,-1.3243573129858488
-0.007725873899779895,0.015683258272093638,-1.320649962004811
-0.007724083899779895,0.01938148312467744,-1.320649962004811
-0.007722293899779895,0.01198503341950984,-1.3243573129858488
-0.007720503899779896,0.015683258272093638,-1.320649962004811
-0.007718713899779895,0.015683258272093638,-1.320649962004811
-0.007716923899779895,0.01198503341950984,-1.320649962004811
-0.0077151338997798954,0.01198503341950984,-1.3169426110237734
-0.007713343899779896,0.00828680856692604,-1.3169426110237734
-0.007711553899779895,0.00458858371434224,-1.3169426110237734
-0.007709763899779895,0.00828680856692604,-1.3169426110237734
-0.0077079738997798955,0.00828680856692604,-1.3169426110237734
-0.007706183899779896,0.00458858371434224,-1.3169426110237734
-0.007704393899779895,0.0008903588617584406,-1.3132352600427357
-0.007702603899779895,0.00828680856692604,-1.3169426110237734
-0.0077008138997798955,0.00458858371434224,-1.320649962004811
-0.007699023899779896,0.01198503341950984,-1.3169426110237734
-0.007697233899779895,0.00828680856692604,-1.3169426110237734
-0.007695443899779895,0.00458858371434224,-1.3169426110237734
-0.0076936538997798955,0.00458858371434224,-1.3169426110237734
-0.007691863899779896,0.00458858371434224,-1.3243573129858488
-0.007690073899779895,0.00458858371434224,-1.3169426110237734
-0.007688283899779895,0.00828680856692604,-1.320649962004811
-0.0076864938997798955,0.0008903588617584406,-1.3169426110237734
-0.007684703899779896,0.00458858371434224,-1.3169426110237734
-0.007682913899779895,0.00458858371434224,-1.3169426110237734
-0.007681123899779895,0.0008903588617584406,-1.320649962004811
-0.0076793338997798955,0.0008903588617584406,-1.3132352600427357
-0.007677543899779896,0.00828680856692604,-1.320649962004811
-0.007675753899779895,0.00458858371434224,-1.320649962004811
-0.007673963899779895,0.00458858371434224,-1.3243573129858488
-0.007672173899779896,-0.002807865990825359,-1.3169426110237734
-0.007670383899779896,0.0008903588617567588,-1.3206499620048093
-0.007668593899779895,-0.002807865990825359,-1.3169426110237734
-0.007666803899779895,-0.002807865990825359,-1.320649962004811
-0.007665013899779896,-0.002807865990825359,-1.3169426110237734
-0.007663223899779895,0.0008903588617584406,-1.3169426110237734
-0.007661433899779895,0.0008903588617584406,-1.3169426110237734
-0.007659643899779895,0.0008903588617584406,-1.320649962004811
-0.007657853899779896,0.0008903588617584406,-1.320649962004811
-0.007656063899779895,-0.006506090843407477,-1.3169426110237767
-0.007654273899779895,-0.002807865990825359,-1.3243573129858488
-0.007652483899779895,-0.002807865990825359,-1.320649962004811
-0.007650693899779896,0.0008903588617584406,-1.320649962004811
-0.007648903899779895,-0.002807865990825359,-1.3169426110237734
-0.007647113899779895,-0.0065060908434091584,-1.3132352600427357
-0.007645323899779895,-0.0065060908434091584,-1.3243573129858488
-0.007643533899779896,-0.0065060908434091584,-1.3243573129858488
-0.007641743899779895,-0.002807865990825359,-1.3169426110237734
-0.007639953899779895,-0.002807865990825359,-1.320649962004811
-0.0076381638997798955,-0.002807865990825359,-1.320649962004811
-0.007636373899779896,-0.010204315695992958,-1.3169426110237734
-0.007634583899779895,-0.002807865990825359,-1.3169426110237734
-0.007632793899779895,-0.0065060908434091584,-1.3169426110237734
-0.0076310038997798955,-0.002807865990825359,-1.3169426110237734
-0.007629213899779896,-0.002807865990825359,-1.3169426110237734
-0.007627423899779895,-0.0065060908434091584,-1.3169426110237734
-0.007625633899779895,-0.0065060908434091584,-1.320649962004811
-0.0076238438997798955,-0.010204315695992958,-1.320649962004811
-0.007622053899779896,-0.0065060908434091584,-1.3169426110237734
-0.007620263899779895,-0.010204315695992958,-1.3169426110237734
-0.007618473899779895,-0.0065060908434091584,-1.320649962004811
-0.0076166838997798955,-0.0065060908434091584,-1.320649962004811
-0.007614893899779896,-0.010204315695992958,-1.3169426110237734
-0.007613103899779895,-0.010204315695992958,-1.3169426110237734
-0.007611313899779895,-0.010204315695992958,-1.3169426110237734
-0.0076095238997798955,-0.0065060908434091584,-1.3169426110237734
-0.007607733899779896,-0.010204315695992958,-1.3243573129858488
-0.007605943899779895,-0.010204315695992958,-1.320649962004811
-0.007604153899779895,-0.010204315695992958,-1.320649962004811
-0.0076023638997798956,-0.013902540548576758,-1.3132352600427357
-0.007600573899779896,-0.013902540548576758,-1.320649962004811
-0.007598783899779895,-0.013902540548576758,-1.3243573129858488
-0.007596993899779895,-0.017600765401160557,-1.320649962004811
-0.007595203899779896,-0.013902540548576758,-1.320649962004811
-0.007593413899779896,-0.006506090843412522,-1.3169426110237752
-0.007591623899779895,-0.010204315695992958,-1.3169426110237734
-0.007589833899779895,-0.010204315695992958,-1.320649962004811
-0.007588043899779896,-0.013902540548576758,-1.3132352600427357
-0.007586253899779895,-0.010204315695992958,-1.320649962004811
-0.007584463899779895,-0.010204315695992958,-1.320649962004811
-0.007582673899779895,-0.010204315695992958,-1.320649962004811
-0.007580883899779896,-0.017600765401160557,-1.3169426110237734
-0.007579093899779895,-0.017600765401160557,-1.320649962004811
-0.007577303899779895,-0.021298990253744356,-1.3169426110237734
-0.007575513899779895,-0.017600765401160557,-1.3132352600427357
-0.007573723899779896,-0.013902540548576758,-1.3169426110237734
-0.007571933899779895,-0.013902540548576758,-1.3169426110237734
-0.007570143899779895,-0.017600765401160557,-1.3132352600427357
-0.0075683538997798954,-0.017600765401160557,-1.3169426110237734
-0.007566563899779896,-0.017600765401160557,-1.320649962004811
-0.007564773899779895,-0.021298990253744356,-1.3169426110237734
-0.007562983899779895,-0.017600765401160557,-1.320649962004811
-0.0075611938997798955,-0.017600765401160557,-1.3169426110237734
-0.007559403899779896,-0.021298990253744356,-1.3169426110237734
-0.007557613899779895,-0.021298990253744356,-1.3169426110237734
-0.007555823899779895,-0.021298990253744356,-1.3169426110237734
-0.0075540338997798955,-0.021298990253744356,-1.3169426110237734
-0.007552243899779896,-0.021298990253744356,-1.320649962004811
-0.007550453899779895,-0.017600765401160557,-1.320649962004811
-0.007548663899779895,-0.017600765401160557,-1.320649962004811
-0.0075468738997798955,-0.017600765401160557,-1.320649962004811
-0.007545083899779896,-0.017600765401160557,-1.3243573129858488
-0.007543293899779895,-0.021298990253744356,-1.3243573129858488
-0.007541503899779895,-0.021298990253744356,-1.320649962004811
-0.0075397138997798955,-0.017600765401160557,-1.320649962004811
-0.007537923899779896,-0.024997215106328158,-1.320649962004811
-0.007536133899779895,-0.017600765401160557,-1.320649962004811
-0.007534343899779895,-0.017600765401160557,-1.320649962004811
-0.0075325538997798955,-0.017600765401160557,-1.3169426110237734
-0.007530763899779896,-0.017600765401160557,-1.3169426110237734
-0.007528973899779895,-0.017600765401160557,-1.3169426110237734
-0.007527183899779895,-0.024997215106328158,-1.320649962004811
-0.007525393899779896,-0.024997215106328158,-1.3169426110237734
-0.007523603899779896,-0.01760076540116392,-1.3206499620048093
-0.007521813899779895,-0.021298990253744356,-1.3132352600427357
-0.007520023899779895,-0.013902540548576758,-1.3169426110237734
-0.007518233899779896,-0.024997215106328158,-1.3132352600427357
-0.007516443899779896,-0.02129899025374604,-1.3169426110237716
-0.007514653899779895,-0.028695439958911956,-1.320649962004811
-0.007512863899779895,-0.024997215106328158,-1.3169426110237734
-0.007511073899779896,-0.028695439958911956,-1.3169426110237734
-0.007509283899779895,-0.024997215106328158,-1.3169426110237734
-0.007507493899779895,-0.024997215106328158,-1.3169426110237734
-0.007505703899779895,-0.032393664811495755,-1.3169426110237734
-0.007503913899779896,-0.032393664811495755,-1.3169426110237734
-0.007502123899779895,-0.032393664811495755,-1.320649962004811
-0.007500333899779895,-0.024997215106328158,-1.3169426110237734
-0.007498543899779895,-0.028695439958911956,-1.3169426110237734
-0.007496753899779896,-0.032393664811495755,-1.320649962004811
-0.007494963899779895,-0.032393664811495755,-1.320649962004811
-0.007493173899779895,-0.032393664811495755,-1.3169426110237734
-0.0074913838997798955,-0.032393664811495755,-1.320649962004811
-0.007489593899779896,-0.028695439958911956,-1.3243573129858488
-0.007487803899779895,-0.028695439958911956,-1.3169426110237734
-0.007486013899779895,-0.028695439958911956,-1.320649962004811
-0.0074842238997798955,-0.028695439958911956,-1.3169426110237734
-0.007482433899779896,-0.032393664811495755,-1.3169426110237734
-0.007480643899779895,-0.028695439958911956,-1.3169426110237734
-0.007478853899779895,-0.032393664811495755,-1.3169426110237734
-0.0074770638997798955,-0.032393664811495755,-1.320649962004811
-0.007475273899779896,-0.024997215106328158,-1.320649962004811
-0.007473483899779895,-0.03609188966407956,-1.320649962004811
-0.007471693899779895,-0.03609188966407956,-1.3132352600427357
-0.0074699038997798955,-0.032393664811495755,-1.3132352600427357
-0.007468113899779896,-0.032393664811495755,-1.320649962004811
-0.007466323899779895,-0.03609188966407956,-1.320649962004811
-0.007464533899779895,-0.028695439958911956,-1.3169426110237734
-0.0074627438997798955,-0.032393664811495755,-1.320649962004811
-0.007460953899779896,-0.03609188966407956,-1.320649962004811
-0.007459163899779895,-0.028695439958911956,-1.320649962004811
-0.007457373899779895,-0.032393664811495755,-1.320649962004811
-0.0074555838997798956,-0.032393664811495755,-1.3243573129858488
-0.007453793899779896,-0.032393664811495755,-1.3243573129858488
-0.007452003899779895,-0.028695439958911956,-1.320649962004811
-0.007450213899779895,-0.032393664811495755,-1.320649962004811
-0.007448423899779896,-0.028695439958911956,-1.320649962004811
-0.007446633899779896,-0.03609188966407619,-1.320649962004811
-0.007444843899779895,-0.03609188966407956,-1.3243573129858488
-0.007443053899779895,-0.03979011451666335,-1.320649962004811
-0.007441263899779896,-0.03609188966407956,-1.3243573129858488
-0.007439473899779895,-0.03979011451666335,-1.3169426110237734
-0.007437683899779895,-0.03979011451666335,-1.3169426110237734
-0.007435893899779895,-0.03609188966407956,-1.320649962004811
-0.007434103899779896,-0.03609188966407956,-1.3169426110237734
-0.007432313899779895,-0.03979011451666335,-1.3169426110237734
-0.007430523899779895,-0.032393664811495755,-1.3169426110237734
-0.007428733899779895,-0.03609188966407956,-1.320649962004811
-0.007426943899779896,-0.043488339369247155,-1.3169426110237734
-0.007425153899779895,-0.03979011451666335,-1.320649962004811
-0.007423363899779895,-0.03979011451666335,-1.320649962004811
-0.0074215738997798954,-0.03609188966407956,-1.3169426110237734
-0.007419783899779896,-0.03979011451666335,-1.320649962004811
-0.007417993899779895,-0.03979011451666335,-1.320649962004811
-0.007416203899779895,-0.03979011451666335,-1.3169426110237734
-0.0074144138997798955,-0.03979011451666335,-1.3243573129858488
-0.007412623899779896,-0.03979011451666335,-1.320649962004811
-0.007410833899779895,-0.043488339369247155,-1.320649962004811
-0.007409043899779895,-0.04718656422183096,-1.3169426110237734
-0.0074072538997798955,-0.03979011451666335,-1.3169426110237734
-0.007405463899779896,-0.03979011451666335,-1.3169426110237734
-0.007403673899779895,-0.043488339369247155,-1.3169426110237734
-0.007401883899779895,-0.03979011451666335,-1.320649962004811
-0.0074000938997798955,-0.043488339369247155,-1.3169426110237734
-0.007398303899779896,-0.04718656422183096,-1.320649962004811
-0.007396513899779895,-0.04718656422183096,-1.320649962004811
-0.007394723899779895,-0.05088478907441475,-1.3169426110237734
-0.0073929338997798955,-0.043488339369247155,-1.3169426110237734
-0.007391143899779896,-0.043488339369247155,-1.3169426110237734
-0.007389353899779895,-0.043488339369247155,-1.3243573129858488
-0.007387563899779895,-0.03609188966407956,-1.3132352600427357
-0.0073857738997798955,-0.03979011451666335,-1.3132352600427357
-0.007383983899779896,-0.04718656422183096,-1.320649962004811
-0.007382193899779895,-0.043488339369247155,-1.3243573129858488
-0.007380403899779895,-0.043488339369247155,-1.320649962004811
-0.007378613899779896,-0.043488339369247155,-1.320649962004811
-0.007376823899779896,-0.04718656422183096,-1.320649962004811
-0.007375033899779895,-0.05088478907441475,-1.320649962004811
-0.007373243899779895,-0.04718656422183096,-1.3132352600427357
-0.007371453899779896,-0.043488339369247155,-1.3132352600427357
-0.007369663899779896,-0.04718656422182928,-1.3169426110237716
-0.007367873899779895,-0.05088478907441475,-1.3169426110237734
-0.007366083899779895,-0.05088478907441475,-1.320649962004811
-0.007364293899779896,-0.04718656422183096,-1.3169426110237734
-0.007362503899779895,-0.047186564221832636,-1.3169426110237752
-0.007360713899779895,-0.05088478907441475,-1.320649962004811
-0.007358923899779895,-0.043488339369247155,-1.3169426110237734
-0.007357133899779896,-0.043488339369247155,-1.320649962004811
-0.007355343899779895,-0.04718656422183096,-1.3169426110237734
-0.007353553899779895,-0.05088478907441475,-1.3169426110237734
-0.007351763899779895,-0.043488339369247155,-1.3169426110237734
-0.007349973899779896,-0.05088478907441475,-1.320649962004811
-0.007348183899779895,-0.054583013926998554,-1.3169426110237734
-0.007346393899779895,-0.05088478907441475,-1.3169426110237734
-0.0073446038997798955,-0.05088478907441475,-1.320649962004811
-0.007342813899779896,-0.054583013926998554,-1.3169426110237734
-0.007341023899779895,-0.05088478907441475,-1.3243573129858488
-0.007339233899779895,-0.05088478907441475,-1.320649962004811
-0.0073374438997798955,-0.054583013926998554,-1.3169426110237734
-0.007335653899779896,-0.04718656422183096,-1.3169426110237734
-0.007333863899779895,-0.04718656422183096,-1.3243573129858488
-0.007332073899779895,-0.05088478907441475,-1.3169426110237734
-0.0073302838997798955,-0.05088478907441475,-1.3132352600427357
-0.007328493899779896,-0.05088478907441475,-1.3243573129858488
-0.007326703899779895,-0.05088478907441475,-1.320649962004811
-0.007324913899779895,-0.04718656422183096,-1.3132352600427357
-0.0073231238997798955,-0.05088478907441475,-1.3132352600427357
-0.007321333899779896,-0.05088478907441475,-1.3169426110237734
-0.007319543899779895,-0.05088478907441475,-1.320649962004811
-0.007317753899779895,-0.05088478907441475,-1.3169426110237734
-0.0073159638997798955,-0.05088478907441475,-1.3243573129858488
-0.007314173899779896,-0.05088478907441475,-1.320649962004811
-0.007312383899779895,-0.054583013926998554,-1.3243573129858488
-0.007310593899779895,-0.05828123877958235,-1.3169426110237734
-0.0073088038997798956,-0.05088478907441475,-1.3169426110237734
-0.007307013899779896,-0.05088478907441475,-1.3169426110237734
-0.007305223899779895,-0.05828123877958235,-1.320649962004811
-0.007303433899779895,-0.05088478907441475,-1.3169426110237734
-0.007301643899779896,-0.05088478907441475,-1.320649962004811
-0.007299853899779896,-0.054583013926996875,-1.3169426110237752
-0.007298063899779895,-0.054583013926998554,-1.3132352600427357
-0.007296273899779895,-0.05828123877958235,-1.3132352600427357
-0.007294483899779896,-0.05828123877958235,-1.3169426110237734
-0.007292693899779895,-0.05458301392700192,-1.3132352600427357
-0.007290903899779895,-0.06197946363216615,-1.3132352600427357
-0.007289113899779895,-0.05828123877958235,-1.3169426110237734
-0.007287323899779896,-0.05088478907441475,-1.3169426110237734
-0.007285533899779895,-0.05828123877958067,-1.3206499620048093
-0.007283743899779895,-0.054583013926998554,-1.3169426110237734
-0.007281953899779895,-0.054583013926998554,-1.3169426110237734
-0.007280163899779896,-0.05088478907441475,-1.3169426110237734
-0.007278373899779895,-0.05828123877958235,-1.3132352600427357
-0.007276583899779895,-0.05828123877958235,-1.3132352600427357
-0.0072747938997798954,-0.06197946363216615,-1.3169426110237734
-0.007273003899779896,-0.06197946363216615,-1.320649962004811
-0.007271213899779895,-0.05828123877958235,-1.3169426110237734
-0.007269423899779895,-0.06197946363216615,-1.3169426110237734
-0.0072676338997798955,-0.05828123877958235,-1.3169426110237734
-0.007265843899779896,-0.06197946363216615,-1.3169426110237734
-0.007264053899779895,-0.06197946363216615,-1.3169426110237734
-0.007262263899779895,-0.05828123877958235,-1.3132352600427357
-0.0072604738997798955,-0.06567768848474995,-1.320649962004811
-0.007258683899779896,-0.05828123877958235,-1.320649962004811
-0.007256893899779895,-0.05088478907441475,-1.3169426110237734
-0.007255103899779895,-0.06197946363216615,-1.320649962004811
-0.0072533138997798955,-0.06197946363216615,-1.320649962004811
-0.007251523899779896,-0.05828123877958235,-1.320649962004811
-0.007249733899779895,-0.06197946363216615,-1.320649962004811
-0.007247943899779895,-0.05828123877958235,-1.320649962004811
-0.0072461538997798955,-0.06567768848474995,-1.3169426110237734
-0.007244363899779896,-0.05828123877958235,-1.3169426110237734
-0.007242573899779895,-0.05828123877958235,-1.3169426110237734
-0.007240783899779895,-0.06197946363216615,-1.3169426110237734
-0.0072389938997798955,-0.06567768848474995,-1.3132352600427357
-0.007237203899779896,-0.06197946363216615,-1.320649962004811
-0.007235413899779895,-0.05828123877958235,-1.3169426110237734
-0.007233623899779895,-0.06197946363216615,-1.3169426110237734
-0.007231833899779896,-0.06197946363216615,-1.3169426110237734
-0.007230043899779896,-0.06197946363216615,-1.3169426110237734
-0.007228253899779895,-0.06567768848474995,-1.3169426110237734
-0.007226463899779895,-0.06567768848474995,-1.3169426110237734
-0.007224673899779896,-0.06197946363216615,-1.3169426110237734
-0.007222883899779896,-0.06197946363216615,-1.3206499620048093
-0.007221093899779895,-0.06567768848474995,-1.320649962004811
-0.007219303899779895,-0.06197946363216615,-1.320649962004811
-0.007217513899779896,-0.05828123877958235,-1.320649962004811
-0.007215723899779895,-0.06197946363216615,-1.324357312985847
-0.007213933899779895,-0.06197946363216615,-1.320649962004811
-0.007212143899779895,-0.06197946363216615,-1.320649962004811
-0.007210353899779896,-0.06567768848474995,-1.320649962004811
-0.007208563899779895,-0.06567768848474995,-1.3169426110237734
-0.007206773899779895,-0.06567768848474995,-1.3169426110237734
-0.007204983899779895,-0.06567768848474995,-1.3132352600427357
-0.007203193899779896,-0.06567768848474995,-1.3169426110237734
-0.007201403899779895,-0.06937591333733376,-1.3169426110237734
-0.007199613899779895,-0.06937591333733376,-1.3169426110237734
-0.0071978238997798955,-0.06567768848474995,-1.320649962004811
-0.007196033899779896,-0.06567768848474995,-1.3169426110237734
-0.007194243899779895,-0.06197946363216615,-1.320649962004811
-0.007192453899779895,-0.06197946363216615,-1.3169426110237734
-0.0071906638997798955,-0.06567768848474995,-1.320649962004811
