100Hz/acq0057.csv

#Digilent WaveForms Oscilloscope Acquisition
#Device Name: Discovery2
#Serial Number: SN:210321AA28BE
#Date Time: 2023-05-24 14:48:31.880
#Sample rate: 558659Hz
#Samples: 8192
#Trigger: Source: Channel 1 Type: Edge Condition: Rising Level: 800 mV Hyst.: Auto HoldOff: 100 ns
#Channel 1: Range: 1 V/div Offset: 0 V Attenuation: 1 X Sample Mode: Average
#Channel 2: Range: 1 V/div Offset: 0 V Attenuation: 1 X Sample Mode: Average

Time (s),Channel 1 (V),Channel 2 (V)
-0.007741345421473423,0.01198503341950984,-1.320649962004811
-0.007739555421473423,0.01198503341950984,-1.3169426110237752
-0.007737765421473423,0.01938148312467744,-1.3169426110237734
-0.007735975421473423,0.01198503341950984,-1.3169426110237734
-0.007734185421473423,0.00828680856692604,-1.3280646639668865
-0.0077323954214734225,0.015683258272091955,-1.3206499620048093
-0.007730605421473423,0.01198503341950984,-1.3169426110237734
-0.007728815421473423,0.00828680856692604,-1.3243573129858488
-0.007727025421473423,0.01198503341950984,-1.3243573129858488
-0.007725235421473423,0.00828680856692604,-1.3243573129858488
-0.007723445421473423,0.01198503341950984,-1.320649962004811
-0.007721655421473423,0.0008903588617584406,-1.3132352600427357
-0.007719865421473423,0.01198503341950984,-1.320649962004811
-0.007718075421473423,0.00828680856692604,-1.3132352600427357
-0.007716285421473423,0.00828680856692604,-1.3169426110237734
-0.007714495421473423,0.00828680856692604,-1.3169426110237734
-0.007712705421473423,0.01198503341950984,-1.3169426110237734
-0.007710915421473423,0.00828680856692604,-1.320649962004811
-0.007709125421473423,0.00828680856692604,-1.320649962004811
-0.007707335421473423,0.00458858371434224,-1.3243573129858488
-0.007705545421473423,0.00828680856692604,-1.320649962004811
-0.007703755421473423,0.01198503341950984,-1.3243573129858488
-0.007701965421473423,0.00828680856692604,-1.320649962004811
-0.007700175421473423,0.00458858371434224,-1.320649962004811
-0.007698385421473423,0.00828680856692604,-1.3169426110237734
-0.007696595421473423,0.00458858371434224,-1.320649962004811
-0.007694805421473423,0.00458858371434224,-1.320649962004811
-0.007693015421473423,0.00458858371434224,-1.3169426110237734
-0.007691225421473423,-0.002807865990825359,-1.320649962004811
-0.007689435421473423,0.00828680856692604,-1.320649962004811
-0.007687645421473423,0.00828680856692604,-1.320649962004811
-0.007685855421473423,0.00458858371434224,-1.320649962004811
-0.007684065421473423,0.00458858371434224,-1.320649962004811
-0.007682275421473423,-0.002807865990825359,-1.320649962004811
-0.007680485421473423,0.0008903588617584406,-1.3169426110237734
-0.007678695421473423,0.00828680856692604,-1.3169426110237734
-0.007676905421473423,-0.002807865990825359,-1.320649962004811
-0.007675115421473423,-0.002807865990825359,-1.320649962004811
-0.007673325421473423,-0.002807865990825359,-1.3243573129858488
-0.007671535421473423,-0.002807865990825359,-1.320649962004811
-0.007669745421473423,-0.002807865990825359,-1.320649962004811
-0.007667955421473423,0.00458858371434224,-1.320649962004811
-0.007666165421473423,0.0008903588617584406,-1.320649962004811
-0.007664375421473423,-0.002807865990825359,-1.320649962004811
-0.0076625854214734225,-0.002807865990825359,-1.320649962004811
-0.007660795421473423,-0.002807865990825359,-1.320649962004811
-0.007659005421473423,-0.002807865990825359,-1.320649962004811
-0.007657215421473423,-0.0065060908434091584,-1.3169426110237734
-0.0076554254214734226,-0.006506090843407477,-1.3169426110237752
-0.007653635421473423,-0.002807865990825359,-1.320649962004811
-0.007651845421473423,-0.0065060908434091584,-1.3243573129858488
-0.007650055421473423,-0.0065060908434091584,-1.3169426110237734
-0.007648265421473423,-0.010204315695992958,-1.3169426110237734
-0.007646475421473423,-0.0065060908434091584,-1.320649962004811
-0.007644685421473423,-0.0065060908434091584,-1.320649962004811
-0.007642895421473423,-0.010204315695992958,-1.320649962004811
-0.007641105421473423,-0.010204315695992958,-1.320649962004811
-0.007639315421473423,-0.0065060908434091584,-1.3169426110237734
-0.007637525421473423,-0.002807865990825359,-1.3169426110237734
-0.007635735421473423,-0.0065060908434091584,-1.320649962004811
-0.007633945421473423,-0.010204315695992958,-1.3243573129858488
-0.007632155421473423,-0.0065060908434091584,-1.3243573129858488
-0.007630365421473423,-0.010204315695992958,-1.320649962004811
-0.007628575421473423,-0.010204315695992958,-1.3169426110237734
-0.007626785421473423,-0.010204315695992958,-1.320649962004811
-0.007624995421473423,-0.010204315695992958,-1.3169426110237734
-0.007623205421473423,-0.017600765401160557,-1.3169426110237734
-0.007621415421473423,-0.0065060908434091584,-1.320649962004811
-0.007619625421473423,-0.010204315695992958,-1.3169426110237734
-0.007617835421473423,-0.013902540548576758,-1.320649962004811
-0.007616045421473423,-0.0065060908434091584,-1.3169426110237734
-0.007614255421473423,-0.0065060908434091584,-1.3169426110237734
-0.007612465421473423,-0.0065060908434091584,-1.3169426110237734
-0.007610675421473423,-0.0065060908434091584,-1.320649962004811
-0.007608885421473423,-0.010204315695992958,-1.320649962004811
-0.007607095421473423,-0.010204315695992958,-1.3169426110237734
-0.007605305421473423,-0.013902540548576758,-1.320649962004811
-0.007603515421473423,-0.013902540548576758,-1.320649962004811
-0.007601725421473423,-0.010204315695992958,-1.3132352600427357
-0.007599935421473423,-0.013902540548576758,-1.320649962004811
-0.007598145421473423,-0.013902540548576758,-1.320649962004811
-0.007596355421473423,-0.013902540548576758,-1.3169426110237734
-0.007594565421473423,-0.010204315695992958,-1.3243573129858488
-0.007592775421473423,-0.017600765401157195,-1.3169426110237767
-0.007590985421473423,-0.013902540548576758,-1.320649962004811
-0.007589195421473423,-0.017600765401160557,-1.320649962004811
-0.007587405421473423,-0.013902540548576758,-1.3243573129858488
-0.0075856154214734225,-0.013902540548580122,-1.3169426110237752
-0.007583825421473423,-0.021298990253744356,-1.320649962004811
-0.007582035421473423,-0.013902540548576758,-1.3169426110237734
-0.007580245421473423,-0.021298990253744356,-1.320649962004811
-0.007578455421473423,-0.017600765401160557,-1.3169426110237734
-0.007576665421473423,-0.017600765401160557,-1.3169426110237734
-0.007574875421473423,-0.017600765401160557,-1.320649962004811
-0.007573085421473423,-0.013902540548576758,-1.320649962004811
-0.007571295421473423,-0.017600765401160557,-1.3169426110237734
-0.007569505421473423,-0.017600765401160557,-1.3169426110237734
-0.007567715421473423,-0.013902540548576758,-1.320649962004811
-0.007565925421473423,-0.021298990253744356,-1.320649962004811
-0.007564135421473423,-0.013902540548576758,-1.320649962004811
-0.007562345421473423,-0.017600765401160557,-1.320649962004811
-0.007560555421473423,-0.021298990253744356,-1.320649962004811
-0.007558765421473423,-0.021298990253744356,-1.320649962004811
-0.007556975421473423,-0.021298990253744356,-1.320649962004811
-0.007555185421473423,-0.021298990253744356,-1.3169426110237734
-0.007553395421473423,-0.021298990253744356,-1.320649962004811
-0.007551605421473423,-0.021298990253744356,-1.3132352600427357
-0.007549815421473423,-0.017600765401160557,-1.3169426110237734
-0.007548025421473423,-0.024997215106328158,-1.320649962004811
-0.007546235421473423,-0.021298990253744356,-1.320649962004811
-0.007544445421473423,-0.024997215106328158,-1.3243573129858488
-0.007542655421473423,-0.021298990253744356,-1.320649962004811
-0.007540865421473423,-0.021298990253744356,-1.3169426110237734
-0.007539075421473423,-0.021298990253744356,-1.320649962004811
-0.007537285421473423,-0.021298990253744356,-1.3169426110237734
-0.007535495421473423,-0.021298990253744356,-1.3169426110237734
-0.007533705421473423,-0.021298990253744356,-1.320649962004811
-0.007531915421473423,-0.021298990253744356,-1.320649962004811
-0.007530125421473423,-0.024997215106328158,-1.3169426110237734
-0.007528335421473423,-0.021298990253744356,-1.320649962004811
-0.007526545421473423,-0.024997215106328158,-1.320649962004811
-0.007524755421473423,-0.024997215106328158,-1.320649962004811
-0.007522965421473423,-0.02129899025374604,-1.324357312985847
-0.007521175421473423,-0.024997215106328158,-1.3243573129858488
-0.007519385421473423,-0.028695439958911956,-1.320649962004811
-0.007517595421473423,-0.024997215106328158,-1.3169426110237734
-0.007515805421473423,-0.028695439958910274,-1.3169426110237734
-0.007514015421473423,-0.032393664811495755,-1.320649962004811
-0.007512225421473423,-0.032393664811495755,-1.320649962004811
-0.007510435421473423,-0.028695439958911956,-1.320649962004811
-0.0075086454214734226,-0.032393664811494076,-1.3169426110237767
-0.007506855421473423,-0.028695439958911956,-1.3243573129858488
-0.007505065421473423,-0.028695439958911956,-1.320649962004811
-0.007503275421473423,-0.024997215106328158,-1.320649962004811
-0.007501485421473423,-0.032393664811495755,-1.3243573129858488
-0.007499695421473423,-0.032393664811495755,-1.320649962004811
-0.007497905421473423,-0.032393664811495755,-1.3169426110237734
-0.007496115421473423,-0.032393664811495755,-1.320649962004811
-0.007494325421473423,-0.028695439958911956,-1.3169426110237734
-0.007492535421473423,-0.03609188966407956,-1.3132352600427357
-0.007490745421473423,-0.03609188966407956,-1.3169426110237734
-0.007488955421473423,-0.03609188966407956,-1.320649962004811
-0.007487165421473423,-0.03609188966407956,-1.320649962004811
-0.007485375421473423,-0.032393664811495755,-1.320649962004811
-0.007483585421473423,-0.032393664811495755,-1.320649962004811
-0.007481795421473423,-0.028695439958911956,-1.3243573129858488
-0.007480005421473423,-0.032393664811495755,-1.320649962004811
-0.007478215421473423,-0.032393664811495755,-1.320649962004811
-0.007476425421473423,-0.032393664811495755,-1.320649962004811
-0.007474635421473423,-0.028695439958911956,-1.3169426110237734
-0.007472845421473423,-0.028695439958911956,-1.3169426110237734
-0.007471055421473423,-0.032393664811495755,-1.3169426110237734
-0.007469265421473423,-0.032393664811495755,-1.320649962004811
-0.007467475421473423,-0.03609188966407956,-1.320649962004811
-0.007465685421473423,-0.03609188966407956,-1.320649962004811
-0.007463895421473423,-0.032393664811495755,-1.320649962004811
-0.007462105421473423,-0.032393664811495755,-1.320649962004811
-0.007460315421473423,-0.043488339369247155,-1.320649962004811
-0.007458525421473423,-0.03609188966407956,-1.320649962004811
-0.007456735421473423,-0.03609188966407956,-1.3243573129858488
-0.007454945421473423,-0.032393664811495755,-1.3169426110237734
-0.007453155421473423,-0.03609188966407956,-1.3169426110237734
-0.007451365421473423,-0.032393664811495755,-1.320649962004811
-0.007449575421473423,-0.03609188966407956,-1.3169426110237734
-0.007447785421473423,-0.03979011451666335,-1.320649962004811
-0.007445995421473423,-0.03239366481149912,-1.320649962004811
-0.007444205421473423,-0.03979011451666335,-1.3169426110237734
-0.007442415421473423,-0.03979011451666335,-1.3243573129858488
-0.007440625421473423,-0.032393664811495755,-1.3243573129858488
-0.0074388354214734225,-0.03979011451666167,-1.324357312985847
-0.007437045421473423,-0.03609188966407956,-1.320649962004811
-0.007435255421473423,-0.03979011451666335,-1.320649962004811
-0.007433465421473423,-0.03979011451666335,-1.320649962004811
-0.007431675421473423,-0.03609188966407956,-1.3169426110237734
-0.007429885421473423,-0.03979011451666335,-1.320649962004811
-0.007428095421473423,-0.03979011451666335,-1.320649962004811
-0.007426305421473423,-0.043488339369247155,-1.3169426110237734
-0.007424515421473423,-0.043488339369247155,-1.320649962004811
-0.007422725421473423,-0.03979011451666335,-1.3169426110237734
-0.007420935421473423,-0.043488339369247155,-1.320649962004811
-0.007419145421473423,-0.043488339369247155,-1.320649962004811
-0.007417355421473423,-0.03979011451666335,-1.3169426110237734
-0.007415565421473423,-0.043488339369247155,-1.3243573129858488
-0.007413775421473423,-0.043488339369247155,-1.320649962004811
-0.007411985421473423,-0.043488339369247155,-1.320649962004811
-0.007410195421473423,-0.043488339369247155,-1.3169426110237734
-0.007408405421473423,-0.043488339369247155,-1.3169426110237734
-0.007406615421473423,-0.043488339369247155,-1.320649962004811
-0.007404825421473423,-0.043488339369247155,-1.320649962004811
-0.007403035421473423,-0.043488339369247155,-1.3169426110237734
-0.007401245421473423,-0.04718656422183096,-1.320649962004811
-0.007399455421473423,-0.043488339369247155,-1.3243573129858488
-0.007397665421473423,-0.043488339369247155,-1.3169426110237734
-0.007395875421473423,-0.04718656422183096,-1.3132352600427357
-0.007394085421473423,-0.043488339369247155,-1.320649962004811
-0.007392295421473423,-0.05088478907441475,-1.320649962004811
-0.007390505421473423,-0.04718656422183096,-1.320649962004811
-0.007388715421473423,-0.05088478907441475,-1.320649962004811
-0.007386925421473423,-0.04718656422183096,-1.320649962004811
-0.007385135421473423,-0.05088478907441475,-1.3169426110237734
-0.007383345421473423,-0.043488339369247155,-1.320649962004811
-0.007381555421473423,-0.04718656422183096,-1.3169426110237734
-0.007379765421473423,-0.05088478907441475,-1.3169426110237734
-0.007377975421473423,-0.04718656422183096,-1.3169426110237734
-0.007376185421473423,-0.043488339369247155,-1.3169426110237734
-0.007374395421473423,-0.04718656422183096,-1.320649962004811
-0.007372605421473423,-0.05088478907441475,-1.3169426110237734
-0.007370815421473423,-0.04718656422183096,-1.3169426110237734
-0.007369025421473423,-0.05088478907441307,-1.3169426110237734
-0.007367235421473423,-0.05088478907441475,-1.3169426110237734
-0.007365445421473423,-0.043488339369247155,-1.320649962004811
-0.007363655421473423,-0.04718656422183096,-1.3169426110237734
-0.0073618654214734226,-0.043488339369245475,-1.3206499620048129
-0.007360075421473423,-0.03979011451666335,-1.3243573129858488
-0.007358285421473423,-0.04718656422183096,-1.3169426110237734
-0.007356495421473423,-0.05088478907441475,-1.320649962004811
-0.007354705421473423,-0.04718656422183096,-1.3169426110237734
-0.007352915421473423,-0.05088478907441475,-1.3243573129858488
-0.007351125421473423,-0.05088478907441475,-1.320649962004811
-0.007349335421473423,-0.04718656422183096,-1.3243573129858488
-0.007347545421473423,-0.054583013926998554,-1.320649962004811
-0.007345755421473423,-0.05088478907441475,-1.3169426110237734
-0.007343965421473423,-0.05088478907441475,-1.3169426110237734
-0.007342175421473423,-0.05088478907441475,-1.320649962004811
-0.007340385421473423,-0.05088478907441475,-1.3169426110237734
-0.007338595421473423,-0.05088478907441475,-1.3169426110237734
-0.007336805421473423,-0.05828123877958235,-1.320649962004811
-0.007335015421473423,-0.05088478907441475,-1.3169426110237734
-0.007333225421473423,-0.05088478907441475,-1.320649962004811
-0.007331435421473423,-0.054583013926998554,-1.320649962004811
-0.007329645421473423,-0.054583013926998554,-1.3169426110237734
-0.007327855421473423,-0.054583013926998554,-1.320649962004811
-0.007326065421473423,-0.05828123877958235,-1.3169426110237734
-0.007324275421473423,-0.054583013926998554,-1.3132352600427357
-0.007322485421473423,-0.05828123877958235,-1.3169426110237734
-0.007320695421473423,-0.06197946363216615,-1.3169426110237734
-0.007318905421473423,-0.054583013926998554,-1.3243573129858488
-0.007317115421473423,-0.05088478907441475,-1.3243573129858488
-0.007315325421473423,-0.054583013926998554,-1.3243573129858488
-0.007313535421473423,-0.054583013926998554,-1.3243573129858488
-0.007311745421473423,-0.05828123877958235,-1.3169426110237734
-0.007309955421473423,-0.054583013926998554,-1.3169426110237734
-0.007308165421473423,-0.05828123877958235,-1.320649962004811
-0.007306375421473423,-0.05828123877958235,-1.3169426110237734
-0.007304585421473423,-0.054583013926998554,-1.3243573129858488
-0.007302795421473423,-0.05828123877958235,-1.320649962004811
-0.007301005421473423,-0.05088478907441475,-1.3169426110237734
-0.007299215421473423,-0.054583013926996875,-1.3206499620048093
-0.007297425421473423,-0.06197946363216615,-1.320649962004811
-0.007295635421473423,-0.054583013926998554,-1.3243573129858488
-0.007293845421473423,-0.054583013926998554,-1.320649962004811
-0.0072920554214734225,-0.05458301392700023,-1.3169426110237734
-0.007290265421473423,-0.05828123877958235,-1.3169426110237734
-0.007288475421473423,-0.05828123877958235,-1.320649962004811
-0.007286685421473423,-0.06197946363216615,-1.3169426110237734
-0.007284895421473423,-0.05828123877958235,-1.3243573129858455
-0.007283105421473423,-0.05828123877958235,-1.3169426110237734
-0.007281315421473423,-0.05828123877958235,-1.320649962004811
-0.007279525421473423,-0.05828123877958235,-1.320649962004811
-0.007277735421473423,-0.05828123877958235,-1.320649962004811
-0.007275945421473423,-0.05828123877958235,-1.320649962004811
-0.007274155421473423,-0.06197946363216615,-1.320649962004811
-0.007272365421473423,-0.05828123877958235,-1.3243573129858488
-0.007270575421473423,-0.06197946363216615,-1.320649962004811
-0.007268785421473423,-0.05828123877958235,-1.3169426110237734
-0.007266995421473423,-0.06197946363216615,-1.3169426110237734
-0.007265205421473423,-0.06197946363216615,-1.320649962004811
-0.007263415421473423,-0.054583013926998554,-1.320649962004811
-0.007261625421473423,-0.05828123877958235,-1.320649962004811
-0.007259835421473423,-0.05828123877958235,-1.320649962004811
-0.007258045421473423,-0.06567768848474995,-1.3243573129858488
-0.007256255421473423,-0.06567768848474995,-1.3243573129858488
-0.007254465421473423,-0.05828123877958235,-1.320649962004811
-0.007252675421473423,-0.05828123877958235,-1.3243573129858488
-0.007250885421473423,-0.06197946363216615,-1.3243573129858488
-0.007249095421473423,-0.06197946363216615,-1.320649962004811
-0.007247305421473423,-0.06197946363216615,-1.3169426110237734
-0.007245515421473423,-0.05828123877958235,-1.320649962004811
-0.007243725421473423,-0.06567768848474995,-1.3132352600427357
-0.007241935421473423,-0.06197946363216615,-1.3169426110237734
-0.007240145421473423,-0.06197946363216615,-1.320649962004811
-0.007238355421473423,-0.06197946363216615,-1.3169426110237734
-0.007236565421473423,-0.06567768848474995,-1.3169426110237734
-0.007234775421473423,-0.06567768848474995,-1.3169426110237734
-0.007232985421473423,-0.06567768848474995,-1.3243573129858488
-0.007231195421473423,-0.06567768848474995,-1.320649962004811
-0.007229405421473423,-0.06567768848474995,-1.3243573129858488
-0.007227615421473423,-0.06937591333733376,-1.320649962004811
-0.007225825421473423,-0.06567768848474995,-1.3169426110237734
-0.007224035421473423,-0.06567768848474995,-1.320649962004811
-0.007222245421473423,-0.06567768848474995,-1.320649962004811
-0.007220455421473423,-0.06197946363216615,-1.3169426110237734
-0.007218665421473423,-0.06197946363216615,-1.320649962004811
-0.007216875421473423,-0.06567768848474995,-1.3280646639668865
-0.0072150854214734226,-0.06197946363216952,-1.320649962004811
-0.007213295421473423,-0.06937591333733376,-1.320649962004811
-0.007211505421473423,-0.06937591333733376,-1.320649962004811
-0.007209715421473423,-0.06937591333733376,-1.320649962004811
-0.007207925421473423,-0.06937591333733376,-1.320649962004811
-0.007206135421473423,-0.06937591333733376,-1.320649962004811
-0.007204345421473423,-0.06197946363216615,-1.3169426110237734
-0.007202555421473423,-0.06197946363216615,-1.3169426110237734
-0.007200765421473423,-0.06567768848474995,-1.3169426110237734
-0.007198975421473423,-0.06937591333733376,-1.3169426110237734
-0.007197185421473423,-0.06567768848474995,-1.320649962004811
-0.007195395421473423,-0.06937591333733376,-1.320649962004811
-0.007193605421473423,-0.06197946363216615,-1.320649962004811
-0.007191815421473423,-0.06937591333733376,-1.3169426110237734
-0.007190025421473423,-0.06937591333733376,-1.3243573129858488
-0.007188235421473423,-0.07307413818991755,-1.320649962004811
