100Hz/acq0008.csv

#Digilent WaveForms Oscilloscope Acquisition
#Device Name: Discovery2
#Serial Number: SN:210321AA28BE
#Date Time: 2023-05-24 14:48:30.463
#Sample rate: 558659Hz
#Samples: 8192
#Trigger: Source: Channel 1 Type: Edge Condition: Rising Level: 800 mV Hyst.: Auto HoldOff: 100 ns
#Channel 1: Range: 1 V/div Offset: 0 V Attenuation: 1 X Sample Mode: Average
#Channel 2: Range: 1 V/div Offset: 0 V Attenuation: 1 X Sample Mode: Average

Time (s),Channel 1 (V),Channel 2 (V)
-0.007741657920087394,0.015683258272093638,-1.3169426110237734
-0.007739867920087394,0.019381483124675757,-1.3206499620048093
-0.007738077920087394,0.01938148312467744,-1.320649962004811
-0.007736287920087394,0.01938148312467744,-1.3169426110237734
-0.007734497920087394,0.015683258272093638,-1.3169426110237734
-0.0077327079200873935,0.019381483124675757,-1.320649962004811
-0.007730917920087394,0.015683258272093638,-1.320649962004811
-0.007729127920087394,0.01198503341950984,-1.320649962004811
-0.007727337920087394,0.015683258272093638,-1.320649962004811
-0.007725547920087394,0.01938148312467744,-1.320649962004811
-0.007723757920087394,0.015683258272093638,-1.320649962004811
-0.007721967920087394,0.015683258272093638,-1.320649962004811
-0.007720177920087394,0.015683258272093638,-1.320649962004811
-0.007718387920087394,0.015683258272093638,-1.320649962004811
-0.007716597920087394,0.01938148312467744,-1.3169426110237734
-0.007714807920087394,0.01198503341950984,-1.320649962004811
-0.007713017920087394,0.015683258272093638,-1.320649962004811
-0.007711227920087394,0.015683258272093638,-1.320649962004811
-0.007709437920087394,0.015683258272093638,-1.3169426110237734
-0.007707647920087394,0.01198503341950984,-1.320649962004811
-0.007705857920087394,0.01198503341950984,-1.320649962004811
-0.007704067920087394,0.01198503341950984,-1.320649962004811
-0.007702277920087394,0.01198503341950984,-1.320649962004811
-0.007700487920087394,0.015683258272093638,-1.320649962004811
-0.007698697920087394,0.015683258272093638,-1.320649962004811
-0.007696907920087394,0.00828680856692604,-1.3169426110237734
-0.007695117920087394,0.00828680856692604,-1.3243573129858488
-0.007693327920087394,0.01198503341950984,-1.3169426110237734
-0.007691537920087394,0.00828680856692604,-1.320649962004811
-0.007689747920087394,0.00828680856692604,-1.3169426110237734
-0.007687957920087394,0.01198503341950984,-1.3169426110237734
-0.007686167920087394,0.00828680856692604,-1.3169426110237734
-0.007684377920087394,0.00828680856692604,-1.3169426110237734
-0.007682587920087394,0.01198503341950984,-1.3169426110237734
-0.007680797920087394,0.015683258272093638,-1.3169426110237734
-0.007679007920087394,0.01198503341950984,-1.3169426110237734
-0.007677217920087394,0.00828680856692604,-1.3169426110237734
-0.007675427920087394,0.00458858371434224,-1.320649962004811
-0.007673637920087394,0.00828680856692604,-1.320649962004811
-0.007671847920087394,0.00828680856692604,-1.320649962004811
-0.007670057920087394,0.004588583714343922,-1.320649962004811
-0.007668267920087394,0.00828680856692604,-1.3243573129858488
-0.007666477920087394,0.00828680856692604,-1.320649962004811
-0.007664687920087394,0.01198503341950984,-1.3169426110237734
-0.0076628979200873935,0.00828680856692436,-1.3169426110237734
-0.007661107920087394,0.00458858371434224,-1.3169426110237734
-0.007659317920087394,0.00828680856692604,-1.3169426110237734
-0.007657527920087394,0.00458858371434224,-1.320649962004811
-0.0076557379200873936,0.004588583714340558,-1.3169426110237752
-0.007653947920087394,0.0008903588617584406,-1.320649962004811
-0.007652157920087394,0.00458858371434224,-1.320649962004811
-0.007650367920087394,0.00458858371434224,-1.3243573129858488
-0.007648577920087394,0.0008903588617584406,-1.3243573129858488
-0.007646787920087394,0.0008903588617584406,-1.320649962004811
-0.007644997920087394,0.00828680856692604,-1.320649962004811
-0.007643207920087394,0.0008903588617584406,-1.320649962004811
-0.007641417920087394,0.0008903588617584406,-1.320649962004811
-0.007639627920087394,0.0008903588617584406,-1.3169426110237734
-0.007637837920087394,0.0008903588617584406,-1.3169426110237734
-0.007636047920087394,0.00458858371434224,-1.3169426110237734
-0.007634257920087394,-0.0065060908434091584,-1.3243573129858488
-0.007632467920087394,-0.002807865990825359,-1.3169426110237734
-0.007630677920087394,0.0008903588617584406,-1.3243573129858488
-0.007628887920087394,-0.0065060908434091584,-1.320649962004811
-0.007627097920087394,0.0008903588617584406,-1.320649962004811
-0.007625307920087394,-0.002807865990825359,-1.3169426110237734
-0.007623517920087394,-0.002807865990825359,-1.320649962004811
-0.007621727920087394,-0.002807865990825359,-1.3169426110237734
-0.007619937920087394,0.0008903588617584406,-1.3169426110237734
-0.007618147920087394,-0.0065060908434091584,-1.3169426110237734
-0.007616357920087394,0.0008903588617584406,-1.320649962004811
-0.007614567920087394,-0.002807865990825359,-1.320649962004811
-0.007612777920087394,0.0008903588617584406,-1.320649962004811
-0.007610987920087394,0.0008903588617584406,-1.320649962004811
-0.007609197920087394,-0.002807865990825359,-1.3169426110237734
-0.007607407920087394,-0.0065060908434091584,-1.320649962004811
-0.007605617920087394,-0.0065060908434091584,-1.3243573129858488
-0.007603827920087394,-0.0065060908434091584,-1.320649962004811
-0.007602037920087394,-0.002807865990825359,-1.3169426110237734
-0.007600247920087394,-0.002807865990825359,-1.3132352600427357
-0.007598457920087394,-0.0065060908434091584,-1.320649962004811
-0.007596667920087394,-0.002807865990825359,-1.3132352600427357
-0.007594877920087394,-0.0065060908434091584,-1.320649962004811
-0.007593087920087394,-0.0065060908434091584,-1.320649962004811
-0.007591297920087394,-0.0065060908434091584,-1.320649962004811
-0.007589507920087394,-0.013902540548576758,-1.3169426110237734
-0.007587717920087394,-0.0065060908434091584,-1.3169426110237734
-0.0075859279200873935,-0.0028078659908270407,-1.3169426110237752
-0.007584137920087394,-0.0065060908434091584,-1.320649962004811
-0.007582347920087394,-0.002807865990825359,-1.3132352600427357
-0.007580557920087394,-0.0065060908434091584,-1.3169426110237734
-0.007578767920087394,-0.0065060908434091584,-1.3169426110237734
-0.007576977920087394,-0.0065060908434091584,-1.3132352600427357
-0.007575187920087394,-0.002807865990825359,-1.3169426110237734
-0.007573397920087394,-0.0065060908434091584,-1.3169426110237734
-0.007571607920087394,-0.0065060908434091584,-1.3169426110237734
-0.007569817920087394,-0.0065060908434091584,-1.320649962004811
-0.007568027920087394,-0.010204315695992958,-1.3169426110237734
-0.007566237920087394,-0.0065060908434091584,-1.3169426110237734
-0.007564447920087394,-0.0065060908434091584,-1.3169426110237734
-0.007562657920087394,-0.010204315695992958,-1.3169426110237734
-0.007560867920087394,-0.0065060908434091584,-1.3243573129858488
-0.007559077920087394,-0.0065060908434091584,-1.3132352600427357
-0.007557287920087394,-0.0065060908434091584,-1.3169426110237734
-0.007555497920087394,-0.0065060908434091584,-1.3243573129858488
-0.007553707920087394,-0.013902540548576758,-1.3169426110237734
-0.007551917920087394,-0.010204315695992958,-1.3132352600427357
-0.007550127920087394,-0.0065060908434091584,-1.3169426110237734
-0.007548337920087394,-0.013902540548576758,-1.320649962004811
-0.007546547920087394,-0.017600765401160557,-1.320649962004811
-0.007544757920087394,-0.013902540548576758,-1.320649962004811
-0.007542967920087394,-0.017600765401160557,-1.3243573129858488
-0.007541177920087394,-0.013902540548576758,-1.320649962004811
-0.007539387920087394,-0.013902540548576758,-1.3169426110237734
-0.007537597920087394,-0.021298990253744356,-1.3169426110237734
-0.007535807920087394,-0.017600765401160557,-1.320649962004811
-0.007534017920087394,-0.013902540548576758,-1.320649962004811
-0.007532227920087394,-0.017600765401160557,-1.320649962004811
-0.007530437920087394,-0.0065060908434091584,-1.320649962004811
-0.007528647920087394,-0.013902540548576758,-1.3169426110237734
-0.007526857920087394,-0.017600765401160557,-1.3132352600427357
-0.007525067920087394,-0.021298990253744356,-1.3169426110237734
-0.007523277920087394,-0.021298990253744356,-1.3169426110237734
-0.007521487920087394,-0.017600765401160557,-1.3169426110237734
-0.007519697920087394,-0.013902540548576758,-1.3169426110237734
-0.007517907920087394,-0.021298990253744356,-1.3132352600427357
-0.007516117920087394,-0.021298990253744356,-1.3132352600427357
-0.007514327920087394,-0.017600765401160557,-1.3169426110237734
-0.007512537920087394,-0.017600765401160557,-1.3169426110237734
-0.007510747920087394,-0.021298990253744356,-1.320649962004811
-0.0075089579200873936,-0.017600765401160557,-1.324357312985847
-0.007507167920087394,-0.017600765401160557,-1.320649962004811
-0.007505377920087394,-0.021298990253744356,-1.320649962004811
-0.007503587920087394,-0.021298990253744356,-1.320649962004811
-0.007501797920087394,-0.024997215106328158,-1.320649962004811
-0.007500007920087394,-0.021298990253744356,-1.3169426110237734
-0.007498217920087394,-0.021298990253744356,-1.3169426110237734
-0.007496427920087394,-0.017600765401160557,-1.3169426110237734
-0.007494637920087394,-0.021298990253744356,-1.3169426110237734
-0.007492847920087394,-0.021298990253744356,-1.320649962004811
-0.007491057920087394,-0.024997215106328158,-1.320649962004811
-0.007489267920087394,-0.024997215106328158,-1.3169426110237734
-0.007487477920087394,-0.021298990253744356,-1.320649962004811
-0.007485687920087394,-0.021298990253744356,-1.320649962004811
-0.007483897920087394,-0.021298990253744356,-1.320649962004811
-0.007482107920087394,-0.024997215106328158,-1.320649962004811
-0.007480317920087394,-0.024997215106328158,-1.3169426110237734
-0.007478527920087394,-0.024997215106328158,-1.3169426110237734
-0.007476737920087394,-0.028695439958911956,-1.3169426110237734
-0.007474947920087394,-0.024997215106328158,-1.3169426110237734
-0.007473157920087394,-0.024997215106328158,-1.320649962004811
-0.007471367920087394,-0.024997215106328158,-1.3169426110237734
-0.007469577920087394,-0.028695439958911956,-1.320649962004811
-0.007467787920087394,-0.024997215106328158,-1.3169426110237734
-0.007465997920087394,-0.024997215106328158,-1.3169426110237734
-0.007464207920087394,-0.021298990253744356,-1.3169426110237734
-0.007462417920087394,-0.028695439958911956,-1.3169426110237734
-0.007460627920087394,-0.032393664811495755,-1.3243573129858488
-0.007458837920087394,-0.024997215106328158,-1.320649962004811
-0.007457047920087394,-0.032393664811495755,-1.3169426110237734
-0.007455257920087394,-0.032393664811495755,-1.320649962004811
-0.007453467920087394,-0.028695439958911956,-1.3169426110237734
-0.007451677920087394,-0.028695439958911956,-1.320649962004811
-0.007449887920087394,-0.028695439958911956,-1.320649962004811
-0.007448097920087394,-0.028695439958911956,-1.320649962004811
-0.007446307920087394,-0.028695439958911956,-1.320649962004811
-0.007444517920087394,-0.032393664811495755,-1.3243573129858488
-0.007442727920087394,-0.024997215106328158,-1.3169426110237734
-0.007440937920087394,-0.024997215106328158,-1.3169426110237734
-0.0074391479200873935,-0.024997215106328158,-1.3169426110237734
-0.007437357920087394,-0.024997215106328158,-1.3169426110237734
-0.007435567920087394,-0.028695439958911956,-1.3169426110237734
-0.007433777920087394,-0.032393664811495755,-1.3169426110237734
-0.007431987920087394,-0.032393664811495755,-1.3169426110237734
-0.007430197920087394,-0.032393664811495755,-1.3169426110237734
-0.007428407920087394,-0.032393664811495755,-1.320649962004811
-0.007426617920087394,-0.028695439958911956,-1.3169426110237734
-0.007424827920087394,-0.028695439958911956,-1.3169426110237734
-0.007423037920087394,-0.028695439958911956,-1.3169426110237734
-0.007421247920087394,-0.032393664811495755,-1.3132352600427357
-0.007419457920087394,-0.028695439958911956,-1.320649962004811
-0.007417667920087394,-0.03609188966407956,-1.3169426110237734
-0.007415877920087394,-0.03609188966407956,-1.320649962004811
-0.007414087920087394,-0.032393664811495755,-1.3169426110237734
-0.007412297920087394,-0.03609188966407956,-1.3132352600427357
-0.007410507920087394,-0.03609188966407956,-1.3169426110237734
-0.007408717920087394,-0.028695439958911956,-1.320649962004811
-0.007406927920087394,-0.03609188966407956,-1.3169426110237734
-0.007405137920087394,-0.03609188966407956,-1.320649962004811
-0.007403347920087394,-0.028695439958911956,-1.320649962004811
-0.007401557920087394,-0.032393664811495755,-1.320649962004811
-0.007399767920087394,-0.032393664811495755,-1.320649962004811
-0.007397977920087394,-0.032393664811495755,-1.3169426110237734
-0.007396187920087394,-0.028695439958911956,-1.3169426110237734
-0.007394397920087394,-0.032393664811495755,-1.3169426110237734
-0.007392607920087394,-0.032393664811495755,-1.320649962004811
-0.007390817920087394,-0.032393664811495755,-1.3169426110237734
-0.007389027920087394,-0.03609188966407956,-1.320649962004811
-0.007387237920087394,-0.032393664811495755,-1.3132352600427357
-0.007385447920087394,-0.03609188966407956,-1.3169426110237734
-0.007383657920087394,-0.03609188966407956,-1.320649962004811
-0.007381867920087394,-0.032393664811495755,-1.320649962004811
-0.007380077920087394,-0.03609188966407956,-1.3243573129858488
-0.007378287920087394,-0.03609188966407956,-1.3169426110237734
-0.007376497920087394,-0.032393664811495755,-1.320649962004811
-0.007374707920087394,-0.03609188966407956,-1.320649962004811
-0.007372917920087394,-0.032393664811495755,-1.320649962004811
-0.007371127920087394,-0.032393664811495755,-1.3169426110237734
-0.007369337920087394,-0.032393664811495755,-1.3206499620048093
-0.007367547920087394,-0.03609188966407956,-1.3132352600427357
-0.007365757920087394,-0.043488339369247155,-1.3169426110237734
-0.007363967920087394,-0.03979011451666335,-1.3243573129858488
-0.0073621779200873936,-0.03979011451666167,-1.3243573129858455
-0.007360387920087394,-0.03609188966407956,-1.3169426110237734
-0.007358597920087394,-0.03979011451666335,-1.320649962004811
-0.007356807920087394,-0.03609188966407956,-1.3169426110237734
-0.007355017920087394,-0.03979011451666335,-1.3132352600427357
-0.007353227920087394,-0.043488339369247155,-1.3169426110237734
-0.007351437920087394,-0.03979011451666335,-1.3169426110237734
-0.007349647920087394,-0.03609188966407956,-1.3169426110237734
-0.007347857920087394,-0.032393664811495755,-1.3169426110237734
-0.007346067920087394,-0.03609188966407956,-1.3243573129858488
-0.007344277920087394,-0.032393664811495755,-1.3243573129858488
-0.007342487920087394,-0.03609188966407956,-1.320649962004811
-0.007340697920087394,-0.04718656422183096,-1.320649962004811
-0.007338907920087394,-0.043488339369247155,-1.3132352600427357
-0.007337117920087394,-0.043488339369247155,-1.3169426110237734
-0.007335327920087394,-0.03979011451666335,-1.3169426110237734
-0.007333537920087394,-0.043488339369247155,-1.3169426110237734
-0.007331747920087394,-0.03979011451666335,-1.3132352600427357
-0.007329957920087394,-0.03979011451666335,-1.3169426110237734
-0.007328167920087394,-0.043488339369247155,-1.3169426110237734
-0.007326377920087394,-0.04718656422183096,-1.3169426110237734
-0.007324587920087394,-0.043488339369247155,-1.320649962004811
-0.007322797920087394,-0.03979011451666335,-1.3169426110237734
-0.007321007920087394,-0.043488339369247155,-1.3169426110237734
-0.007319217920087394,-0.043488339369247155,-1.320649962004811
-0.007317427920087394,-0.04718656422183096,-1.320649962004811
-0.007315637920087394,-0.043488339369247155,-1.320649962004811
-0.007313847920087394,-0.043488339369247155,-1.3169426110237734
-0.007312057920087394,-0.03979011451666335,-1.320649962004811
-0.007310267920087394,-0.043488339369247155,-1.3243573129858488
-0.007308477920087394,-0.03979011451666335,-1.3169426110237734
-0.007306687920087394,-0.03979011451666335,-1.320649962004811
-0.007304897920087394,-0.043488339369247155,-1.320649962004811
-0.007303107920087394,-0.03979011451666335,-1.3169426110237734
-0.007301317920087394,-0.043488339369247155,-1.320649962004811
-0.007299527920087394,-0.043488339369247155,-1.320649962004811
-0.007297737920087394,-0.03979011451666335,-1.320649962004811
-0.007295947920087394,-0.043488339369247155,-1.320649962004811
-0.007294157920087394,-0.03979011451666335,-1.320649962004811
-0.0072923679200873935,-0.04348833936925052,-1.3206499620048093
-0.007290577920087394,-0.05088478907441475,-1.3169426110237734
-0.007288787920087394,-0.04718656422183096,-1.3169426110237734
-0.007286997920087394,-0.043488339369247155,-1.3169426110237734
-0.007285207920087394,-0.043488339369245475,-1.3169426110237752
-0.007283417920087394,-0.03979011451666335,-1.320649962004811
-0.007281627920087394,-0.03979011451666335,-1.320649962004811
-0.007279837920087394,-0.03979011451666335,-1.3132352600427357
-0.007278047920087394,-0.043488339369247155,-1.3169426110237734
-0.007276257920087394,-0.04718656422183096,-1.3169426110237734
-0.007274467920087394,-0.04718656422183096,-1.3169426110237734
-0.007272677920087394,-0.04718656422183096,-1.3132352600427357
-0.007270887920087394,-0.04718656422183096,-1.3169426110237734
-0.007269097920087394,-0.05088478907441475,-1.3169426110237734
-0.007267307920087394,-0.05088478907441475,-1.3169426110237734
-0.007265517920087394,-0.054583013926998554,-1.320649962004811
-0.007263727920087394,-0.04718656422183096,-1.3169426110237734
-0.007261937920087394,-0.054583013926998554,-1.3169426110237734
-0.007260147920087394,-0.05088478907441475,-1.320649962004811
-0.007258357920087394,-0.05088478907441475,-1.3132352600427357
-0.007256567920087394,-0.05088478907441475,-1.3169426110237734
-0.007254777920087394,-0.054583013926998554,-1.3169426110237734
-0.007252987920087394,-0.04718656422183096,-1.3169426110237734
-0.007251197920087394,-0.04718656422183096,-1.3169426110237734
-0.007249407920087394,-0.04718656422183096,-1.3169426110237734
-0.007247617920087394,-0.05088478907441475,-1.3169426110237734
-0.007245827920087394,-0.054583013926998554,-1.3132352600427357
-0.007244037920087394,-0.054583013926998554,-1.3243573129858488
-0.007242247920087394,-0.054583013926998554,-1.320649962004811
-0.007240457920087394,-0.05088478907441475,-1.320649962004811
-0.007238667920087394,-0.04718656422183096,-1.320649962004811
-0.007236877920087394,-0.05088478907441475,-1.320649962004811
-0.007235087920087394,-0.04718656422183096,-1.3169426110237734
-0.007233297920087394,-0.054583013926998554,-1.320649962004811
-0.007231507920087394,-0.054583013926998554,-1.3169426110237734
-0.007229717920087394,-0.05828123877958235,-1.3169426110237734
-0.007227927920087394,-0.05088478907441475,-1.3169426110237734
-0.007226137920087394,-0.05088478907441475,-1.3132352600427357
-0.007224347920087394,-0.05088478907441475,-1.3169426110237734
-0.007222557920087394,-0.054583013926996875,-1.3169426110237734
-0.007220767920087394,-0.04718656422183096,-1.320649962004811
-0.007218977920087394,-0.054583013926998554,-1.3243573129858488
-0.007217187920087394,-0.043488339369247155,-1.3169426110237734
-0.0072153979200873936,-0.04718656422183096,-1.3169426110237752
-0.007213607920087394,-0.04718656422183096,-1.320649962004811
-0.007211817920087394,-0.054583013926998554,-1.320649962004811
-0.007210027920087394,-0.054583013926998554,-1.3169426110237734
-0.007208237920087394,-0.054583013926998554,-1.3169426110237734
-0.007206447920087394,-0.054583013926998554,-1.320649962004811
-0.007204657920087394,-0.054583013926998554,-1.320649962004811
-0.007202867920087394,-0.054583013926998554,-1.3169426110237734
-0.007201077920087394,-0.05828123877958235,-1.320649962004811
-0.007199287920087394,-0.054583013926998554,-1.320649962004811
-0.007197497920087394,-0.054583013926998554,-1.3169426110237734
-0.007195707920087394,-0.054583013926998554,-1.3169426110237734
-0.007193917920087394,-0.054583013926998554,-1.3169426110237734
-0.007192127920087394,-0.05088478907441475,-1.3132352600427357
