100Hz/acq0093.csv

#Digilent WaveForms Oscilloscope Acquisition
#Device Name: Discovery2
#Serial Number: SN:210321AA28BE
#Date Time: 2023-05-24 14:48:32.921
#Sample rate: 558659Hz
#Samples: 8192
#Trigger: Source: Channel 1 Type: Edge Condition: Rising Level: 800 mV Hyst.: Auto HoldOff: 100 ns
#Channel 1: Range: 1 V/div Offset: 0 V Attenuation: 1 X Sample Mode: Average
#Channel 2: Range: 1 V/div Offset: 0 V Attenuation: 1 X Sample Mode: Average

Time (s),Channel 1 (V),Channel 2 (V)
-0.007741384923481265,0.05636373165051543,-1.3169426110237734
-0.007739594923481265,0.05636373165051543,-1.3132352600427375
-0.007737804923481265,0.05636373165051543,-1.3169426110237734
-0.007736014923481265,0.05636373165051543,-1.3169426110237734
-0.007734224923481265,0.048967281945347836,-1.320649962004811
-0.007732434923481264,0.05636373165051039,-1.324357312985847
-0.007730644923481265,0.045269057092764034,-1.320649962004811
-0.007728854923481265,0.048967281945347836,-1.3169426110237734
-0.007727064923481265,0.05266550679793163,-1.3169426110237734
-0.007725274923481264,0.048967281945347836,-1.3169426110237734
-0.007723484923481265,0.048967281945347836,-1.3169426110237734
-0.007721694923481265,0.048967281945347836,-1.3169426110237734
-0.007719904923481265,0.045269057092764034,-1.3132352600427357
-0.007718114923481264,0.04157083224018024,-1.320649962004811
-0.007716324923481265,0.048967281945347836,-1.3243573129858488
-0.007714534923481265,0.048967281945347836,-1.320649962004811
-0.007712744923481265,0.045269057092764034,-1.320649962004811
-0.0077109549234812644,0.045269057092764034,-1.320649962004811
-0.007709164923481265,0.04157083224018024,-1.320649962004811
-0.007707374923481265,0.048967281945347836,-1.320649962004811
-0.007705584923481265,0.04157083224018024,-1.3169426110237734
-0.0077037949234812645,0.048967281945347836,-1.3169426110237734
-0.007702004923481265,0.04157083224018024,-1.3169426110237734
-0.007700214923481265,0.04157083224018024,-1.3169426110237734
-0.007698424923481265,0.048967281945347836,-1.3169426110237734
-0.0076966349234812645,0.045269057092764034,-1.3169426110237734
-0.007694844923481265,0.048967281945347836,-1.320649962004811
-0.007693054923481265,0.04157083224018024,-1.320649962004811
-0.007691264923481265,0.045269057092764034,-1.320649962004811
-0.0076894749234812645,0.04157083224018024,-1.320649962004811
-0.007687684923481265,0.04157083224018024,-1.320649962004811
-0.007685894923481265,0.04157083224018024,-1.320649962004811
-0.007684104923481265,0.04157083224018024,-1.3169426110237734
-0.0076823149234812645,0.045269057092764034,-1.3169426110237734
-0.007680524923481265,0.04157083224018024,-1.3169426110237734
-0.007678734923481265,0.03787260738759644,-1.3169426110237734
-0.007676944923481265,0.04157083224018024,-1.3169426110237734
-0.0076751549234812646,0.03787260738759644,-1.3243573129858488
-0.007673364923481265,0.045269057092764034,-1.320649962004811
-0.007671574923481265,0.04157083224018024,-1.3243573129858488
-0.007669784923481265,0.045269057092762355,-1.3206499620048129
-0.007667994923481265,0.03787260738759644,-1.3169426110237734
-0.007666204923481265,0.034174382535012635,-1.320649962004811
-0.007664414923481265,0.04157083224018024,-1.3169426110237734
-0.007662624923481264,0.034174382535014314,-1.320649962004811
-0.007660834923481265,0.03787260738759644,-1.320649962004811
-0.007659044923481265,0.03787260738759644,-1.3132352600427357
-0.007657254923481265,0.04157083224018024,-1.3169426110237734
-0.007655464923481264,0.037872607387598116,-1.320649962004811
-0.007653674923481265,0.04157083224018024,-1.320649962004811
-0.007651884923481265,0.03787260738759644,-1.3169426110237734
-0.007650094923481265,0.04157083224018024,-1.3169426110237734
-0.007648304923481264,0.03787260738759644,-1.320649962004811
-0.007646514923481265,0.034174382535012635,-1.320649962004811
-0.007644724923481265,0.03787260738759644,-1.320649962004811
-0.007642934923481265,0.03787260738759644,-1.3243573129858488
-0.0076411449234812644,0.034174382535012635,-1.320649962004811
-0.007639354923481265,0.03047615768242884,-1.3169426110237734
-0.007637564923481265,0.034174382535012635,-1.320649962004811
-0.007635774923481265,0.03047615768242884,-1.3169426110237734
-0.0076339849234812645,0.03787260738759644,-1.320649962004811
-0.007632194923481265,0.034174382535012635,-1.320649962004811
-0.007630404923481265,0.03047615768242884,-1.3243573129858488
-0.007628614923481265,0.026777932829845037,-1.3169426110237734
-0.0076268249234812645,0.03047615768242884,-1.3169426110237734
-0.007625034923481265,0.03047615768242884,-1.320649962004811
-0.007623244923481265,0.03787260738759644,-1.3169426110237734
-0.007621454923481265,0.034174382535012635,-1.3132352600427357
-0.0076196649234812645,0.026777932829845037,-1.320649962004811
-0.007617874923481265,0.026777932829845037,-1.320649962004811
-0.007616084923481265,0.026777932829845037,-1.320649962004811
-0.007614294923481265,0.026777932829845037,-1.3169426110237734
-0.0076125049234812645,0.026777932829845037,-1.320649962004811
-0.007610714923481265,0.03047615768242884,-1.3243573129858488
-0.007608924923481265,0.026777932829845037,-1.3169426110237734
-0.007607134923481265,0.026777932829845037,-1.3169426110237734
-0.0076053449234812645,0.03047615768242884,-1.3169426110237734
-0.007603554923481265,0.034174382535012635,-1.3132352600427357
-0.007601764923481265,0.03787260738759644,-1.3132352600427357
-0.007599974923481265,0.03047615768242884,-1.3169426110237734
-0.0075981849234812646,0.03047615768242884,-1.3132352600427357
-0.007596394923481265,0.026777932829845037,-1.3132352600427357
-0.007594604923481265,0.02307970797726124,-1.3169426110237734
-0.007592814923481265,0.030476157682425474,-1.3206499620048093
-0.007591024923481265,0.026777932829845037,-1.320649962004811
-0.007589234923481265,0.02307970797726124,-1.320649962004811
-0.007587444923481265,0.026777932829845037,-1.3169426110237734
-0.007585654923481264,0.026777932829845037,-1.320649962004811
-0.007583864923481265,0.026777932829845037,-1.320649962004811
-0.007582074923481265,0.026777932829845037,-1.3169426110237734
-0.007580284923481265,0.02307970797726124,-1.3132352600427357
-0.007578494923481264,0.02307970797726124,-1.320649962004811
-0.007576704923481265,0.02307970797726124,-1.3169426110237734
-0.007574914923481265,0.02307970797726124,-1.3169426110237734
-0.007573124923481265,0.026777932829845037,-1.320649962004811
-0.007571334923481264,0.026777932829845037,-1.3169426110237734
-0.007569544923481265,0.026777932829845037,-1.3169426110237734
-0.007567754923481265,0.026777932829845037,-1.3169426110237734
-0.007565964923481265,0.026777932829845037,-1.3169426110237734
-0.0075641749234812644,0.02307970797726124,-1.320649962004811
-0.007562384923481265,0.02307970797726124,-1.3243573129858488
-0.007560594923481265,0.02307970797726124,-1.320649962004811
-0.007558804923481265,0.026777932829845037,-1.3169426110237734
-0.0075570149234812645,0.01938148312467744,-1.3243573129858488
-0.007555224923481265,0.026777932829845037,-1.320649962004811
-0.007553434923481265,0.02307970797726124,-1.320649962004811
-0.007551644923481265,0.01938148312467744,-1.3132352600427357
-0.0075498549234812645,0.026777932829845037,-1.320649962004811
-0.007548064923481265,0.02307970797726124,-1.320649962004811
-0.007546274923481265,0.02307970797726124,-1.320649962004811
-0.007544484923481265,0.026777932829845037,-1.3169426110237734
-0.0075426949234812645,0.03047615768242884,-1.320649962004811
-0.007540904923481265,0.026777932829845037,-1.3169426110237734
-0.007539114923481265,0.01938148312467744,-1.320649962004811
-0.007537324923481265,0.015683258272093638,-1.3169426110237734
-0.0075355349234812645,0.01938148312467744,-1.320649962004811
-0.007533744923481265,0.01938148312467744,-1.3132352600427357
-0.007531954923481265,0.01938148312467744,-1.320649962004811
-0.007530164923481265,0.02307970797726124,-1.320649962004811
-0.0075283749234812646,0.02307970797726124,-1.3169426110237734
-0.007526584923481265,0.01938148312467744,-1.320649962004811
-0.007524794923481265,0.01938148312467744,-1.3169426110237734
-0.007523004923481265,0.01938148312467744,-1.3206499620048093
-0.007521214923481265,0.015683258272093638,-1.3169426110237734
-0.007519424923481265,0.01938148312467744,-1.3169426110237734
-0.007517634923481265,0.01938148312467744,-1.3169426110237734
-0.007515844923481265,0.01938148312467744,-1.3169426110237734
-0.007514054923481265,0.01938148312467744,-1.320649962004811
-0.007512264923481265,0.01938148312467744,-1.3169426110237734
-0.007510474923481265,0.015683258272093638,-1.320649962004811
-0.007508684923481264,0.01568325827209532,-1.3206499620048093
-0.007506894923481265,0.01938148312467744,-1.3169426110237734
-0.007505104923481265,0.01938148312467744,-1.3169426110237734
-0.007503314923481265,0.01938148312467744,-1.3169426110237734
-0.007501524923481264,0.015683258272093638,-1.320649962004811
-0.007499734923481265,0.00828680856692604,-1.320649962004811
-0.007497944923481265,0.015683258272093638,-1.3169426110237734
-0.007496154923481265,0.015683258272093638,-1.3169426110237734
-0.0074943649234812644,0.02307970797726124,-1.3132352600427357
-0.007492574923481265,0.01938148312467744,-1.320649962004811
-0.007490784923481265,0.01938148312467744,-1.320649962004811
-0.007488994923481265,0.015683258272093638,-1.3169426110237734
-0.0074872049234812645,0.015683258272093638,-1.3169426110237734
-0.007485414923481265,0.01198503341950984,-1.320649962004811
-0.007483624923481265,0.015683258272093638,-1.3169426110237734
-0.007481834923481265,0.015683258272093638,-1.3169426110237734
-0.0074800449234812645,0.01198503341950984,-1.320649962004811
-0.007478254923481265,0.00828680856692604,-1.320649962004811
-0.007476464923481265,0.015683258272093638,-1.3169426110237734
-0.007474674923481265,0.00828680856692604,-1.3169426110237734
-0.0074728849234812645,0.00828680856692604,-1.3132352600427357
-0.007471094923481265,0.00458858371434224,-1.320649962004811
-0.007469304923481265,0.00458858371434224,-1.320649962004811
-0.007467514923481265,0.01198503341950984,-1.3243573129858488
-0.0074657249234812645,0.01198503341950984,-1.320649962004811
-0.007463934923481265,0.00458858371434224,-1.320649962004811
-0.007462144923481265,0.00458858371434224,-1.3169426110237734
-0.007460354923481265,0.00828680856692604,-1.3169426110237734
-0.0074585649234812645,0.00828680856692604,-1.3169426110237734
-0.007456774923481265,0.00828680856692604,-1.320649962004811
-0.007454984923481265,0.00458858371434224,-1.3169426110237734
-0.007453194923481265,0.0008903588617584406,-1.3132352600427357
-0.0074514049234812646,0.00458858371434224,-1.3169426110237734
-0.007449614923481265,0.00828680856692604,-1.3169426110237734
-0.007447824923481265,0.00458858371434224,-1.3169426110237734
-0.007446034923481265,0.00458858371434224,-1.3169426110237734
-0.007444244923481265,0.0008903588617584406,-1.320649962004811
-0.007442454923481265,0.00458858371434224,-1.320649962004811
-0.007440664923481265,0.00828680856692604,-1.3169426110237734
-0.007438874923481264,0.00458858371434224,-1.320649962004811
-0.007437084923481265,0.00458858371434224,-1.320649962004811
-0.007435294923481265,0.01198503341950984,-1.3169426110237734
-0.007433504923481265,0.00458858371434224,-1.320649962004811
-0.007431714923481264,0.00458858371434224,-1.3169426110237734
-0.007429924923481265,0.0008903588617584406,-1.320649962004811
-0.007428134923481265,0.00458858371434224,-1.320649962004811
-0.007426344923481265,0.0008903588617584406,-1.3169426110237734
-0.007424554923481264,0.00458858371434224,-1.320649962004811
-0.007422764923481265,0.00458858371434224,-1.320649962004811
-0.007420974923481265,0.0008903588617584406,-1.320649962004811
-0.007419184923481265,0.0008903588617584406,-1.3169426110237734
-0.0074173949234812644,0.0008903588617584406,-1.320649962004811
-0.007415604923481265,-0.0065060908434091584,-1.320649962004811
-0.007413814923481265,0.0008903588617584406,-1.3243573129858488
-0.007412024923481265,0.00458858371434224,-1.3169426110237734
-0.0074102349234812645,0.00458858371434224,-1.3132352600427357
-0.007408444923481265,0.00828680856692604,-1.3169426110237734
-0.007406654923481265,0.00458858371434224,-1.320649962004811
-0.007404864923481265,0.00458858371434224,-1.3243573129858488
-0.0074030749234812645,0.0008903588617584406,-1.320649962004811
-0.007401284923481265,0.0008903588617584406,-1.3243573129858488
-0.007399494923481265,-0.002807865990825359,-1.320649962004811
-0.007397704923481265,0.0008903588617584406,-1.320649962004811
-0.0073959149234812645,-0.0065060908434091584,-1.3169426110237734
-0.007394124923481265,-0.002807865990825359,-1.320649962004811
-0.007392334923481265,0.0008903588617584406,-1.3169426110237734
-0.007390544923481265,-0.0065060908434091584,-1.3169426110237734
-0.0073887549234812645,-0.002807865990825359,-1.3169426110237734
-0.007386964923481265,-0.0065060908434091584,-1.3169426110237734
-0.007385174923481265,-0.002807865990825359,-1.3169426110237734
-0.007383384923481265,-0.002807865990825359,-1.3169426110237734
-0.0073815949234812646,-0.0065060908434091584,-1.3169426110237734
-0.007379804923481265,-0.0065060908434091584,-1.3243573129858488
-0.007378014923481265,-0.002807865990825359,-1.3169426110237734
-0.007376224923481265,-0.002807865990825359,-1.3169426110237734
-0.007374434923481265,-0.002807865990825359,-1.3169426110237734
-0.007372644923481265,0.0008903588617584406,-1.320649962004811
-0.007370854923481265,0.0008903588617584406,-1.320649962004811
-0.007369064923481265,-0.002807865990823677,-1.320649962004811
-0.007367274923481265,-0.002807865990825359,-1.3169426110237734
-0.007365484923481265,-0.002807865990825359,-1.320649962004811
-0.007363694923481265,-0.002807865990825359,-1.320649962004811
-0.007361904923481264,-0.0065060908434091584,-1.3169426110237767
-0.007360114923481265,-0.0065060908434091584,-1.3243573129858488
-0.007358324923481265,-0.0065060908434091584,-1.320649962004811
-0.007356534923481265,-0.0065060908434091584,-1.3169426110237734
-0.007354744923481264,-0.0065060908434091584,-1.320649962004811
-0.007352954923481265,-0.0065060908434091584,-1.3169426110237734
-0.007351164923481265,-0.0065060908434091584,-1.3132352600427357
-0.007349374923481265,-0.010204315695992958,-1.3169426110237734
-0.0073475849234812644,-0.010204315695992958,-1.320649962004811
-0.007345794923481265,-0.0065060908434091584,-1.3132352600427357
-0.007344004923481265,-0.0065060908434091584,-1.3169426110237734
-0.007342214923481265,-0.0065060908434091584,-1.320649962004811
-0.0073404249234812645,-0.0065060908434091584,-1.3169426110237734
-0.007338634923481265,-0.0065060908434091584,-1.3169426110237734
-0.007336844923481265,-0.0065060908434091584,-1.3132352600427357
-0.007335054923481265,-0.0065060908434091584,-1.3132352600427357
-0.0073332649234812645,-0.0065060908434091584,-1.3132352600427357
-0.007331474923481265,0.0008903588617584406,-1.3169426110237734
-0.007329684923481265,-0.010204315695992958,-1.320649962004811
-0.007327894923481265,-0.010204315695992958,-1.3169426110237734
-0.0073261049234812645,-0.0065060908434091584,-1.3169426110237734
-0.007324314923481265,-0.013902540548576758,-1.320649962004811
-0.007322524923481265,-0.0065060908434091584,-1.320649962004811
-0.007320734923481265,-0.002807865990825359,-1.3169426110237734
-0.0073189449234812645,-0.010204315695992958,-1.320649962004811
-0.007317154923481265,-0.0065060908434091584,-1.3169426110237734
-0.007315364923481265,-0.002807865990825359,-1.3169426110237734
-0.007313574923481265,-0.0065060908434091584,-1.3169426110237734
-0.0073117849234812645,-0.010204315695992958,-1.320649962004811
-0.007309994923481265,-0.010204315695992958,-1.3169426110237734
-0.007308204923481265,-0.010204315695992958,-1.3169426110237734
-0.007306414923481265,-0.002807865990825359,-1.320649962004811
-0.0073046249234812646,-0.0065060908434091584,-1.320649962004811
-0.007302834923481265,-0.017600765401160557,-1.320649962004811
-0.007301044923481265,-0.013902540548576758,-1.320649962004811
-0.007299254923481265,-0.010204315695994639,-1.3169426110237752
-0.007297464923481265,-0.010204315695992958,-1.320649962004811
-0.007295674923481265,-0.010204315695992958,-1.320649962004811
-0.007293884923481265,-0.010204315695992958,-1.320649962004811
-0.007292094923481264,-0.006506090843412522,-1.3169426110237734
-0.007290304923481265,-0.013902540548576758,-1.3169426110237734
-0.007288514923481265,-0.013902540548576758,-1.3169426110237734
-0.007286724923481265,-0.013902540548576758,-1.3132352600427357
-0.007284934923481264,-0.013902540548576758,-1.3206499620048093
-0.007283144923481265,-0.013902540548576758,-1.3169426110237734
-0.007281354923481265,-0.013902540548576758,-1.320649962004811
-0.007279564923481265,-0.010204315695992958,-1.3169426110237734
-0.007277774923481264,-0.013902540548576758,-1.3132352600427357
-0.007275984923481265,-0.010204315695992958,-1.3169426110237734
-0.007274194923481265,-0.017600765401160557,-1.3132352600427357
-0.007272404923481265,-0.013902540548576758,-1.3169426110237734
-0.0072706149234812644,-0.013902540548576758,-1.3132352600427357
-0.007268824923481265,-0.017600765401160557,-1.3169426110237734
-0.007267034923481265,-0.013902540548576758,-1.3169426110237734
-0.007265244923481265,-0.017600765401160557,-1.3169426110237734
-0.0072634549234812645,-0.013902540548576758,-1.320649962004811
-0.007261664923481265,-0.013902540548576758,-1.3169426110237734
-0.007259874923481265,-0.017600765401160557,-1.320649962004811
-0.007258084923481265,-0.013902540548576758,-1.3243573129858488
-0.0072562949234812645,-0.013902540548576758,-1.3169426110237734
-0.007254504923481265,-0.017600765401160557,-1.3169426110237734
-0.007252714923481265,-0.013902540548576758,-1.3132352600427357
-0.007250924923481265,-0.021298990253744356,-1.3132352600427357
-0.0072491349234812645,-0.017600765401160557,-1.3132352600427357
-0.007247344923481265,-0.017600765401160557,-1.3169426110237734
-0.007245554923481265,-0.013902540548576758,-1.3169426110237734
-0.007243764923481265,-0.021298990253744356,-1.3169426110237734
-0.0072419749234812645,-0.013902540548576758,-1.3132352600427357
-0.007240184923481265,-0.013902540548576758,-1.320649962004811
-0.007238394923481265,-0.013902540548576758,-1.3243573129858488
-0.007236604923481265,-0.021298990253744356,-1.320649962004811
-0.0072348149234812646,-0.013902540548576758,-1.320649962004811
-0.007233024923481265,-0.017600765401160557,-1.3243573129858488
-0.007231234923481265,-0.021298990253744356,-1.3169426110237734
-0.007229444923481265,-0.017600765401160557,-1.3132352600427357
-0.007227654923481265,-0.021298990253744356,-1.3169426110237734
-0.007225864923481265,-0.021298990253744356,-1.3169426110237734
-0.007224074923481265,-0.017600765401160557,-1.3132352600427357
-0.007222284923481265,-0.021298990253742673,-1.3169426110237716
-0.007220494923481265,-0.021298990253744356,-1.320649962004811
-0.007218704923481265,-0.021298990253744356,-1.320649962004811
-0.007216914923481265,-0.021298990253744356,-1.320649962004811
-0.007215124923481264,-0.017600765401160557,-1.3206499620048093
-0.007213334923481265,-0.017600765401160557,-1.3169426110237734
-0.007211544923481265,-0.017600765401160557,-1.320649962004811
-0.007209754923481265,-0.017600765401160557,-1.3169426110237734
-0.007207964923481264,-0.021298990253744356,-1.3169426110237734
-0.007206174923481265,-0.021298990253744356,-1.3169426110237734
-0.007204384923481265,-0.021298990253744356,-1.3132352600427357
-0.007202594923481265,-0.021298990253744356,-1.3243573129858488
-0.0072008049234812644,-0.024997215106328158,-1.320649962004811
-0.007199014923481265,-0.024997215106328158,-1.320649962004811
-0.007197224923481265,-0.024997215106328158,-1.320649962004811
-0.007195434923481265,-0.021298990253744356,-1.320649962004811
-0.0071936449234812645,-0.021298990253744356,-1.320649962004811
-0.007191854923481265,-0.024997215106328158,-1.3169426110237734
-0.007190064923481265,-0.028695439958911956,-1.3169426110237734
-0.007188274923481265,-0.021298990253744356,-1.320649962004811
