100Hz/acq0032.csv

#Digilent WaveForms Oscilloscope Acquisition
#Device Name: Discovery2
#Serial Number: SN:210321AA28BE
#Date Time: 2023-05-24 14:48:31.148
#Sample rate: 558659Hz
#Samples: 8192
#Trigger: Source: Channel 1 Type: Edge Condition: Rising Level: 800 mV Hyst.: Auto HoldOff: 100 ns
#Channel 1: Range: 1 V/div Offset: 0 V Attenuation: 1 X Sample Mode: Average
#Channel 2: Range: 1 V/div Offset: 0 V Attenuation: 1 X Sample Mode: Average

Time (s),Channel 1 (V),Channel 2 (V)
-0.007742000577778877,0.015683258272093638,-1.320649962004811
-0.007740210577778877,0.008286808566929404,-1.320649962004811
-0.007738420577778876,0.01938148312467744,-1.3169426110237734
-0.007736630577778876,0.015683258272093638,-1.320649962004811
-0.007734840577778877,0.01938148312467744,-1.320649962004811
-0.007733050577778876,0.023079707977259556,-1.320649962004811
-0.007731260577778876,0.01938148312467744,-1.320649962004811
-0.007729470577778876,0.01938148312467744,-1.3243573129858488
-0.007727680577778877,0.01938148312467744,-1.3243573129858488
-0.007725890577778876,0.01938148312467744,-1.3243573129858488
-0.007724100577778876,0.01198503341950984,-1.3243573129858488
-0.007722310577778876,0.015683258272093638,-1.3169426110237734
-0.007720520577778877,0.015683258272093638,-1.3169426110237734
-0.007718730577778876,0.01198503341950984,-1.3169426110237734
-0.007716940577778876,0.015683258272093638,-1.3169426110237734
-0.0077151505777788764,0.015683258272093638,-1.3169426110237734
-0.007713360577778877,0.01198503341950984,-1.3169426110237734
-0.007711570577778876,0.015683258272093638,-1.320649962004811
-0.007709780577778876,0.00828680856692604,-1.320649962004811
-0.0077079905777788765,0.01198503341950984,-1.320649962004811
-0.007706200577778877,0.015683258272093638,-1.3169426110237734
-0.007704410577778876,0.00828680856692604,-1.3169426110237734
-0.007702620577778876,0.01198503341950984,-1.3132352600427357
-0.0077008305777788765,0.00828680856692604,-1.309527909061698
-0.007699040577778877,0.00828680856692604,-1.309527909061698
-0.007697250577778876,0.00458858371434224,-1.3169426110237734
-0.007695460577778876,0.00828680856692604,-1.3169426110237734
-0.0076936705777788765,0.00828680856692604,-1.3169426110237734
-0.007691880577778877,0.01198503341950984,-1.320649962004811
-0.007690090577778876,0.00828680856692604,-1.3169426110237734
-0.007688300577778876,0.00828680856692604,-1.3169426110237734
-0.0076865105777788765,0.00828680856692604,-1.320649962004811
-0.007684720577778877,0.00458858371434224,-1.3169426110237734
-0.007682930577778876,0.00458858371434224,-1.3243573129858488
-0.007681140577778876,0.0008903588617584406,-1.320649962004811
-0.0076793505777788765,-0.002807865990825359,-1.3243573129858488
-0.007677560577778877,0.00828680856692604,-1.3243573129858488
-0.007675770577778876,0.00458858371434224,-1.3169426110237734
-0.007673980577778876,0.00828680856692604,-1.3169426110237734
-0.0076721905777788766,0.00458858371434224,-1.320649962004811
-0.007670400577778877,0.008286808566924358,-1.320649962004811
-0.007668610577778876,0.00458858371434224,-1.3243573129858488
-0.007666820577778876,0.00458858371434224,-1.3169426110237734
-0.007665030577778877,0.00458858371434224,-1.320649962004811
-0.007663240577778876,0.0008903588617601223,-1.320649962004811
-0.007661450577778876,0.00458858371434224,-1.320649962004811
-0.007659660577778876,0.00458858371434224,-1.320649962004811
-0.007657870577778877,0.00458858371434224,-1.320649962004811
-0.007656080577778876,0.00458858371434224,-1.3206499620048093
-0.007654290577778876,0.00458858371434224,-1.3169426110237734
-0.007652500577778876,0.0008903588617584406,-1.3169426110237734
-0.007650710577778877,0.0008903588617584406,-1.3169426110237734
-0.007648920577778876,0.0008903588617584406,-1.3169426110237734
-0.007647130577778876,0.0008903588617584406,-1.320649962004811
-0.007645340577778876,0.00458858371434224,-1.3169426110237734
-0.007643550577778877,-0.002807865990825359,-1.3169426110237734
-0.007641760577778876,0.0008903588617584406,-1.320649962004811
-0.007639970577778876,0.00458858371434224,-1.320649962004811
-0.0076381805777788764,0.00458858371434224,-1.320649962004811
-0.007636390577778877,-0.002807865990825359,-1.320649962004811
-0.007634600577778876,-0.002807865990825359,-1.320649962004811
-0.007632810577778876,-0.0065060908434091584,-1.3169426110237734
-0.0076310205777788765,-0.002807865990825359,-1.3169426110237734
-0.007629230577778877,-0.0065060908434091584,-1.3243573129858488
-0.007627440577778876,0.0008903588617584406,-1.320649962004811
-0.007625650577778876,-0.002807865990825359,-1.320649962004811
-0.0076238605777788765,-0.0065060908434091584,-1.320649962004811
-0.007622070577778877,0.00458858371434224,-1.320649962004811
-0.007620280577778876,0.0008903588617584406,-1.3243573129858488
-0.007618490577778876,-0.002807865990825359,-1.3169426110237734
-0.0076167005777788765,-0.010204315695992958,-1.320649962004811
-0.007614910577778877,-0.002807865990825359,-1.3132352600427357
-0.007613120577778876,-0.002807865990825359,-1.3169426110237734
-0.007611330577778876,-0.002807865990825359,-1.3169426110237734
-0.0076095405777788765,-0.0065060908434091584,-1.3169426110237734
-0.007607750577778877,-0.010204315695992958,-1.320649962004811
-0.007605960577778876,-0.010204315695992958,-1.3169426110237734
-0.007604170577778876,-0.010204315695992958,-1.3169426110237734
-0.0076023805777788766,-0.0065060908434091584,-1.320649962004811
-0.007600590577778877,-0.002807865990825359,-1.320649962004811
-0.007598800577778876,-0.002807865990825359,-1.320649962004811
-0.007597010577778876,-0.0065060908434091584,-1.3243573129858488
-0.007595220577778877,-0.0065060908434091584,-1.320649962004811
-0.007593430577778877,-0.0065060908434091584,-1.320649962004811
-0.007591640577778876,-0.002807865990825359,-1.3169426110237734
-0.007589850577778876,-0.0065060908434091584,-1.320649962004811
-0.007588060577778877,-0.010204315695992958,-1.3169426110237734
-0.007586270577778876,-0.013902540548576758,-1.3206499620048093
-0.007584480577778876,-0.013902540548576758,-1.3169426110237734
-0.007582690577778876,-0.010204315695992958,-1.320649962004811
-0.007580900577778877,-0.010204315695992958,-1.3243573129858488
-0.007579110577778876,-0.010204315695992958,-1.3169426110237734
-0.007577320577778876,-0.010204315695992958,-1.3243573129858488
-0.007575530577778876,-0.010204315695992958,-1.320649962004811
-0.007573740577778877,-0.010204315695992958,-1.3169426110237734
-0.007571950577778876,-0.013902540548576758,-1.3169426110237734
-0.007570160577778876,-0.010204315695992958,-1.3243573129858488
-0.0075683705777788764,-0.013902540548576758,-1.3169426110237734
-0.007566580577778877,-0.013902540548576758,-1.320649962004811
-0.007564790577778876,-0.013902540548576758,-1.320649962004811
-0.007563000577778876,-0.013902540548576758,-1.3243573129858488
-0.0075612105777788765,-0.0065060908434091584,-1.320649962004811
-0.007559420577778877,-0.0065060908434091584,-1.320649962004811
-0.007557630577778876,-0.017600765401160557,-1.320649962004811
-0.007555840577778876,-0.010204315695992958,-1.3169426110237734
-0.0075540505777788765,-0.017600765401160557,-1.3169426110237734
-0.007552260577778877,-0.021298990253744356,-1.3169426110237734
-0.007550470577778876,-0.017600765401160557,-1.3169426110237734
-0.007548680577778876,-0.013902540548576758,-1.3169426110237734
-0.0075468905777788765,-0.013902540548576758,-1.3169426110237734
-0.007545100577778877,-0.017600765401160557,-1.320649962004811
-0.007543310577778876,-0.013902540548576758,-1.3243573129858488
-0.007541520577778876,-0.017600765401160557,-1.3169426110237734
-0.0075397305777788765,-0.021298990253744356,-1.320649962004811
-0.007537940577778877,-0.024997215106328158,-1.3169426110237734
-0.007536150577778876,-0.021298990253744356,-1.3169426110237734
-0.007534360577778876,-0.021298990253744356,-1.3243573129858488
-0.0075325705777788765,-0.017600765401160557,-1.320649962004811
-0.007530780577778877,-0.021298990253744356,-1.3243573129858488
-0.007528990577778876,-0.017600765401160557,-1.3243573129858488
-0.007527200577778876,-0.017600765401160557,-1.3243573129858488
-0.0075254105777788766,-0.017600765401160557,-1.3243573129858488
-0.007523620577778877,-0.017600765401160557,-1.3206499620048129
-0.007521830577778876,-0.021298990253744356,-1.3243573129858488
-0.007520040577778876,-0.017600765401160557,-1.320649962004811
-0.007518250577778877,-0.021298990253744356,-1.3169426110237734
-0.007516460577778877,-0.024997215106326475,-1.3206499620048093
-0.007514670577778876,-0.024997215106328158,-1.320649962004811
-0.007512880577778876,-0.021298990253744356,-1.320649962004811
-0.007511090577778877,-0.021298990253744356,-1.3169426110237734
-0.007509300577778876,-0.017600765401160557,-1.3206499620048093
-0.007507510577778876,-0.017600765401160557,-1.3169426110237734
-0.007505720577778876,-0.024997215106328158,-1.320649962004811
-0.007503930577778877,-0.028695439958911956,-1.320649962004811
-0.007502140577778876,-0.024997215106328158,-1.3169426110237734
-0.007500350577778876,-0.024997215106328158,-1.320649962004811
-0.007498560577778876,-0.021298990253744356,-1.320649962004811
-0.007496770577778877,-0.021298990253744356,-1.320649962004811
-0.007494980577778876,-0.021298990253744356,-1.3132352600427357
-0.007493190577778876,-0.024997215106328158,-1.3169426110237734
-0.0074914005777788764,-0.021298990253744356,-1.3169426110237734
-0.007489610577778877,-0.024997215106328158,-1.320649962004811
-0.007487820577778876,-0.024997215106328158,-1.3243573129858488
-0.007486030577778876,-0.024997215106328158,-1.320649962004811
-0.0074842405777788765,-0.028695439958911956,-1.3169426110237734
-0.007482450577778877,-0.024997215106328158,-1.320649962004811
-0.007480660577778876,-0.028695439958911956,-1.3169426110237734
-0.007478870577778876,-0.024997215106328158,-1.320649962004811
-0.0074770805777788765,-0.021298990253744356,-1.3169426110237734
-0.007475290577778877,-0.024997215106328158,-1.320649962004811
-0.007473500577778876,-0.028695439958911956,-1.3169426110237734
-0.007471710577778876,-0.024997215106328158,-1.3169426110237734
-0.0074699205777788765,-0.028695439958911956,-1.3132352600427357
-0.007468130577778877,-0.024997215106328158,-1.3169426110237734
-0.007466340577778876,-0.028695439958911956,-1.3169426110237734
-0.007464550577778876,-0.021298990253744356,-1.3169426110237734
-0.0074627605777788765,-0.028695439958911956,-1.320649962004811
-0.007460970577778877,-0.024997215106328158,-1.320649962004811
-0.007459180577778876,-0.028695439958911956,-1.3169426110237734
-0.007457390577778876,-0.024997215106328158,-1.320649962004811
-0.0074556005777788766,-0.028695439958911956,-1.3132352600427357
-0.007453810577778877,-0.028695439958911956,-1.3169426110237734
-0.007452020577778876,-0.028695439958911956,-1.3169426110237734
-0.007450230577778876,-0.032393664811495755,-1.3132352600427357
-0.007448440577778877,-0.03609188966407956,-1.3132352600427357
-0.007446650577778877,-0.02869543995891532,-1.3206499620048078
-0.007444860577778876,-0.032393664811495755,-1.3169426110237734
-0.007443070577778876,-0.028695439958911956,-1.320649962004811
-0.007441280577778877,-0.03979011451666335,-1.3169426110237734
-0.007439490577778876,-0.032393664811495755,-1.3169426110237752
-0.007437700577778876,-0.032393664811495755,-1.320649962004811
-0.007435910577778876,-0.032393664811495755,-1.320649962004811
-0.007434120577778877,-0.028695439958911956,-1.320649962004811
-0.007432330577778876,-0.032393664811495755,-1.320649962004811
-0.007430540577778876,-0.028695439958911956,-1.320649962004811
-0.007428750577778876,-0.032393664811495755,-1.3169426110237734
-0.007426960577778877,-0.024997215106328158,-1.320649962004811
-0.007425170577778876,-0.032393664811495755,-1.320649962004811
-0.007423380577778876,-0.03609188966407956,-1.3169426110237734
-0.0074215905777788764,-0.03609188966407956,-1.320649962004811
-0.007419800577778877,-0.03609188966407956,-1.320649962004811
-0.007418010577778876,-0.03609188966407956,-1.320649962004811
-0.007416220577778876,-0.03609188966407956,-1.320649962004811
-0.0074144305777788765,-0.03609188966407956,-1.320649962004811
-0.007412640577778877,-0.03609188966407956,-1.3169426110237734
-0.007410850577778876,-0.03979011451666335,-1.3169426110237734
-0.007409060577778876,-0.03609188966407956,-1.3169426110237734
-0.0074072705777788765,-0.03609188966407956,-1.3169426110237734
-0.007405480577778877,-0.03979011451666335,-1.3169426110237734
-0.007403690577778876,-0.03979011451666335,-1.3169426110237734
-0.007401900577778876,-0.03609188966407956,-1.3169426110237734
-0.0074001105777788765,-0.032393664811495755,-1.320649962004811
-0.007398320577778877,-0.03979011451666335,-1.3243573129858488
-0.007396530577778876,-0.032393664811495755,-1.320649962004811
-0.007394740577778876,-0.03609188966407956,-1.3169426110237734
-0.0073929505777788765,-0.03609188966407956,-1.3169426110237734
-0.007391160577778877,-0.03609188966407956,-1.320649962004811
-0.007389370577778876,-0.032393664811495755,-1.3169426110237734
-0.007387580577778876,-0.03609188966407956,-1.3169426110237734
-0.0073857905777788765,-0.032393664811495755,-1.3169426110237734
-0.007384000577778877,-0.03609188966407956,-1.320649962004811
-0.007382210577778876,-0.03979011451666335,-1.3169426110237734
-0.007380420577778876,-0.03979011451666335,-1.3169426110237734
-0.0073786305777788766,-0.032393664811495755,-1.3243573129858488
-0.007376840577778877,-0.03979011451666335,-1.320649962004811
-0.007375050577778876,-0.043488339369247155,-1.320649962004811
-0.007373260577778876,-0.03609188966407956,-1.320649962004811
-0.007371470577778877,-0.03609188966407956,-1.3169426110237734
-0.007369680577778877,-0.04348833936924379,-1.3243573129858455
-0.007367890577778876,-0.043488339369247155,-1.320649962004811
-0.007366100577778876,-0.03979011451666335,-1.320649962004811
-0.007364310577778877,-0.043488339369247155,-1.320649962004811
-0.007362520577778876,-0.03609188966407788,-1.3169426110237752
-0.007360730577778876,-0.032393664811495755,-1.320649962004811
-0.007358940577778876,-0.043488339369247155,-1.320649962004811
-0.007357150577778877,-0.043488339369247155,-1.3169426110237734
-0.007355360577778876,-0.03979011451666335,-1.3132352600427357
-0.007353570577778876,-0.03979011451666335,-1.3169426110237734
-0.007351780577778876,-0.03979011451666335,-1.320649962004811
-0.007349990577778877,-0.03979011451666335,-1.3169426110237734
-0.007348200577778876,-0.03979011451666335,-1.320649962004811
-0.007346410577778876,-0.03979011451666335,-1.3169426110237734
-0.0073446205777788764,-0.03979011451666335,-1.3169426110237734
-0.007342830577778877,-0.043488339369247155,-1.3132352600427357
-0.007341040577778876,-0.04718656422183096,-1.320649962004811
-0.007339250577778876,-0.04718656422183096,-1.3132352600427357
-0.0073374605777788765,-0.043488339369247155,-1.3169426110237734
-0.007335670577778877,-0.043488339369247155,-1.3169426110237734
-0.007333880577778876,-0.043488339369247155,-1.320649962004811
-0.007332090577778876,-0.03979011451666335,-1.3243573129858488
-0.0073303005777788765,-0.04718656422183096,-1.3169426110237734
-0.007328510577778877,-0.043488339369247155,-1.3169426110237734
-0.007326720577778876,-0.043488339369247155,-1.320649962004811
-0.007324930577778876,-0.04718656422183096,-1.320649962004811
-0.0073231405777788765,-0.043488339369247155,-1.3169426110237734
-0.007321350577778877,-0.043488339369247155,-1.3132352600427357
-0.007319560577778876,-0.043488339369247155,-1.3243573129858488
-0.007317770577778876,-0.043488339369247155,-1.320649962004811
-0.0073159805777788765,-0.04718656422183096,-1.3169426110237734
-0.007314190577778877,-0.04718656422183096,-1.3169426110237734
-0.007312400577778876,-0.043488339369247155,-1.320649962004811
-0.007310610577778876,-0.043488339369247155,-1.3169426110237734
-0.0073088205777788766,-0.043488339369247155,-1.3169426110237734
-0.007307030577778877,-0.04718656422183096,-1.3169426110237734
-0.007305240577778876,-0.05088478907441475,-1.320649962004811
-0.007303450577778876,-0.043488339369247155,-1.3243573129858488
-0.007301660577778877,-0.03979011451666335,-1.320649962004811
-0.007299870577778877,-0.043488339369245475,-1.3169426110237752
-0.007298080577778876,-0.04718656422183096,-1.320649962004811
-0.007296290577778876,-0.05088478907441475,-1.3169426110237734
-0.007294500577778877,-0.04718656422183096,-1.320649962004811
-0.007292710577778876,-0.043488339369248834,-1.3243573129858488
-0.007290920577778876,-0.04718656422183096,-1.3243573129858488
-0.007289130577778876,-0.043488339369247155,-1.3169426110237734
-0.007287340577778877,-0.04718656422183096,-1.320649962004811
-0.007285550577778876,-0.047186564221832636,-1.320649962004811
-0.007283760577778876,-0.05088478907441475,-1.320649962004811
-0.007281970577778876,-0.04718656422183096,-1.3169426110237734
-0.007280180577778877,-0.04718656422183096,-1.320649962004811
-0.007278390577778876,-0.043488339369247155,-1.3169426110237734
-0.007276600577778876,-0.04718656422183096,-1.3169426110237734
-0.0072748105777788764,-0.05088478907441475,-1.3243573129858488
-0.007273020577778877,-0.05088478907441475,-1.3243573129858488
-0.007271230577778876,-0.04718656422183096,-1.320649962004811
-0.007269440577778876,-0.043488339369247155,-1.320649962004811
-0.0072676505777788765,-0.04718656422183096,-1.320649962004811
-0.007265860577778877,-0.04718656422183096,-1.3169426110237734
-0.007264070577778876,-0.05088478907441475,-1.3169426110237734
-0.007262280577778876,-0.05088478907441475,-1.320649962004811
-0.0072604905777788765,-0.05088478907441475,-1.320649962004811
-0.007258700577778877,-0.05088478907441475,-1.3169426110237734
-0.007256910577778876,-0.05088478907441475,-1.3169426110237734
-0.007255120577778876,-0.05088478907441475,-1.3243573129858488
-0.0072533305777788765,-0.043488339369247155,-1.3132352600427357
-0.007251540577778877,-0.03979011451666335,-1.3169426110237734
-0.007249750577778876,-0.05088478907441475,-1.320649962004811
-0.007247960577778876,-0.04718656422183096,-1.320649962004811
-0.0072461705777788765,-0.04718656422183096,-1.320649962004811
-0.007244380577778877,-0.05088478907441475,-1.3169426110237734
-0.007242590577778876,-0.05088478907441475,-1.320649962004811
-0.007240800577778876,-0.05828123877958235,-1.3169426110237734
-0.0072390105777788765,-0.05088478907441475,-1.3132352600427357
-0.007237220577778877,-0.05088478907441475,-1.3169426110237734
-0.007235430577778876,-0.05088478907441475,-1.3169426110237734
-0.007233640577778876,-0.05088478907441475,-1.3243573129858488
-0.0072318505777788766,-0.05088478907441475,-1.320649962004811
-0.007230060577778877,-0.054583013926998554,-1.3169426110237734
-0.007228270577778876,-0.05088478907441475,-1.3169426110237734
-0.007226480577778876,-0.05088478907441475,-1.3169426110237734
-0.007224690577778877,-0.05088478907441475,-1.320649962004811
-0.007222900577778877,-0.05088478907441475,-1.3169426110237752
-0.007221110577778876,-0.054583013926998554,-1.3169426110237734
-0.007219320577778876,-0.05088478907441475,-1.3169426110237734
-0.007217530577778877,-0.05088478907441475,-1.320649962004811
-0.007215740577778876,-0.05088478907441643,-1.3206499620048093
-0.007213950577778876,-0.054583013926998554,-1.3169426110237734
-0.007212160577778876,-0.054583013926998554,-1.320649962004811
-0.007210370577778877,-0.05828123877958235,-1.320649962004811
-0.007208580577778876,-0.054583013926998554,-1.320649962004811
-0.007206790577778876,-0.054583013926998554,-1.3169426110237734
-0.007205000577778876,-0.054583013926998554,-1.3169426110237734
-0.007203210577778877,-0.054583013926998554,-1.3169426110237734
-0.007201420577778876,-0.054583013926998554,-1.320649962004811
-0.007199630577778876,-0.054583013926998554,-1.320649962004811
-0.0071978405777788764,-0.04718656422183096,-1.3169426110237734
-0.007196050577778877,-0.054583013926998554,-1.320649962004811
-0.007194260577778876,-0.054583013926998554,-1.320649962004811
-0.007192470577778876,-0.05088478907441475,-1.3169426110237734
-0.0071906805777788765,-0.054583013926998554,-1.320649962004811
